#
#                              ======================
#                              | THE SUSYHIT OUTPUT |
#                              ======================
#
#
#              ------------------------------------------------------
#              |     This is the output of the SUSY-HIT package     |
#              |  created by A.Djouadi, M.Muehlleitner and M.Spira. |
#              |  In case of problems with SUSY-HIT email to        |
#              |           margarete.muehlleitner@cern.ch           |
#              |           michael.spira@psi.ch                     |
#              |           abdelhak.djouadi@cern.ch                 |
#              ------------------------------------------------------
#
#              ------------------------------------------------------
#              |  SUSY Les Houches Accord - MSSM Spectrum + Decays  |
#              |              based on the decay programs           |
#              |                                                    |
#              |                     SDECAY 1.3b                    |
#              |                                                    |
#              |  Authors: M.Muhlleitner, A.Djouadi and Y.Mambrini  |
#              |  Ref.:    Comput.Phys.Commun.168(2005)46           |
#              |           [hep-ph/0311167]                         |
#              |                                                    |
#              |                     HDECAY 3.4                     |
#              |                                                    |
#              |  By: A.Djouadi,J.Kalinowski,M.Muhlleitner,M.Spira  |
#              |  Ref.:    Comput.Phys.Commun.108(1998)56           |
#              |           [hep-ph/9704448]                         |
#              |                                                    |
#              |                                                    |
#              |  If not stated otherwise all DRbar couplings and   |
#              |  soft SUSY breaking masses are given at the scale  |
#              |  Q=  0.18092080E+04
#              |                                                    |
#              ------------------------------------------------------
#
#
BLOCK DCINFO  # Decay Program information
     1   SDECAY/HDECAY # decay calculator
     2   1.3b  /3.4    # version number
#
BLOCK SPINFO  # Spectrum calculator information
     1     SOFTSUSY    # spectrum calculator               
     2     3.4.0       # version number                    
#
BLOCK MODSEL  # Model selection
     1     0   #  nonUniversal                                     
#
BLOCK SMINPUTS  # Standard Model inputs
         1     1.27908970E+02   # alpha_em^-1(M_Z)^MSbar
         2     1.16637870E-05   # G_F [GeV^-2]
         3     1.18400000E-01   # alpha_S(M_Z)^MSbar
         4     9.11876000E+01   # M_Z pole mass
         5     4.18000000E+00   # mb(mb)^MSbar
         6     1.73200000E+02   # mt pole mass
         7     1.77700000E+00   # mtau pole mass
#
BLOCK MINPAR  # Input parameters - minimal models
         3     2.02300000E+01   # tanb                
#
BLOCK EXTPAR  # Input parameters - non-minimal models
         0    -1.00000000E+00   # Set                 
         1     6.87520000E+02   # M_1(MX)             
         2    -1.51565000E+03   # M_2(MX)             
         3     2.42758000E+03   # M_3(MX)             
        11    -3.75921000E+03   # At(MX)              
        12     3.88017000E+03   # Ab(MX)              
        13    -6.08890000E+02   # Atau(MX)            
        23     3.40212000E+03   # mu(MX)              
        26     1.53909000E+03   # mA(pole)            
        31     1.46378000E+03   # meL(MX)             
        32     1.46378000E+03   # mmuL(MX)            
        33     1.17430000E+03   # mtauL(MX)           
        34     1.06570000E+03   # meR(MX)             
        35     1.06570000E+03   # mmuR(MX)            
        36     3.90410000E+03   # mtauR(MX)           
        41     9.07330000E+02   # mqL1(MX)            
        42     9.07330000E+02   # mqL2(MX)            
        43     9.58250000E+02   # mqL3(MX)            
        44     3.07596000E+03   # muR(MX)             
        45     3.07596000E+03   # mcR(MX)             
        46     3.42998000E+03   # mtR(MX)             
        47     2.36437000E+03   # mdR(MX)             
        48     2.36437000E+03   # msR(MX)             
        49     6.95550000E+02   # mbR(MX)             
#
BLOCK MASS  # Mass Spectrum
# PDG code           mass       particle
        24     8.03832487E+01   # W+
        25     1.27178311E+02   # h
        35     1.53871247E+03   # H
        36     1.53909000E+03   # A
        37     1.54048402E+03   # H+
         5     4.81876030E+00   # b-quark pole mass calculated from mb(mb)_Msbar
   1000001     1.00535231E+03   # ~d_L
   2000001     2.42624870E+03   # ~d_R
   1000002     1.00233443E+03   # ~u_L
   2000002     3.12085819E+03   # ~u_R
   1000003     1.00535231E+03   # ~s_L
   2000003     2.42624870E+03   # ~s_R
   1000004     1.00233443E+03   # ~c_L
   2000004     3.12085819E+03   # ~c_R
   1000005     7.56973369E+02   # ~b_1
   2000005     1.07970726E+03   # ~b_2
   1000006     1.06194778E+03   # ~t_1
   2000006     3.42638568E+03   # ~t_2
   1000011     1.47926031E+03   # ~e_L
   2000011     1.06670622E+03   # ~e_R
   1000012     1.47689930E+03   # ~nu_eL
   1000013     1.47926031E+03   # ~mu_L
   2000013     1.06670622E+03   # ~mu_R
   1000014     1.47689930E+03   # ~nu_muL
   1000015     1.19263769E+03   # ~tau_1
   2000015     3.90557014E+03   # ~tau_2
   1000016     1.19017411E+03   # ~nu_tauL
   1000021     2.47967924E+03   # ~g
   1000022     6.85214221E+02   # ~chi_10
   1000023    -1.50211602E+03   # ~chi_20
   1000025     3.42707105E+03   # ~chi_30
   1000035    -3.42765749E+03   # ~chi_40
   1000024     1.50228104E+03   # ~chi_1+
   1000037     3.42830140E+03   # ~chi_2+
#
BLOCK NMIX  # Neutralino Mixing Matrix
  1  1     9.99902785E-01   # N_11
  1  2     1.72767637E-04   # N_12
  1  3     1.34889856E-02   # N_13
  1  4    -3.52672433E-03   # N_14
  2  1     1.61143585E-04   # N_21
  2  2     9.99564509E-01   # N_22
  2  3    -2.75271600E-02   # N_23
  2  4    -1.06311534E-02   # N_24
  3  1     1.20326789E-02   # N_31
  3  2    -1.19498369E-02   # N_32
  3  3    -7.06929911E-01   # N_33
  3  4     7.07080276E-01   # N_34
  4  1    -7.04336833E-03   # N_41
  4  2     2.69807983E-02   # N_42
  4  3     7.06618995E-01   # N_43
  4  4     7.07044570E-01   # N_44
#
BLOCK UMIX  # Chargino Mixing Matrix U
  1  1     9.99250775E-01   # U_11
  1  2    -3.87025711E-02   # U_12
  2  1     3.87025711E-02   # U_21
  2  2     9.99250775E-01   # U_22
#
BLOCK VMIX  # Chargino Mixing Matrix V
  1  1    -9.99891047E-01   # V_11
  1  2    -1.47612677E-02   # V_12
  2  1    -1.47612677E-02   # V_21
  2  2     9.99891047E-01   # V_22
#
BLOCK STOPMIX  # Stop Mixing Matrix
  1  1     9.98580567E-01   # cos(theta_t)
  1  2     5.32620992E-02   # sin(theta_t)
  2  1    -5.32620992E-02   # -sin(theta_t)
  2  2     9.98580567E-01   # cos(theta_t)
#
BLOCK SBOTMIX  # Sbottom Mixing Matrix
  1  1     1.90629000E-01   # cos(theta_b)
  1  2     9.81662154E-01   # sin(theta_b)
  2  1    -9.81662154E-01   # -sin(theta_b)
  2  2     1.90629000E-01   # cos(theta_b)
#
BLOCK STAUMIX  # Stau Mixing Matrix
  1  1     9.99967394E-01   # cos(theta_tau)
  1  2     8.07532890E-03   # sin(theta_tau)
  2  1    -8.07532890E-03   # -sin(theta_tau)
  2  2     9.99967394E-01   # cos(theta_tau)
#
BLOCK ALPHA  # Higgs mixing
          -5.15838273E-02   # Mixing angle in the neutral Higgs boson sector
#
BLOCK HMIX Q=  1.80920800E+03  # DRbar Higgs Parameters
         1     3.43576986E+03   # mu(Q)MSSM           
         2     1.94568887E+01   # tan                 
         3     2.43885255E+02   # higgs               
         4     4.83953081E+06   # mA^2(Q)MSSM         
#
BLOCK GAUGE Q=  1.80920800E+03  # The gauge couplings
     1     3.63137902E-01   # gprime(Q) DRbar
     2     6.37037949E-01   # g(Q) DRbar
     3     1.02890916E+00   # g3(Q) DRbar
#
BLOCK AU Q=  1.80920800E+03  # The trilinear couplings
  1  1     0.00000000E+00   # A_u(Q) DRbar
  2  2     0.00000000E+00   # A_c(Q) DRbar
  3  3    -3.75920999E+03   # A_t(Q) DRbar
#
BLOCK AD Q=  1.80920800E+03  # The trilinear couplings
  1  1     0.00000000E+00   # A_d(Q) DRbar
  2  2     0.00000000E+00   # A_s(Q) DRbar
  3  3     3.88017000E+03   # A_b(Q) DRbar
#
BLOCK AE Q=  1.80920800E+03  # The trilinear couplings
  1  1     0.00000000E+00   # A_e(Q) DRbar
  2  2     0.00000000E+00   # A_mu(Q) DRbar
  3  3    -6.08890000E+02   # A_tau(Q) DRbar
#
BLOCK Yu Q=  1.80920800E+03  # The Yukawa couplings
  1  1     0.00000000E+00   # y_u(Q) DRbar
  2  2     0.00000000E+00   # y_c(Q) DRbar
  3  3     8.23635598E-01   # y_t(Q) DRbar
#
BLOCK Yd Q=  1.80920800E+03  # The Yukawa couplings
  1  1     0.00000000E+00   # y_d(Q) DRbar
  2  2     0.00000000E+00   # y_s(Q) DRbar
  3  3     1.84677735E-01   # y_b(Q) DRbar
#
BLOCK Ye Q=  1.80920800E+03  # The Yukawa couplings
  1  1     0.00000000E+00   # y_e(Q) DRbar
  2  2     0.00000000E+00   # y_mu(Q) DRbar
  3  3     1.88487675E-01   # y_tau(Q) DRbar
#
BLOCK MSOFT Q=  1.80920800E+03  # The soft SUSY breaking masses at the scale Q
         1     6.87520000E+02   # M_1(Q)              
         2    -1.51565000E+03   # M_2(Q)              
         3     2.42758000E+03   # M_3(Q)              
        21    -9.45676826E+06   # mH1^2(Q)            
        22    -1.18603060E+07   # mH2^2(Q)            
        31     1.46378000E+03   # meL(Q)              
        32     1.46378000E+03   # mmuL(Q)             
        33     1.17430000E+03   # mtauL(Q)            
        34     1.06570000E+03   # meR(Q)              
        35     1.06570000E+03   # mmuR(Q)             
        36     3.90410000E+03   # mtauR(Q)            
        41     9.07329991E+02   # mqL1(Q)             
        42     9.07329991E+02   # mqL2(Q)             
        43     9.58249982E+02   # mqL3(Q)             
        44     3.07596000E+03   # muR(Q)              
        45     3.07596000E+03   # mcR(Q)              
        46     3.42997999E+03   # mtR(Q)              
        47     2.36437000E+03   # mdR(Q)              
        48     2.36437000E+03   # msR(Q)              
        49     6.95549989E+02   # mbR(Q)              
#
Block HiggsBoundsInputHiggsCouplingsFermions
# ScalarNormEffCoupSq PseudoSNormEffCoupSq NP   IP1 IP2 IP2
    1.00910035E+00    0.00000000E+00        3  25   5   5  # h0-b-b eff. coupling^2, normalised to SM
    3.78561418E+02    0.00000000E+00        3  35   5   5  # H0-b-b eff. coupling^2, normalised to SM
    0.00000000E+00    3.78570518E+02        3  36   5   5  # A0-b-b eff. coupling^2, normalised to SM
#
    9.99975961E-01    0.00000000E+00        3  25   6   6  # h0-t-t eff. coupling^2, normalised to SM
    2.66555452E-03    0.00000000E+00        3  35   6   6  # H0-t-t eff. coupling^2, normalised to SM
    0.00000000E+00    2.64151579E-03        3  36   6   6  # A0-t-t eff. coupling^2, normalised to SM
#
    1.00910035E+00    0.00000000E+00        3  25  15  15  # h0-tau-tau eff. coupling^2, normalised to SM
    3.78561418E+02    0.00000000E+00        3  35  15  15  # H0-tau-tau eff. coupling^2, normalised to SM
    0.00000000E+00    3.78570518E+02        3  36  15  15  # A0-tau-tau eff. coupling^2, normalised to SM
#
Block HiggsBoundsInputHiggsCouplingsBosons
    9.99999946E-01        3  25  24  24  # h0-W-W eff. coupling^2, normalised to SM
    5.44434402E-08        3  35  24  24  # H0-W-W eff. coupling^2, normalised to SM
    0.00000000E+00        3  36  24  24  # A0-W-W eff. coupling^2, normalised to SM
#
    9.99999946E-01        3  25  23  23  # h0-Z-Z eff. coupling^2, normalised to SM
    5.44434402E-08        3  35  23  23  # H0-Z-Z eff. coupling^2, normalised to SM
    0.00000000E+00        3  36  23  23  # A0-Z-Z eff. coupling^2, normalised to SM
#
    8.47218221E-01        3  25  21  21  # h0-g-g eff. coupling^2, normalised to SM
    8.64896690E-09        3  35  21  21  # H0-g-g eff. coupling^2, normalised to SM
    4.45240595E-09        3  36  21  21  # A0-g-g eff. coupling^2, normalised to SM
#
    0.00000000E+00        3  25  25  23  # h0-h0-Z eff. coupling^2, normalised to SM
    0.00000000E+00        3  35  25  23  # H0-h0-Z eff. coupling^2, normalised to SM
    5.44434402E-08        3  36  25  23  # A0-h0-Z eff. coupling^2, normalised to SM
    0.00000000E+00        3  35  35  23  # H0-H0-Z eff. coupling^2, normalised to SM
    9.99999946E-01        3  36  35  23  # A0-H0-Z eff. coupling^2, normalised to SM
    0.00000000E+00        3  36  36  23  # A0-A0-Z eff. coupling^2, normalised to SM
#
    0.00000000E+00        4  25  21  21  23  # h0-g-g-Z eff. coupling^2, normalised to SM
    0.00000000E+00        4  35  21  21  23  # H0-g-g-Z eff. coupling^2, normalised to SM
    0.00000000E+00        4  36  21  21  23  # A0-g-g-Z eff. coupling^2, normalised to SM
#
#
#
#                             =================
#                             |The decay table|
#                             =================
#
# - The QCD corrections to the decays gluino -> squark  + quark
#                                     squark -> gaugino + quark_prime
#                                     squark -> squark_prime + Higgs
#                                     squark -> gluino  + quark
#   are included.
#
# - The multi-body decays for the inos, stops and sbottoms are included.
#
# - The loop induced decays for the gluino, neutralinos and stops
#   are included.
#
# - The SUSY decays of the top quark are included.
#
#
#         PDG            Width
DECAY         6     1.42952392E+00   # top decays
#          BR         NDA      ID1       ID2
     1.00000000E+00    2           5        24   # BR(t ->  b    W+)
#
#         PDG            Width
DECAY   1000021     2.42631053E+02   # gluino decays
#          BR         NDA      ID1       ID2
     7.10659702E-02    2     1000001        -1   # BR(~g -> ~d_L  db)
     7.10659702E-02    2    -1000001         1   # BR(~g -> ~d_L* d )
     1.84961833E-04    2     2000001        -1   # BR(~g -> ~d_R  db)
     1.84961833E-04    2    -2000001         1   # BR(~g -> ~d_R* d )
     7.12336748E-02    2     1000002        -2   # BR(~g -> ~u_L  ub)
     7.12336748E-02    2    -1000002         2   # BR(~g -> ~u_L* u )
     7.10659702E-02    2     1000003        -3   # BR(~g -> ~s_L  sb)
     7.10659702E-02    2    -1000003         3   # BR(~g -> ~s_L* s )
     1.84961833E-04    2     2000003        -3   # BR(~g -> ~s_R  sb)
     1.84961833E-04    2    -2000003         3   # BR(~g -> ~s_R* s )
     7.12336602E-02    2     1000004        -4   # BR(~g -> ~c_L  cb)
     7.12336602E-02    2    -1000004         4   # BR(~g -> ~c_L* c )
     8.26893355E-02    2     1000005        -5   # BR(~g -> ~b_1  bb)
     8.26893355E-02    2    -1000005         5   # BR(~g -> ~b_1* b )
     6.63447824E-02    2     2000005        -5   # BR(~g -> ~b_2  bb)
     6.63447824E-02    2    -2000005         5   # BR(~g -> ~b_2* b )
     6.59966831E-02    2     1000006        -6   # BR(~g -> ~t_1  tb)
     6.59966831E-02    2    -1000006         6   # BR(~g -> ~t_1* t )
#
#         PDG            Width
DECAY   1000006     2.94317837E+00   # stop1 decays
#          BR         NDA      ID1       ID2
     1.87699616E-02    2     1000022         6   # BR(~t_1 -> ~chi_10 t )
     9.81230038E-01    2     1000005        24   # BR(~t_1 -> ~b_1    W+)
#
#         PDG            Width
DECAY   2000006     2.08687816E+02   # stop2 decays
#          BR         NDA      ID1       ID2
     3.49375441E-02    2     1000022         6   # BR(~t_2 -> ~chi_10 t )
     2.26221171E-04    2     1000023         6   # BR(~t_2 -> ~chi_20 t )
     0.00000000E+00    2     1000025         6   # BR(~t_2 -> ~chi_30 t )
     4.52331789E-04    2     1000024         5   # BR(~t_2 -> ~chi_1+ b )
     2.01077740E-01    2     1000021         6   # BR(~t_2 -> ~g      t )
     1.30043537E-01    2     1000006        25   # BR(~t_2 -> ~t_1    h )
     6.30517235E-02    2     1000006        35   # BR(~t_2 -> ~t_1    H )
     6.37916671E-02    2     1000006        36   # BR(~t_2 -> ~t_1    A )
     4.90940566E-03    2     1000005        37   # BR(~t_2 -> ~b_1    H+)
     1.21669383E-01    2     2000005        37   # BR(~t_2 -> ~b_2    H+)
     1.29159137E-01    2     1000006        23   # BR(~t_2 -> ~t_1    Z )
     1.06634851E-02    2     1000005        24   # BR(~t_2 -> ~b_1    W+)
     2.40017825E-01    2     2000005        24   # BR(~t_2 -> ~b_2    W+)
#
#         PDG            Width
DECAY   1000005     1.38878004E-02   # sbottom1 decays
#          BR         NDA      ID1       ID2
     1.00000000E+00    2     1000022         5   # BR(~b_1 -> ~chi_10 b )
#
#         PDG            Width
DECAY   2000005     2.98723518E+00   # sbottom2 decays
#          BR         NDA      ID1       ID2
     2.03246815E-02    2     1000022         5   # BR(~b_2 -> ~chi_10 b )
     4.31058445E-01    2     1000005        25   # BR(~b_2 -> ~b_1    h )
     5.48616874E-01    2     1000005        23   # BR(~b_2 -> ~b_1    Z )
#
#         PDG            Width
DECAY   1000002     4.29606382E-02   # sup_L decays
#          BR         NDA      ID1       ID2
     1.00000000E+00    2     1000022         2   # BR(~u_L -> ~chi_10 u)
#
#         PDG            Width
DECAY   2000002     3.93326739E+01   # sup_R decays
#          BR         NDA      ID1       ID2
     1.59957260E-01    2     1000022         2   # BR(~u_R -> ~chi_10 u)
     2.72324779E-09    2     1000023         2   # BR(~u_R -> ~chi_20 u)
     8.40042737E-01    2     1000021         2   # BR(~u_R -> ~g      u)
#
#         PDG            Width
DECAY   1000001     4.33756329E-02   # sdown_L decays
#          BR         NDA      ID1       ID2
     1.00000000E+00    2     1000022         1   # BR(~d_L -> ~chi_10 d)
#
#         PDG            Width
DECAY   2000001     1.15983325E+00   # sdown_R decays
#          BR         NDA      ID1       ID2
     9.99999988E-01    2     1000022         1   # BR(~d_R -> ~chi_10 d)
     1.17649410E-08    2     1000023         1   # BR(~d_R -> ~chi_20 d)
#
#         PDG            Width
DECAY   1000004     4.15164799E-02   # scharm_L decays
#          BR         NDA      ID1       ID2
     1.00000000E+00    2     1000022         4   # BR(~c_L -> ~chi_10 c)
#
#         PDG            Width
DECAY   2000004     3.04174698E+01   # scharm_R decays
#          BR         NDA      ID1       ID2
     2.16706890E-01    2     1000022         4   # BR(~c_R -> ~chi_10 c)
     3.66774978E-09    2     1000023         4   # BR(~c_R -> ~chi_20 c)
     7.83293106E-01    2     1000021         4   # BR(~c_R -> ~g      c)
#
#         PDG            Width
DECAY   1000003     4.19286187E-02   # sstrange_L decays
#          BR         NDA      ID1       ID2
     1.00000000E+00    2     1000022         3   # BR(~s_L -> ~chi_10 s)
#
#         PDG            Width
DECAY   2000003     1.19760723E+00   # sstrange_R decays
#          BR         NDA      ID1       ID2
     9.99999988E-01    2     1000022         3   # BR(~s_R -> ~chi_10 s)
     1.16643016E-08    2     1000023         3   # BR(~s_R -> ~chi_20 s)
#
#         PDG            Width
DECAY   1000011     1.19752522E+00   # selectron_L decays
#          BR         NDA      ID1       ID2
     1.00000000E+00    2     1000022        11   # BR(~e_L -> ~chi_10 e-)
#
#         PDG            Width
DECAY   2000011     1.93056310E+00   # selectron_R decays
#          BR         NDA      ID1       ID2
     1.00000000E+00    2     1000022        11   # BR(~e_R -> ~chi_10 e-)
#
#         PDG            Width
DECAY   1000013     1.19752520E+00   # smuon_L decays
#          BR         NDA      ID1       ID2
     1.00000000E+00    2     1000022        13   # BR(~mu_L -> ~chi_10 mu-)
#
#         PDG            Width
DECAY   2000013     1.93056299E+00   # smuon_R decays
#          BR         NDA      ID1       ID2
     1.00000000E+00    2     1000022        13   # BR(~mu_R -> ~chi_10 mu-)
#
#         PDG            Width
DECAY   1000015     7.02765738E-01   # stau_1 decays
#          BR         NDA      ID1       ID2
     1.00000000E+00    2     1000022        15   # BR(~tau_1 -> ~chi_10  tau-)
#
#         PDG            Width
DECAY   2000015     2.33050952E+01   # stau_2 decays
#          BR         NDA      ID1       ID2
     8.25784559E-01    2     1000022        15   # BR(~tau_2 -> ~chi_10  tau-)
     5.86806140E-06    2     1000023        15   # BR(~tau_2 -> ~chi_20  tau-)
     3.14315421E-03    2     1000025        15   # BR(~tau_2 -> ~chi_30  tau-)
     3.12892182E-03    2     1000035        15   # BR(~tau_2 -> ~chi_40  tau-)
     1.12329278E-05    2    -1000024        16   # BR(~tau_2 -> ~chi_1-  nu_tau)
     6.24054918E-03    2    -1000037        16   # BR(~tau_2 -> ~chi_2-  nu_tau)
     1.02994125E-03    2     1000016       -37   # BR(~tau_2 -> ~nu_tauL H-)
     7.76077408E-02    2     1000016       -24   # BR(~tau_2 -> ~nu_tauL W-)
     4.21410083E-02    2     1000015        25   # BR(~tau_2 -> ~tau_1   h)
     5.13194462E-04    2     1000015        35   # BR(~tau_2 -> ~tau_1   H)
     5.15191599E-04    2     1000015        36   # BR(~tau_2 -> ~tau_1   A)
     3.98786383E-02    2     1000015        23   # BR(~tau_2 -> ~tau_1   Z)
#
#         PDG            Width
DECAY   1000012     1.19207835E+00   # snu_eL decays
#          BR         NDA      ID1       ID2
     1.00000000E+00    2     1000022        12   # BR(~nu_eL -> ~chi_10 nu_e)
#
#         PDG            Width
DECAY   1000014     1.19207835E+00   # snu_muL decays
#          BR         NDA      ID1       ID2
     1.00000000E+00    2     1000022        14   # BR(~nu_muL -> ~chi_10 nu_mu)
#
#         PDG            Width
DECAY   1000016     6.97204585E-01   # snu_tauL decays
#          BR         NDA      ID1       ID2
     1.00000000E+00    2     1000022        16   # BR(~nu_tauL -> ~chi_10 nu_tau)
#
#         PDG            Width
DECAY   1000024     3.31004636E+01   # chargino1+ decays
#          BR         NDA      ID1       ID2
     1.71532782E-01    2     1000002        -1   # BR(~chi_1+ -> ~u_L     db)
     1.69677432E-01    2    -1000001         2   # BR(~chi_1+ -> ~d_L*    u )
     1.71532748E-01    2     1000004        -3   # BR(~chi_1+ -> ~c_L     sb)
     1.69676875E-01    2    -1000003         4   # BR(~chi_1+ -> ~s_L*     c )
     1.36848363E-01    2     1000006        -5   # BR(~chi_1+ -> ~t_1     bb)
     1.24001543E-02    2    -1000005         6   # BR(~chi_1+ -> ~b_1*    t )
     1.17172227E-01    2    -2000005         6   # BR(~chi_1+ -> ~b_2*    t )
     2.05629231E-04    2     1000012       -11   # BR(~chi_1+ -> ~nu_eL   e+  )
     2.05629231E-04    2     1000014       -13   # BR(~chi_1+ -> ~nu_muL  mu+ )
     2.53945499E-02    2     1000016       -15   # BR(~chi_1+ -> ~nu_tau1 tau+)
     1.69204522E-04    2    -1000011        12   # BR(~chi_1+ -> ~e_L+    nu_e)
     1.69204522E-04    2    -1000013        14   # BR(~chi_1+ -> ~mu_L+   nu_mu)
     2.50126111E-02    2    -1000015        16   # BR(~chi_1+ -> ~tau_1+  nu_tau)
     2.59063090E-06    2     1000022        24   # BR(~chi_1+ -> ~chi_10  W+)
#
#         PDG            Width
DECAY   1000037     9.48945224E+01   # chargino2+ decays
#          BR         NDA      ID1       ID2
     7.64056187E-05    2     1000002        -1   # BR(~chi_2+ -> ~u_L     db)
     5.24656384E-04    2    -1000001         2   # BR(~chi_2+ -> ~d_L*    u )
     7.64056185E-05    2     1000004        -3   # BR(~chi_2+ -> ~c_L     sb)
     5.24656359E-04    2    -1000003         4   # BR(~chi_2+ -> ~s_L*     c )
     3.24744494E-02    2     1000006        -5   # BR(~chi_2+ -> ~t_1     bb)
     6.01271600E-02    2    -1000005         6   # BR(~chi_2+ -> ~b_1*    t )
     5.65109613E-01    2    -2000005         6   # BR(~chi_2+ -> ~b_2*    t )
     2.10769147E-05    2     1000012       -11   # BR(~chi_2+ -> ~nu_eL   e+  )
     2.10769147E-05    2     1000014       -13   # BR(~chi_2+ -> ~nu_muL mu+ )
     9.88634873E-03    2     1000016       -15   # BR(~chi_2+ -> ~nu_tau1 tau+)
     1.44679097E-04    2    -1000011        12   # BR(~chi_2+ -> ~e_L+    nu_e)
     1.44679097E-04    2    -1000013        14   # BR(~chi_2+ -> ~mu_L+   nu_mu)
     1.48582787E-04    2    -1000015        16   # BR(~chi_2+ -> ~tau_1+  nu_tau)
     6.15961308E-02    2     1000024        23   # BR(~chi_2+ -> ~chi_1+  Z )
     2.28018737E-02    2     1000022        24   # BR(~chi_2+ -> ~chi_10  W+)
     5.90282341E-02    2     1000023        24   # BR(~chi_2+ -> ~chi_20  W+)
     6.45068709E-02    2     1000024        25   # BR(~chi_2+ -> ~chi_1+  h )
     3.62872168E-02    2     1000024        35   # BR(~chi_2+ -> ~chi_1+  H )
     3.63287108E-02    2     1000024        36   # BR(~chi_2+ -> ~chi_1+  A )
     1.38582207E-02    2     1000022        37   # BR(~chi_2+ -> ~chi_10  H+)
     3.63129521E-02    2     1000023        37   # BR(~chi_2+ -> ~chi_20  H+)
#
#         PDG            Width
DECAY   1000022     0.00000000E+00   # neutralino1 decays
#
#         PDG            Width
DECAY   1000023     3.30908463E+01   # neutralino2 decays
#          BR         NDA      ID1       ID2
     2.69004082E-06    2     1000022        23   # BR(~chi_20 -> ~chi_10   Z )
     2.17211772E-08    2     1000022        25   # BR(~chi_20 -> ~chi_10   h )
     8.57017179E-02    2     1000002        -2   # BR(~chi_20 -> ~u_L      ub)
     8.57017179E-02    2    -1000002         2   # BR(~chi_20 -> ~u_L*     u )
     8.48726940E-02    2     1000001        -1   # BR(~chi_20 -> ~d_L      db)
     8.48726940E-02    2    -1000001         1   # BR(~chi_20 -> ~d_L*     d )
     8.57014404E-02    2     1000004        -4   # BR(~chi_20 -> ~c_L      cb)
     8.57014404E-02    2    -1000004         4   # BR(~chi_20 -> ~c_L*     c )
     8.48726940E-02    2     1000003        -3   # BR(~chi_20 -> ~s _L      sb)
     8.48726940E-02    2    -1000003         3   # BR(~chi_20 -> ~s _L*     s )
     6.55353224E-02    2     1000006        -6   # BR(~chi_20 -> ~t_1      tb)
     6.55353224E-02    2    -1000006         6   # BR(~chi_20 -> ~t_1*     t )
     6.21837169E-03    2     1000005        -5   # BR(~chi_20 -> ~b_1      bb)
     6.21837169E-03    2    -1000005         5   # BR(~chi_20 -> ~b_1*     b )
     6.15375945E-02    2     2000005        -5   # BR(~chi_20 -> ~b_2      bb)
     6.15375945E-02    2    -2000005         5   # BR(~chi_20 -> ~b_2*     b )
     8.35039386E-05    2     1000011       -11   # BR(~chi_20 -> ~e_L-     e+)
     8.35039386E-05    2    -1000011        11   # BR(~chi_20 -> ~e_L+     e-)
     7.59880928E-10    2     2000011       -11   # BR(~chi_20 -> ~e_R-     e+)
     7.59880928E-10    2    -2000011        11   # BR(~chi_20 -> ~e_R+     e-)
     8.35039386E-05    2     1000013       -13   # BR(~chi_20 -> ~mu_L-    mu+)
     8.35039386E-05    2    -1000013        13   # BR(~chi_20 -> ~mu_L+    mu-)
     7.59880928E-10    2     2000013       -13   # BR(~chi_20 -> ~mu_R-    mu+)
     7.59880928E-10    2    -2000013        13   # BR(~chi_20 -> ~mu_R+    mu-)
     1.25090130E-02    2     1000015       -15   # BR(~chi_20 -> ~tau_1-   tau+)
     1.25090130E-02    2    -1000015        15   # BR(~chi_20 -> ~tau_1+   tau-)
     1.01448808E-04    2     1000012       -12   # BR(~chi_20 -> ~nu_eL    nu_eb)
     1.01448808E-04    2    -1000012        12   # BR(~chi_20 -> ~nu_eL*   nu_e )
     1.01448808E-04    2     1000014       -14   # BR(~chi_20 -> ~nu_muL   nu_mub)
     1.01448808E-04    2    -1000014        14   # BR(~chi_20 -> ~nu_muL*  nu_mu )
     1.26798891E-02    2     1000016       -16   # BR(~chi_20 -> ~nu_tau1  nu_taub)
     1.26798891E-02    2    -1000016        16   # BR(~chi_20 -> ~nu_tau1* nu_tau )
#
#         PDG            Width
DECAY   1000025     9.52502761E+01   # neutralino3 decays
#          BR         NDA      ID1       ID2
     5.96867966E-03    2     1000022        23   # BR(~chi_30 -> ~chi_10   Z )
     5.20021925E-02    2     1000023        23   # BR(~chi_30 -> ~chi_20   Z )
     5.95439990E-02    2     1000024       -24   # BR(~chi_30 -> ~chi_1+   W-)
     5.95439990E-02    2    -1000024        24   # BR(~chi_30 -> ~chi_1-   W+)
     1.79212555E-02    2     1000022        25   # BR(~chi_30 -> ~chi_10   h )
     9.63175060E-03    2     1000022        35   # BR(~chi_30 -> ~chi_10   H )
     4.19127639E-03    2     1000022        36   # BR(~chi_30 -> ~chi_10   A )
     1.01309467E-02    2     1000023        25   # BR(~chi_30 -> ~chi_20   h )
     1.70557598E-03    2     1000023        35   # BR(~chi_30 -> ~chi_20   H )
     3.43536195E-02    2     1000023        36   # BR(~chi_30 -> ~chi_20   A )
     3.60275909E-02    2     1000024       -37   # BR(~chi_30 -> ~chi_1+   H-)
     3.60275909E-02    2    -1000024        37   # BR(~chi_30 -> ~chi_1-   H+)
     1.63031168E-05    2     1000002        -2   # BR(~chi_30 -> ~u_L      ub)
     1.63031168E-05    2    -1000002         2   # BR(~chi_30 -> ~u_L*     u )
     5.36767162E-07    2     2000002        -2   # BR(~chi_30 -> ~u_R      ub)
     5.36767162E-07    2    -2000002         2   # BR(~chi_30 -> ~u_R*     u )
     3.53436113E-05    2     1000001        -1   # BR(~chi_30 -> ~d_L      db)
     3.53436113E-05    2    -1000001         1   # BR(~chi_30 -> ~d_L*     d )
     1.10280344E-06    2     2000001        -1   # BR(~chi_30 -> ~d_R      db)
     1.10280344E-06    2    -2000001         1   # BR(~chi_30 -> ~d_R*     d )
     1.63031160E-05    2     1000004        -4   # BR(~chi_30 -> ~c_L      cb)
     1.63031160E-05    2    -1000004         4   # BR(~chi_30 -> ~c_L*     c )
     5.36760575E-07    2     2000004        -4   # BR(~chi_30 -> ~c_R      cb)
     5.36760575E-07    2    -2000004         4   # BR(~chi_30 -> ~c_R*     c )
     3.53436113E-05    2     1000003        -3   # BR(~chi_30 -> ~s _L      sb)
     3.53436113E-05    2    -1000003         3   # BR(~chi_30 -> ~s _L*     s )
     1.10280344E-06    2     2000003        -3   # BR(~chi_30 -> ~s _R      sb)
     1.10280344E-06    2    -2000003         3   # BR(~chi_30 -> ~s _R*     s )
     2.99986277E-01    2     1000006        -6   # BR(~chi_30 -> ~t_1      tb)
     2.99986277E-01    2    -1000006         6   # BR(~chi_30 -> ~t_1*     t )
     1.61781659E-02    2     1000005        -5   # BR(~chi_30 -> ~b_1      bb)
     1.61781659E-02    2    -1000005         5   # BR(~chi_30 -> ~b_1*     b )
     1.52212338E-02    2     2000005        -5   # BR(~chi_30 -> ~b_2      bb)
     1.52212338E-02    2    -2000005         5   # BR(~chi_30 -> ~b_2*     b )
     1.24603375E-06    2     1000011       -11   # BR(~chi_30 -> ~e_L-     e+)
     1.24603375E-06    2    -1000011        11   # BR(~chi_30 -> ~e_L+     e-)
     1.11466342E-05    2     2000011       -11   # BR(~chi_30 -> ~e_R-     e+)
     1.11466342E-05    2    -2000011        11   # BR(~chi_30 -> ~e_R+     e-)
     1.24603375E-06    2     1000013       -13   # BR(~chi_30 -> ~mu_L-    mu+)
     1.24603375E-06    2    -1000013        13   # BR(~chi_30 -> ~mu_L+    mu-)
     1.11466342E-05    2     2000013       -13   # BR(~chi_30 -> ~mu_R-    mu+)
     1.11466342E-05    2    -2000013        13   # BR(~chi_30 -> ~mu_R+    mu-)
     4.90478974E-03    2     1000015       -15   # BR(~chi_30 -> ~tau_1-   tau+)
     4.90478974E-03    2    -1000015        15   # BR(~chi_30 -> ~tau_1+   tau-)
     1.70347654E-05    2     1000012       -12   # BR(~chi_30 -> ~nu_eL    nu_eb)
     1.70347654E-05    2    -1000012        12   # BR(~chi_30 -> ~nu_eL*   nu_e )
     1.70347654E-05    2     1000014       -14   # BR(~chi_30 -> ~nu_muL   nu_mub)
     1.70347654E-05    2    -1000014        14   # BR(~chi_30 -> ~nu_muL*  nu_mu )
     1.98679283E-05    2     1000016       -16   # BR(~chi_30 -> ~nu_tau1  nu_taub)
     1.98679283E-05    2    -1000016        16   # BR(~chi_30 -> ~nu_tau1* nu_tau )
#
#         PDG            Width
DECAY   1000035     9.47219837E+01   # neutralino4 decays
#          BR         NDA      ID1       ID2
     1.74788015E-02    2     1000022        23   # BR(~chi_40 -> ~chi_10   Z )
     1.03007031E-02    2     1000023        23   # BR(~chi_40 -> ~chi_20   Z )
     6.18411547E-02    2     1000024       -24   # BR(~chi_40 -> ~chi_1+   W-)
     6.18411547E-02    2    -1000024        24   # BR(~chi_40 -> ~chi_1-   W+)
     6.51613126E-03    2     1000022        25   # BR(~chi_40 -> ~chi_10   h )
     4.21386141E-03    2     1000022        35   # BR(~chi_40 -> ~chi_10   H )
     9.67336915E-03    2     1000022        36   # BR(~chi_40 -> ~chi_10   A )
     5.44630690E-02    2     1000023        25   # BR(~chi_40 -> ~chi_20   h )
     3.45397189E-02    2     1000023        35   # BR(~chi_40 -> ~chi_20   H )
     1.71422178E-03    2     1000023        36   # BR(~chi_40 -> ~chi_20   A )
     3.62760772E-02    2     1000024       -37   # BR(~chi_40 -> ~chi_1+   H-)
     3.62760772E-02    2    -1000024        37   # BR(~chi_40 -> ~chi_1-   H+)
     1.15463259E-04    2     1000002        -2   # BR(~chi_40 -> ~u_L      ub)
     1.15463259E-04    2    -1000002         2   # BR(~chi_40 -> ~u_L*     u )
     1.85577559E-07    2     2000002        -2   # BR(~chi_40 -> ~u_R      ub)
     1.85577559E-07    2    -2000002         2   # BR(~chi_40 -> ~u_R*     u )
     1.40670005E-04    2     1000001        -1   # BR(~chi_40 -> ~d_L      db)
     1.40670005E-04    2    -1000001         1   # BR(~chi_40 -> ~d_L*     d )
     3.80294013E-07    2     2000001        -1   # BR(~chi_40 -> ~d_R      db)
     3.80294013E-07    2    -2000001         1   # BR(~chi_40 -> ~d_R*     d )
     1.15463253E-04    2     1000004        -4   # BR(~chi_40 -> ~c_L      cb)
     1.15463253E-04    2    -1000004         4   # BR(~chi_40 -> ~c_L*     c )
     1.85575291E-07    2     2000004        -4   # BR(~chi_40 -> ~c_R      cb)
     1.85575291E-07    2    -2000004         4   # BR(~chi_40 -> ~c_R*     c )
     1.40670005E-04    2     1000003        -3   # BR(~chi_40 -> ~s _L      sb)
     1.40670005E-04    2    -1000003         3   # BR(~chi_40 -> ~s _L*     s )
     3.80294013E-07    2     2000003        -3   # BR(~chi_40 -> ~s _R      sb)
     3.80294013E-07    2    -2000003         3   # BR(~chi_40 -> ~s _R*     s )
     2.95113017E-01    2     1000006        -6   # BR(~chi_40 -> ~t_1      tb)
     2.95113017E-01    2    -1000006         6   # BR(~chi_40 -> ~t_1*     t )
     1.59630317E-02    2     1000005        -5   # BR(~chi_40 -> ~b_1      bb)
     1.59630317E-02    2    -1000005         5   # BR(~chi_40 -> ~b_1*     b )
     1.56823024E-02    2     2000005        -5   # BR(~chi_40 -> ~b_2      bb)
     1.56823024E-02    2    -2000005         5   # BR(~chi_40 -> ~b_2*     b )
     2.55089729E-05    2     1000011       -11   # BR(~chi_40 -> ~e_L-     e+)
     2.55089729E-05    2    -1000011        11   # BR(~chi_40 -> ~e_L+     e-)
     3.84150624E-06    2     2000011       -11   # BR(~chi_40 -> ~e_R-     e+)
     3.84150624E-06    2    -2000011        11   # BR(~chi_40 -> ~e_R+     e-)
     2.55089729E-05    2     1000013       -13   # BR(~chi_40 -> ~mu_L-    mu+)
     2.55089729E-05    2    -1000013        13   # BR(~chi_40 -> ~mu_L+    mu-)
     3.84150624E-06    2     2000013       -13   # BR(~chi_40 -> ~mu_R-    mu+)
     3.84150624E-06    2    -2000013        13   # BR(~chi_40 -> ~mu_R+    mu-)
     4.95504200E-03    2     1000015       -15   # BR(~chi_40 -> ~tau_1-   tau+)
     4.95504200E-03    2    -1000015        15   # BR(~chi_40 -> ~tau_1+   tau-)
     4.65339672E-05    2     1000012       -12   # BR(~chi_40 -> ~nu_eL    nu_eb)
     4.65339672E-05    2    -1000012        12   # BR(~chi_40 -> ~nu_eL*   nu_e )
     4.65339672E-05    2     1000014       -14   # BR(~chi_40 -> ~nu_muL   nu_mub)
     4.65339672E-05    2    -1000014        14   # BR(~chi_40 -> ~nu_muL*  nu_mu )
     5.42699580E-05    2     1000016       -16   # BR(~chi_40 -> ~nu_tau1  nu_taub)
     5.42699580E-05    2    -1000016        16   # BR(~chi_40 -> ~nu_tau1* nu_tau )
#
#         PDG            Width
DECAY        25     6.44238992E-03   # h decays
#          BR         NDA      ID1       ID2
     7.04850311E-01    2           5        -5   # BR(h -> b       bb     )
     4.12513233E-02    2         -15        15   # BR(h -> tau+    tau-   )
     1.46019591E-04    2         -13        13   # BR(h -> mu+     mu-    )
     1.58380641E-04    2           3        -3   # BR(h -> s       sb     )
     1.36501181E-02    2           4        -4   # BR(h -> c       cb     )
     5.08994538E-02    2          21        21   # BR(h -> g       g      )
     1.57671776E-03    2          22        22   # BR(h -> gam     gam    )
     1.17206152E-03    2          22        23   # BR(h -> Z       gam    )
     1.65035329E-01    2          24       -24   # BR(h -> W+      W-     )
     2.12602855E-02    2          23        23   # BR(h -> Z       Z      )
#
#         PDG            Width
DECAY        35     7.32063731E+00   # H decays
#          BR         NDA      ID1       ID2
     7.46005149E-01    2           5        -5   # BR(H -> b       bb     )
     1.78345064E-01    2         -15        15   # BR(H -> tau+    tau-   )
     6.40755886E-04    2         -13        13   # BR(H -> mu+     mu-    )
     2.12287169E-04    2           3        -3   # BR(H -> s       sb     )
     2.52211640E-07    2           4        -4   # BR(H -> c       cb     )
     2.39343543E-02    2           6        -6   # BR(H -> t       tb     )
     2.28542923E-04    2          21        21   # BR(H -> g       g      )
     6.59966256E-08    2          22        22   # BR(H -> gam     gam    )
     2.80113987E-08    2          23        22   # BR(H -> Z       gam    )
     8.59714709E-06    2          24       -24   # BR(H -> W+      W-     )
     4.27356778E-06    2          23        23   # BR(H -> Z       Z      )
     1.15375479E-04    2          25        25   # BR(H -> h       h      )
     8.48530922E-06    2     1000022   1000022   # BR(H -> ~chi_10 ~chi_10)
     5.04967687E-02    2     1000005  -1000005   # BR(H -> ~b_1    ~b_1*  )
#
#         PDG            Width
DECAY        36     6.97225932E+00   # A decays
#          BR         NDA      ID1       ID2
     7.85725009E-01    2           5        -5   # BR(A -> b       bb     )
     1.87307580E-01    2         -15        15   # BR(A -> tau+    tau-   )
     6.72952599E-04    2         -13        13   # BR(A -> mu+     mu-    )
     2.22990214E-04    2           3        -3   # BR(A -> s       sb     )
     2.64889485E-07    2           4        -4   # BR(A -> c       cb     )
     2.58437758E-02    2           6        -6   # BR(A -> t       tb     )
     1.72526297E-04    2          21        21   # BR(A -> g       g      )
     2.04279283E-07    2          22        22   # BR(A -> gam     gam    )
     1.15156434E-07    2          23        22   # BR(A -> Z       gam    )
     9.05409884E-06    2          23        25   # BR(A -> Z       h      )
     4.55275366E-05    2     1000022   1000022   # BR(A -> ~chi_10 ~chi_10)
#
#         PDG            Width
DECAY        37     3.63579549E+00   # H+ decays
#          BR         NDA      ID1       ID2
     9.97797439E-04    2           4        -5   # BR(H+ -> c       bb     )
     3.59519642E-01    2         -15        16   # BR(H+ -> tau+    nu_tau )
     1.29167050E-03    2         -13        14   # BR(H+ -> mu+     nu_mu  )
     9.97792442E-06    2           2        -5   # BR(H+ -> u       bb     )
     2.13543748E-05    2           2        -3   # BR(H+ -> u       sb     )
     4.20805224E-04    2           4        -3   # BR(H+ -> c       sb     )
     6.37721299E-01    2           6        -5   # BR(H+ -> t       bb     )
     1.74528315E-05    2          24        25   # BR(H+ -> W+      h      )
     1.90362614E-12    2          24        36   # BR(H+ -> W+      A      )

DECAY         5   0.000000e+00 # b decays
DECAY        15   0.000000e+00 # tau decays
DECAY        23     2.49520000E+00   # Z
DECAY        24     2.08500000E+00   # W
