# SUSY Les Houches Accord 2 - MSSM spectrum + Decays
# SPheno v4.0.5be
# W. Porod, Comput. Phys. Commun. 153 (2003) 275-315, hep-ph/0301101;
# W. Porod, F.~Staub, Comput. Phys. Commun. 183 (2012) 2458
#                     arXiv:1104.1573 [hep-ph] 
# in case of problems send email to porod@physik.uni-wuerzburg.de
# Created: 15.05.2022,  09:32
Block SPINFO         # Program information
     1   SPheno      # spectrum calculator
     2   v4.0.5be    # version number
#
Block SPhenoINFO     # SPheno specific information
    1      2         # using 2-loop RGEs
    2      2         # using pole masses for boundary conditions at mZ
Block MODSEL  # Model selection
    1    0    # general MSSM
Block MINPAR  # Input parameters
    3    4.04817546E+01  # tanb at m_Z    
    4    1.00000000E+00  # Sign(mu)
Block EXTPAR  # non-universal input parameters
    0    3.79374678E+03  # scale for input parameters
    1   -2.44546874E+02  # M_1
    2    2.75887375E+02  # M_2
    3    3.90255931E+03  # M_3
   11    5.19674488E+03  # A_t
   12   -1.25835779E+03  # A_b
   13   -1.23123629E+03  # A_tau
   23    2.99432429E+02  # mu
   25    3.93196922E+01  # tan(beta)
   26    2.07724599E+03  # m_A, pole mass
   31    5.26332666E+02  # M_L11
   32    5.26332666E+02  # M_L22
   33    3.36596092E+02  # M_L33
   34    3.26812818E+02  # M_E11
   35    3.26812818E+02  # M_E22
   36    7.84820042E+02  # M_E33
   41    1.00000000E+04  # M_Q11
   42    1.00000000E+04  # M_Q22
   43    4.23159112E+03  # M_Q33
   44    1.00000000E+04  # M_U11
   45    1.00000000E+04  # M_U22
   46    3.29374818E+03  # M_U33
   47    1.00000000E+04  # M_D11
   48    1.00000000E+04  # M_D22
   49    2.84396611E+03  # M_D33
Block SMINPUTS  # SM parameters
         1     1.27908970E+02  # alpha_em^-1(MZ)^MSbar
         2     1.16637870E-05  # G_mu [GeV^-2]
         3     1.18400000E-01  # alpha_s(MZ)^MSbar
         4     9.11876000E+01  # m_Z(pole)
         5     4.18000000E+00  # m_b(m_b), MSbar
         6     1.73200000E+02  # m_t(pole)
         7     1.77700000E+00  # m_tau(pole)
         8     0.00000000E+00  # m_nu_3
        11     5.10998930E-04  # m_e(pole)
        12     0.00000000E+00  # m_nu_1
        13     1.05658372E-01  # m_muon(pole)
        14     0.00000000E+00  # m_nu_2
        21     5.00000000E-03  # m_d(2 GeV), MSbar
        22     2.50000000E-03  # m_u(2 GeV), MSbar
        23     9.50000000E-02  # m_s(2 GeV), MSbar
        24     1.27000000E+00  # m_c(m_c), MSbar
Block gauge Q=  3.79374678E+03  # (SUSY scale)
   1    3.55362975E-01  # g'(Q)^DRbar
   2    6.65198874E-01  # g(Q)^DRbar
   3    1.21977796E+00  # g3(Q)^DRbar
Block Yu Q=  3.79374678E+03  # (SUSY scale)
  1  1     8.38708326E-06   # Y_u(Q)^DRbar
  2  2     4.26063830E-03   # Y_c(Q)^DRbar
  3  3     1.01322702E+00   # Y_t(Q)^DRbar
Block Yd Q=  3.79374678E+03  # (SUSY scale)
  1  1     6.62676106E-04   # Y_d(Q)^DRbar
  2  2     1.25908460E-02   # Y_s(Q)^DRbar
  3  3     6.57167044E-01   # Y_b(Q)^DRbar
Block Ye Q=  3.79374678E+03  # (SUSY scale)
  1  1     1.15641826E-04   # Y_e(Q)^DRbar
  2  2     2.39110620E-02   # Y_mu(Q)^DRbar
  3  3     4.02144727E-01   # Y_tau(Q)^DRbar
Block Au Q=  3.79374678E+03  # (SUSY scale)
  1  1     0.00000000E+00   # A_u(Q)^DRbar
  2  2     0.00000000E+00   # A_c(Q)^DRbar
  3  3     5.19674488E+03   # A_t(Q)^DRbar
Block Ad Q=  3.79374678E+03  # (SUSY scale)
  1  1     0.00000000E+00   # A_d(Q)^DRbar
  2  2     0.00000000E+00   # A_s(Q)^DRbar
  3  3    -1.25835780E+03   # A_b(Q)^DRbar
Block Ae Q=  3.79374678E+03  # (SUSY scale)
  1  1     0.00000000E+00   # A_e(Q)^DRbar
  2  2     0.00000000E+00   # A_mu(Q)^DRbar
  3  3    -1.23123629E+03   # A_tau(Q)^DRbar
Block MSOFT Q=  3.79374678E+03  # soft SUSY breaking masses at Q
   1   -2.44546874E+02  # M_1
   2    2.75887375E+02  # M_2
   3    3.90255931E+03  # M_3
  21    4.43034505E+06  # M^2_(H,d)
  22    2.21594735E+05  # M^2_(H,u)
  31    5.26332666E+02  # M_(L,11)
  32    5.26332666E+02  # M_(L,22)
  33    3.36596092E+02  # M_(L,33)
  34    3.26812818E+02  # M_(E,11)
  35    3.26812818E+02  # M_(E,22)
  36    7.84820042E+02  # M_(E,33)
  41    1.00000000E+04  # M_(Q,11)
  42    1.00000000E+04  # M_(Q,22)
  43    4.23159112E+03  # M_(Q,33)
  44    1.00000000E+04  # M_(U,11)
  45    1.00000000E+04  # M_(U,22)
  46    3.29374818E+03  # M_(U,33)
  47    1.00000000E+04  # M_(D,11)
  48    1.00000000E+04  # M_(D,22)
  49    2.84396611E+03  # M_(D,33)
Block MASS  # Mass spectrum
#   PDG code      mass          particle
         6     1.73200000E+02  # m_t(pole)
        23     9.11876000E+01  # m_Z(pole)
        24     8.04299946E+01  # W+
        15     1.77700000E+00  # m_tau(pole)
        25     1.27141684E+02  # h0
        35     2.07654262E+03  # H0
        36     2.07724599E+03  # A0
        37     2.07862512E+03  # H+
   1000001     1.01017179E+04  # ~d_L
   2000001     1.00765786E+04  # ~d_R
   1000002     1.01013562E+04  # ~u_L
   2000002     1.00795760E+04  # ~u_R
   1000003     1.01017212E+04  # ~s_L
   2000003     1.00765845E+04  # ~s_R
   1000004     1.01013595E+04  # ~c_L
   2000004     1.00795768E+04  # ~c_R
   1000005     2.98123313E+03  # ~b_1
   2000005     4.29452006E+03  # ~b_2
   1000006     3.34399173E+03  # ~t_1
   2000006     4.30399229E+03  # ~t_2
   1000011     5.27666723E+02  # ~e_L-
   2000011     3.45731323E+02  # ~e_R-
   1000012     5.21259368E+02  # ~nu_eL
   1000013     5.27634147E+02  # ~mu_L-
   2000013     3.45591379E+02  # ~mu_R-
   1000014     5.21219579E+02  # ~nu_muL
   1000015     3.11660295E+02  # ~tau_1-
   2000015     7.70296547E+02  # ~tau_2-
   1000016     3.07753007E+02  # ~nu_tauL
   1000021     4.37373523E+03  # ~g
   1000022     2.31112880E+02  # ~chi_10
   1000023     2.51239958E+02  # ~chi_20
   1000025     3.27675428E+02  # ~chi_30
   1000035     3.66118879E+02  # ~chi_40
   1000024     2.52577004E+02  # ~chi_1+
   1000037     3.68020924E+02  # ~chi_2+
# Higgs mixing
Block alpha # Effective Higgs mixing angle
          -2.48487656E-02   # alpha
Block Hmix Q=  3.79374678E+03  # Higgs mixing parameters
   1    2.99432429E+02  # mu
   2    3.93196922E+01  # tan[beta](Q)
   3    2.42977139E+02  # v(Q)
   4    4.31495090E+06  # m^2_A(Q)
Block stopmix # stop mixing matrix
   1  1    -9.52045558E-02   # Re[R_st(1,1)]
   1  2     9.95457730E-01   # Re[R_st(1,2)]
   2  1    -9.95457730E-01   # Re[R_st(2,1)]
   2  2    -9.52045558E-02   # Re[R_st(2,2)]
Block sbotmix # sbottom mixing matrix
   1  1     2.78929353E-03   # Re[R_sb(1,1)]
   1  2     9.99996110E-01   # Re[R_sb(1,2)]
   2  1    -9.99996110E-01   # Re[R_sb(2,1)]
   2  2     2.78929353E-03   # Re[R_sb(2,2)]
Block staumix # stau mixing matrix
   1  1     9.98758344E-01   # Re[R_sta(1,1)]
   1  2     4.98173667E-02   # Re[R_sta(1,2)]
   2  1    -4.98173667E-02   # Re[R_sta(2,1)]
   2  2     9.98758344E-01   # Re[R_sta(2,2)]
Block Nmix # neutralino mixing matrix
   1  1    -9.40475654E-01   # Re[N(1,1)]
   1  2    -2.92056327E-02   # Re[N(1,2)]
   1  3    -2.73601713E-01   # Re[N(1,3)]
   1  4    -1.99486037E-01   # Re[N(1,4)]
   2  1    -3.91616278E-02   # Re[N(2,1)]
   2  2    -7.39478231E-01   # Re[N(2,2)]
   2  3     5.22082934E-01   # Re[N(2,3)]
   2  4    -4.23163943E-01   # Re[N(2,4)]
   3  1     3.34967117E-01   # Re[N(3,1)]
   3  2    -8.46798481E-02   # Re[N(3,2)]
   3  3    -6.46292326E-01   # Re[N(3,3)]
   3  4    -6.80391493E-01   # Re[N(3,4)]
   4  1     4.20587991E-02   # Re[N(4,1)]
   4  2    -6.67194350E-01   # Re[N(4,2)]
   4  3    -4.84641870E-01   # Re[N(4,3)]
   4  4     5.64096636E-01   # Re[N(4,4)]
Block Umix # chargino mixing matrix
   1  1    -6.88943107E-01   # Re[U(1,1)]
   1  2     7.24815422E-01   # Re[U(1,2)]
   2  1     7.24815422E-01   # Re[U(2,1)]
   2  2     6.88943107E-01   # Re[U(2,2)]
Block Vmix # chargino mixing matrix
   1  1    -8.06642881E-01   # Re[V(1,1)]
   1  2     5.91039138E-01   # Re[V(1,2)]
   2  1     5.91039138E-01   # Re[V(2,1)]
   2  2     8.06642881E-01   # Re[V(2,2)]
DECAY        23     2.49520000E+00   # Z
DECAY        24     2.08500000E+00   # W
DECAY   2000011     4.72731097E-01   # ~e^-_R
#    BR                NDA      ID1      ID2
     9.94478344E-01    2     1000022        11   # BR(~e^-_R -> chi^0_1 e^-)
     1.25513613E-03    2     1000023        11   # BR(~e^-_R -> chi^0_2 e^-)
     4.26649812E-03    2     1000025        11   # BR(~e^-_R -> chi^0_3 e^-)
DECAY   1000011     3.45298657E+00   # ~e^-_L
#    BR                NDA      ID1      ID2
     1.24160047E-01    2     1000022        11   # BR(~e^-_L -> chi^0_1 e^-)
     2.32564534E-01    2     1000023        11   # BR(~e^-_L -> chi^0_2 e^-)
     2.25604163E-03    2     1000025        11   # BR(~e^-_L -> chi^0_3 e^-)
     7.51879308E-02    2     1000035        11   # BR(~e^-_L -> chi^0_4 e^-)
     3.79433049E-01    2    -1000024        12   # BR(~e^-_L -> chi^-_1 nu_e)
     1.86398390E-01    2    -1000037        12   # BR(~e^-_L -> chi^-_2 nu_e)
#    BR                NDA      ID1      ID2       ID3
DECAY   2000013     4.72680953E-01   # ~mu^-_R
#    BR                NDA      ID1      ID2
     9.93049775E-01    2     1000022        13   # BR(~mu^-_R -> chi^0_1 mu^-)
     1.75787894E-03    2     1000023        13   # BR(~mu^-_R -> chi^0_2 mu^-)
     4.24420530E-03    2     1000025        13   # BR(~mu^-_R -> chi^0_3 mu^-)
     9.48141109E-04    2    -1000024        14   # BR(~mu^-_R -> chi^-_1 nu_mu)
DECAY   1000013     3.45536895E+00   # ~mu^-_L
#    BR                NDA      ID1      ID2
     1.24145815E-01    2     1000022        13   # BR(~mu^-_L -> chi^0_1 mu^-)
     2.32652054E-01    2     1000023        13   # BR(~mu^-_L -> chi^0_2 mu^-)
     2.52714610E-03    2     1000025        13   # BR(~mu^-_L -> chi^0_3 mu^-)
     7.52269625E-02    2     1000035        13   # BR(~mu^-_L -> chi^0_4 mu^-)
     3.79120203E-01    2    -1000024        14   # BR(~mu^-_L -> chi^-_1 nu_mu)
     1.86214807E-01    2    -1000037        14   # BR(~mu^-_L -> chi^-_2 nu_mu)
     1.13007450E-04    2     2000013        25   # BR(~mu^-_L -> ~mu^-_R h^0)
#    BR                NDA      ID1      ID2       ID3
DECAY   1000015     3.94443967E-01   # ~tau^-_1
#    BR                NDA      ID1      ID2
     2.50529683E-01    2     1000022        15   # BR(~tau^-_1 -> chi^0_1 tau^-)
     3.36545080E-01    2     1000023        15   # BR(~tau^-_1 -> chi^0_2 tau^-)
     4.12925233E-01    2    -1000024        16   # BR(~tau^-_1 -> chi^-_1 nu_tau)
#    BR                NDA      ID1      ID2       ID3
DECAY   2000015     7.37334200E+00   # ~tau^-_2
#    BR                NDA      ID1      ID2
     4.00115699E-01    2     1000022        15   # BR(~tau^-_2 -> chi^0_1 tau^-)
     6.26397287E-02    2     1000023        15   # BR(~tau^-_2 -> chi^0_2 tau^-)
     1.38380934E-01    2     1000025        15   # BR(~tau^-_2 -> chi^0_3 tau^-)
     5.60253871E-02    2     1000035        15   # BR(~tau^-_2 -> chi^0_4 tau^-)
     1.19159398E-01    2    -1000024        16   # BR(~tau^-_2 -> chi^-_1 nu_tau)
     1.11948926E-01    2    -1000037        16   # BR(~tau^-_2 -> chi^-_2 nu_tau)
     5.88338159E-02    2     1000016       -24   # BR(~tau^-_2 -> ~nu_tau W^-)
     2.84379042E-02    2     1000015        23   # BR(~tau^-_2 -> ~tau^-_1 Z)
     2.44582075E-02    2     1000015        25   # BR(~tau^-_2 -> ~tau^-_1 h^0)
DECAY   1000012     3.51974063E+00   # ~nu_e
#    BR                NDA      ID1      ID2
     9.42214268E-02    2     1000022        12   # BR(~nu_e -> chi^0_1 nu_e)
     1.98353493E-01    2     1000023        12   # BR(~nu_e -> chi^0_2 nu_e)
     1.65727788E-02    2     1000025        12   # BR(~nu_e -> chi^0_3 nu_e)
     7.95925902E-02    2     1000035        12   # BR(~nu_e -> chi^0_4 nu_e)
     4.96706788E-01    2     1000024        11   # BR(~nu_e -> chi^+_1 e^-)
     1.14552923E-01    2     1000037        11   # BR(~nu_e -> chi^+_2 e^-)
DECAY   1000014     3.52152263E+00   # ~nu_mu
#    BR                NDA      ID1      ID2
     9.41595235E-02    2     1000022        14   # BR(~nu_mu -> chi^0_1 nu_mu)
     1.98219669E-01    2     1000023        14   # BR(~nu_mu -> chi^0_2 nu_mu)
     1.65598237E-02    2     1000025        14   # BR(~nu_mu -> chi^0_3 nu_mu)
     7.95225921E-02    2     1000035        14   # BR(~nu_mu -> chi^0_4 nu_mu)
     4.96880554E-01    2     1000024        13   # BR(~nu_mu -> chi^+_1 mu^-)
     1.14657838E-01    2     1000037        13   # BR(~nu_mu -> chi^+_2 mu^-)
DECAY   1000016     3.72673196E-01   # ~nu_tau
#    BR                NDA      ID1      ID2
     1.54760644E-01    2     1000022        16   # BR(~nu_tau -> chi^0_1 nu_tau)
     2.08785839E-01    2     1000023        16   # BR(~nu_tau -> chi^0_2 nu_tau)
     6.36453518E-01    2     1000024        15   # BR(~nu_tau -> chi^+_1 tau^-)
DECAY   2000001     5.29531556E+02   # ~d_R
#    BR                NDA      ID1      ID2
     9.38689348E-03    2     1000022         1   # BR(~d_R -> chi^0_1 d)
     1.18958071E-03    2     1000025         1   # BR(~d_R -> chi^0_3 d)
     9.89388259E-01    2     1000021         1   # BR(~d_R -> ~g d)
DECAY   1000001     6.60968953E+02   # ~d_L
#    BR                NDA      ID1      ID2
     1.28472626E-03    2     1000022         1   # BR(~d_L -> chi^0_1 d)
     3.60496470E-02    2     1000023         1   # BR(~d_L -> chi^0_2 d)
     1.39838001E-03    2     1000025         1   # BR(~d_L -> chi^0_3 d)
     3.05405450E-02    2     1000035         1   # BR(~d_L -> chi^0_4 d)
     6.37779955E-02    2    -1000024         2   # BR(~d_L -> chi^-_1 u)
     7.04934193E-02    2    -1000037         2   # BR(~d_L -> chi^-_2 u)
     7.96455287E-01    2     1000021         1   # BR(~d_L -> ~g d)
DECAY   2000003     5.29595412E+02   # ~s_R
#    BR                NDA      ID1      ID2
     9.39024164E-03    2     1000022         3   # BR(~s_R -> chi^0_1 s)
     1.21438118E-03    2     1000025         3   # BR(~s_R -> chi^0_3 s)
     9.89270079E-01    2     1000021         3   # BR(~s_R -> ~g s)
DECAY   1000003     6.61004679E+02   # ~s_L
#    BR                NDA      ID1      ID2
     1.28825136E-03    2     1000022         3   # BR(~s_L -> chi^0_1 s)
     3.60607936E-02    2     1000023         3   # BR(~s_L -> chi^0_2 s)
     1.41833947E-03    2     1000025         3   # BR(~s_L -> chi^0_3 s)
     3.05501660E-02    2     1000035         3   # BR(~s_L -> chi^0_4 s)
     6.37764876E-02    2    -1000024         4   # BR(~s_L -> chi^-_1 c)
     7.04932216E-02    2    -1000037         4   # BR(~s_L -> chi^-_2 c)
     7.96412740E-01    2     1000021         3   # BR(~s_L -> ~g s)
DECAY   1000005     5.15781986E+01   # ~b_1
#    BR                NDA      ID1      ID2
     6.51680712E-02    2     1000022         5   # BR(~b_1 -> chi^0_1 b)
     1.34227866E-01    2     1000023         5   # BR(~b_1 -> chi^0_2 b)
     2.05667503E-01    2     1000025         5   # BR(~b_1 -> chi^0_3 b)
     1.12564194E-01    2     1000035         5   # BR(~b_1 -> chi^0_4 b)
     2.56758324E-01    2    -1000024         6   # BR(~b_1 -> chi^-_1 t)
     2.25614042E-01    2    -1000037         6   # BR(~b_1 -> chi^-_2 t)
DECAY   2000005     2.09260793E+02   # ~b_2
#    BR                NDA      ID1      ID2
     1.47481416E-02    2     1000022         5   # BR(~b_2 -> chi^0_1 b)
     9.55941284E-02    2     1000023         5   # BR(~b_2 -> chi^0_2 b)
     7.47757361E-02    2     1000025         5   # BR(~b_2 -> chi^0_3 b)
     8.15823618E-02    2     1000035         5   # BR(~b_2 -> chi^0_4 b)
     2.28261405E-01    2    -1000024         6   # BR(~b_2 -> chi^-_1 t)
     3.63761762E-01    2    -1000037         6   # BR(~b_2 -> chi^-_2 t)
     1.40869052E-01    2     1000006       -24   # BR(~b_2 -> ~t_1 W^-)
     1.38277804E-04    2     1000005        23   # BR(~b_2 -> ~b_1 Z)
     2.69135773E-04    2     1000005        25   # BR(~b_2 -> ~b_1 h^0)
DECAY   2000002     5.46695848E+02   # ~u_R
#    BR                NDA      ID1      ID2
     3.63795075E-02    2     1000022         2   # BR(~u_R -> chi^0_1 u)
     4.61003672E-03    2     1000025         2   # BR(~u_R -> chi^0_3 u)
     9.58874747E-01    2     1000021         2   # BR(~u_R -> ~g u)
DECAY   1000002     6.60952010E+02   # ~u_L
#    BR                NDA      ID1      ID2
     2.59941838E-03    2     1000022         2   # BR(~u_L -> chi^0_1 u)
     3.74351059E-02    2     1000023         2   # BR(~u_L -> chi^0_2 u)
     2.91991633E-02    2     1000035         2   # BR(~u_L -> chi^0_4 u)
     8.74304368E-02    2     1000024         1   # BR(~u_L -> chi^+_1 d)
     4.68729506E-02    2     1000037         1   # BR(~u_L -> chi^+_2 d)
     7.96420866E-01    2     1000021         2   # BR(~u_L -> ~g u)
DECAY   2000004     5.46703163E+02   # ~c_R
#    BR                NDA      ID1      ID2
     3.63792882E-02    2     1000022         4   # BR(~c_R -> chi^0_1 c)
     4.61304893E-03    2     1000025         4   # BR(~c_R -> chi^0_3 c)
     9.58862008E-01    2     1000021         4   # BR(~c_R -> ~g c)
DECAY   1000004     6.60987703E+02   # ~c_L
#    BR                NDA      ID1      ID2
     2.59949786E-03    2     1000022         4   # BR(~c_L -> chi^0_1 c)
     3.74340796E-02    2     1000023         4   # BR(~c_L -> chi^0_2 c)
     2.91993512E-02    2     1000035         4   # BR(~c_L -> chi^0_4 c)
     8.74509602E-02    2     1000024         3   # BR(~c_L -> chi^+_1 s)
     4.68931911E-02    2     1000037         3   # BR(~c_L -> chi^+_2 s)
     7.96378314E-01    2     1000021         4   # BR(~c_L -> ~g c)
DECAY   1000006     1.40969121E+02   # ~t_1
#    BR                NDA      ID1      ID2
     6.91621792E-02    2     1000022         6   # BR(~t_1 -> chi^0_1 t)
     7.33192898E-02    2     1000023         6   # BR(~t_1 -> chi^0_2 t)
     2.16783941E-01    2     1000025         6   # BR(~t_1 -> chi^0_3 t)
     1.66689046E-01    2     1000035         6   # BR(~t_1 -> chi^0_4 t)
     1.39568128E-01    2     1000024         5   # BR(~t_1 -> chi^+_1 b)
     3.34426568E-01    2     1000037         5   # BR(~t_1 -> chi^+_2 b)
#    BR                NDA      ID1      ID2       ID3
DECAY   2000006     2.19284517E+02   # ~t_2
#    BR                NDA      ID1      ID2
     1.60750913E-02    2     1000022         6   # BR(~t_2 -> chi^0_1 t)
     1.28294520E-01    2     1000023         6   # BR(~t_2 -> chi^0_2 t)
     1.88904562E-01    2     1000025         6   # BR(~t_2 -> chi^0_3 t)
     1.49192838E-01    2     1000035         6   # BR(~t_2 -> chi^0_4 t)
     2.22679069E-01    2     1000024         5   # BR(~t_2 -> chi^+_1 b)
     1.16010763E-01    2     1000037         5   # BR(~t_2 -> chi^+_2 b)
     2.66967056E-04    2     1000005        24   # BR(~t_2 -> ~b_1 W^+)
     6.82235319E-02    2     1000006        23   # BR(~t_2 -> ~t_1 Z)
     1.10352658E-01    2     1000006        25   # BR(~t_2 -> ~t_1 h^0)
DECAY   1000024     8.63592821E-07   # chi^+_1
#    BR                NDA      ID1      ID2       ID3
     3.62133784E-01    3     1000022        -1         2   # BR(chi^+_1 -> chi^0_1 d_bar u)
     3.56096754E-01    3     1000022        -3         4   # BR(chi^+_1 -> chi^0_1 s_bar c)
     1.09521207E-01    3     1000022       -11        12   # BR(chi^+_1 -> chi^0_1 e^+ nu_e)
     1.09536531E-01    3     1000022       -13        14   # BR(chi^+_1 -> chi^0_1 mu^+ nu_mu)
     6.27024263E-02    3     1000022       -15        16   # BR(chi^+_1 -> chi^0_1 tau^+ nu_tau)
DECAY   1000037     8.60020770E-01   # chi^+_2
#    BR                NDA      ID1      ID2
     7.44998330E-02    2    -1000015        16   # BR(chi^+_2 -> ~tau^+_1 nu_tau)
     8.63164871E-02    2     1000016       -15   # BR(chi^+_2 -> ~nu_tau tau^+)
     3.75213783E-01    2     1000022        24   # BR(chi^+_2 -> chi^0_1 W^+)
     2.97707997E-01    2     1000023        24   # BR(chi^+_2 -> chi^0_2 W^+)
     1.65934876E-01    2     1000024        23   # BR(chi^+_2 -> chi^+_1 Z)
#    BR                NDA      ID1      ID2       ID3
DECAY   1000022     0.00000000E+00   # chi^0_1
DECAY   1000023     5.44325513E-07   # chi^0_2
#    BR                NDA      ID1      ID2
     1.16102522E-01    2     1000022        22   # BR(chi^0_2 -> chi^0_1 photon)
#    BR                NDA      ID1      ID2       ID3
     1.19777831E-01    3     1000022         2        -2   # BR(chi^0_2 -> chi^0_1 u u_bar)
     1.13655323E-01    3     1000022         4        -4   # BR(chi^0_2 -> chi^0_1 c c_bar)
     1.53573136E-01    3     1000022         1        -1   # BR(chi^0_2 -> chi^0_1 d d_bar)
     1.53534116E-01    3     1000022         3        -3   # BR(chi^0_2 -> chi^0_1 s s_bar)
     9.29234157E-02    3     1000022         5        -5   # BR(chi^0_2 -> chi^0_1 b b_bar)
     2.98154438E-02    3     1000022        11       -11   # BR(chi^0_2 -> chi^0_1 e^- e^+)
     2.98235626E-02    3     1000022        13       -13   # BR(chi^0_2 -> chi^0_1 mu^- mu^+)
     2.81959480E-02    3     1000022        15       -15   # BR(chi^0_2 -> chi^0_1 tau^- tau^+)
     1.62598702E-01    3     1000022        12       -12   # BR(chi^0_2 -> chi^0_1 nu_e nu_bar_e)
DECAY   1000025     4.67002286E-02   # chi^0_3
#    BR                NDA      ID1      ID2
     4.39430186E-02    2     1000015       -15   # BR(chi^0_3 -> ~tau^-_1 tau^+)
     4.39430186E-02    2    -1000015        15   # BR(chi^0_3 -> ~tau^+_1 tau^-)
     1.49182261E-02    2     1000016       -16   # BR(chi^0_3 -> ~nu_tau nu_bar_tau)
     1.49182261E-02    2    -1000016        16   # BR(chi^0_3 -> ~nu^*_tau nu_tau)
     4.83149185E-02    2     1000022        23   # BR(chi^0_3 -> chi^0_1 Z)
     2.67990314E-03    2     1000023        22   # BR(chi^0_3 -> chi^0_2 photon)
#    BR                NDA      ID1      ID2       ID3
     1.00854715E-04    3     1000022        11       -11   # BR(chi^0_3 -> chi^0_1 e^- e^+)
     1.02098021E-04    3     1000022        13       -13   # BR(chi^0_3 -> chi^0_1 mu^- mu^+)
     1.81620361E-02    3     1000023         2        -2   # BR(chi^0_3 -> chi^0_2 u u_bar)
     1.81180514E-02    3     1000023         4        -4   # BR(chi^0_3 -> chi^0_2 c c_bar)
     2.32870065E-02    3     1000023         1        -1   # BR(chi^0_3 -> chi^0_2 d d_bar)
     2.32867679E-02    3     1000023         3        -3   # BR(chi^0_3 -> chi^0_2 s s_bar)
     2.28126559E-02    3     1000023         5        -5   # BR(chi^0_3 -> chi^0_2 b b_bar)
     5.30326054E-03    3     1000023        11       -11   # BR(chi^0_3 -> chi^0_2 e^- e^+)
     5.30519264E-03    3     1000023        13       -13   # BR(chi^0_3 -> chi^0_2 mu^- mu^+)
     5.25900543E-03    3     1000023        15       -15   # BR(chi^0_3 -> chi^0_2 tau^- tau^+)
     3.13828780E-02    3     1000023        12       -12   # BR(chi^0_3 -> chi^0_2 nu_e nu_bar_e)
     1.12899874E-01    3     1000024         1        -2   # BR(chi^0_3 -> chi^+_1 d u_bar)
     1.12899874E-01    3    -1000024        -1         2   # BR(chi^0_3 -> chi^-_1 d_bar u)
     1.12830710E-01    3     1000024         3        -4   # BR(chi^0_3 -> chi^+_1 s c_bar)
     1.12830710E-01    3    -1000024        -3         4   # BR(chi^0_3 -> chi^-_1 s_bar c)
     3.78445833E-02    3     1000024        11       -12   # BR(chi^0_3 -> chi^+_1 e^- nu_bar_e)
     3.78445833E-02    3    -1000024       -11        12   # BR(chi^0_3 -> chi^-_1 e^+ nu_e)
     3.78479189E-02    3     1000024        13       -14   # BR(chi^0_3 -> chi^+_1 mu^- nu_bar_mu)
     3.78479189E-02    3    -1000024       -13        14   # BR(chi^0_3 -> chi^-_1 mu^+ nu_mu)
     3.76516653E-02    3     1000024        15       -16   # BR(chi^0_3 -> chi^+_1 tau^- nu_bar_tau)
     3.76516653E-02    3    -1000024       -15        16   # BR(chi^0_3 -> chi^-_1 tau^+ nu_tau)
DECAY   1000035     1.00882953E+00   # chi^0_4
#    BR                NDA      ID1      ID2
     3.26769701E-02    2     1000015       -15   # BR(chi^0_4 -> ~tau^-_1 tau^+)
     3.26769701E-02    2    -1000015        15   # BR(chi^0_4 -> ~tau^+_1 tau^-)
     3.27066097E-02    2     1000016       -16   # BR(chi^0_4 -> ~nu_tau nu_bar_tau)
     3.27066097E-02    2    -1000016        16   # BR(chi^0_4 -> ~nu^*_tau nu_tau)
     2.53877226E-01    2     1000024       -24   # BR(chi^0_4 -> chi^+_1 W^-)
     2.53877226E-01    2    -1000024        24   # BR(chi^0_4 -> chi^-_1 W^+)
     2.94618497E-01    2     1000022        23   # BR(chi^0_4 -> chi^0_1 Z)
     6.68297473E-04    2     1000023        23   # BR(chi^0_4 -> chi^0_2 Z)
     6.59145216E-02    2     1000022        25   # BR(chi^0_4 -> chi^0_1 h^0)
#    BR                NDA      ID1      ID2       ID3
DECAY   1000021     6.10340852E+01   # ~g
#    BR                NDA      ID1      ID2
     1.18245084E-04    2     1000006        -4   # BR(~g -> ~t_1 c_bar)
     1.18245084E-04    2    -1000006         4   # BR(~g -> ~t^*_1 c)
     1.87595769E-01    2     1000006        -6   # BR(~g -> ~t_1 t_bar)
     1.87595769E-01    2    -1000006         6   # BR(~g -> ~t^*_1 t)
     3.04001138E-01    2     1000005        -5   # BR(~g -> ~b_1 b_bar)
     3.04001138E-01    2    -1000005         5   # BR(~g -> ~b^*_1 b)
     1.36504330E-03    2     2000005        -5   # BR(~g -> ~b_2 b_bar)
     1.36504330E-03    2    -2000005         5   # BR(~g -> ~b^*_2 b)
#    BR                NDA      ID1      ID2       ID3
     2.61997468E-04    3     1000022         6        -6   # BR(~g -> chi^0_1 t t_bar)
     2.10026945E-03    3     1000023         6        -6   # BR(~g -> chi^0_2 t t_bar)
     3.07687380E-03    3     1000025         6        -6   # BR(~g -> chi^0_3 t t_bar)
     2.50896681E-03    3     1000035         6        -6   # BR(~g -> chi^0_4 t t_bar)
     1.83742427E-03    3     1000024         5        -6   # BR(~g -> chi^+_1 b t_bar)
     1.83742427E-03    3    -1000024        -5         6   # BR(~g -> chi^-_1 b_bar t)
     9.49982904E-04    3     1000037         5        -6   # BR(~g -> chi^+_2 b t_bar)
     9.49982904E-04    3    -1000037        -5         6   # BR(~g -> chi^-_2 b_bar t)
DECAY        25     3.91105812E-03   # Gamma(h0)
     2.49182201E-03   2        22        22   # BR(h0 -> photon photon)
     1.79683542E-03   2        22        23   # BR(h0 -> photon Z)
     3.56744980E-02   2        23        23   # BR(h0 -> Z Z)
     2.82793992E-01   2       -24        24   # BR(h0 -> W W)
     7.56332275E-02   2        21        21   # BR(h0 -> gluon gluon)
     4.67053712E-09   2       -11        11   # BR(h0 -> Electron electron)
     2.07754582E-04   2       -13        13   # BR(h0 -> Muon muon)
     5.99559906E-02   2       -15        15   # BR(h0 -> Tau tau)
     1.30701209E-07   2        -2         2   # BR(h0 -> Up up)
     2.53670467E-02   2        -4         4   # BR(h0 -> Charm charm)
     5.36738229E-07   2        -1         1   # BR(h0 -> Down down)
     1.94125660E-04   2        -3         3   # BR(h0 -> Strange strange)
     5.15884035E-01   2        -5         5   # BR(h0 -> Bottom bottom)
DECAY        35     6.73430979E+01   # Gamma(HH)
     3.52618276E-08   2        22        22   # BR(HH -> photon photon)
     1.49052325E-07   2        22        23   # BR(HH -> photon Z)
     7.21840600E-07   2        23        23   # BR(HH -> Z Z)
     3.62633368E-07   2       -24        24   # BR(HH -> W W)
     1.00537861E-05   2        21        21   # BR(HH -> gluon gluon)
     7.96519263E-09   2       -11        11   # BR(HH -> Electron electron)
     3.54607767E-04   2       -13        13   # BR(HH -> Muon muon)
     1.08846132E-01   2       -15        15   # BR(HH -> Tau tau)
     4.62453620E-14   2        -2         2   # BR(HH -> Up up)
     8.97030487E-09   2        -4         4   # BR(HH -> Charm charm)
     6.23971407E-04   2        -6         6   # BR(HH -> Top top)
     5.48839136E-07   2        -1         1   # BR(HH -> Down down)
     1.98507864E-04   2        -3         3   # BR(HH -> Strange strange)
     4.77657176E-01   2        -5         5   # BR(HH -> Bottom bottom)
     7.71001972E-02   2  -1000024   1000024   # BR(HH -> Chargino1 chargino1)
     6.30388707E-02   2  -1000024   1000037   # BR(HH -> Chargino1 chargino2)
     6.30388707E-02   2  -1000037   1000024   # BR(HH -> Chargino2 chargino1)
     3.04674096E-02   2  -1000037   1000037   # BR(HH -> Chargino2 chargino2)
     3.19799184E-02   2   1000022   1000022   # BR(HH -> neutralino1 neutralino1)
     2.60862772E-02   2   1000022   1000023   # BR(HH -> neutralino1 neutralino2)
     1.32952028E-02   2   1000022   1000025   # BR(HH -> neutralino1 neutralino3)
     8.73045777E-05   2   1000022   1000035   # BR(HH -> neutralino1 neutralino4)
     4.79618331E-03   2   1000023   1000023   # BR(HH -> neutralino2 neutralino2)
     4.61850815E-03   2   1000023   1000025   # BR(HH -> neutralino2 neutralino3)
     2.09005771E-05   2   1000023   1000035   # BR(HH -> neutralino2 neutralino4)
     7.92512628E-03   2   1000025   1000025   # BR(HH -> neutralino3 neutralino3)
     3.91385471E-02   2   1000025   1000035   # BR(HH -> neutralino3 neutralino4)
     2.19109404E-02   2   1000035   1000035   # BR(HH -> neutralino4 neutralino4)
     4.28990238E-06   2        25        25   # BR(HH -> h0 h0)
     7.23709389E-08   2  -1000011   1000011   # BR(HH -> Selectron1 selectron1)
     4.76256645E-14   2  -2000011   1000011   # BR(HH -> Selectron2 selectron1)
     4.76256645E-14   2  -1000011   2000011   # BR(HH -> Selectron1 selectron2)
     1.01527324E-07   2  -2000011   2000011   # BR(HH -> Selectron2 selectron2)
     7.12881602E-08   2  -1000013   1000013   # BR(HH -> Smuon1 smuon1)
     2.03568780E-09   2  -2000013   1000013   # BR(HH -> Smuon2 smuon1)
     2.03568780E-09   2  -1000013   2000013   # BR(HH -> Smuon1 smuon2)
     1.01145693E-07   2  -2000013   2000013   # BR(HH -> Smuon2 smuon2)
     1.45869634E-04   2  -1000015   1000015   # BR(HH -> Stau1 stau1)
     1.42743952E-02   2  -2000015   1000015   # BR(HH -> Stau2 stau1)
     1.42743952E-02   2  -1000015   2000015   # BR(HH -> Stau1 stau2)
     1.03131398E-04   2  -2000015   2000015   # BR(HH -> Stau2 stau2)
DECAY        36     6.51997213E+01   # Gamma(A0)
     1.39305806E-07   2        22        22   # BR(A0 -> photon photon)
     2.65583235E-07   2        22        23   # BR(A0 -> photon Z)
     1.87256347E-05   2        21        21   # BR(A0 -> gluon gluon)
     7.77954779E-09   2       -11        11   # BR(A0 -> Electron electron)
     3.46342637E-04   2       -13        13   # BR(A0 -> Muon muon)
     1.06309965E-01   2       -15        15   # BR(A0 -> Tau tau)
     4.41413673E-14   2        -2         2   # BR(A0 -> Up up)
     8.56107349E-09   2        -4         4   # BR(A0 -> Charm charm)
     6.13887906E-04   2        -6         6   # BR(A0 -> Top top)
     5.36017458E-07   2        -1         1   # BR(A0 -> Down down)
     1.93870819E-04   2        -3         3   # BR(A0 -> Strange strange)
     4.66506496E-01   2        -5         5   # BR(A0 -> Bottom bottom)
     8.97285975E-02   2  -1000024   1000024   # BR(A0 -> Chargino1 chargino1)
     5.52453152E-02   2  -1000024   1000037   # BR(A0 -> Chargino1 chargino2)
     5.52453152E-02   2  -1000037   1000024   # BR(A0 -> Chargino2 chargino1)
     4.11966317E-02   2  -1000037   1000037   # BR(A0 -> Chargino2 chargino2)
     3.76016969E-02   2   1000022   1000022   # BR(A0 -> neutralino1 neutralino1)
     2.56336213E-02   2   1000022   1000023   # BR(A0 -> neutralino1 neutralino2)
     1.05539484E-02   2   1000022   1000025   # BR(A0 -> neutralino1 neutralino3)
     1.62516488E-04   2   1000022   1000035   # BR(A0 -> neutralino1 neutralino4)
     4.83629557E-03   2   1000023   1000023   # BR(A0 -> neutralino2 neutralino2)
     4.55148764E-03   2   1000023   1000025   # BR(A0 -> neutralino2 neutralino3)
     1.33906342E-04   2   1000023   1000035   # BR(A0 -> neutralino2 neutralino4)
     8.12911893E-03   2   1000025   1000025   # BR(A0 -> neutralino3 neutralino3)
     3.45821083E-02   2   1000025   1000035   # BR(A0 -> neutralino3 neutralino4)
     2.86591070E-02   2   1000035   1000035   # BR(A0 -> neutralino4 neutralino4)
     1.01521671E-06   2        23        25   # BR(A0 -> Z h0)
     9.64402566E-39   2        25        25   # BR(A0 -> h0 h0)
     4.96203280E-14   2  -2000011   1000011   # BR(A0 -> Selectron2 selectron1)
     4.96203280E-14   2  -1000011   2000011   # BR(A0 -> Selectron1 selectron2)
     2.12142444E-09   2  -2000013   1000013   # BR(A0 -> Smuon2 smuon1)
     2.12142444E-09   2  -1000013   2000013   # BR(A0 -> Smuon1 smuon2)
     1.48745344E-02   2  -2000015   1000015   # BR(A0 -> Stau2 stau1)
     1.48745344E-02   2  -1000015   2000015   # BR(A0 -> Stau1 stau2)
DECAY        37     6.92976884E+01   # Gamma(Hp)
     8.12899291E-09   2       -11        12   # BR(Hp -> Electron nu_e)
     3.47539835E-04   2       -13        14   # BR(Hp -> Muon nu_mu)
     9.83039535E-02   2       -15        16   # BR(Hp -> Tau nu_tau)
     5.37337002E-07   2        -1         2   # BR(Hp -> Down up)
     9.03058507E-06   2        -3         2   # BR(Hp -> Strange up)
     5.30638124E-06   2        -5         2   # BR(Hp -> Bottom up)
     2.54343151E-08   2        -1         4   # BR(Hp -> Down charm)
     1.93649293E-04   2        -3         4   # BR(Hp -> Strange charm)
     7.43082952E-04   2        -5         4   # BR(Hp -> Bottom charm)
     4.87198478E-08   2        -1         6   # BR(Hp -> Down top)
     1.34565856E-06   2        -3         6   # BR(Hp -> Strange top)
     5.00253514E-01   2        -5         6   # BR(Hp -> Bottom top)
     1.69191995E-04   2   1000022   1000024   # BR(Hp -> neutralino1 chargino1)
     1.27309661E-01   2   1000022   1000037   # BR(Hp -> neutralino1 chargino2)
     5.41824461E-02   2   1000023   1000024   # BR(Hp -> neutralino2 chargino1)
     5.59368820E-04   2   1000023   1000037   # BR(Hp -> neutralino2 chargino2)
     3.44399905E-02   2   1000024   1000025   # BR(Hp -> chargino1 neutralino3)
     5.56590504E-02   2   1000025   1000037   # BR(Hp -> neutralino3 chargino2)
     9.94048586E-02   2   1000024   1000035   # BR(Hp -> chargino1 neutralino4)
     3.68150210E-04   2   1000035   1000037   # BR(Hp -> neutralino4 chargino2)
     9.58355385E-07   2        24        25   # BR(Hp -> W h0)
     7.68968756E-13   2        24        35   # BR(Hp -> W HH)
     9.79793222E-14   2        24        36   # BR(Hp -> W A0)
     7.98722602E-14   2  -1000011   1000012   # BR(Hp -> Selectron1 snu_e1)
     3.86134602E-07   2  -2000011   1000012   # BR(Hp -> Selectron2 snu_e1)
     3.41542933E-09   2  -1000013   1000014   # BR(Hp -> Smuon1 snu_mu1)
     3.85592661E-07   2  -2000013   1000014   # BR(Hp -> Smuon2 snu_mu1)
     7.82960273E-05   2  -1000015   1000016   # BR(Hp -> Stau1 snu_tau1)
     2.79692107E-02   2  -2000015   1000016   # BR(Hp -> Stau2 snu_tau1)
DECAY         6     2.43000000E+00   # top
#    BR                NDA      ID1      ID2
     1.00000000E+00    2           5        24   # BR(t -> b W)
Block HiggsBoundsInputHiggsCouplingsFermions
# ScalarNormEffCoupSq PseudoSNormEffCoupSq NP IP1 IP2 IP2
    9.55039395E-01    0.00000000E+00        3  25   5   5  # h0-b-b eff. coupling^2, normalised to SM
    1.54608316E+03    0.00000000E+00        3  35   5   5  # H0-b-b eff. coupling^2, normalised to SM
    0.00000000E+00    1.54603819E+03        3  36   5   5  # A0-b-b eff. coupling^2, normalised to SM
#
    1.00002908E+00    0.00000000E+00        3  25   6   6  # h0-t-t eff. coupling^2, normalised to SM
    6.17733377E-04    0.00000000E+00        3  35   6   6  # H0-t-t eff. coupling^2, normalised to SM
    0.00000000E+00    6.46814551E-04        3  36   6   6  # A0-t-t eff. coupling^2, normalised to SM
#
    9.55039395E-01    0.00000000E+00        3  25  15  15  # h0-tau-tau eff. coupling^2, normalised to SM
    1.54608316E+03    0.00000000E+00        3  35  15  15  # H0-tau-tau eff. coupling^2, normalised to SM
    0.00000000E+00    1.54603819E+03        3  36  15  15  # A0-tau-tau eff. coupling^2, normalised to SM
#
Block HiggsBoundsInputHiggsCouplingsBosons
    9.99999666E-01        3  25  24  24  # h0-W-W eff. coupling^2, normalised to SM
    3.34433378E-07        3  35  24  24  # H0-W-W eff. coupling^2, normalised to SM
    0.00000000E+00        3  36  24  24  # A0-W-W eff. coupling^2, normalised to SM
#
    9.99999666E-01        3  25  23  23  # h0-Z-Z eff. coupling^2, normalised to SM
    3.34433378E-07        3  35  23  23  # H0-Z-Z eff. coupling^2, normalised to SM
    0.00000000E+00        3  36  23  23  # A0-Z-Z eff. coupling^2, normalised to SM
#
    1.26628634E+00        3  25  21  21  # h0-g-g eff. coupling^2, normalised to SM
    9.57144160E-03        3  35  21  21  # H0-g-g eff. coupling^2, normalised to SM
    1.30330364E-01        3  36  21  21  # A0-g-g eff. coupling^2, normalised to SM
#
    0.00000000E+00        3  25  25  23  # h0-h0-Z eff. coupling^2, normalised to SM
    0.00000000E+00        3  35  25  23  # H0-h0-Z eff. coupling^2, normalised to SM
    3.34433378E-07        3  36  25  23  # A0-h0-Z eff. coupling^2, normalised to SM
    0.00000000E+00        3  35  35  23  # H0-H0-Z eff. coupling^2, normalised to SM
    9.99999666E-01        3  36  35  23  # A0-H0-Z eff. coupling^2, normalised to SM
    0.00000000E+00        3  36  36  23  # A0-A0-Z eff. coupling^2, normalised to SM
#
    0.00000000E+00        4  25  21  21  23  # h0-g-g-Z eff. coupling^2, normalised to SM
    0.00000000E+00        4  35  21  21  23  # H0-g-g-Z eff. coupling^2, normalised to SM
    0.00000000E+00        4  36  21  21  23  # A0-g-g-Z eff. coupling^2, normalised to SM
Block SPhenoLowEnergy  # low energy observables
    1    3.37912549E-04   # BR(b -> s gamma)
    2    1.58796264E-06   # BR(b -> s mu+ mu-)
    3    3.52435983E-05   # BR(b -> s nu nu)
    4    2.38284340E-15   # BR(Bd -> e+ e-)
    5    1.01792752E-10   # BR(Bd -> mu+ mu-)
    6    2.13325834E-08   # BR(Bd -> tau+ tau-)
    7    7.95743537E-14   # BR(Bs -> e+ e-)
    8    3.39942708E-09   # BR(Bs -> mu+ mu-)
    9    7.21851326E-07   # BR(Bs -> tau+ tau-)
   10    9.45619973E-05   # BR(B_u -> tau nu)
   11    9.76789229E-01   # BR(B_u -> tau nu)/BR(B_u -> tau nu)_SM
   12    5.42049340E-01   # |Delta(M_Bd)| [ps^-1] 
   13    1.93567768E+01   # |Delta(M_Bs)| [ps^-1] 
   14    0.00000000E+00   # neutron EDM according to the chiral quark model
   15    0.00000000E+00   # neutron EDM according to the relativistic quark-parton model
   16    2.15772515E-03   # epsilon_K
   17    2.28166481E-15   # Delta(M_K)
   18    2.47935074E-11   # BR(K^0 -> pi^0 nu nu)
   19    8.28894405E-11   # BR(K^+ -> pi^+ nu nu)
   20   -4.88101921E-14   # Delta(g-2)_electron/2
   21   -2.09837878E-09   # Delta(g-2)_muon/2
   22   -3.94996823E-07   # Delta(g-2)_tau/2
   23    0.00000000E+00   # electric dipole moment of the electron
   24    0.00000000E+00   # electric dipole moment of the muon
   25    0.00000000E+00   # electric dipole moment of the tau
   26    0.00000000E+00   # Br(mu -> e gamma)
   27    0.00000000E+00   # Br(tau -> e gamma)
   28    0.00000000E+00   # Br(tau -> mu gamma)
   29    0.00000000E+00   # Br(mu -> 3 e)
   30    0.00000000E+00   # Br(tau -> 3 e)
   31    0.00000000E+00   # Br(tau -> 3 mu)
   39    3.78303368E-04   # Delta(rho_parameter)
   40    0.00000000E+00   # BR(Z -> e mu)
   41    0.00000000E+00   # BR(Z -> e tau)
   42    0.00000000E+00   # BR(Z -> mu tau)
Block FWCOEF Q=  1.60000000E+02  # Wilson coefficients at scale Q
#    id        order  M        value         comment
     0305 4422   00   0    -1.88819110E-01   # C7
     0305 4422   00   2    -2.07593659E-01   # C7
     0305 4322   00   2    -2.83019308E-04   # C7'
     0305 6421   00   0    -9.52278348E-02   # C8
     0305 6421   00   2    -1.13858288E-01   # C8
     0305 6321   00   2    -3.28366748E-04   # C8'
 03051111 4133   00   0     1.62518683E+00   # C9 e+e-
 03051111 4133   00   2     1.62535022E+00   # C9 e+e-
 03051111 4233   00   2     2.91457426E-04   # C9' e+e-
 03051111 4137   00   0    -4.44787894E+00   # C10 e+e-
 03051111 4137   00   2    -4.44531027E+00   # C10 e+e-
 03051111 4237   00   2    -2.16154599E-03   # C10' e+e-
 03051313 4133   00   0     1.62518683E+00   # C9 mu+mu-
 03051313 4133   00   2     1.62534788E+00   # C9 mu+mu-
 03051313 4233   00   2     2.91455749E-04   # C9' mu+mu-
 03051313 4137   00   0    -4.44787894E+00   # C10 mu+mu-
 03051313 4137   00   2    -4.44531261E+00   # C10 mu+mu-
 03051313 4237   00   2    -2.16154631E-03   # C10' mu+mu-
 03051212 4137   00   0     1.50535012E+00   # C11 nu_1 nu_1
 03051212 4137   00   2     1.50481350E+00   # C11 nu_1 nu_1
 03051212 4237   00   2     4.67552597E-04   # C11' nu_1 nu_1
 03051414 4137   00   0     1.50535012E+00   # C11 nu_2 nu_2
 03051414 4137   00   2     1.50481350E+00   # C11 nu_2 nu_2
 03051414 4237   00   2     4.67552843E-04   # C11' nu_2 nu_2
 03051616 4137   00   0     1.50535012E+00   # C11 nu_3 nu_3
 03051616 4137   00   2     1.50481792E+00   # C11 nu_3 nu_3
 03051616 4237   00   2     4.67622327E-04   # C11' nu_3 nu_3
Block IMFWCOEF Q=  1.60000000E+02  # Im(Wilson coefficients) at scale Q
#    id        order  M        value         comment
     0305 4422   00   0     3.85805569E-07   # C7
     0305 4422   00   2     7.52236708E-06   # C7
     0305 4322   00   2    -7.87290279E-07   # C7'
     0305 6421   00   0     3.30467984E-07   # C8
     0305 6421   00   2    -6.28125142E-06   # C8
     0305 6321   00   2    -4.99290900E-07   # C8'
 03051111 4133   00   2    -5.47982131E-07   # C9 e+e-
 03051111 4233   00   2     6.52265324E-06   # C9' e+e-
 03051111 4137   00   2     2.13727734E-06   # C10 e+e-
 03051111 4237   00   2    -4.83798920E-05   # C10' e+e-
 03051313 4133   00   2    -5.48020830E-07   # C9 mu+mu-
 03051313 4233   00   2     6.52264366E-06   # C9' mu+mu-
 03051313 4137   00   2     2.13732557E-06   # C10 mu+mu-
 03051313 4237   00   2    -4.83799180E-05   # C10' mu+mu-
 03051212 4137   00   2    -1.20947725E-07   # C11 nu_1 nu_1
 03051212 4237   00   2     1.04648574E-05   # C11' nu_1 nu_1
 03051414 4137   00   2    -1.20944508E-07   # C11 nu_2 nu_2
 03051414 4237   00   2     1.04648574E-05   # C11' nu_2 nu_2
 03051616 4137   00   2    -7.87268265E-08   # C11 nu_3 nu_3
 03051616 4237   00   2     1.04648606E-05   # C11' nu_3 nu_3
