#
#                              ======================
#                              | THE SUSYHIT OUTPUT |
#                              ======================
#
#
#              ------------------------------------------------------
#              |     This is the output of the SUSY-HIT package     |
#              |  created by A.Djouadi, M.Muehlleitner and M.Spira. |
#              |  In case of problems with SUSY-HIT email to        |
#              |           margarete.muehlleitner@cern.ch           |
#              |           michael.spira@psi.ch                     |
#              |           abdelhak.djouadi@cern.ch                 |
#              ------------------------------------------------------
#
#              ------------------------------------------------------
#              |  SUSY Les Houches Accord - MSSM Spectrum + Decays  |
#              |              based on the decay programs           |
#              |                                                    |
#              |                     SDECAY 1.3b                    |
#              |                                                    |
#              |  Authors: M.Muhlleitner, A.Djouadi and Y.Mambrini  |
#              |  Ref.:    Comput.Phys.Commun.168(2005)46           |
#              |           [hep-ph/0311167]                         |
#              |                                                    |
#              |                     HDECAY 3.4                     |
#              |                                                    |
#              |  By: A.Djouadi,J.Kalinowski,M.Muhlleitner,M.Spira  |
#              |  Ref.:    Comput.Phys.Commun.108(1998)56           |
#              |           [hep-ph/9704448]                         |
#              |                                                    |
#              |                                                    |
#              |  If not stated otherwise all DRbar couplings and   |
#              |  soft SUSY breaking masses are given at the scale  |
#              |  Q=  0.18970470E+04
#              |                                                    |
#              ------------------------------------------------------
#
#
BLOCK DCINFO  # Decay Program information
     1   SDECAY/HDECAY # decay calculator
     2   1.3b  /3.4    # version number
#
BLOCK SPINFO  # Spectrum calculator information
     1     SOFTSUSY    # spectrum calculator               
     2     3.4.0       # version number                    
#
BLOCK MODSEL  # Model selection
     1     0   #  nonUniversal                                     
#
BLOCK SMINPUTS  # Standard Model inputs
         1     1.27908970E+02   # alpha_em^-1(M_Z)^MSbar
         2     1.16637870E-05   # G_F [GeV^-2]
         3     1.18400000E-01   # alpha_S(M_Z)^MSbar
         4     9.11876000E+01   # M_Z pole mass
         5     4.18000000E+00   # mb(mb)^MSbar
         6     1.73200000E+02   # mt pole mass
         7     1.77700000E+00   # mtau pole mass
#
BLOCK MINPAR  # Input parameters - minimal models
         3     5.33000000E+00   # tanb                
#
BLOCK EXTPAR  # Input parameters - non-minimal models
         0    -1.00000000E+00   # Set                 
         1     6.20160000E+02   # M_1(MX)             
         2     3.57800000E+03   # M_2(MX)             
         3     3.30787000E+03   # M_3(MX)             
        11     4.87013000E+03   # At(MX)              
        12     3.94644000E+03   # Ab(MX)              
        13     2.90560000E+03   # Atau(MX)            
        23    -3.39920000E+02   # mu(MX)              
        26     9.61680000E+02   # mA(pole)            
        31     1.98091000E+03   # meL(MX)             
        32     1.98091000E+03   # mmuL(MX)            
        33     3.02269000E+03   # mtauL(MX)           
        34     1.60162000E+03   # meR(MX)             
        35     1.60162000E+03   # mmuR(MX)            
        36     1.40729000E+03   # mtauR(MX)           
        41     1.37683000E+03   # mqL1(MX)            
        42     1.37683000E+03   # mqL2(MX)            
        43     1.21663000E+03   # mqL3(MX)            
        44     3.79639000E+03   # muR(MX)             
        45     3.79639000E+03   # mcR(MX)             
        46     2.99477000E+03   # mtR(MX)             
        47     3.97779000E+03   # mdR(MX)             
        48     3.97779000E+03   # msR(MX)             
        49     3.35694000E+03   # mbR(MX)             
#
BLOCK MASS  # Mass Spectrum
# PDG code           mass       particle
        24     8.04143539E+01   # W+
        25     1.27869421E+02   # h
        35     9.62472158E+02   # H
        36     9.61680085E+02   # A
        37     9.65076081E+02   # H+
         5     4.81876030E+00   # b-quark pole mass calculated from mb(mb)_Msbar
   1000001     1.41278740E+03   # ~d_L
   2000001     4.01558849E+03   # ~d_R
   1000002     1.41087177E+03   # ~u_L
   2000002     3.83977850E+03   # ~u_R
   1000003     1.41278740E+03   # ~s_L
   2000003     4.01558849E+03   # ~s_R
   1000004     1.41087177E+03   # ~c_L
   2000004     3.83977850E+03   # ~c_R
   1000005     1.22924584E+03   # ~b_1
   2000005     3.40664535E+03   # ~b_2
   1000006     1.20463329E+03   # ~t_1
   2000006     2.98802140E+03   # ~t_2
   1000011     1.98941290E+03   # ~e_L
   2000011     1.60057323E+03   # ~e_R
   1000012     1.98768808E+03   # ~nu_eL
   1000013     1.98941290E+03   # ~mu_L
   2000013     1.60057323E+03   # ~mu_R
   1000014     1.98768808E+03   # ~nu_muL
   1000015     1.40581916E+03   # ~tau_1
   2000015     3.03406617E+03   # ~tau_2
   1000016     3.03281471E+03   # ~nu_tauL
   1000021     3.35175198E+03   # ~g
   1000022     3.51807688E+02   # ~chi_10
   1000023    -3.56295143E+02   # ~chi_20
   1000025     6.22023789E+02   # ~chi_30
   1000035     3.52728366E+03   # ~chi_40
   1000024     3.55043936E+02   # ~chi_1+
   1000037     3.52744834E+03   # ~chi_2+
#
BLOCK NMIX  # Neutralino Mixing Matrix
  1  1    -8.90569625E-02   # N_11
  1  2     1.35286216E-02   # N_12
  1  3     7.07942093E-01   # N_13
  1  4     7.00502553E-01   # N_14
  2  1    -3.70152197E-02   # N_21
  2  2     1.67543741E-02   # N_22
  2  3    -7.05291325E-01   # N_23
  2  4     7.07752295E-01   # N_24
  3  1     9.95338432E-01   # N_31
  3  2     2.20556592E-03   # N_32
  3  3     3.71144700E-02   # N_33
  3  4     8.89890884E-02   # N_34
  4  1    -3.70386530E-04   # N_41
  4  2     9.99765674E-01   # N_42
  4  3     2.15788124E-03   # N_43
  4  4    -2.15360984E-02   # N_44
#
BLOCK UMIX  # Chargino Mixing Matrix U
  1  1    -3.04829957E-03   # U_11
  1  2     9.99995354E-01   # U_12
  2  1    -9.99995354E-01   # U_21
  2  2    -3.04829957E-03   # U_22
#
BLOCK VMIX  # Chargino Mixing Matrix V
  1  1     3.04444119E-02   # V_11
  1  2    -9.99536461E-01   # V_12
  2  1    -9.99536461E-01   # V_21
  2  2    -3.04444119E-02   # V_22
#
BLOCK STOPMIX  # Stop Mixing Matrix
  1  1     9.94810431E-01   # cos(theta_t)
  1  2    -1.01745793E-01   # sin(theta_t)
  2  1     1.01745793E-01   # -sin(theta_t)
  2  2     9.94810431E-01   # cos(theta_t)
#
BLOCK SBOTMIX  # Sbottom Mixing Matrix
  1  1     9.99999109E-01   # cos(theta_b)
  1  2    -1.33491543E-03   # sin(theta_b)
  2  1     1.33491543E-03   # -sin(theta_b)
  2  2     9.99999109E-01   # cos(theta_b)
#
BLOCK STAUMIX  # Stau Mixing Matrix
  1  1    -1.14110504E-03   # cos(theta_tau)
  1  2     9.99999349E-01   # sin(theta_tau)
  2  1    -9.99999349E-01   # -sin(theta_tau)
  2  2    -1.14110504E-03   # cos(theta_tau)
#
BLOCK ALPHA  # Higgs mixing
          -1.99047366E-01   # Mixing angle in the neutral Higgs boson sector
#
BLOCK HMIX Q=  1.89704700E+03  # DRbar Higgs Parameters
         1    -3.44872709E+02   # mu(Q)MSSM           
         2     5.08772737E+00   # tan                 
         3     2.43364672E+02   # higgs               
         4     9.44087892E+05   # mA^2(Q)MSSM         
#
BLOCK GAUGE Q=  1.89704700E+03  # The gauge couplings
     1     3.63605831E-01   # gprime(Q) DRbar
     2     6.36891620E-01   # g(Q) DRbar
     3     1.01865125E+00   # g3(Q) DRbar
#
BLOCK AU Q=  1.89704700E+03  # The trilinear couplings
  1  1     0.00000000E+00   # A_u(Q) DRbar
  2  2     0.00000000E+00   # A_c(Q) DRbar
  3  3     4.87013001E+03   # A_t(Q) DRbar
#
BLOCK AD Q=  1.89704700E+03  # The trilinear couplings
  1  1     0.00000000E+00   # A_d(Q) DRbar
  2  2     0.00000000E+00   # A_s(Q) DRbar
  3  3     3.94644000E+03   # A_b(Q) DRbar
#
BLOCK AE Q=  1.89704700E+03  # The trilinear couplings
  1  1     0.00000000E+00   # A_e(Q) DRbar
  2  2     0.00000000E+00   # A_mu(Q) DRbar
  3  3     2.90560000E+03   # A_tau(Q) DRbar
#
BLOCK Yu Q=  1.89704700E+03  # The Yukawa couplings
  1  1     0.00000000E+00   # y_u(Q) DRbar
  2  2     0.00000000E+00   # y_c(Q) DRbar
  3  3     8.69552554E-01   # y_t(Q) DRbar
#
BLOCK Yd Q=  1.89704700E+03  # The Yukawa couplings
  1  1     0.00000000E+00   # y_d(Q) DRbar
  2  2     0.00000000E+00   # y_s(Q) DRbar
  3  3     7.21029869E-02   # y_b(Q) DRbar
#
BLOCK Ye Q=  1.89704700E+03  # The Yukawa couplings
  1  1     0.00000000E+00   # y_e(Q) DRbar
  2  2     0.00000000E+00   # y_mu(Q) DRbar
  3  3     5.28611394E-02   # y_tau(Q) DRbar
#
BLOCK MSOFT Q=  1.89704700E+03  # The soft SUSY breaking masses at the scale Q
         1     6.20160000E+02   # M_1(Q)              
         2     3.57800000E+03   # M_2(Q)              
         3     3.30787000E+03   # M_3(Q)              
        21     7.80807003E+05   # mH1^2(Q)            
        22    -9.54701935E+04   # mH2^2(Q)            
        31     1.98091000E+03   # meL(Q)              
        32     1.98091000E+03   # mmuL(Q)             
        33     3.02269000E+03   # mtauL(Q)            
        34     1.60162000E+03   # meR(Q)              
        35     1.60162000E+03   # mmuR(Q)             
        36     1.40729000E+03   # mtauR(Q)            
        41     1.37682999E+03   # mqL1(Q)             
        42     1.37682999E+03   # mqL2(Q)             
        43     1.21662998E+03   # mqL3(Q)             
        44     3.79639000E+03   # muR(Q)              
        45     3.79639000E+03   # mcR(Q)              
        46     2.99476999E+03   # mtR(Q)              
        47     3.97779000E+03   # mdR(Q)              
        48     3.97779000E+03   # msR(Q)              
        49     3.35694000E+03   # mbR(Q)              
#
Block HiggsBoundsInputHiggsCouplingsFermions
# ScalarNormEffCoupSq PseudoSNormEffCoupSq NP   IP1 IP2 IP2
    1.05118527E+00    0.00000000E+00        3  25   5   5  # h0-b-b eff. coupling^2, normalised to SM
    2.58337845E+01    0.00000000E+00        3  35   5   5  # H0-b-b eff. coupling^2, normalised to SM
    0.00000000E+00    2.58849698E+01        3  36   5   5  # A0-b-b eff. coupling^2, normalised to SM
#
    9.98022587E-01    0.00000000E+00        3  25   6   6  # h0-t-t eff. coupling^2, normalised to SM
    4.06098705E-02    0.00000000E+00        3  35   6   6  # H0-t-t eff. coupling^2, normalised to SM
    0.00000000E+00    3.86324577E-02        3  36   6   6  # A0-t-t eff. coupling^2, normalised to SM
#
    1.05118527E+00    0.00000000E+00        3  25  15  15  # h0-tau-tau eff. coupling^2, normalised to SM
    2.58337845E+01    0.00000000E+00        3  35  15  15  # H0-tau-tau eff. coupling^2, normalised to SM
    0.00000000E+00    2.58849698E+01        3  36  15  15  # A0-tau-tau eff. coupling^2, normalised to SM
#
Block HiggsBoundsInputHiggsCouplingsBosons
    9.99975300E-01        3  25  24  24  # h0-W-W eff. coupling^2, normalised to SM
    2.47001424E-05        3  35  24  24  # H0-W-W eff. coupling^2, normalised to SM
    0.00000000E+00        3  36  24  24  # A0-W-W eff. coupling^2, normalised to SM
#
    9.99975300E-01        3  25  23  23  # h0-Z-Z eff. coupling^2, normalised to SM
    2.47001424E-05        3  35  23  23  # H0-Z-Z eff. coupling^2, normalised to SM
    0.00000000E+00        3  36  23  23  # A0-Z-Z eff. coupling^2, normalised to SM
#
    8.56787375E-01        3  25  21  21  # h0-g-g eff. coupling^2, normalised to SM
    1.32458899E-03        3  35  21  21  # H0-g-g eff. coupling^2, normalised to SM
    3.20142921E-03        3  36  21  21  # A0-g-g eff. coupling^2, normalised to SM
#
    0.00000000E+00        3  25  25  23  # h0-h0-Z eff. coupling^2, normalised to SM
    0.00000000E+00        3  35  25  23  # H0-h0-Z eff. coupling^2, normalised to SM
    2.47001424E-05        3  36  25  23  # A0-h0-Z eff. coupling^2, normalised to SM
    0.00000000E+00        3  35  35  23  # H0-H0-Z eff. coupling^2, normalised to SM
    9.99975300E-01        3  36  35  23  # A0-H0-Z eff. coupling^2, normalised to SM
    0.00000000E+00        3  36  36  23  # A0-A0-Z eff. coupling^2, normalised to SM
#
    0.00000000E+00        4  25  21  21  23  # h0-g-g-Z eff. coupling^2, normalised to SM
    0.00000000E+00        4  35  21  21  23  # H0-g-g-Z eff. coupling^2, normalised to SM
    0.00000000E+00        4  36  21  21  23  # A0-g-g-Z eff. coupling^2, normalised to SM
#
#
#
#                             =================
#                             |The decay table|
#                             =================
#
# - The QCD corrections to the decays gluino -> squark  + quark
#                                     squark -> gaugino + quark_prime
#                                     squark -> squark_prime + Higgs
#                                     squark -> gluino  + quark
#   are included.
#
# - The multi-body decays for the inos, stops and sbottoms are included.
#
# - The loop induced decays for the gluino, neutralinos and stops
#   are included.
#
# - The SUSY decays of the top quark are included.
#
#
#         PDG            Width
DECAY         6     1.42748794E+00   # top decays
#          BR         NDA      ID1       ID2
     1.00000000E+00    2           5        24   # BR(t ->  b    W+)
#
#         PDG            Width
DECAY   1000021     2.64464372E+02   # gluino decays
#          BR         NDA      ID1       ID2
     7.96585643E-02    2     1000001        -1   # BR(~g -> ~d_L  db)
     7.96585643E-02    2    -1000001         1   # BR(~g -> ~d_L* d )
     7.97518731E-02    2     1000002        -2   # BR(~g -> ~u_L  ub)
     7.97518731E-02    2    -1000002         2   # BR(~g -> ~u_L* u )
     7.96585643E-02    2     1000003        -3   # BR(~g -> ~s_L  sb)
     7.96585643E-02    2    -1000003         3   # BR(~g -> ~s_L* s )
     7.97518626E-02    2     1000004        -4   # BR(~g -> ~c_L  cb)
     7.97518626E-02    2    -1000004         4   # BR(~g -> ~c_L* c )
     8.70959626E-02    2     1000005        -5   # BR(~g -> ~b_1  bb)
     8.70959626E-02    2    -1000005         5   # BR(~g -> ~b_1* b )
     8.99924489E-02    2     1000006        -6   # BR(~g -> ~t_1  tb)
     8.99924489E-02    2    -1000006         6   # BR(~g -> ~t_1* t )
     4.09072413E-03    2     2000006        -6   # BR(~g -> ~t_2  tb)
     4.09072413E-03    2    -2000006         6   # BR(~g -> ~t_2* t )
#
#         PDG            Width
DECAY   1000006     1.45387328E+01   # stop1 decays
#          BR         NDA      ID1       ID2
     4.91455882E-01    2     1000022         6   # BR(~t_1 -> ~chi_10 t )
     4.82713474E-01    2     1000023         6   # BR(~t_1 -> ~chi_20 t )
     1.22240023E-02    2     1000025         6   # BR(~t_1 -> ~chi_30 t )
     1.36066412E-02    2     1000024         5   # BR(~t_1 -> ~chi_1+ b )
#
#         PDG            Width
DECAY   2000006     2.92768357E+02   # stop2 decays
#          BR         NDA      ID1       ID2
     7.33332190E-02    2     1000022         6   # BR(~t_2 -> ~chi_10 t )
     7.49178635E-02    2     1000023         6   # BR(~t_2 -> ~chi_20 t )
     2.19019405E-02    2     1000025         6   # BR(~t_2 -> ~chi_30 t )
     1.48224421E-01    2     1000024         5   # BR(~t_2 -> ~chi_1+ b )
     1.61295753E-01    2     1000006        25   # BR(~t_2 -> ~t_1    h )
     2.20457942E-03    2     1000006        35   # BR(~t_2 -> ~t_1    H )
     2.13085652E-03    2     1000006        36   # BR(~t_2 -> ~t_1    A )
     4.17184116E-03    2     1000005        37   # BR(~t_2 -> ~b_1    H+)
     1.75582567E-01    2     1000006        23   # BR(~t_2 -> ~t_1    Z )
     3.36236959E-01    2     1000005        24   # BR(~t_2 -> ~b_1    W+)
#
#         PDG            Width
DECAY   1000005     1.50089361E+01   # sbottom1 decays
#          BR         NDA      ID1       ID2
     3.84715377E-03    2     1000022         5   # BR(~b_1 -> ~chi_10 b )
     3.69283365E-03    2     1000023         5   # BR(~b_1 -> ~chi_20 b )
     6.41247762E-03    2     1000025         5   # BR(~b_1 -> ~chi_30 b )
     9.86047535E-01    2    -1000024         6   # BR(~b_1 -> ~chi_1- t )
#
#         PDG            Width
DECAY   2000005     3.46770982E+00   # sbottom2 decays
#          BR         NDA      ID1       ID2
     5.42332888E-02    2     1000022         5   # BR(~b_2 -> ~chi_10 b )
     5.02603724E-02    2     1000023         5   # BR(~b_2 -> ~chi_20 b )
     5.31712514E-01    2     1000025         5   # BR(~b_2 -> ~chi_30 b )
     9.89522366E-02    2    -1000024         6   # BR(~b_2 -> ~chi_1- t )
     5.50614274E-02    2     1000021         5   # BR(~b_2 -> ~g      b )
     4.75723948E-03    2     1000005        25   # BR(~b_2 -> ~b_1    h )
     4.82467522E-02    2     1000005        35   # BR(~b_2 -> ~b_1    H )
     4.84042189E-02    2     1000005        36   # BR(~b_2 -> ~b_1    A )
     9.57007194E-02    2     1000006       -37   # BR(~b_2 -> ~t_1    H-)
     4.28699948E-03    2     1000005        23   # BR(~b_2 -> ~b_1    Z )
     8.38270928E-03    2     1000006       -24   # BR(~b_2 -> ~t_1    W-)
     1.52198863E-06    2     2000006       -24   # BR(~b_2 -> ~t_2    W-)
#
#         PDG            Width
DECAY   1000002     1.49131815E-01   # sup_L decays
#          BR         NDA      ID1       ID2
     4.01768922E-04    2     1000022         2   # BR(~u_L -> ~chi_10 u)
     3.22955062E-03    2     1000023         2   # BR(~u_L -> ~chi_20 u)
     9.32815915E-01    2     1000025         2   # BR(~u_L -> ~chi_30 u)
     6.35527651E-02    2     1000024         1   # BR(~u_L -> ~chi_1+ d)
#
#         PDG            Width
DECAY   2000002     2.40774073E+01   # sup_R decays
#          BR         NDA      ID1       ID2
     2.76643213E-03    2     1000022         2   # BR(~u_R -> ~chi_10 u)
     4.77713363E-04    2     1000023         2   # BR(~u_R -> ~chi_20 u)
     3.33726078E-01    2     1000025         2   # BR(~u_R -> ~chi_30 u)
     1.26448376E-09    2     1000035         2   # BR(~u_R -> ~chi_40 u)
     6.63029775E-01    2     1000021         2   # BR(~u_R -> ~g      u)
#
#         PDG            Width
DECAY   1000001     1.40887399E-01   # sdown_L decays
#          BR         NDA      ID1       ID2
     3.38444076E-02    2     1000022         1   # BR(~d_L -> ~chi_10 d)
     2.05680502E-02    2     1000023         1   # BR(~d_L -> ~chi_20 d)
     9.44912002E-01    2     1000025         1   # BR(~d_L -> ~chi_30 d)
     6.75540601E-04    2    -1000024         2   # BR(~d_L -> ~chi_1- u)
#
#         PDG            Width
DECAY   2000001     2.92353257E+01   # sdown_R decays
#          BR         NDA      ID1       ID2
     5.96750938E-04    2     1000022         1   # BR(~d_R -> ~chi_10 d)
     1.03052024E-04    2     1000023         1   # BR(~d_R -> ~chi_20 d)
     7.22142791E-02    2     1000025         1   # BR(~d_R -> ~chi_30 d)
     5.73749242E-10    2     1000035         1   # BR(~d_R -> ~chi_40 d)
     9.27085917E-01    2     1000021         1   # BR(~d_R -> ~g      d)
#
#         PDG            Width
DECAY   1000004     1.45452795E-01   # scharm_L decays
#          BR         NDA      ID1       ID2
     4.02407472E-04    2     1000022         4   # BR(~c_L -> ~chi_10 c)
     3.23460527E-03    2     1000023         4   # BR(~c_L -> ~chi_20 c)
     9.32710150E-01    2     1000025         4   # BR(~c_L -> ~chi_30 c)
     6.36528368E-02    2     1000024         3   # BR(~c_L -> ~chi_1+ s)
#
#         PDG            Width
DECAY   2000004     2.04925181E+01   # scharm_R decays
#          BR         NDA      ID1       ID2
     3.41635994E-03    2     1000022         4   # BR(~c_R -> ~chi_10 c)
     5.89928971E-04    2     1000023         4   # BR(~c_R -> ~chi_20 c)
     4.11522357E-01    2     1000025         4   # BR(~c_R -> ~chi_30 c)
     1.46522558E-09    2     1000035         4   # BR(~c_R -> ~chi_40 c)
     5.84471352E-01    2     1000021         4   # BR(~c_R -> ~g      c)
#
#         PDG            Width
DECAY   1000003     1.37419322E-01   # sstrange_L decays
#          BR         NDA      ID1       ID2
     3.38987478E-02    2     1000022         3   # BR(~s_L -> ~chi_10 s)
     2.06005760E-02    2     1000023         3   # BR(~s_L -> ~chi_20 s)
     9.44824064E-01    2     1000025         3   # BR(~s_L -> ~chi_30 s)
     6.76612389E-04    2    -1000024         4   # BR(~s_L -> ~chi_1- c)
#
#         PDG            Width
DECAY   2000003     2.25715878E+01   # sstrange_R decays
#          BR         NDA      ID1       ID2
     8.12099977E-04    2     1000022         3   # BR(~s_R -> ~chi_10 s)
     1.40236770E-04    2     1000023         3   # BR(~s_R -> ~chi_20 s)
     9.81323696E-02    2     1000025         3   # BR(~s_R -> ~chi_30 s)
     7.44278542E-10    2     1000035         3   # BR(~s_R -> ~chi_40 s)
     9.00915293E-01    2     1000021         3   # BR(~s_R -> ~g      s)
#
#         PDG            Width
DECAY   1000011     2.13713162E+00   # selectron_L decays
#          BR         NDA      ID1       ID2
     4.90779218E-03    2     1000022        11   # BR(~e_L -> ~chi_10 e-)
     6.74425472E-05    2     1000023        11   # BR(~e_L -> ~chi_20 e-)
     9.94959339E-01    2     1000025        11   # BR(~e_L -> ~chi_30 e-)
     6.54267187E-05    2    -1000024        12   # BR(~e_L -> ~chi_1- nu_e)
#
#         PDG            Width
DECAY   2000011     6.08296824E+00   # selectron_R decays
#          BR         NDA      ID1       ID2
     9.94274500E-03    2     1000022        11   # BR(~e_R -> ~chi_10 e-)
     1.71316195E-03    2     1000023        11   # BR(~e_R -> ~chi_20 e-)
     9.88344093E-01    2     1000025        11   # BR(~e_R -> ~chi_30 e-)
#
#         PDG            Width
DECAY   1000013     2.13713161E+00   # smuon_L decays
#          BR         NDA      ID1       ID2
     4.90779219E-03    2     1000022        13   # BR(~mu_L -> ~chi_10 mu-)
     6.74425473E-05    2     1000023        13   # BR(~mu_L -> ~chi_20 mu-)
     9.94959339E-01    2     1000025        13   # BR(~mu_L -> ~chi_30 mu-)
     6.54267191E-05    2    -1000024        14   # BR(~mu_L -> ~chi_1- nu_mu)
#
#         PDG            Width
DECAY   2000013     6.08296817E+00   # smuon_R decays
#          BR         NDA      ID1       ID2
     9.94274502E-03    2     1000022        13   # BR(~mu_R -> ~chi_10 mu-)
     1.71316195E-03    2     1000023        13   # BR(~mu_R -> ~chi_20 mu-)
     9.88344093E-01    2     1000025        13   # BR(~mu_R -> ~chi_30 mu-)
#
#         PDG            Width
DECAY   1000015     4.93601523E+00   # stau_1 decays
#          BR         NDA      ID1       ID2
     1.74369728E-02    2     1000022        15   # BR(~tau_1 -> ~chi_10  tau-)
     8.69157400E-03    2     1000023        15   # BR(~tau_1 -> ~chi_20  tau-)
     9.59995330E-01    2     1000025        15   # BR(~tau_1 -> ~chi_30  tau-)
     1.38761232E-02    2    -1000024        16   # BR(~tau_1 -> ~chi_1-  nu_tau)
#
#         PDG            Width
DECAY   2000015     3.93641831E+00   # stau_2 decays
#          BR         NDA      ID1       ID2
     2.50759749E-02    2     1000022        15   # BR(~tau_2 -> ~chi_10  tau-)
     2.08094800E-02    2     1000023        15   # BR(~tau_2 -> ~chi_20  tau-)
     9.28820372E-01    2     1000025        15   # BR(~tau_2 -> ~chi_30  tau-)
     5.97722498E-05    2    -1000024        16   # BR(~tau_2 -> ~chi_1-  nu_tau)
     1.51674637E-03    2     1000015        25   # BR(~tau_2 -> ~tau_1   h)
     1.11222126E-02    2     1000015        35   # BR(~tau_2 -> ~tau_1   H)
     1.11636465E-02    2     1000015        36   # BR(~tau_2 -> ~tau_1   A)
     1.43179543E-03    2     1000015        23   # BR(~tau_2 -> ~tau_1   Z)
#
#         PDG            Width
DECAY   1000012     2.14690026E+00   # snu_eL decays
#          BR         NDA      ID1       ID2
     1.45249402E-02    2     1000022        12   # BR(~nu_eL -> ~chi_10 nu_e)
     5.02310788E-03    2     1000023        12   # BR(~nu_eL -> ~chi_20 nu_e)
     9.73961901E-01    2     1000025        12   # BR(~nu_eL -> ~chi_30 nu_e)
     6.49005114E-03    2     1000024        11   # BR(~nu_eL -> ~chi_1+ e-)
#
#         PDG            Width
DECAY   1000014     2.14690026E+00   # snu_muL decays
#          BR         NDA      ID1       ID2
     1.45249402E-02    2     1000022        14   # BR(~nu_muL -> ~chi_10 nu_mu)
     5.02310788E-03    2     1000023        14   # BR(~nu_muL -> ~chi_20 nu_mu)
     9.73961901E-01    2     1000025        14   # BR(~nu_muL -> ~chi_30 nu_mu)
     6.49005111E-03    2     1000024        13   # BR(~nu_muL -> ~chi_1+ mu-)
#
#         PDG            Width
DECAY   1000016     3.94900438E+00   # snu_tauL decays
#          BR         NDA      ID1       ID2
     1.24972484E-02    2     1000022        16   # BR(~nu_tauL -> ~chi_10 nu_tau)
     4.32603281E-03    2     1000023        16   # BR(~nu_tauL -> ~chi_20 nu_tau)
     9.11078368E-01    2     1000025        16   # BR(~nu_tauL -> ~chi_30 nu_tau)
     4.71229948E-02    2     1000024        15   # BR(~nu_tauL -> ~chi_1+ tau-)
     2.22091154E-02    2    -1000015       -37   # BR(~nu_tauL -> ~tau_1+ H-)
     2.76624066E-03    2    -1000015       -24   # BR(~nu_tauL -> ~tau_1+ W-)
#
#         PDG            Width
DECAY   1000024     3.77909197E-10   # chargino1+ decays
#           BR         NDA      ID1       ID2       ID3
     3.64928579E-01    3     1000022         2        -1   # BR(~chi_1+ -> ~chi_10 u    db)
     3.64928579E-01    3     1000022         4        -3   # BR(~chi_1+ -> ~chi_10 c    sb)
     1.21643365E-01    3     1000022       -11        12   # BR(~chi_1+ -> ~chi_10 e+   nu_e)
     1.21643365E-01    3     1000022       -13        14   # BR(~chi_1+ -> ~chi_10 mu+  nu_mu)
     2.68561118E-02    3     1000022       -15        16   # BR(~chi_1+ -> ~chi_10 tau+ nu_tau)
#
#         PDG            Width
DECAY   1000037     2.61494939E+02   # chargino2+ decays
#          BR         NDA      ID1       ID2
     1.10391012E-01    2     1000002        -1   # BR(~chi_2+ -> ~u_L     db)
     1.10379340E-01    2    -1000001         2   # BR(~chi_2+ -> ~d_L*    u )
     1.10391011E-01    2     1000004        -3   # BR(~chi_2+ -> ~c_L     sb)
     1.10379329E-01    2    -1000003         4   # BR(~chi_2+ -> ~s_L*     c )
     1.27058636E-01    2     1000006        -5   # BR(~chi_2+ -> ~t_1     bb)
     4.74433914E-05    2     2000006        -5   # BR(~chi_2+ -> ~t_2     bb)
     1.24988056E-01    2    -1000005         6   # BR(~chi_2+ -> ~b_1*    t )
     2.53280618E-02    2     1000012       -11   # BR(~chi_2+ -> ~nu_eL   e+  )
     2.53280618E-02    2     1000014       -13   # BR(~chi_2+ -> ~nu_muL mu+ )
     3.69819491E-03    2     1000016       -15   # BR(~chi_2+ -> ~nu_tau1 tau+)
     2.53103829E-02    2    -1000011        12   # BR(~chi_2+ -> ~e_L+    nu_e)
     2.53103829E-02    2    -1000013        14   # BR(~chi_2+ -> ~mu_L+   nu_mu)
     7.48487869E-08    2    -1000015        16   # BR(~chi_2+ -> ~tau_1+  nu_tau)
     3.68431013E-03    2    -2000015        16   # BR(~chi_2+ -> ~tau_2+  nu_tau)
     2.44938753E-02    2     1000024        23   # BR(~chi_2+ -> ~chi_1+  Z )
     2.32832726E-02    2     1000022        24   # BR(~chi_2+ -> ~chi_10  W+)
     2.38028665E-02    2     1000023        24   # BR(~chi_2+ -> ~chi_20  W+)
     5.05506691E-04    2     1000025        24   # BR(~chi_2+ -> ~chi_30  W+)
     2.50156034E-02    2     1000024        25   # BR(~chi_2+ -> ~chi_1+  h )
     2.51879325E-02    2     1000024        35   # BR(~chi_2+ -> ~chi_1+  H )
     2.51433416E-02    2     1000024        36   # BR(~chi_2+ -> ~chi_1+  A )
     2.51464955E-02    2     1000022        37   # BR(~chi_2+ -> ~chi_10  H+)
     2.50283647E-02    2     1000023        37   # BR(~chi_2+ -> ~chi_20  H+)
     9.84449631E-05    2     1000025        37   # BR(~chi_2+ -> ~chi_30  H+)
#
#         PDG            Width
DECAY   1000022     0.00000000E+00   # neutralino1 decays
#
#         PDG            Width
DECAY   1000023     1.61040464E-09   # neutralino2 decays
#          BR         NDA      ID1       ID2
     8.54656592E-02    2     1000022        22   # BR(~chi_20 -> ~chi_10 gam)
#           BR         NDA      ID1       ID2       ID3
     1.29650655E-01    3     1000022        -2         2   # BR(~chi_20 -> ~chi_10 ub      u)
     1.68270941E-01    3     1000022        -1         1   # BR(~chi_20 -> ~chi_10 db      d)
     1.29650655E-01    3     1000022        -4         4   # BR(~chi_20 -> ~chi_10 cb      c)
     1.68270941E-01    3     1000022        -3         3   # BR(~chi_20 -> ~chi_10 sb      s)
     3.86421221E-02    3     1000022       -11        11   # BR(~chi_20 -> ~chi_10 e+      e-)
     3.86421221E-02    3     1000022       -13        13   # BR(~chi_20 -> ~chi_10 mu+     mu-)
     7.11059136E-03    3     1000022       -15        15   # BR(~chi_20 -> ~chi_10 tau+    tau-)
     7.72649436E-02    3     1000022       -12        12   # BR(~chi_20 -> ~chi_10 nu_eb   nu_e)
     7.72649436E-02    3     1000022       -14        14   # BR(~chi_20 -> ~chi_10 nu_mub  nu_mu)
     7.72645848E-02    3     1000022       -16        16   # BR(~chi_20 -> ~chi_10 nu_taub nu_tau)
     7.50552142E-04    3     1000024        -2         1   # BR(~chi_20 -> ~chi_1+ ub      d)
     7.50552142E-04    3    -1000024        -1         2   # BR(~chi_20 -> ~chi_1- db      u)
     2.50184212E-04    3     1000024       -12        11   # BR(~chi_20 -> ~chi_1+ nu_eb   e-)
     2.50184212E-04    3    -1000024        12       -11   # BR(~chi_20 -> ~chi_1- nu_e    e+)
     2.50184212E-04    3     1000024       -14        13   # BR(~chi_20 -> ~chi_1+ nu_mub  mu-)
     2.50184212E-04    3    -1000024        14       -13   # BR(~chi_20 -> ~chi_1- nu_mu   mu+)
#
#         PDG            Width
DECAY   1000025     7.71572344E-01   # neutralino3 decays
#          BR         NDA      ID1       ID2
     4.68237586E-02    2     1000022        23   # BR(~chi_30 -> ~chi_10   Z )
     2.03098078E-01    2     1000023        23   # BR(~chi_30 -> ~chi_20   Z )
     2.52675935E-01    2     1000024       -24   # BR(~chi_30 -> ~chi_1+   W-)
     2.52675935E-01    2    -1000024        24   # BR(~chi_30 -> ~chi_1-   W+)
     2.15476892E-01    2     1000022        25   # BR(~chi_30 -> ~chi_10   h )
     2.92494000E-02    2     1000023        25   # BR(~chi_30 -> ~chi_20   h )
#
#         PDG            Width
DECAY   1000035     2.61456865E+02   # neutralino4 decays
#          BR         NDA      ID1       ID2
     1.44696729E-02    2     1000022        23   # BR(~chi_40 -> ~chi_10   Z )
     9.85274727E-03    2     1000023        23   # BR(~chi_40 -> ~chi_20   Z )
     1.95932288E-04    2     1000025        23   # BR(~chi_40 -> ~chi_30   Z )
     2.37557426E-02    2     1000024       -24   # BR(~chi_40 -> ~chi_1+   W-)
     2.37557426E-02    2    -1000024        24   # BR(~chi_40 -> ~chi_1-   W+)
     9.66648843E-03    2     1000022        25   # BR(~chi_40 -> ~chi_10   h )
     1.95588683E-02    2     1000022        35   # BR(~chi_40 -> ~chi_10   H )
     5.74224528E-03    2     1000022        36   # BR(~chi_40 -> ~chi_10   A )
     1.50407305E-02    2     1000023        25   # BR(~chi_40 -> ~chi_20   h )
     5.54930956E-03    2     1000023        35   # BR(~chi_40 -> ~chi_20   H )
     1.94161605E-02    2     1000023        36   # BR(~chi_40 -> ~chi_20   A )
     3.08678115E-04    2     1000025        25   # BR(~chi_40 -> ~chi_30   h )
     9.65243914E-05    2     1000025        35   # BR(~chi_40 -> ~chi_30   H )
     3.60665174E-06    2     1000025        36   # BR(~chi_40 -> ~chi_30   A )
     2.51232491E-02    2     1000024       -37   # BR(~chi_40 -> ~chi_1+   H-)
     2.51232491E-02    2    -1000024        37   # BR(~chi_40 -> ~chi_1-   H+)
     5.52167161E-02    2     1000002        -2   # BR(~chi_40 -> ~u_L      ub)
     5.52167161E-02    2    -1000002         2   # BR(~chi_40 -> ~u_L*     u )
     5.51757691E-02    2     1000001        -1   # BR(~chi_40 -> ~d_L      db)
     5.51757691E-02    2    -1000001         1   # BR(~chi_40 -> ~d_L*     d )
     5.52167108E-02    2     1000004        -4   # BR(~chi_40 -> ~c_L      cb)
     5.52167108E-02    2    -1000004         4   # BR(~chi_40 -> ~c_L*     c )
     5.51757691E-02    2     1000003        -3   # BR(~chi_40 -> ~s _L      sb)
     5.51757691E-02    2    -1000003         3   # BR(~chi_40 -> ~s _L*     s )
     6.30333851E-02    2     1000006        -6   # BR(~chi_40 -> ~t_1      tb)
     6.30333851E-02    2    -1000006         6   # BR(~chi_40 -> ~t_1*     t )
     2.17157606E-05    2     2000006        -6   # BR(~chi_40 -> ~t_2      tb)
     2.17157606E-05    2    -2000006         6   # BR(~chi_40 -> ~t_2*     t )
     6.30016856E-02    2     1000005        -5   # BR(~chi_40 -> ~b_1      bb)
     6.30016856E-02    2    -1000005         5   # BR(~chi_40 -> ~b_1*     b )
     3.72336676E-10    2     2000005        -5   # BR(~chi_40 -> ~b_2      bb)
     3.72336676E-10    2    -2000005         5   # BR(~chi_40 -> ~b_2*     b )
     1.26441779E-02    2     1000011       -11   # BR(~chi_40 -> ~e_L-     e+)
     1.26441779E-02    2    -1000011        11   # BR(~chi_40 -> ~e_L+     e-)
     3.06962746E-09    2     2000011       -11   # BR(~chi_40 -> ~e_R-     e+)
     3.06962746E-09    2    -2000011        11   # BR(~chi_40 -> ~e_R+     e-)
     1.26441779E-02    2     1000013       -13   # BR(~chi_40 -> ~mu_L-    mu+)
     1.26441779E-02    2    -1000013        13   # BR(~chi_40 -> ~mu_L+    mu-)
     3.06962746E-09    2     2000013       -13   # BR(~chi_40 -> ~mu_R-    mu+)
     3.06962746E-09    2    -2000013        13   # BR(~chi_40 -> ~mu_R+    mu-)
     4.08366461E-08    2     1000015       -15   # BR(~chi_40 -> ~tau_1-   tau+)
     4.08366461E-08    2    -1000015        15   # BR(~chi_40 -> ~tau_1+   tau-)
     1.83972114E-03    2     2000015       -15   # BR(~chi_40 -> ~tau_2-   tau+)
     1.83972114E-03    2    -2000015        15   # BR(~chi_40 -> ~tau_2+   tau-)
     1.26753524E-02    2     1000012       -12   # BR(~chi_40 -> ~nu_eL    nu_eb)
     1.26753524E-02    2    -1000012        12   # BR(~chi_40 -> ~nu_eL*   nu_e )
     1.26753524E-02    2     1000014       -14   # BR(~chi_40 -> ~nu_muL   nu_mub)
     1.26753524E-02    2    -1000014        14   # BR(~chi_40 -> ~nu_muL*  nu_mu )
     1.84994537E-03    2     1000016       -16   # BR(~chi_40 -> ~nu_tau1  nu_taub)
     1.84994537E-03    2    -1000016        16   # BR(~chi_40 -> ~nu_tau1* nu_tau )
#
#         PDG            Width
DECAY        25     4.51893365E-03   # h decays
#          BR         NDA      ID1       ID2
     5.55319172E-01    2           5        -5   # BR(h -> b       bb     )
     6.15794366E-02    2         -15        15   # BR(h -> tau+    tau-   )
     2.17965002E-04    2         -13        13   # BR(h -> mu+     mu-    )
     2.36746813E-04    2           3        -3   # BR(h -> s       sb     )
     1.95069640E-02    2           4        -4   # BR(h -> c       cb     )
     7.41585536E-02    2          21        21   # BR(h -> g       g      )
     2.30197659E-03    2          22        22   # BR(h -> gam     gam    )
     1.77325012E-03    2          22        23   # BR(h -> Z       gam    )
     2.51995938E-01    2          24       -24   # BR(h -> W+      W-     )
     3.29099977E-02    2          23        23   # BR(h -> Z       Z      )
#
#         PDG            Width
DECAY        35     2.07181032E+00   # H decays
#          BR         NDA      ID1       ID2
     1.60357035E-01    2           5        -5   # BR(H -> b       bb     )
     2.49638524E-02    2         -15        15   # BR(H -> tau+    tau-   )
     8.83920109E-05    2         -13        13   # BR(H -> mu+     mu-    )
     6.55712192E-05    2           3        -3   # BR(H -> s       sb     )
     9.10739473E-06    2           4        -4   # BR(H -> c       cb     )
     7.91314261E-01    2           6        -6   # BR(H -> t       tb     )
     1.21357241E-03    2          21        21   # BR(H -> g       g      )
     3.39554694E-06    2          22        22   # BR(H -> gam     gam    )
     1.12677187E-06    2          23        22   # BR(H -> Z       gam    )
     3.28516491E-03    2          24       -24   # BR(H -> W+      W-     )
     1.62081586E-03    2          23        23   # BR(H -> Z       Z      )
     1.22940262E-02    2          25        25   # BR(H -> h       h      )
     1.62037211E-13    2          23        36   # BR(H -> Z       A      )
     1.03711417E-03    2     1000024  -1000024   # BR(H -> ~chi_1+ ~chi_1-)
     3.24570157E-03    2     1000022   1000022   # BR(H -> ~chi_10 ~chi_10)
     4.86379297E-04    2     1000023   1000023   # BR(H -> ~chi_20 ~chi_20)
     1.44838576E-05    2     1000022   1000023   # BR(H -> ~chi_10 ~chi_20)
#
#         PDG            Width
DECAY        36     2.14515331E+00   # A decays
#          BR         NDA      ID1       ID2
     1.55227715E-01    2           5        -5   # BR(A -> b       bb     )
     2.41384671E-02    2         -15        15   # BR(A -> tau+    tau-   )
     8.54682000E-05    2         -13        13   # BR(A -> mu+     mu-    )
     6.35863195E-05    2           3        -3   # BR(A -> s       sb     )
     8.43828819E-06    2           4        -4   # BR(A -> c       cb     )
     8.07254635E-01    2           6        -6   # BR(A -> t       tb     )
     1.82146913E-03    2          21        21   # BR(A -> g       g      )
     4.22605025E-06    2          22        22   # BR(A -> gam     gam    )
     1.74337508E-06    2          23        22   # BR(A -> Z       gam    )
     3.09570681E-03    2          23        25   # BR(A -> Z       h      )
     2.38100075E-03    2     1000024  -1000024   # BR(A -> ~chi_1+ ~chi_1-)
     3.03657823E-03    2     1000022   1000022   # BR(A -> ~chi_10 ~chi_10)
     2.34292985E-03    2     1000023   1000023   # BR(A -> ~chi_20 ~chi_20)
     5.38035342E-04    2     1000022   1000023   # BR(A -> ~chi_10 ~chi_20)
#
#         PDG            Width
DECAY        37     2.07093988E+00   # H+ decays
#          BR         NDA      ID1       ID2
     2.71707645E-04    2           4        -5   # BR(H+ -> c       bb     )
     2.50917807E-02    2         -15        16   # BR(H+ -> tau+    nu_tau )
     8.88436375E-05    2         -13        14   # BR(H+ -> mu+     nu_mu  )
     2.71690801E-06    2           2        -5   # BR(H+ -> u       bb     )
     3.28556745E-06    2           2        -3   # BR(H+ -> u       sb     )
     7.30487999E-05    2           4        -3   # BR(H+ -> c       sb     )
     9.70309512E-01    2           6        -5   # BR(H+ -> t       bb     )
     3.26325902E-03    2          24        25   # BR(H+ -> W+      h      )
     2.85869033E-10    2          24        36   # BR(H+ -> W+      A      )
     7.92581741E-04    2     1000024   1000022   # BR(H+ -> ~chi_1+ ~chi_10)
     1.03263803E-04    2     1000024   1000023   # BR(H+ -> ~chi_1+ ~chi_20)

DECAY         5   0.000000e+00 # b decays
DECAY        15   0.000000e+00 # tau decays
DECAY        23     2.49520000E+00   # Z
DECAY        24     2.08500000E+00   # W
