# SUSY Les Houches Accord 2 - MSSM spectrum + Decays
# SPheno v4.0.5be
# W. Porod, Comput. Phys. Commun. 153 (2003) 275-315, hep-ph/0301101;
# W. Porod, F.~Staub, Comput. Phys. Commun. 183 (2012) 2458
#                     arXiv:1104.1573 [hep-ph] 
# in case of problems send email to porod@physik.uni-wuerzburg.de
# Created: 12.05.2022,  16:42
Block SPINFO         # Program information
     1   SPheno      # spectrum calculator
     2   v4.0.5be    # version number
#
Block SPhenoINFO     # SPheno specific information
    1      2         # using 2-loop RGEs
    2      2         # using pole masses for boundary conditions at mZ
Block MODSEL  # Model selection
    1    0    # general MSSM
Block MINPAR  # Input parameters
    3    1.64063793E+01  # tanb at m_Z    
    4   -1.00000000E+00  # Sign(mu)
Block EXTPAR  # non-universal input parameters
    0    2.27297784E+03  # scale for input parameters
    1   -2.86215929E+02  # M_1
    2    5.84207581E+02  # M_2
    3    1.91754540E+03  # M_3
   11    7.33825573E+03  # A_t
   12    1.02917494E+03  # A_b
   13    1.65756263E+03  # A_tau
   23   -1.41929928E+03  # mu
   25    1.56967344E+01  # tan(beta)
   26    1.18687748E+03  # m_A, pole mass
   31    1.00000000E+04  # M_L11
   32    1.00000000E+04  # M_L22
   33    1.00000000E+04  # M_L33
   34    1.00000000E+04  # M_E11
   35    1.00000000E+04  # M_E22
   36    1.00000000E+04  # M_E33
   41    1.00000000E+04  # M_Q11
   42    1.00000000E+04  # M_Q22
   43    2.32113748E+03  # M_Q33
   44    1.00000000E+04  # M_U11
   45    1.00000000E+04  # M_U22
   46    2.46588073E+03  # M_U33
   47    1.00000000E+04  # M_D11
   48    1.00000000E+04  # M_D22
   49    3.39562109E+03  # M_D33
Block SMINPUTS  # SM parameters
         1     1.27908970E+02  # alpha_em^-1(MZ)^MSbar
         2     1.16637870E-05  # G_mu [GeV^-2]
         3     1.18400000E-01  # alpha_s(MZ)^MSbar
         4     9.11876000E+01  # m_Z(pole)
         5     4.18000000E+00  # m_b(m_b), MSbar
         6     1.73200000E+02  # m_t(pole)
         7     1.77700000E+00  # m_tau(pole)
         8     0.00000000E+00  # m_nu_3
        11     5.10998930E-04  # m_e(pole)
        12     0.00000000E+00  # m_nu_1
        13     1.05658372E-01  # m_muon(pole)
        14     0.00000000E+00  # m_nu_2
        21     5.00000000E-03  # m_d(2 GeV), MSbar
        22     2.50000000E-03  # m_u(2 GeV), MSbar
        23     9.50000000E-02  # m_s(2 GeV), MSbar
        24     1.27000000E+00  # m_c(m_c), MSbar
Block gauge Q=  2.27297784E+03  # (SUSY scale)
   1    3.55362975E-01  # g'(Q)^DRbar
   2    6.65198874E-01  # g(Q)^DRbar
   3    1.21977796E+00  # g3(Q)^DRbar
Block Yu Q=  2.27297784E+03  # (SUSY scale)
  1  1     8.40136951E-06   # Y_u(Q)^DRbar
  2  2     4.26789571E-03   # Y_c(Q)^DRbar
  3  3     1.01495292E+00   # Y_t(Q)^DRbar
Block Yd Q=  2.27297784E+03  # (SUSY scale)
  1  1     2.64996198E-04   # Y_d(Q)^DRbar
  2  2     5.03492777E-03   # Y_s(Q)^DRbar
  3  3     2.62793191E-01   # Y_b(Q)^DRbar
Block Ye Q=  2.27297784E+03  # (SUSY scale)
  1  1     4.62437744E-05   # Y_e(Q)^DRbar
  2  2     9.56174589E-03   # Y_mu(Q)^DRbar
  3  3     1.60812836E-01   # Y_tau(Q)^DRbar
Block Au Q=  2.27297784E+03  # (SUSY scale)
  1  1     0.00000000E+00   # A_u(Q)^DRbar
  2  2     0.00000000E+00   # A_c(Q)^DRbar
  3  3     7.33825620E+03   # A_t(Q)^DRbar
Block Ad Q=  2.27297784E+03  # (SUSY scale)
  1  1     0.00000000E+00   # A_d(Q)^DRbar
  2  2     0.00000000E+00   # A_s(Q)^DRbar
  3  3     1.02917511E+03   # A_b(Q)^DRbar
Block Ae Q=  2.27297784E+03  # (SUSY scale)
  1  1     0.00000000E+00   # A_e(Q)^DRbar
  2  2     0.00000000E+00   # A_mu(Q)^DRbar
  3  3     1.65756261E+03   # A_tau(Q)^DRbar
Block MSOFT Q=  2.27297784E+03  # soft SUSY breaking masses at Q
   1   -2.86215929E+02  # M_1
   2    5.84207581E+02  # M_2
   3    1.91754540E+03  # M_3
  21   -7.07594395E+05  # M^2_(H,d)
  22   -1.95007528E+06  # M^2_(H,u)
  31    1.00000000E+04  # M_(L,11)
  32    1.00000000E+04  # M_(L,22)
  33    1.00000000E+04  # M_(L,33)
  34    1.00000000E+04  # M_(E,11)
  35    1.00000000E+04  # M_(E,22)
  36    1.00000000E+04  # M_(E,33)
  41    1.00000000E+04  # M_(Q,11)
  42    1.00000000E+04  # M_(Q,22)
  43    2.32113748E+03  # M_(Q,33)
  44    1.00000000E+04  # M_(U,11)
  45    1.00000000E+04  # M_(U,22)
  46    2.46588073E+03  # M_(U,33)
  47    1.00000000E+04  # M_(D,11)
  48    1.00000000E+04  # M_(D,22)
  49    3.39562109E+03  # M_(D,33)
Block MASS  # Mass spectrum
#   PDG code      mass          particle
         6     1.73200000E+02  # m_t(pole)
        23     9.11876000E+01  # m_Z(pole)
        24     8.04299946E+01  # W+
        15     1.77700000E+00  # m_tau(pole)
        25     1.22066755E+02  # h0
        35     1.18687296E+03  # H0
        36     1.18687748E+03  # A0
        37     1.18882935E+03  # H+
   1000001     1.01135169E+04  # ~d_L
   2000001     1.00886754E+04  # ~d_R
   1000002     1.01131746E+04  # ~u_L
   2000002     1.00919869E+04  # ~u_R
   1000003     1.01135197E+04  # ~s_L
   2000003     1.00886784E+04  # ~s_R
   1000004     1.01131773E+04  # ~c_L
   2000004     1.00919892E+04  # ~c_R
   1000005     2.28081483E+03  # ~b_1
   2000005     3.44098132E+03  # ~b_2
   1000006     2.08274887E+03  # ~t_1
   2000006     2.48058147E+03  # ~t_2
   1000011     1.00211142E+04  # ~e_L-
   2000011     1.00086956E+04  # ~e_R-
   1000012     1.00203706E+04  # ~nu_eL
   1000013     1.00211230E+04  # ~mu_L-
   2000013     1.00087096E+04  # ~mu_R-
   1000014     1.00203783E+04  # ~nu_muL
   1000015     1.00126159E+04  # ~tau_1-
   2000015     1.00237428E+04  # ~tau_2-
   1000016     1.00225892E+04  # ~nu_tauL
   1000021     2.28145665E+03  # ~g
   1000022     2.89619147E+02  # ~chi_10
   1000023     6.34512574E+02  # ~chi_20
   1000025     1.43048277E+03  # ~chi_30
   1000035     1.43246528E+03  # ~chi_40
   1000024     6.34551062E+02  # ~chi_1+
   1000037     1.43382167E+03  # ~chi_2+
# Higgs mixing
Block alpha # Effective Higgs mixing angle
          -6.23981485E-02   # alpha
Block Hmix Q=  2.27297784E+03  # Higgs mixing parameters
   1   -1.41929928E+03  # mu
   2    1.56967344E+01  # tan[beta](Q)
   3    2.43484583E+02  # v(Q)
   4    1.40867815E+06  # m^2_A(Q)
Block stopmix # stop mixing matrix
   1  1    -7.34732224E-01   # Re[R_st(1,1)]
   1  2     6.78357250E-01   # Re[R_st(1,2)]
   2  1    -6.78357250E-01   # Re[R_st(2,1)]
   2  2    -7.34732224E-01   # Re[R_st(2,2)]
Block sbotmix # sbottom mixing matrix
   1  1    -9.99969464E-01   # Re[R_sb(1,1)]
   1  2     7.81476818E-03   # Re[R_sb(1,2)]
   2  1    -7.81476818E-03   # Re[R_sb(2,1)]
   2  2    -9.99969464E-01   # Re[R_sb(2,2)]
Block staumix # stau mixing matrix
   1  1    -1.93969609E-01   # Re[R_sta(1,1)]
   1  2     9.81007539E-01   # Re[R_sta(1,2)]
   2  1    -9.81007539E-01   # Re[R_sta(2,1)]
   2  2    -1.93969609E-01   # Re[R_sta(2,2)]
Block Nmix # neutralino mixing matrix
   1  1    -9.99413287E-01   # Re[N(1,1)]
   1  2    -1.03595328E-03   # Re[N(1,2)]
   1  3     3.30619643E-02   # Re[N(1,3)]
   1  4    -8.88347136E-03   # Re[N(1,4)]
   2  1    -9.35017758E-04   # Re[N(2,1)]
   2  2    -9.97490239E-01   # Re[N(2,2)]
   2  3    -6.62367409E-02   # Re[N(2,3)]
   2  4    -2.50008472E-02   # Re[N(2,4)]
   3  1     2.96696491E-02   # Re[N(3,1)]
   3  2    -2.91879035E-02   # Re[N(3,2)]
   3  3     7.05989721E-01   # Re[N(3,3)]
   3  4    -7.06998085E-01   # Re[N(3,4)]
   4  1    -1.70856785E-02   # Re[N(4,1)]
   4  2     6.44997329E-02   # Re[N(4,2)]
   4  3    -7.04342327E-01   # Re[N(4,3)]
   4  4    -7.06717589E-01   # Re[N(4,4)]
Block Umix # chargino mixing matrix
   1  1    -9.95601772E-01   # Re[U(1,1)]
   1  2    -9.36862451E-02   # Re[U(1,2)]
   2  1     9.36862451E-02   # Re[U(2,1)]
   2  2    -9.95601772E-01   # Re[U(2,2)]
Block Vmix # chargino mixing matrix
   1  1    -9.99366372E-01   # Re[V(1,1)]
   1  2     3.55928972E-02   # Re[V(1,2)]
   2  1     3.55928972E-02   # Re[V(2,1)]
   2  2     9.99366372E-01   # Re[V(2,2)]
DECAY        23     2.49520000E+00   # Z
DECAY        24     2.08500000E+00   # W
DECAY   2000011     5.02035692E+01   # ~e^-_R
#    BR                NDA      ID1      ID2
     9.98872403E-01    2     1000022        11   # BR(~e^-_R -> chi^0_1 e^-)
     8.46150582E-04    2     1000025        11   # BR(~e^-_R -> chi^0_3 e^-)
     2.80569994E-04    2     1000035        11   # BR(~e^-_R -> chi^0_4 e^-)
DECAY   1000011     1.43803066E+02   # ~e^-_L
#    BR                NDA      ID1      ID2
     8.76275192E-02    2     1000022        11   # BR(~e^-_L -> chi^0_1 e^-)
     3.03049737E-01    2     1000023        11   # BR(~e^-_L -> chi^0_2 e^-)
     9.02409278E-04    2     1000035        11   # BR(~e^-_L -> chi^0_4 e^-)
     6.03201825E-01    2    -1000024        12   # BR(~e^-_L -> chi^-_1 nu_e)
     5.16614369E-03    2    -1000037        12   # BR(~e^-_L -> chi^-_2 nu_e)
#    BR                NDA      ID1      ID2       ID3
DECAY   2000013     5.02385799E+01   # ~mu^-_R
#    BR                NDA      ID1      ID2
     9.98178097E-01    2     1000022        13   # BR(~mu^-_R -> chi^0_1 mu^-)
     1.01886252E-03    2     1000025        13   # BR(~mu^-_R -> chi^0_3 mu^-)
     4.52848426E-04    2     1000035        13   # BR(~mu^-_R -> chi^0_4 mu^-)
     3.44592137E-04    2    -1000037        14   # BR(~mu^-_R -> chi^-_2 nu_mu)
DECAY   1000013     1.43820688E+02   # ~mu^-_L
#    BR                NDA      ID1      ID2
     8.76169977E-02    2     1000022        13   # BR(~mu^-_L -> chi^0_1 mu^-)
     3.03013428E-01    2     1000023        13   # BR(~mu^-_L -> chi^0_2 mu^-)
     1.12977405E-04    2     1000025        13   # BR(~mu^-_L -> chi^0_3 mu^-)
     9.62626994E-04    2     1000035        13   # BR(~mu^-_L -> chi^0_4 mu^-)
     6.03128455E-01    2    -1000024        14   # BR(~mu^-_L -> chi^-_1 nu_mu)
     5.16551561E-03    2    -1000037        14   # BR(~mu^-_L -> chi^-_2 nu_mu)
#    BR                NDA      ID1      ID2       ID3
DECAY   1000015     6.34818522E+01   # ~tau^-_1
#    BR                NDA      ID1      ID2
     7.69657357E-01    2     1000022        15   # BR(~tau^-_1 -> chi^0_1 tau^-)
     3.20773256E-02    2     1000023        15   # BR(~tau^-_1 -> chi^0_2 tau^-)
     3.67038314E-02    2     1000025        15   # BR(~tau^-_1 -> chi^0_3 tau^-)
     3.44219439E-02    2     1000035        15   # BR(~tau^-_1 -> chi^0_4 tau^-)
     6.38653401E-02    2    -1000024        16   # BR(~tau^-_1 -> chi^-_1 nu_tau)
     6.32742019E-02    2    -1000037        16   # BR(~tau^-_1 -> chi^-_2 nu_tau)
DECAY   2000015     1.45416350E+02   # ~tau^-_2
#    BR                NDA      ID1      ID2
     9.57562886E-02    2     1000022        15   # BR(~tau^-_2 -> chi^0_1 tau^-)
     2.86057543E-01    2     1000023        15   # BR(~tau^-_2 -> chi^0_2 tau^-)
     1.82284194E-02    2     1000025        15   # BR(~tau^-_2 -> chi^0_3 tau^-)
     1.97088012E-02    2     1000035        15   # BR(~tau^-_2 -> chi^0_4 tau^-)
     5.69065481E-01    2    -1000024        16   # BR(~tau^-_2 -> chi^-_1 nu_tau)
     1.11834671E-02    2    -1000037        16   # BR(~tau^-_2 -> chi^-_2 nu_tau)
#    BR                NDA      ID1      ID2       ID3
DECAY   1000012     1.43807151E+02   # ~nu_e
#    BR                NDA      ID1      ID2
     8.69411042E-02    2     1000022        12   # BR(~nu_e -> chi^0_1 nu_e)
     3.02411926E-01    2     1000023        12   # BR(~nu_e -> chi^0_2 nu_e)
     5.97009216E-04    2     1000025        12   # BR(~nu_e -> chi^0_3 nu_e)
     1.59532480E-03    2     1000035        12   # BR(~nu_e -> chi^0_4 nu_e)
     6.07709053E-01    2     1000024        11   # BR(~nu_e -> chi^+_1 e^-)
     7.45582798E-04    2     1000037        11   # BR(~nu_e -> chi^+_2 e^-)
#    BR                NDA      ID1      ID2       ID3
DECAY   1000014     1.43824755E+02   # ~nu_mu
#    BR                NDA      ID1      ID2
     8.69305296E-02    2     1000022        14   # BR(~nu_mu -> chi^0_1 nu_mu)
     3.02375147E-01    2     1000023        14   # BR(~nu_mu -> chi^0_2 nu_mu)
     5.96936639E-04    2     1000025        14   # BR(~nu_mu -> chi^0_3 nu_mu)
     1.59513086E-03    2     1000035        14   # BR(~nu_mu -> chi^0_4 nu_mu)
     6.07636249E-01    2     1000024        13   # BR(~nu_mu -> chi^+_1 mu^-)
     8.66007033E-04    2     1000037        13   # BR(~nu_mu -> chi^+_2 mu^-)
#    BR                NDA      ID1      ID2       ID3
DECAY   1000016     1.48788509E+02   # ~nu_tau
#    BR                NDA      ID1      ID2
     8.40490306E-02    2     1000022        16   # BR(~nu_tau -> chi^0_1 nu_tau)
     2.92353097E-01    2     1000023        16   # BR(~nu_tau -> chi^0_2 nu_tau)
     5.77160060E-04    2     1000025        16   # BR(~nu_tau -> chi^0_3 nu_tau)
     1.54228407E-03    2     1000035        16   # BR(~nu_tau -> chi^0_4 nu_tau)
     5.87797738E-01    2     1000024        15   # BR(~nu_tau -> chi^+_1 tau^-)
     3.36806910E-02    2     1000037        15   # BR(~nu_tau -> chi^+_2 tau^-)
#    BR                NDA      ID1      ID2       ID3
DECAY   2000001     7.22590255E+02   # ~d_R
#    BR                NDA      ID1      ID2
     7.77281200E-03    2     1000022         1   # BR(~d_R -> chi^0_1 d)
     9.92218371E-01    2     1000021         1   # BR(~d_R -> ~g d)
DECAY   1000001     8.52984311E+02   # ~d_L
#    BR                NDA      ID1      ID2
     1.63106022E-03    2     1000022         1   # BR(~d_L -> chi^0_1 d)
     5.15004419E-02    2     1000023         1   # BR(~d_L -> chi^0_2 d)
     2.28627169E-04    2     1000035         1   # BR(~d_L -> chi^0_4 d)
     1.02645412E-01    2    -1000024         2   # BR(~d_L -> chi^-_1 u)
     8.79650035E-04    2    -1000037         2   # BR(~d_L -> chi^-_2 u)
     8.43055244E-01    2     1000021         1   # BR(~d_L -> ~g d)
DECAY   2000003     7.22600260E+02   # ~s_R
#    BR                NDA      ID1      ID2
     7.77271438E-03    2     1000022         3   # BR(~s_R -> chi^0_1 s)
     9.92204990E-01    2     1000021         3   # BR(~s_R -> ~g s)
DECAY   1000003     8.52992995E+02   # ~s_L
#    BR                NDA      ID1      ID2
     1.63105059E-03    2     1000022         3   # BR(~s_L -> chi^0_1 s)
     5.14999582E-02    2     1000023         3   # BR(~s_L -> chi^0_2 s)
     2.31465334E-04    2     1000035         3   # BR(~s_L -> chi^0_4 s)
     1.02644397E-01    2    -1000024         4   # BR(~s_L -> chi^-_1 c)
     8.83766441E-04    2    -1000037         4   # BR(~s_L -> chi^-_2 c)
     8.43046945E-01    2     1000021         3   # BR(~s_L -> ~g s)
DECAY   1000005     5.88240818E+01   # ~b_1
#    BR                NDA      ID1      ID2
     5.25505702E-03    2     1000022         5   # BR(~b_1 -> chi^0_1 b)
     1.44776995E-01    2     1000023         5   # BR(~b_1 -> chi^0_2 b)
     9.82234814E-03    2     1000025         5   # BR(~b_1 -> chi^0_3 b)
     9.93540652E-03    2     1000035         5   # BR(~b_1 -> chi^0_4 b)
     2.83647215E-01    2    -1000024         6   # BR(~b_1 -> chi^-_1 t)
     2.87434820E-01    2    -1000037         6   # BR(~b_1 -> chi^-_2 t)
     2.59128158E-01    2     1000006       -24   # BR(~b_1 -> ~t_1 W^-)
DECAY   2000005     9.44059686E+01   # ~b_2
#    BR                NDA      ID1      ID2
     2.00673155E-02    2     1000022         5   # BR(~b_2 -> chi^0_1 b)
     1.27799406E-04    2     1000023         5   # BR(~b_2 -> chi^0_2 b)
     1.71191006E-02    2     1000025         5   # BR(~b_2 -> chi^0_3 b)
     1.70312872E-02    2     1000035         5   # BR(~b_2 -> chi^0_4 b)
     2.54621040E-04    2    -1000024         6   # BR(~b_2 -> chi^-_1 t)
     3.39036367E-02    2    -1000037         6   # BR(~b_2 -> chi^-_2 t)
     9.03549654E-01    2     1000021         5   # BR(~b_2 -> ~g b)
     2.44908713E-03    2     1000006       -24   # BR(~b_2 -> ~t_1 W^-)
     9.04544518E-04    2     2000006       -24   # BR(~b_2 -> ~t_2 W^-)
     4.40876013E-04    2     1000006       -37   # BR(~b_2 -> ~t_1 H^-)
     1.56477554E-03    2     1000005        23   # BR(~b_2 -> ~b_1 Z)
     2.58730213E-03    2     1000005        25   # BR(~b_2 -> ~b_1 h^0)
DECAY   2000002     7.39752407E+02   # ~u_R
#    BR                NDA      ID1      ID2
     3.03799368E-02    2     1000022         2   # BR(~u_R -> chi^0_1 u)
     9.69585746E-01    2     1000021         2   # BR(~u_R -> ~g u)
DECAY   1000002     8.52973693E+02   # ~u_L
#    BR                NDA      ID1      ID2
     1.66944775E-03    2     1000022         2   # BR(~u_L -> chi^0_1 u)
     5.15337090E-02    2     1000023         2   # BR(~u_L -> chi^0_2 u)
     1.89276793E-04    2     1000035         2   # BR(~u_L -> chi^0_4 u)
     1.03420864E-01    2     1000024         1   # BR(~u_L -> chi^+_1 d)
     1.26977951E-04    2     1000037         1   # BR(~u_L -> chi^+_2 d)
     8.43031085E-01    2     1000021         2   # BR(~u_L -> ~g u)
DECAY   2000004     7.39759601E+02   # ~c_R
#    BR                NDA      ID1      ID2
     3.03796476E-02    2     1000022         4   # BR(~c_R -> chi^0_1 c)
     9.69576543E-01    2     1000021         4   # BR(~c_R -> ~g c)
DECAY   1000004     8.52982335E+02   # ~c_L
#    BR                NDA      ID1      ID2
     1.66943155E-03    2     1000022         4   # BR(~c_L -> chi^0_1 c)
     5.15332011E-02    2     1000023         4   # BR(~c_L -> chi^0_2 c)
     1.91337105E-04    2     1000035         4   # BR(~c_L -> chi^0_4 c)
     1.03419896E-01    2     1000024         3   # BR(~c_L -> chi^+_1 s)
     1.32651713E-04    2     1000037         3   # BR(~c_L -> chi^+_2 s)
     8.43022781E-01    2     1000021         4   # BR(~c_L -> ~g c)
DECAY   1000006     3.31945149E+01   # ~t_1
#    BR                NDA      ID1      ID2
     6.76031323E-02    2     1000022         6   # BR(~t_1 -> chi^0_1 t)
     1.08038289E-01    2     1000023         6   # BR(~t_1 -> chi^0_2 t)
     2.01621029E-01    2     1000025         6   # BR(~t_1 -> chi^0_3 t)
     2.16814827E-01    2     1000035         6   # BR(~t_1 -> chi^0_4 t)
     2.21455691E-01    2     1000024         5   # BR(~t_1 -> chi^+_1 b)
     1.84172168E-01    2     1000037         5   # BR(~t_1 -> chi^+_2 b)
#    BR                NDA      ID1      ID2       ID3
     2.94501617E-04    3     1000022        24         5   # BR(~t_1 -> chi^0_1 W^+ b)
DECAY   2000006     9.77884647E+01   # ~t_2
#    BR                NDA      ID1      ID2
     3.01974665E-02    2     1000022         6   # BR(~t_2 -> chi^0_1 t)
     4.94261876E-02    2     1000023         6   # BR(~t_2 -> chi^0_2 t)
     1.02445859E-01    2     1000025         6   # BR(~t_2 -> chi^0_3 t)
     9.43821902E-02    2     1000035         6   # BR(~t_2 -> chi^0_4 t)
     1.00626953E-01    2     1000024         5   # BR(~t_2 -> chi^+_1 b)
     1.26204737E-01    2     1000037         5   # BR(~t_2 -> chi^+_2 b)
     4.20898626E-02    2     1000021         6   # BR(~t_2 -> ~g t)
     1.38382629E-01    2     1000005        24   # BR(~t_2 -> ~b_1 W^+)
     3.12243688E-01    2     1000006        23   # BR(~t_2 -> ~t_1 Z)
     4.00042749E-03    2     1000006        25   # BR(~t_2 -> ~t_1 h^0)
DECAY   1000024     2.69201818E-04   # chi^+_1
#    BR                NDA      ID1      ID2
     9.99791504E-01    2     1000022        24   # BR(chi^+_1 -> chi^0_1 W^+)
#    BR                NDA      ID1      ID2       ID3
     1.82291848E-04    3     1000022        -5         6   # BR(chi^+_1 -> chi^0_1 b_bar t)
DECAY   1000037     8.99679134E+00   # chi^+_2
#    BR                NDA      ID1      ID2
     1.15369657E-01    2     1000022        24   # BR(chi^+_2 -> chi^0_1 W^+)
     2.88515412E-01    2     1000023        24   # BR(chi^+_2 -> chi^0_2 W^+)
     2.85592368E-01    2     1000024        23   # BR(chi^+_2 -> chi^+_1 Z)
     2.95703899E-01    2     1000024        25   # BR(chi^+_2 -> chi^+_1 h^0)
#    BR                NDA      ID1      ID2       ID3
     5.97643621E-03    3     1000024         6        -6   # BR(chi^+_2 -> chi^+_1 t t_bar)
     1.10907013E-04    3     1000024         5        -5   # BR(chi^+_2 -> chi^+_1 b b_bar)
     2.94999720E-03    3     1000022        -5         6   # BR(chi^+_2 -> chi^0_1 b_bar t)
     5.74651182E-03    3     1000023        -5         6   # BR(chi^+_2 -> chi^0_2 b_bar t)
DECAY   1000022     0.00000000E+00   # chi^0_1
DECAY   1000023     2.71943937E-04   # chi^0_2
#    BR                NDA      ID1      ID2
     9.99248939E-01    2     1000022        23   # BR(chi^0_2 -> chi^0_1 Z)
     3.15405263E-04    2     1000022        25   # BR(chi^0_2 -> chi^0_1 h^0)
#    BR                NDA      ID1      ID2       ID3
     3.62720824E-04    3     1000022         5        -5   # BR(chi^0_2 -> chi^0_1 b b_bar)
DECAY   1000025     1.14667204E+01   # chi^0_3
#    BR                NDA      ID1      ID2
     2.28673216E-01    2     1000024       -24   # BR(chi^0_3 -> chi^+_1 W^-)
     2.28673216E-01    2    -1000024        24   # BR(chi^0_3 -> chi^-_1 W^+)
     2.24130934E-02    2     1000022        23   # BR(chi^0_3 -> chi^0_1 Z)
     1.89973989E-01    2     1000023        23   # BR(chi^0_3 -> chi^0_2 Z)
     5.97970036E-02    2     1000022        25   # BR(chi^0_3 -> chi^0_1 h^0)
     2.52973954E-01    2     1000023        25   # BR(chi^0_3 -> chi^0_2 h^0)
#    BR                NDA      ID1      ID2       ID3
     1.24495443E-03    3     1000022         6        -6   # BR(chi^0_3 -> chi^0_1 t t_bar)
     1.02359321E-04    3     1000022         5        -5   # BR(chi^0_3 -> chi^0_1 b b_bar)
     2.37277757E-03    3     1000023         6        -6   # BR(chi^0_3 -> chi^0_2 t t_bar)
     6.83845535E-03    3     1000024         5        -6   # BR(chi^0_3 -> chi^+_1 b t_bar)
     6.83845535E-03    3    -1000024        -5         6   # BR(chi^0_3 -> chi^-_1 b_bar t)
DECAY   1000035     9.26352800E+00   # chi^0_4
#    BR                NDA      ID1      ID2
     2.76369506E-01    2     1000024       -24   # BR(chi^0_4 -> chi^+_1 W^-)
     2.76369506E-01    2    -1000024        24   # BR(chi^0_4 -> chi^-_1 W^+)
     8.36895006E-02    2     1000022        23   # BR(chi^0_4 -> chi^0_1 Z)
     4.78698296E-02    2     1000023        23   # BR(chi^0_4 -> chi^0_2 Z)
     5.80903347E-02    2     1000022        25   # BR(chi^0_4 -> chi^0_1 h^0)
     2.42341531E-01    2     1000023        25   # BR(chi^0_4 -> chi^0_2 h^0)
#    BR                NDA      ID1      ID2       ID3
     1.23881138E-03    3     1000022         6        -6   # BR(chi^0_4 -> chi^0_1 t t_bar)
     1.56511505E-04    3     1000022         5        -5   # BR(chi^0_4 -> chi^0_1 b b_bar)
     2.21728734E-03    3     1000023         6        -6   # BR(chi^0_4 -> chi^0_2 t t_bar)
     5.78229981E-03    3     1000024         5        -6   # BR(chi^0_4 -> chi^+_1 b t_bar)
     5.78229981E-03    3    -1000024        -5         6   # BR(chi^0_4 -> chi^-_1 b_bar t)
DECAY   1000021     1.96443866E+00   # ~g
#    BR                NDA      ID1      ID2
     4.54045555E-01    2     1000006        -6   # BR(~g -> ~t_1 t_bar)
     4.54045555E-01    2    -1000006         6   # BR(~g -> ~t^*_1 t)
     1.66936192E-03    2     1000025        21   # BR(~g -> chi^0_3 g)
     1.80694931E-03    2     1000035        21   # BR(~g -> chi^0_4 g)
#    BR                NDA      ID1      ID2       ID3
     1.20834084E-03    3     1000022         6        -6   # BR(~g -> chi^0_1 t t_bar)
     9.38931713E-04    3     1000022         5        -5   # BR(~g -> chi^0_1 b b_bar)
     1.65763824E-03    3     1000023         6        -6   # BR(~g -> chi^0_2 t t_bar)
     2.03327544E-02    3     1000023         5        -5   # BR(~g -> chi^0_2 b b_bar)
     5.19070189E-04    3     1000025         6        -6   # BR(~g -> chi^0_3 t t_bar)
     7.55478211E-04    3     1000025         5        -5   # BR(~g -> chi^0_3 b b_bar)
     4.73779194E-04    3     1000035         6        -6   # BR(~g -> chi^0_4 t t_bar)
     7.62590109E-04    3     1000035         5        -5   # BR(~g -> chi^0_4 b b_bar)
     2.01002249E-02    3     1000024         5        -6   # BR(~g -> chi^+_1 b t_bar)
     2.01002249E-02    3    -1000024        -5         6   # BR(~g -> chi^-_1 b_bar t)
     1.06802184E-02    3     1000037         5        -6   # BR(~g -> chi^+_2 b t_bar)
     1.06802184E-02    3    -1000037        -5         6   # BR(~g -> chi^-_2 b_bar t)
DECAY        25     3.14144794E-03   # Gamma(h0)
     2.63078964E-03   2        22        22   # BR(h0 -> photon photon)
     1.40788897E-03   2        22        23   # BR(h0 -> photon Z)
     2.34299994E-02   2        23        23   # BR(h0 -> Z Z)
     2.05336314E-01   2       -24        24   # BR(h0 -> W W)
     8.24545253E-02   2        21        21   # BR(h0 -> gluon gluon)
     5.22259110E-09   2       -11        11   # BR(h0 -> Electron electron)
     2.32308525E-04   2       -13        13   # BR(h0 -> Muon muon)
     6.69788438E-02   2       -15        15   # BR(h0 -> Tau tau)
     1.42074273E-07   2        -2         2   # BR(h0 -> Up up)
     2.75737254E-02   2        -4         4   # BR(h0 -> Charm charm)
     6.07311036E-07   2        -1         1   # BR(h0 -> Down down)
     2.19651421E-04   2        -3         3   # BR(h0 -> Strange strange)
     5.89735199E-01   2        -5         5   # BR(h0 -> Bottom bottom)
DECAY        35     5.46717584E+00   # Gamma(HH)
     5.54911563E-08   2        22        22   # BR(HH -> photon photon)
     1.27253786E-07   2        22        23   # BR(HH -> photon Z)
     1.59602737E-04   2        23        23   # BR(HH -> Z Z)
     1.74583162E-04   2       -24        24   # BR(HH -> W W)
     3.62738900E-05   2        21        21   # BR(HH -> gluon gluon)
     7.75608897E-09   2       -11        11   # BR(HH -> Electron electron)
     3.45238892E-04   2       -13        13   # BR(HH -> Muon muon)
     9.96939717E-02   2       -15        15   # BR(HH -> Tau tau)
     2.40736171E-12   2        -2         2   # BR(HH -> Up up)
     4.66871099E-07   2        -4         4   # BR(HH -> Charm charm)
     3.67605015E-02   2        -6         6   # BR(HH -> Top top)
     6.50934377E-07   2        -1         1   # BR(HH -> Down down)
     2.35492306E-04   2        -3         3   # BR(HH -> Strange strange)
     8.57865601E-01   2        -5         5   # BR(HH -> Bottom bottom)
     1.10342661E-04   2  -1000024   1000024   # BR(HH -> Chargino1 chargino1)
     3.34414402E-04   2   1000022   1000022   # BR(HH -> neutralino1 neutralino1)
     2.48472048E-03   2   1000022   1000023   # BR(HH -> neutralino1 neutralino2)
     5.51021316E-05   2   1000023   1000023   # BR(HH -> neutralino2 neutralino2)
     1.74284705E-03   2        25        25   # BR(HH -> h0 h0)
DECAY        36     5.37573038E+00   # Gamma(A0)
     6.40387133E-07   2        22        22   # BR(A0 -> photon photon)
     1.72906821E-06   2        22        23   # BR(A0 -> photon Z)
     1.60336842E-04   2        21        21   # BR(A0 -> gluon gluon)
     7.74192172E-09   2       -11        11   # BR(A0 -> Electron electron)
     3.44608302E-04   2       -13        13   # BR(A0 -> Muon muon)
     9.95128213E-02   2       -15        15   # BR(A0 -> Tau tau)
     2.21413793E-12   2        -2         2   # BR(A0 -> Up up)
     4.29313532E-07   2        -4         4   # BR(A0 -> Charm charm)
     3.72470820E-02   2        -6         6   # BR(A0 -> Top top)
     6.49743758E-07   2        -1         1   # BR(A0 -> Down down)
     2.35061510E-04   2        -3         3   # BR(A0 -> Strange strange)
     8.56298132E-01   2        -5         5   # BR(A0 -> Bottom bottom)
     2.84792867E-03   2  -1000024   1000024   # BR(A0 -> Chargino1 chargino1)
     4.72135954E-04   2   1000022   1000022   # BR(A0 -> neutralino1 neutralino1)
     1.23254160E-03   2   1000022   1000023   # BR(A0 -> neutralino1 neutralino2)
     1.42118425E-03   2   1000023   1000023   # BR(A0 -> neutralino2 neutralino2)
     2.24711137E-04   2        23        25   # BR(A0 -> Z h0)
     8.81894727E-34   2        25        25   # BR(A0 -> h0 h0)
DECAY        37     6.09235823E+00   # Gamma(Hp)
     8.68600845E-09   2       -11        12   # BR(Hp -> Electron nu_e)
     3.71353985E-04   2       -13        14   # BR(Hp -> Muon nu_mu)
     1.05039629E-01   2       -15        16   # BR(Hp -> Tau nu_tau)
     6.30048723E-07   2        -1         2   # BR(Hp -> Down up)
     1.05164662E-05   2        -3         2   # BR(Hp -> Strange up)
     9.32362115E-06   2        -5         2   # BR(Hp -> Bottom up)
     4.80313379E-08   2        -1         4   # BR(Hp -> Down charm)
     2.27527442E-04   2        -3         4   # BR(Hp -> Strange charm)
     1.30563865E-03   2        -5         4   # BR(Hp -> Bottom charm)
     1.99872717E-06   2        -1         6   # BR(Hp -> Down top)
     4.38993190E-05   2        -3         6   # BR(Hp -> Strange top)
     8.89452541E-01   2        -5         6   # BR(Hp -> Bottom top)
     3.33677655E-03   2   1000022   1000024   # BR(Hp -> neutralino1 chargino1)
     7.36363309E-10   2   1000023   1000024   # BR(Hp -> neutralino2 chargino1)
     2.00107727E-04   2        24        25   # BR(Hp -> W h0)
     6.39357124E-12   2        24        35   # BR(Hp -> W HH)
     6.32016616E-12   2        24        36   # BR(Hp -> W A0)
DECAY         6     2.43000000E+00   # top
#    BR                NDA      ID1      ID2
     1.00000000E+00    2           5        24   # BR(t -> b W)
Block HiggsBoundsInputHiggsCouplingsFermions
# ScalarNormEffCoupSq PseudoSNormEffCoupSq NP IP1 IP2 IP2
    9.61960829E-01    0.00000000E+00        3  25   5   5  # h0-b-b eff. coupling^2, normalised to SM
    2.46425510E+02    0.00000000E+00        3  35   5   5  # H0-b-b eff. coupling^2, normalised to SM
    0.00000000E+00    2.46387471E+02        3  36   5   5  # A0-b-b eff. coupling^2, normalised to SM
#
    1.00015439E+00    0.00000000E+00        3  25   6   6  # h0-t-t eff. coupling^2, normalised to SM
    3.90426033E-03    0.00000000E+00        3  35   6   6  # H0-t-t eff. coupling^2, normalised to SM
    0.00000000E+00    4.05864794E-03        3  36   6   6  # A0-t-t eff. coupling^2, normalised to SM
#
    9.61960829E-01    0.00000000E+00        3  25  15  15  # h0-tau-tau eff. coupling^2, normalised to SM
    2.46425510E+02    0.00000000E+00        3  35  15  15  # H0-tau-tau eff. coupling^2, normalised to SM
    0.00000000E+00    2.46387471E+02        3  36  15  15  # A0-tau-tau eff. coupling^2, normalised to SM
#
Block HiggsBoundsInputHiggsCouplingsBosons
    9.99998503E-01        3  25  24  24  # h0-W-W eff. coupling^2, normalised to SM
    1.49668397E-06        3  35  24  24  # H0-W-W eff. coupling^2, normalised to SM
    0.00000000E+00        3  36  24  24  # A0-W-W eff. coupling^2, normalised to SM
#
    9.99998503E-01        3  25  23  23  # h0-Z-Z eff. coupling^2, normalised to SM
    1.49668397E-06        3  35  23  23  # H0-Z-Z eff. coupling^2, normalised to SM
    0.00000000E+00        3  36  23  23  # A0-Z-Z eff. coupling^2, normalised to SM
#
    1.24276810E+00        3  25  21  21  # h0-g-g eff. coupling^2, normalised to SM
    3.50363596E-03        3  35  21  21  # H0-g-g eff. coupling^2, normalised to SM
    1.05296131E-01        3  36  21  21  # A0-g-g eff. coupling^2, normalised to SM
#
    0.00000000E+00        3  25  25  23  # h0-h0-Z eff. coupling^2, normalised to SM
    0.00000000E+00        3  35  25  23  # H0-h0-Z eff. coupling^2, normalised to SM
    1.49668397E-06        3  36  25  23  # A0-h0-Z eff. coupling^2, normalised to SM
    0.00000000E+00        3  35  35  23  # H0-H0-Z eff. coupling^2, normalised to SM
    9.99998503E-01        3  36  35  23  # A0-H0-Z eff. coupling^2, normalised to SM
    0.00000000E+00        3  36  36  23  # A0-A0-Z eff. coupling^2, normalised to SM
#
    0.00000000E+00        4  25  21  21  23  # h0-g-g-Z eff. coupling^2, normalised to SM
    0.00000000E+00        4  35  21  21  23  # H0-g-g-Z eff. coupling^2, normalised to SM
    0.00000000E+00        4  36  21  21  23  # A0-g-g-Z eff. coupling^2, normalised to SM
Block SPhenoLowEnergy  # low energy observables
    1    3.24810625E-04   # BR(b -> s gamma)
    2    1.59159977E-06   # BR(b -> s mu+ mu-)
    3    3.52907572E-05   # BR(b -> s nu nu)
    4    3.10281445E-15   # BR(Bd -> e+ e-)
    5    1.32548250E-10   # BR(Bd -> mu+ mu-)
    6    2.77205350E-08   # BR(Bd -> tau+ tau-)
    7    1.05541578E-13   # BR(Bs -> e+ e-)
    8    4.50871718E-09   # BR(Bs -> mu+ mu-)
    9    9.55403764E-07   # BR(Bs -> tau+ tau-)
   10    9.59241749E-05   # BR(B_u -> tau nu)
   11    9.90860003E-01   # BR(B_u -> tau nu)/BR(B_u -> tau nu)_SM
   12    5.42175626E-01   # |Delta(M_Bd)| [ps^-1] 
   13    1.93688862E+01   # |Delta(M_Bs)| [ps^-1] 
   14    0.00000000E+00   # neutron EDM according to the chiral quark model
   15    0.00000000E+00   # neutron EDM according to the relativistic quark-parton model
   16    2.15813501E-03   # epsilon_K
   17    2.28166767E-15   # Delta(M_K)
   18    2.48457465E-11   # BR(K^0 -> pi^0 nu nu)
   19    8.30095941E-11   # BR(K^+ -> pi^+ nu nu)
   20   -1.46883544E-16   # Delta(g-2)_electron/2
   21   -6.27973883E-12   # Delta(g-2)_muon/2
   22   -1.77688899E-09   # Delta(g-2)_tau/2
   23    0.00000000E+00   # electric dipole moment of the electron
   24    0.00000000E+00   # electric dipole moment of the muon
   25    0.00000000E+00   # electric dipole moment of the tau
   26    0.00000000E+00   # Br(mu -> e gamma)
   27    0.00000000E+00   # Br(tau -> e gamma)
   28    0.00000000E+00   # Br(tau -> mu gamma)
   29    0.00000000E+00   # Br(mu -> 3 e)
   30    0.00000000E+00   # Br(tau -> 3 e)
   31    0.00000000E+00   # Br(tau -> 3 mu)
   39    1.64482573E-04   # Delta(rho_parameter)
   40    0.00000000E+00   # BR(Z -> e mu)
   41    0.00000000E+00   # BR(Z -> e tau)
   42    0.00000000E+00   # BR(Z -> mu tau)
Block FWCOEF Q=  1.60000000E+02  # Wilson coefficients at scale Q
#    id        order  M        value         comment
     0305 4422   00   0    -1.88819110E-01   # C7
     0305 4422   00   2    -1.91164335E-01   # C7
     0305 4322   00   2    -4.70874267E-04   # C7'
     0305 6421   00   0    -9.52278348E-02   # C8
     0305 6421   00   2    -1.09151410E-01   # C8
     0305 6321   00   2    -5.84490618E-04   # C8'
 03051111 4133   00   0     1.60649582E+00   # C9 e+e-
 03051111 4133   00   2     1.60732870E+00   # C9 e+e-
 03051111 4233   00   2     5.46738469E-05   # C9' e+e-
 03051111 4137   00   0    -4.42918793E+00   # C10 e+e-
 03051111 4137   00   2    -4.43127719E+00   # C10 e+e-
 03051111 4237   00   2    -4.15914557E-04   # C10' e+e-
 03051313 4133   00   0     1.60649582E+00   # C9 mu+mu-
 03051313 4133   00   2     1.60732865E+00   # C9 mu+mu-
 03051313 4233   00   2     5.46736272E-05   # C9' mu+mu-
 03051313 4137   00   0    -4.42918793E+00   # C10 mu+mu-
 03051313 4137   00   2    -4.43127724E+00   # C10 mu+mu-
 03051313 4237   00   2    -4.15914351E-04   # C10' mu+mu-
 03051212 4137   00   0     1.50535012E+00   # C11 nu_1 nu_1
 03051212 4137   00   2     1.50580639E+00   # C11 nu_1 nu_1
 03051212 4237   00   2     9.03456366E-05   # C11' nu_1 nu_1
 03051414 4137   00   0     1.50535012E+00   # C11 nu_2 nu_2
 03051414 4137   00   2     1.50580639E+00   # C11 nu_2 nu_2
 03051414 4237   00   2     9.03456836E-05   # C11' nu_2 nu_2
 03051616 4137   00   0     1.50535012E+00   # C11 nu_3 nu_3
 03051616 4137   00   2     1.50580639E+00   # C11 nu_3 nu_3
 03051616 4237   00   2     9.03589303E-05   # C11' nu_3 nu_3
Block IMFWCOEF Q=  1.60000000E+02  # Im(Wilson coefficients) at scale Q
#    id        order  M        value         comment
     0305 4422   00   0     3.85873697E-07   # C7
     0305 4422   00   2    -1.31726236E-05   # C7
     0305 4322   00   2     1.17878611E-06   # C7'
     0305 6421   00   0     3.30526340E-07   # C8
     0305 6421   00   2     1.57906692E-05   # C8
     0305 6321   00   2     1.03673978E-06   # C8'
 03051111 4133   00   2    -1.17488143E-06   # C9 e+e-
 03051111 4233   00   2     1.46074724E-06   # C9' e+e-
 03051111 4137   00   2     2.18954384E-05   # C10 e+e-
 03051111 4237   00   2    -1.11219616E-05   # C10' e+e-
 03051313 4133   00   2    -1.17488214E-06   # C9 mu+mu-
 03051313 4233   00   2     1.46074718E-06   # C9' mu+mu-
 03051313 4137   00   2     2.18954393E-05   # C10 mu+mu-
 03051313 4237   00   2    -1.11219618E-05   # C10' mu+mu-
 03051212 4137   00   2    -4.71232483E-06   # C11 nu_1 nu_1
 03051212 4237   00   2     2.41593750E-06   # C11' nu_1 nu_1
 03051414 4137   00   2    -4.71232479E-06   # C11 nu_2 nu_2
 03051414 4237   00   2     2.41593750E-06   # C11' nu_2 nu_2
 03051616 4137   00   2    -4.71231330E-06   # C11 nu_3 nu_3
 03051616 4237   00   2     2.41593750E-06   # C11' nu_3 nu_3
