# SUSY Les Houches Accord 2 - MSSM spectrum + Decays
# SPheno v4.0.5be
# W. Porod, Comput. Phys. Commun. 153 (2003) 275-315, hep-ph/0301101;
# W. Porod, F.~Staub, Comput. Phys. Commun. 183 (2012) 2458
#                     arXiv:1104.1573 [hep-ph] 
# in case of problems send email to porod@physik.uni-wuerzburg.de
# Created: 07.09.2021,  15:33
Block SPINFO         # Program information
     1   SPheno      # spectrum calculator
     2   v4.0.5be    # version number
#
Block SPhenoINFO     # SPheno specific information
    1      2         # using 2-loop RGEs
    2      2         # using pole masses for boundary conditions at mZ
Block MODSEL  # Model selection
    1    0    # general MSSM
Block MINPAR  # Input parameters
    3    5.06248232E+00  # tanb at m_Z    
    4    1.00000000E+00  # Sign(mu)
Block EXTPAR  # non-universal input parameters
    0    3.67924124E+03  # scale for input parameters
    1    2.38602768E+02  # M_1
    2    3.26832694E+02  # M_2
    3    2.90925032E+03  # M_3
   11    6.13655066E+03  # A_t
   12   -1.52786829E+03  # A_b
   13   -7.20734343E+02  # A_tau
   23    2.76779159E+02  # mu
   25    4.79427675E+00  # tan(beta)
   26    6.77456373E+01  # m_A, pole mass
   31    1.00000000E+04  # M_L11
   32    1.00000000E+04  # M_L22
   33    1.00000000E+04  # M_L33
   34    1.00000000E+04  # M_E11
   35    1.00000000E+04  # M_E22
   36    1.00000000E+04  # M_E33
   41    1.00000000E+04  # M_Q11
   42    1.00000000E+04  # M_Q22
   43    3.62637828E+03  # M_Q33
   44    1.00000000E+04  # M_U11
   45    1.00000000E+04  # M_U22
   46    3.75426516E+03  # M_U33
   47    1.00000000E+04  # M_D11
   48    1.00000000E+04  # M_D22
   49    4.32980302E+03  # M_D33
Block SMINPUTS  # SM parameters
         1     1.27908970E+02  # alpha_em^-1(MZ)^MSbar
         2     1.16637870E-05  # G_mu [GeV^-2]
         3     1.18400000E-01  # alpha_s(MZ)^MSbar
         4     9.11876000E+01  # m_Z(pole)
         5     4.18000000E+00  # m_b(m_b), MSbar
         6     1.73200000E+02  # m_t(pole)
         7     1.77700000E+00  # m_tau(pole)
         8     0.00000000E+00  # m_nu_3
        11     5.10998930E-04  # m_e(pole)
        12     0.00000000E+00  # m_nu_1
        13     1.05658372E-01  # m_muon(pole)
        14     0.00000000E+00  # m_nu_2
        21     5.00000000E-03  # m_d(2 GeV), MSbar
        22     2.50000000E-03  # m_u(2 GeV), MSbar
        23     9.50000000E-02  # m_s(2 GeV), MSbar
        24     1.27000000E+00  # m_c(m_c), MSbar
Block gauge Q=  3.67924124E+03  # (SUSY scale)
   1    3.55362975E-01  # g'(Q)^DRbar
   2    6.65198874E-01  # g(Q)^DRbar
   3    1.21977796E+00  # g3(Q)^DRbar
Block Yu Q=  3.67924124E+03  # (SUSY scale)
  1  1     8.56481759E-06   # Y_u(Q)^DRbar
  2  2     4.35092734E-03   # Y_c(Q)^DRbar
  3  3     1.03469876E+00   # Y_t(Q)^DRbar
Block Yd Q=  3.67924124E+03  # (SUSY scale)
  1  1     8.25128268E-05   # Y_d(Q)^DRbar
  2  2     1.56774371E-03   # Y_s(Q)^DRbar
  3  3     8.18268684E-02   # Y_b(Q)^DRbar
Block Ye Q=  3.67924124E+03  # (SUSY scale)
  1  1     1.43990916E-05   # Y_e(Q)^DRbar
  2  2     2.97727547E-03   # Y_mu(Q)^DRbar
  3  3     5.00728756E-02   # Y_tau(Q)^DRbar
Block Au Q=  3.67924124E+03  # (SUSY scale)
  1  1     0.00000000E+00   # A_u(Q)^DRbar
  2  2     0.00000000E+00   # A_c(Q)^DRbar
  3  3     6.13655069E+03   # A_t(Q)^DRbar
Block Ad Q=  3.67924124E+03  # (SUSY scale)
  1  1     0.00000000E+00   # A_d(Q)^DRbar
  2  2     0.00000000E+00   # A_s(Q)^DRbar
  3  3    -1.52786829E+03   # A_b(Q)^DRbar
Block Ae Q=  3.67924124E+03  # (SUSY scale)
  1  1     0.00000000E+00   # A_e(Q)^DRbar
  2  2     0.00000000E+00   # A_mu(Q)^DRbar
  3  3    -7.20734344E+02   # A_tau(Q)^DRbar
Block MSOFT Q=  3.67924124E+03  # soft SUSY breaking masses at Q
   1    2.38602768E+02  # M_1
   2    3.26832694E+02  # M_2
   3    2.90925032E+03  # M_3
  21   -8.28968271E+04  # M^2_(H,d)
  22    2.37613484E+05  # M^2_(H,u)
  31    1.00000000E+04  # M_(L,11)
  32    1.00000000E+04  # M_(L,22)
  33    1.00000000E+04  # M_(L,33)
  34    1.00000000E+04  # M_(E,11)
  35    1.00000000E+04  # M_(E,22)
  36    1.00000000E+04  # M_(E,33)
  41    1.00000000E+04  # M_(Q,11)
  42    1.00000000E+04  # M_(Q,22)
  43    3.62637828E+03  # M_(Q,33)
  44    1.00000000E+04  # M_(U,11)
  45    1.00000000E+04  # M_(U,22)
  46    3.75426516E+03  # M_(U,33)
  47    1.00000000E+04  # M_(D,11)
  48    1.00000000E+04  # M_(D,22)
  49    4.32980302E+03  # M_(D,33)
Block MASS  # Mass spectrum
#   PDG code      mass          particle
         6     1.73200000E+02  # m_t(pole)
        23     9.11876000E+01  # m_Z(pole)
        24     8.04299946E+01  # W+
        15     1.77700000E+00  # m_tau(pole)
        25     6.61474148E+01  # h0
        35     1.30845837E+02  # H0
        36     6.77456373E+01  # A0
        37     1.22651038E+02  # H+
   1000001     1.01097743E+04  # ~d_L
   2000001     1.00845667E+04  # ~d_R
   1000002     1.01094363E+04  # ~u_L
   2000002     1.00879681E+04  # ~u_R
   1000003     1.01097747E+04  # ~s_L
   2000003     1.00845668E+04  # ~s_R
   1000004     1.01094368E+04  # ~c_L
   2000004     1.00879689E+04  # ~c_R
   1000005     3.66389680E+03  # ~b_1
   2000005     4.41158263E+03  # ~b_2
   1000006     3.57757820E+03  # ~t_1
   2000006     3.78379320E+03  # ~t_2
   1000011     1.00216328E+04  # ~e_L-
   2000011     1.00087065E+04  # ~e_R-
   1000012     1.00208887E+04  # ~nu_eL
   1000013     1.00216331E+04  # ~mu_L-
   2000013     1.00087070E+04  # ~mu_R-
   1000014     1.00208890E+04  # ~nu_muL
   1000015     1.00088582E+04  # ~tau_1-
   2000015     1.00217146E+04  # ~tau_2-
   1000016     1.00209677E+04  # ~nu_tauL
   1000021     3.38244048E+03  # ~g
   1000022     2.13496216E+02  # ~chi_10
   1000023     2.75622812E+02  # ~chi_20
   1000025     2.94992828E+02  # ~chi_30
   1000035     4.04988795E+02  # ~chi_40
   1000024     2.53004852E+02  # ~chi_1+
   1000037     4.03366718E+02  # ~chi_2+
# Higgs mixing
Block alpha # Effective Higgs mixing angle
          -1.38194843E+00   # alpha
Block Hmix Q=  3.67924124E+03  # Higgs mixing parameters
   1    2.76779159E+02  # mu
   2    4.79427675E+00  # tan[beta](Q)
   3    2.43160053E+02  # v(Q)
   4    4.58947137E+03  # m^2_A(Q)
Block stopmix # stop mixing matrix
   1  1    -7.77867128E-01   # Re[R_st(1,1)]
   1  2     6.28428780E-01   # Re[R_st(1,2)]
   2  1    -6.28428780E-01   # Re[R_st(2,1)]
   2  2    -7.77867128E-01   # Re[R_st(2,2)]
Block sbotmix # sbottom mixing matrix
   1  1     9.99999434E-01   # Re[R_sb(1,1)]
   1  2     1.06417407E-03   # Re[R_sb(1,2)]
   2  1    -1.06417407E-03   # Re[R_sb(2,1)]
   2  2     9.99999434E-01   # Re[R_sb(2,2)]
Block staumix # stau mixing matrix
   1  1     1.41417913E-02   # Re[R_sta(1,1)]
   1  2     9.99900000E-01   # Re[R_sta(1,2)]
   2  1    -9.99900000E-01   # Re[R_sta(2,1)]
   2  2     1.41417913E-02   # Re[R_sta(2,2)]
Block Nmix # neutralino mixing matrix
   1  1     7.69010719E-01   # Re[N(1,1)]
   1  2    -2.52739038E-01   # Re[N(1,2)]
   1  3     4.54908792E-01   # Re[N(1,3)]
   1  4    -3.71218916E-01   # Re[N(1,4)]
   2  1    -6.23816790E-01   # Re[N(2,1)]
   2  2    -4.91952814E-01   # Re[N(2,2)]
   2  3     4.37465205E-01   # Re[N(2,3)]
   2  4    -4.21259107E-01   # Re[N(2,4)]
   3  1     4.61286474E-02   # Re[N(3,1)]
   3  2    -6.87940598E-02   # Re[N(3,2)]
   3  3    -6.97241420E-01   # Re[N(3,3)]
   3  4    -7.12035061E-01   # Re[N(3,4)]
   4  1    -1.31709052E-01   # Re[N(4,1)]
   4  2     8.30284761E-01   # Re[N(4,2)]
   4  3     3.39906734E-01   # Re[N(4,3)]
   4  4    -4.21596197E-01   # Re[N(4,4)]
Block Umix # chargino mixing matrix
   1  1    -4.68486009E-01   # Re[U(1,1)]
   1  2     8.83470916E-01   # Re[U(1,2)]
   2  1     8.83470916E-01   # Re[U(2,1)]
   2  2     4.68486009E-01   # Re[U(2,2)]
Block Vmix # chargino mixing matrix
   1  1    -5.83828167E-01   # Re[V(1,1)]
   1  2     8.11877251E-01   # Re[V(1,2)]
   2  1     8.11877251E-01   # Re[V(2,1)]
   2  2     5.83828167E-01   # Re[V(2,2)]
DECAY        23     2.49520000E+00   # Z
DECAY        24     2.08500000E+00   # W
DECAY   2000011     5.02303243E+01   # ~e^-_R
#    BR                NDA      ID1      ID2
     5.91542489E-01    2     1000022        11   # BR(~e^-_R -> chi^0_1 e^-)
     3.89019736E-01    2     1000023        11   # BR(~e^-_R -> chi^0_2 e^-)
     2.12668478E-03    2     1000025        11   # BR(~e^-_R -> chi^0_3 e^-)
     1.73110896E-02    2     1000035        11   # BR(~e^-_R -> chi^0_4 e^-)
DECAY   1000011     1.44542856E+02   # ~e^-_L
#    BR                NDA      ID1      ID2
     7.61934425E-03    2     1000022        11   # BR(~e^-_L -> chi^0_1 e^-)
     2.07498652E-01    2     1000023        11   # BR(~e^-_L -> chi^0_2 e^-)
     5.93850192E-04    2     1000025        11   # BR(~e^-_L -> chi^0_3 e^-)
     1.75656663E-01    2     1000035        11   # BR(~e^-_L -> chi^0_4 e^-)
     1.33787176E-01    2    -1000024        12   # BR(~e^-_L -> chi^-_1 nu_e)
     4.74844315E-01    2    -1000037        12   # BR(~e^-_L -> chi^-_2 nu_e)
#    BR                NDA      ID1      ID2       ID3
DECAY   2000013     5.02338507E+01   # ~mu^-_R
#    BR                NDA      ID1      ID2
     5.91508254E-01    2     1000022        13   # BR(~mu^-_R -> chi^0_1 mu^-)
     3.88999162E-01    2     1000023        13   # BR(~mu^-_R -> chi^0_2 mu^-)
     2.14358687E-03    2     1000025        13   # BR(~mu^-_R -> chi^0_3 mu^-)
     1.73139218E-02    2     1000035        13   # BR(~mu^-_R -> chi^0_4 mu^-)
DECAY   1000013     1.44544625E+02   # ~mu^-_L
#    BR                NDA      ID1      ID2
     7.62177921E-03    2     1000022        13   # BR(~mu^-_L -> chi^0_1 mu^-)
     2.07498455E-01    2     1000023        13   # BR(~mu^-_L -> chi^0_2 mu^-)
     5.99776477E-04    2     1000025        13   # BR(~mu^-_L -> chi^0_3 mu^-)
     1.75655928E-01    2     1000035        13   # BR(~mu^-_L -> chi^0_4 mu^-)
     1.33785543E-01    2    -1000024        14   # BR(~mu^-_L -> chi^-_1 nu_mu)
     4.74838519E-01    2    -1000037        14   # BR(~mu^-_L -> chi^-_2 nu_mu)
#    BR                NDA      ID1      ID2       ID3
DECAY   1000015     5.12468763E+01   # ~tau^-_1
#    BR                NDA      ID1      ID2
     5.82499780E-01    2     1000022        15   # BR(~tau^-_1 -> chi^0_1 tau^-)
     3.83391036E-01    2     1000023        15   # BR(~tau^-_1 -> chi^0_2 tau^-)
     6.64404779E-03    2     1000025        15   # BR(~tau^-_1 -> chi^0_3 tau^-)
     1.73957841E-02    2     1000035        15   # BR(~tau^-_1 -> chi^0_4 tau^-)
     9.18099972E-03    2    -1000024        16   # BR(~tau^-_1 -> chi^-_1 nu_tau)
     8.88351918E-04    2    -1000037        16   # BR(~tau^-_1 -> chi^-_2 nu_tau)
DECAY   2000015     1.45024089E+02   # ~tau^-_2
#    BR                NDA      ID1      ID2
     8.07016655E-03    2     1000022        15   # BR(~tau^-_2 -> chi^0_1 tau^-)
     2.07392330E-01    2     1000023        15   # BR(~tau^-_2 -> chi^0_2 tau^-)
     2.32431394E-03    2     1000025        15   # BR(~tau^-_2 -> chi^0_3 tau^-)
     1.75718020E-01    2     1000035        15   # BR(~tau^-_2 -> chi^0_4 tau^-)
     1.32782873E-01    2    -1000024        16   # BR(~tau^-_2 -> chi^-_1 nu_tau)
     4.73712297E-01    2    -1000037        16   # BR(~tau^-_2 -> chi^-_2 nu_tau)
#    BR                NDA      ID1      ID2       ID3
DECAY   1000012     1.44546051E+02   # ~nu_e
#    BR                NDA      ID1      ID2
     1.34236245E-01    2     1000022        12   # BR(~nu_e -> chi^0_1 nu_e)
     7.67331920E-03    2     1000023        12   # BR(~nu_e -> chi^0_2 nu_e)
     2.65942232E-03    2     1000025        12   # BR(~nu_e -> chi^0_3 nu_e)
     2.46712983E-01    2     1000035        12   # BR(~nu_e -> chi^0_4 nu_e)
     2.07753999E-01    2     1000024        11   # BR(~nu_e -> chi^+_1 e^-)
     4.00964031E-01    2     1000037        11   # BR(~nu_e -> chi^+_2 e^-)
#    BR                NDA      ID1      ID2       ID3
DECAY   1000014     1.44547820E+02   # ~nu_mu
#    BR                NDA      ID1      ID2
     1.34234607E-01    2     1000022        14   # BR(~nu_mu -> chi^0_1 nu_mu)
     7.67322555E-03    2     1000023        14   # BR(~nu_mu -> chi^0_2 nu_mu)
     2.65938987E-03    2     1000025        14   # BR(~nu_mu -> chi^0_3 nu_mu)
     2.46709972E-01    2     1000035        14   # BR(~nu_mu -> chi^0_4 nu_mu)
     2.07760992E-01    2     1000024        13   # BR(~nu_mu -> chi^+_1 mu^-)
     4.00961814E-01    2     1000037        13   # BR(~nu_mu -> chi^+_2 mu^-)
#    BR                NDA      ID1      ID2       ID3
DECAY   1000016     1.45046205E+02   # ~nu_tau
#    BR                NDA      ID1      ID2
     1.33774423E-01    2     1000022        16   # BR(~nu_tau -> chi^0_1 nu_tau)
     7.64692024E-03    2     1000023        16   # BR(~nu_tau -> chi^0_2 nu_tau)
     2.65027297E-03    2     1000025        16   # BR(~nu_tau -> chi^0_3 nu_tau)
     2.45864209E-01    2     1000035        16   # BR(~nu_tau -> chi^0_4 nu_tau)
     2.09725205E-01    2     1000024        15   # BR(~nu_tau -> chi^+_1 tau^-)
     4.00338970E-01    2     1000037        15   # BR(~nu_tau -> chi^+_2 tau^-)
#    BR                NDA      ID1      ID2       ID3
DECAY   2000001     6.32607040E+02   # ~d_R
#    BR                NDA      ID1      ID2
     5.25848510E-03    2     1000022         1   # BR(~d_R -> chi^0_1 d)
     3.45820160E-03    2     1000023         1   # BR(~d_R -> chi^0_2 d)
     1.53891700E-04    2     1000035         1   # BR(~d_R -> chi^0_4 d)
     9.91110513E-01    2     1000021         1   # BR(~d_R -> ~g d)
DECAY   1000001     7.63885406E+02   # ~d_L
#    BR                NDA      ID1      ID2
     8.83779890E-03    2     1000022         1   # BR(~d_L -> chi^0_1 d)
     8.43759192E-03    2     1000023         1   # BR(~d_L -> chi^0_2 d)
     3.44868333E-04    2     1000025         1   # BR(~d_L -> chi^0_3 d)
     4.23225017E-02    2     1000035         1   # BR(~d_L -> chi^0_4 d)
     2.55385065E-02    2    -1000024         2   # BR(~d_L -> chi^-_1 u)
     9.06456784E-02    2    -1000037         2   # BR(~d_L -> chi^-_2 u)
     8.23873054E-01    2     1000021         1   # BR(~d_L -> ~g d)
DECAY   2000003     6.32608030E+02   # ~s_R
#    BR                NDA      ID1      ID2
     5.25863757E-03    2     1000022         3   # BR(~s_R -> chi^0_1 s)
     3.45834481E-03    2     1000023         3   # BR(~s_R -> chi^0_2 s)
     1.53980993E-04    2     1000035         3   # BR(~s_R -> chi^0_4 s)
     9.91108975E-01    2     1000021         3   # BR(~s_R -> ~g s)
DECAY   1000003     7.63889741E+02   # ~s_L
#    BR                NDA      ID1      ID2
     8.83788246E-03    2     1000022         3   # BR(~s_L -> chi^0_1 s)
     8.43766761E-03    2     1000023         3   # BR(~s_L -> chi^0_2 s)
     3.45179611E-04    2     1000025         3   # BR(~s_L -> chi^0_3 s)
     4.23223377E-02    2     1000035         3   # BR(~s_L -> chi^0_4 s)
     2.55416388E-02    2    -1000024         4   # BR(~s_L -> chi^-_1 c)
     9.06468664E-02    2    -1000037         4   # BR(~s_L -> chi^-_2 c)
     8.23868427E-01    2     1000021         3   # BR(~s_L -> ~g s)
DECAY   1000005     1.31476623E+02   # ~b_1
#    BR                NDA      ID1      ID2
     1.92749346E-02    2     1000022         5   # BR(~b_1 -> chi^0_1 b)
     1.82962348E-02    2     1000023         5   # BR(~b_1 -> chi^0_2 b)
     2.49679162E-03    2     1000025         5   # BR(~b_1 -> chi^0_3 b)
     8.76385608E-02    2     1000035         5   # BR(~b_1 -> chi^0_4 b)
     4.36990531E-01    2    -1000024         6   # BR(~b_1 -> chi^-_1 t)
     3.86553904E-01    2    -1000037         6   # BR(~b_1 -> chi^-_2 t)
     4.80053189E-02    2     1000021         5   # BR(~b_1 -> ~g b)
     7.43724153E-04    2     1000006       -24   # BR(~b_1 -> ~t_1 W^-)
DECAY   2000005     6.28035966E+01   # ~b_2
#    BR                NDA      ID1      ID2
     2.49750139E-02    2     1000022         5   # BR(~b_2 -> chi^0_1 b)
     1.69123133E-02    2     1000023         5   # BR(~b_2 -> chi^0_2 b)
     4.59847697E-03    2     1000025         5   # BR(~b_2 -> chi^0_3 b)
     1.76682027E-03    2     1000035         5   # BR(~b_2 -> chi^0_4 b)
     7.16845531E-03    2    -1000024         6   # BR(~b_2 -> chi^-_1 t)
     2.08039598E-03    2    -1000037         6   # BR(~b_2 -> chi^-_2 t)
     9.41799624E-01    2     1000021         5   # BR(~b_2 -> ~g b)
     2.41499716E-04    2     1000006       -37   # BR(~b_2 -> ~t_1 H^-)
     1.53824996E-04    2     1000005        36   # BR(~b_2 -> ~b_1 A^0)
     1.79076860E-04    2     1000005        25   # BR(~b_2 -> ~b_1 h^0)
DECAY   2000002     6.49803974E+02   # ~u_R
#    BR                NDA      ID1      ID2
     2.04841987E-02    2     1000022         2   # BR(~u_R -> chi^0_1 u)
     1.34712780E-02    2     1000023         2   # BR(~u_R -> chi^0_2 u)
     5.99478412E-04    2     1000035         2   # BR(~u_R -> chi^0_4 u)
     9.65371400E-01    2     1000021         2   # BR(~u_R -> ~g u)
DECAY   1000002     7.63872399E+02   # ~u_L
#    BR                NDA      ID1      ID2
     7.80419658E-04    2     1000022         2   # BR(~u_L -> chi^0_1 u)
     2.11520704E-02    2     1000023         2   # BR(~u_L -> chi^0_2 u)
     2.13414842E-04    2     1000025         2   # BR(~u_L -> chi^0_3 u)
     3.77989051E-02    2     1000035         2   # BR(~u_L -> chi^0_4 u)
     3.96611394E-02    2     1000024         1   # BR(~u_L -> chi^+_1 d)
     7.65484004E-02    2     1000037         1   # BR(~u_L -> chi^+_2 d)
     8.23845650E-01    2     1000021         2   # BR(~u_L -> ~g u)
DECAY   2000004     6.49811604E+02   # ~c_R
#    BR                NDA      ID1      ID2
     2.04847625E-02    2     1000022         4   # BR(~c_R -> chi^0_1 c)
     1.34721582E-02    2     1000023         4   # BR(~c_R -> chi^0_2 c)
     6.00507818E-04    2     1000035         4   # BR(~c_R -> chi^0_4 c)
     9.65360133E-01    2     1000021         4   # BR(~c_R -> ~g c)
DECAY   1000004     7.63876713E+02   # ~c_L
#    BR                NDA      ID1      ID2
     7.81101214E-04    2     1000022         4   # BR(~c_L -> chi^0_1 c)
     2.11528322E-02    2     1000023         4   # BR(~c_L -> chi^0_2 c)
     2.15935920E-04    2     1000025         4   # BR(~c_L -> chi^0_3 c)
     3.77995791E-02    2     1000035         4   # BR(~c_L -> chi^0_4 c)
     3.96614200E-02    2     1000024         3   # BR(~c_L -> chi^+_1 s)
     7.65481133E-02    2     1000037         3   # BR(~c_L -> chi^+_2 s)
     8.23841018E-01    2     1000021         4   # BR(~c_L -> ~g c)
DECAY   1000006     1.36840002E+02   # ~t_1
#    BR                NDA      ID1      ID2
     3.01473564E-02    2     1000022         6   # BR(~t_1 -> chi^0_1 t)
     1.14832624E-01    2     1000023         6   # BR(~t_1 -> chi^0_2 t)
     2.63346455E-01    2     1000025         6   # BR(~t_1 -> chi^0_3 t)
     2.33825602E-01    2     1000035         6   # BR(~t_1 -> chi^0_4 t)
     2.78885765E-02    2     1000024         5   # BR(~t_1 -> chi^+_1 b)
     3.24698771E-01    2     1000037         5   # BR(~t_1 -> chi^+_2 b)
     1.42714676E-03    2     1000021         6   # BR(~t_1 -> ~g t)
#    BR                NDA      ID1      ID2       ID3
     3.83346759E-03    3     1000022        24         5   # BR(~t_1 -> chi^0_1 W^+ b)
DECAY   2000006     1.73477996E+02   # ~t_2
#    BR                NDA      ID1      ID2
     1.30756569E-01    2     1000022         6   # BR(~t_2 -> chi^0_1 t)
     1.19373452E-01    2     1000023         6   # BR(~t_2 -> chi^0_2 t)
     2.43671632E-01    2     1000025         6   # BR(~t_2 -> chi^0_3 t)
     2.83712849E-02    2     1000035         6   # BR(~t_2 -> chi^0_4 t)
     3.47293797E-01    2     1000024         5   # BR(~t_2 -> chi^+_1 b)
     7.46935769E-03    2     1000037         5   # BR(~t_2 -> chi^+_2 b)
     8.69658153E-02    2     1000021         6   # BR(~t_2 -> ~g t)
     8.30213070E-03    2     1000005        24   # BR(~t_2 -> ~b_1 W^+)
     2.18287466E-02    2     1000006        23   # BR(~t_2 -> ~t_1 Z)
     3.77317716E-03    2     1000006        36   # BR(~t_2 -> ~t_1 A^0)
     2.13820246E-03    2     1000006        35   # BR(~t_2 -> ~t_1 H^0)
DECAY   1000024     7.31656302E-05   # chi^+_1
#    BR                NDA      ID1      ID2       ID3
     3.34311790E-01    3     1000022        -1         2   # BR(chi^+_1 -> chi^0_1 d_bar u)
     3.32768334E-01    3     1000022        -3         4   # BR(chi^+_1 -> chi^0_1 s_bar c)
     1.11436993E-01    3     1000022       -11        12   # BR(chi^+_1 -> chi^0_1 e^+ nu_e)
     1.11435354E-01    3     1000022       -13        14   # BR(chi^+_1 -> chi^0_1 mu^+ nu_mu)
     1.10047529E-01    3     1000022       -15        16   # BR(chi^+_1 -> chi^0_1 tau^+ nu_tau)
DECAY   1000037     2.74259228E+00   # chi^+_2
#    BR                NDA      ID1      ID2
     3.74409453E-02    2     1000022        24   # BR(chi^+_2 -> chi^0_1 W^+)
     1.63644619E-01    2     1000023        24   # BR(chi^+_2 -> chi^0_2 W^+)
     3.18311170E-01    2     1000025        24   # BR(chi^+_2 -> chi^0_3 W^+)
     3.72632749E-02    2          37   1000022   # BR(chi^+_2 -> H^+ chi^0_1)
     3.35981993E-02    2          37   1000023   # BR(chi^+_2 -> H^+ chi^0_2)
     1.87342886E-01    2     1000024        23   # BR(chi^+_2 -> chi^+_1 Z)
     1.37215433E-01    2     1000024        36   # BR(chi^+_2 -> chi^+_1 A^0)
     6.80533864E-02    2     1000024        25   # BR(chi^+_2 -> chi^+_1 h^0)
     1.71273376E-02    2     1000024        35   # BR(chi^+_2 -> chi^+_1 H^0)
#    BR                NDA      ID1      ID2       ID3
DECAY   1000022     0.00000000E+00   # chi^0_1
DECAY   1000023     6.81951161E-05   # chi^0_2
#    BR                NDA      ID1      ID2
     1.21057449E-03    2     1000022        22   # BR(chi^0_2 -> chi^0_1 photon)
#    BR                NDA      ID1      ID2       ID3
     1.24904195E-02    3     1000022         2        -2   # BR(chi^0_2 -> chi^0_1 u u_bar)
     1.25218760E-02    3     1000022         4        -4   # BR(chi^0_2 -> chi^0_1 c c_bar)
     1.60200203E-02    3     1000022         1        -1   # BR(chi^0_2 -> chi^0_1 d d_bar)
     1.62623351E-02    3     1000022         3        -3   # BR(chi^0_2 -> chi^0_1 s s_bar)
     6.15901632E-01    3     1000022         5        -5   # BR(chi^0_2 -> chi^0_1 b b_bar)
     3.60881738E-03    3     1000022        11       -11   # BR(chi^0_2 -> chi^0_1 e^- e^+)
     3.79619282E-03    3     1000022        13       -13   # BR(chi^0_2 -> chi^0_1 mu^- mu^+)
     5.62113892E-02    3     1000022        15       -15   # BR(chi^0_2 -> chi^0_1 tau^- tau^+)
     2.14100230E-02    3     1000022        12       -12   # BR(chi^0_2 -> chi^0_1 nu_e nu_bar_e)
     4.04500457E-02    3     1000024         1        -2   # BR(chi^0_2 -> chi^+_1 d u_bar)
     4.04500457E-02    3    -1000024        -1         2   # BR(chi^0_2 -> chi^-_1 d_bar u)
     3.98395806E-02    3     1000024         3        -4   # BR(chi^0_2 -> chi^+_1 s c_bar)
     3.98395806E-02    3    -1000024        -3         4   # BR(chi^0_2 -> chi^-_1 s_bar c)
     1.34832856E-02    3     1000024        11       -12   # BR(chi^0_2 -> chi^+_1 e^- nu_bar_e)
     1.34832856E-02    3    -1000024       -11        12   # BR(chi^0_2 -> chi^-_1 e^+ nu_e)
     1.34829707E-02    3     1000024        13       -14   # BR(chi^0_2 -> chi^+_1 mu^- nu_bar_mu)
     1.34829707E-02    3    -1000024       -13        14   # BR(chi^0_2 -> chi^-_1 mu^+ nu_mu)
     1.30274776E-02    3     1000024        15       -16   # BR(chi^0_2 -> chi^+_1 tau^- nu_bar_tau)
     1.30274776E-02    3    -1000024       -15        16   # BR(chi^0_2 -> chi^-_1 tau^+ nu_tau)
DECAY   1000025     6.47657251E-02   # chi^0_3
#    BR                NDA      ID1      ID2
     5.87373889E-03    2     1000022        36   # BR(chi^0_3 -> chi^0_1 A^0)
     8.13951184E-01    2     1000022        25   # BR(chi^0_3 -> chi^0_1 h^0)
     4.51353685E-04    2     1000022        22   # BR(chi^0_3 -> chi^0_1 photon)
#    BR                NDA      ID1      ID2       ID3
     1.97893189E-02    3     1000022         2        -2   # BR(chi^0_3 -> chi^0_1 u u_bar)
     1.97509361E-02    3     1000022         4        -4   # BR(chi^0_3 -> chi^0_1 c c_bar)
     2.53737407E-02    3     1000022         1        -1   # BR(chi^0_3 -> chi^0_1 d d_bar)
     2.53735305E-02    3     1000022         3        -3   # BR(chi^0_3 -> chi^0_1 s s_bar)
     2.49425078E-02    3     1000022         5        -5   # BR(chi^0_3 -> chi^0_1 b b_bar)
     5.72613632E-03    3     1000022        11       -11   # BR(chi^0_3 -> chi^0_1 e^- e^+)
     5.72605498E-03    3     1000022        13       -13   # BR(chi^0_3 -> chi^0_1 mu^- mu^+)
     5.70204354E-03    3     1000022        15       -15   # BR(chi^0_3 -> chi^0_1 tau^- tau^+)
     3.39323051E-02    3     1000022        12       -12   # BR(chi^0_3 -> chi^0_1 nu_e nu_bar_e)
     2.22863769E-03    3     1000024         1        -2   # BR(chi^0_3 -> chi^+_1 d u_bar)
     2.22863769E-03    3    -1000024        -1         2   # BR(chi^0_3 -> chi^-_1 d_bar u)
     2.22001744E-03    3     1000024         3        -4   # BR(chi^0_3 -> chi^+_1 s c_bar)
     2.22001744E-03    3    -1000024        -3         4   # BR(chi^0_3 -> chi^-_1 s_bar c)
     7.42880899E-04    3     1000024        11       -12   # BR(chi^0_3 -> chi^+_1 e^- nu_bar_e)
     7.42880899E-04    3    -1000024       -11        12   # BR(chi^0_3 -> chi^-_1 e^+ nu_e)
     7.42866933E-04    3     1000024        13       -14   # BR(chi^0_3 -> chi^+_1 mu^- nu_bar_mu)
     7.42866933E-04    3    -1000024       -13        14   # BR(chi^0_3 -> chi^-_1 mu^+ nu_mu)
     7.37326681E-04    3     1000024        15       -16   # BR(chi^0_3 -> chi^+_1 tau^- nu_bar_tau)
     7.37326681E-04    3    -1000024       -15        16   # BR(chi^0_3 -> chi^-_1 tau^+ nu_tau)
DECAY   1000035     2.97274337E+00   # chi^0_4
#    BR                NDA      ID1      ID2
     1.98938017E-01    2     1000024       -24   # BR(chi^0_4 -> chi^+_1 W^-)
     1.98938017E-01    2    -1000024        24   # BR(chi^0_4 -> chi^-_1 W^+)
     6.56067656E-02    2          37  -1000024   # BR(chi^0_4 -> H^+ chi^-_1)
     6.56067656E-02    2         -37   1000024   # BR(chi^0_4 -> H^- chi^+_1)
     1.35216492E-03    2     1000023        23   # BR(chi^0_4 -> chi^0_2 Z)
     2.93706008E-01    2     1000025        23   # BR(chi^0_4 -> chi^0_3 Z)
     1.44263940E-03    2     1000022        36   # BR(chi^0_4 -> chi^0_1 A^0)
     1.59004819E-03    2     1000023        36   # BR(chi^0_4 -> chi^0_2 A^0)
     1.38179231E-03    2     1000025        36   # BR(chi^0_4 -> chi^0_3 A^0)
     1.70146907E-02    2     1000022        25   # BR(chi^0_4 -> chi^0_1 h^0)
     5.93863178E-02    2     1000023        25   # BR(chi^0_4 -> chi^0_2 h^0)
     9.48703985E-02    2     1000025        25   # BR(chi^0_4 -> chi^0_3 h^0)
     1.24771985E-04    2     1000022        35   # BR(chi^0_4 -> chi^0_1 H^0)
#    BR                NDA      ID1      ID2       ID3
DECAY   1000021     8.53074064E-01   # ~g
#    BR                NDA      ID1      ID2
     5.49112182E-04    2     1000022        21   # BR(~g -> chi^0_1 g)
     8.92249510E-04    2     1000023        21   # BR(~g -> chi^0_2 g)
     2.37028427E-03    2     1000025        21   # BR(~g -> chi^0_3 g)
     8.53776184E-04    2     1000035        21   # BR(~g -> chi^0_4 g)
#    BR                NDA      ID1      ID2       ID3
     4.59878042E-02    3     1000022         6        -6   # BR(~g -> chi^0_1 t t_bar)
     5.85045236E-03    3     1000022         5        -5   # BR(~g -> chi^0_1 b b_bar)
     1.15330789E-04    3     1000023         2        -2   # BR(~g -> chi^0_2 u u_bar)
     1.15338961E-04    3     1000023         4        -4   # BR(~g -> chi^0_2 c c_bar)
     8.20747885E-02    3     1000023         6        -6   # BR(~g -> chi^0_2 t t_bar)
     5.39349481E-03    3     1000023         5        -5   # BR(~g -> chi^0_2 b b_bar)
     1.94656405E-01    3     1000025         6        -6   # BR(~g -> chi^0_3 t t_bar)
     9.55290129E-04    3     1000025         5        -5   # BR(~g -> chi^0_3 b b_bar)
     1.33806249E-04    3     1000035         2        -2   # BR(~g -> chi^0_4 u u_bar)
     1.33813985E-04    3     1000035         4        -4   # BR(~g -> chi^0_4 c c_bar)
     1.18209029E-01    3     1000035         6        -6   # BR(~g -> chi^0_4 t t_bar)
     1.48230980E-04    3     1000035         1        -1   # BR(~g -> chi^0_4 d d_bar)
     1.48231609E-04    3     1000035         3        -3   # BR(~g -> chi^0_4 s s_bar)
     2.33428487E-02    3     1000035         5        -5   # BR(~g -> chi^0_4 b b_bar)
     1.14342467E-04    3     1000024         1        -2   # BR(~g -> chi^+_1 d u_bar)
     1.14342467E-04    3    -1000024        -1         2   # BR(~g -> chi^-_1 d_bar u)
     1.14360150E-04    3     1000024         3        -4   # BR(~g -> chi^+_1 s c_bar)
     1.14360150E-04    3    -1000024        -3         4   # BR(~g -> chi^-_1 s_bar c)
     1.22098535E-01    3     1000024         5        -6   # BR(~g -> chi^+_1 b t_bar)
     1.22098535E-01    3    -1000024        -5         6   # BR(~g -> chi^-_1 b_bar t)
     2.91834980E-04    3     1000037         1        -2   # BR(~g -> chi^+_2 d u_bar)
     2.91834980E-04    3    -1000037        -1         2   # BR(~g -> chi^-_2 d_bar u)
     2.91842998E-04    3     1000037         3        -4   # BR(~g -> chi^+_2 s c_bar)
     2.91842998E-04    3    -1000037        -3         4   # BR(~g -> chi^-_2 s_bar c)
     1.35970967E-01    3     1000037         5        -6   # BR(~g -> chi^+_2 b t_bar)
     1.35970967E-01    3    -1000037        -5         6   # BR(~g -> chi^-_2 b_bar t)
DECAY        25     3.63074837E-02   # Gamma(h0)
     8.22942157E-06   2        22        22   # BR(h0 -> photon photon)
     4.81541650E-10   2        23        23   # BR(h0 -> Z Z)
     7.88828415E-11   2       -24        24   # BR(h0 -> W W)
     1.74038759E-03   2        21        21   # BR(h0 -> gluon gluon)
     7.18566360E-09   2       -11        11   # BR(h0 -> Electron electron)
     3.19568162E-04   2       -13        13   # BR(h0 -> Muon muon)
     9.18565619E-02   2       -15        15   # BR(h0 -> Tau tau)
     2.33871797E-10   2        -2         2   # BR(h0 -> Up up)
     4.53900799E-05   2        -4         4   # BR(h0 -> Charm charm)
     9.38268995E-07   2        -1         1   # BR(h0 -> Down down)
     3.39345686E-04   2        -3         3   # BR(h0 -> Strange strange)
     9.05689571E-01   2        -5         5   # BR(h0 -> Bottom bottom)
DECAY        35     3.94031867E-03   # Gamma(HH)
     2.19690418E-03   2        22        22   # BR(HH -> photon photon)
     5.35121566E-03   2        22        23   # BR(HH -> photon Z)
     4.68675929E-02   2        23        23   # BR(HH -> Z Z)
     3.49158085E-01   2       -24        24   # BR(HH -> W W)
     9.92969993E-02   2        21        21   # BR(HH -> gluon gluon)
     3.67113863E-09   2       -11        11   # BR(HH -> Electron electron)
     1.63301135E-04   2       -13        13   # BR(HH -> Muon muon)
     4.70948104E-02   2       -15        15   # BR(HH -> Tau tau)
     1.29159477E-07   2        -2         2   # BR(HH -> Up up)
     2.50673568E-02   2        -4         4   # BR(HH -> Charm charm)
     4.21831911E-07   2        -1         1   # BR(HH -> Down down)
     1.52567384E-04   2        -3         3   # BR(HH -> Strange strange)
     4.01789496E-01   2        -5         5   # BR(HH -> Bottom bottom)
     2.28611166E-02   2        23        36   # BR(HH -> Z A0)
DECAY        36     3.73421914E-02   # Gamma(A0)
     5.56069103E-07   2        22        22   # BR(A0 -> photon photon)
     1.75036291E-03   2        21        21   # BR(A0 -> gluon gluon)
     7.16617493E-09   2       -11        11   # BR(A0 -> Electron electron)
     3.18706988E-04   2       -13        13   # BR(A0 -> Muon muon)
     9.18798224E-02   2       -15        15   # BR(A0 -> Tau tau)
     2.65911613E-10   2        -2         2   # BR(A0 -> Up up)
     5.16303086E-05   2        -4         4   # BR(A0 -> Charm charm)
     9.31279536E-07   2        -1         1   # BR(A0 -> Down down)
     3.36819218E-04   2        -3         3   # BR(A0 -> Strange strange)
     9.05661163E-01   2        -5         5   # BR(A0 -> Bottom bottom)
     2.54683949E-10   2        23        25   # BR(A0 -> Z h0)
DECAY        37     7.25240497E-03   # Gamma(Hp)
     7.16765157E-08   2       -11        12   # BR(Hp -> Electron nu_e)
     3.06439037E-03   2       -13        14   # BR(Hp -> Muon nu_mu)
     8.66421889E-01   2       -15        16   # BR(Hp -> Tau nu_tau)
     7.31367808E-06   2        -1         2   # BR(Hp -> Down up)
     1.17180092E-04   2        -3         2   # BR(Hp -> Strange up)
     7.42964391E-05   2        -5         2   # BR(Hp -> Bottom up)
     2.38663151E-05   2        -1         4   # BR(Hp -> Down charm)
     3.16412287E-03   2        -3         4   # BR(Hp -> Strange charm)
     1.04025794E-02   2        -5         4   # BR(Hp -> Bottom charm)
     4.43807215E-04   2        -5         6   # BR(Hp -> Bottom top)
     5.78073567E-02   2        24        25   # BR(Hp -> W h0)
     5.84731267E-02   2        24        36   # BR(Hp -> W A0)
DECAY         6     2.43000000E+00   # top
#    BR                NDA      ID1      ID2
     1.00000000E+00    2           5        24   # BR(t -> b W)
Block HiggsBoundsInputHiggsCouplingsFermions
# ScalarNormEffCoupSq PseudoSNormEffCoupSq NP IP1 IP2 IP2
    2.31398172E+01    0.00000000E+00        3  25   5   5  # h0-b-b eff. coupling^2, normalised to SM
    8.45272370E-01    0.00000000E+00        3  35   5   5  # H0-b-b eff. coupling^2, normalised to SM
    0.00000000E+00    2.29850896E+01        3  36   5   5  # A0-b-b eff. coupling^2, normalised to SM
#
    3.67748130E-02    0.00000000E+00        3  25   6   6  # h0-t-t eff. coupling^2, normalised to SM
    1.00673165E+00    0.00000000E+00        3  35   6   6  # H0-t-t eff. coupling^2, normalised to SM
    0.00000000E+00    4.35064652E-02        3  36   6   6  # A0-t-t eff. coupling^2, normalised to SM
#
    2.31398172E+01    0.00000000E+00        3  25  15  15  # h0-tau-tau eff. coupling^2, normalised to SM
    8.45272370E-01    0.00000000E+00        3  35  15  15  # H0-tau-tau eff. coupling^2, normalised to SM
    0.00000000E+00    2.29850896E+01        3  36  15  15  # A0-tau-tau eff. coupling^2, normalised to SM
#
Block HiggsBoundsInputHiggsCouplingsBosons
    1.47709306E-01        3  25  24  24  # h0-W-W eff. coupling^2, normalised to SM
    8.52290694E-01        3  35  24  24  # H0-W-W eff. coupling^2, normalised to SM
    0.00000000E+00        3  36  24  24  # A0-W-W eff. coupling^2, normalised to SM
#
    1.47709306E-01        3  25  23  23  # h0-Z-Z eff. coupling^2, normalised to SM
    8.52290694E-01        3  35  23  23  # H0-Z-Z eff. coupling^2, normalised to SM
    0.00000000E+00        3  36  23  23  # A0-Z-Z eff. coupling^2, normalised to SM
#
    1.61054881E+00        3  25  21  21  # h0-g-g eff. coupling^2, normalised to SM
    1.21593486E+00        3  35  21  21  # H0-g-g eff. coupling^2, normalised to SM
    7.20152760E-01        3  36  21  21  # A0-g-g eff. coupling^2, normalised to SM
#
    0.00000000E+00        3  25  25  23  # h0-h0-Z eff. coupling^2, normalised to SM
    0.00000000E+00        3  35  25  23  # H0-h0-Z eff. coupling^2, normalised to SM
    8.52290694E-01        3  36  25  23  # A0-h0-Z eff. coupling^2, normalised to SM
    0.00000000E+00        3  35  35  23  # H0-H0-Z eff. coupling^2, normalised to SM
    1.47709306E-01        3  36  35  23  # A0-H0-Z eff. coupling^2, normalised to SM
    0.00000000E+00        3  36  36  23  # A0-A0-Z eff. coupling^2, normalised to SM
#
    0.00000000E+00        4  25  21  21  23  # h0-g-g-Z eff. coupling^2, normalised to SM
    0.00000000E+00        4  35  21  21  23  # H0-g-g-Z eff. coupling^2, normalised to SM
    0.00000000E+00        4  36  21  21  23  # A0-g-g-Z eff. coupling^2, normalised to SM
Block SPhenoLowEnergy  # low energy observables
    1    6.79743301E-04   # BR(b -> s gamma)
    2    1.69592679E-06   # BR(b -> s mu+ mu-)
    3    3.58054589E-05   # BR(b -> s nu nu)
    4    2.56611120E-15   # BR(Bd -> e+ e-)
    5    1.09621359E-10   # BR(Bd -> mu+ mu-)
    6    2.29482604E-08   # BR(Bd -> tau+ tau-)
    7    8.64052513E-14   # BR(Bs -> e+ e-)
    8    3.69122964E-09   # BR(Bs -> mu+ mu-)
    9    7.82945578E-07   # BR(Bs -> tau+ tau-)
   10    8.64847798E-05   # BR(B_u -> tau nu)
   11    8.93354665E-01   # BR(B_u -> tau nu)/BR(B_u -> tau nu)_SM
   12    5.62500407E-01   # |Delta(M_Bd)| [ps^-1] 
   13    2.00884929E+01   # |Delta(M_Bs)| [ps^-1] 
   14    0.00000000E+00   # neutron EDM according to the chiral quark model
   15    0.00000000E+00   # neutron EDM according to the relativistic quark-parton model
   16    2.24509974E-03   # epsilon_K
   17    2.28260531E-15   # Delta(M_K)
   18    2.51882443E-11   # BR(K^0 -> pi^0 nu nu)
   19    8.38276385E-11   # BR(K^+ -> pi^+ nu nu)
   20    1.41094911E-17   # Delta(g-2)_electron/2
   21    6.03224794E-13   # Delta(g-2)_muon/2
   22    1.70658846E-10   # Delta(g-2)_tau/2
   23    0.00000000E+00   # electric dipole moment of the electron
   24    0.00000000E+00   # electric dipole moment of the muon
   25    0.00000000E+00   # electric dipole moment of the tau
   26    0.00000000E+00   # Br(mu -> e gamma)
   27    0.00000000E+00   # Br(tau -> e gamma)
   28    0.00000000E+00   # Br(tau -> mu gamma)
   29    0.00000000E+00   # Br(mu -> 3 e)
   30    0.00000000E+00   # Br(tau -> 3 e)
   31    0.00000000E+00   # Br(tau -> 3 mu)
   39   -2.95576098E-04   # Delta(rho_parameter)
   40    0.00000000E+00   # BR(Z -> e mu)
   41    0.00000000E+00   # BR(Z -> e tau)
   42    0.00000000E+00   # BR(Z -> mu tau)
Block FWCOEF Q=  1.60000000E+02  # Wilson coefficients at scale Q
#    id        order  M        value         comment
     0305 4422   00   0    -1.88819110E-01   # C7
     0305 4422   00   2    -5.07940361E-01   # C7
     0305 4322   00   2    -6.16479646E-03   # C7'
     0305 6421   00   0    -9.52278348E-02   # C8
     0305 6421   00   2    -3.51165251E-01   # C8
     0305 6321   00   2    -4.95565389E-03   # C8'
 03051111 4133   00   0     1.62330776E+00   # C9 e+e-
 03051111 4133   00   2     1.62981563E+00   # C9 e+e-
 03051111 4233   00   2    -1.92492546E-05   # C9' e+e-
 03051111 4137   00   0    -4.44599986E+00   # C10 e+e-
 03051111 4137   00   2    -4.49863526E+00   # C10 e+e-
 03051111 4237   00   2     1.43750124E-04   # C10' e+e-
 03051313 4133   00   0     1.62330776E+00   # C9 mu+mu-
 03051313 4133   00   2     1.62981563E+00   # C9 mu+mu-
 03051313 4233   00   2    -1.92511656E-05   # C9' mu+mu-
 03051313 4137   00   0    -4.44599986E+00   # C10 mu+mu-
 03051313 4137   00   2    -4.49863526E+00   # C10 mu+mu-
 03051313 4237   00   2     1.43752044E-04   # C10' mu+mu-
 03051212 4137   00   0     1.50535012E+00   # C11 nu_1 nu_1
 03051212 4137   00   2     1.51674256E+00   # C11 nu_1 nu_1
 03051212 4237   00   2    -3.11085053E-05   # C11' nu_1 nu_1
 03051414 4137   00   0     1.50535012E+00   # C11 nu_2 nu_2
 03051414 4137   00   2     1.51674256E+00   # C11 nu_2 nu_2
 03051414 4237   00   2    -3.11080898E-05   # C11' nu_2 nu_2
 03051616 4137   00   0     1.50535012E+00   # C11 nu_3 nu_3
 03051616 4137   00   2     1.51674256E+00   # C11 nu_3 nu_3
 03051616 4237   00   2    -3.09910108E-05   # C11' nu_3 nu_3
Block IMFWCOEF Q=  1.60000000E+02  # Im(Wilson coefficients) at scale Q
#    id        order  M        value         comment
     0305 4422   00   0     3.85820599E-07   # C7
     0305 4422   00   2     4.38958154E-06   # C7
     0305 4322   00   2    -9.77913553E-08   # C7'
     0305 6421   00   0     3.30480859E-07   # C8
     0305 6421   00   2     2.08422244E-06   # C8
     0305 6321   00   2    -4.13255779E-08   # C8'
 03051111 4133   00   2     9.26704728E-07   # C9 e+e-
 03051111 4233   00   2     1.41132291E-07   # C9' e+e-
 03051111 4137   00   2     1.55352913E-06   # C10 e+e-
 03051111 4237   00   2    -1.04091858E-06   # C10' e+e-
 03051313 4133   00   2     9.26704653E-07   # C9 mu+mu-
 03051313 4233   00   2     1.41132290E-07   # C9' mu+mu-
 03051313 4137   00   2     1.55352921E-06   # C10 mu+mu-
 03051313 4237   00   2    -1.04091858E-06   # C10' mu+mu-
 03051212 4137   00   2    -2.99890880E-07   # C11 nu_1 nu_1
 03051212 4237   00   2     2.25244881E-07   # C11' nu_1 nu_1
 03051414 4137   00   2    -2.99890876E-07   # C11 nu_2 nu_2
 03051414 4237   00   2     2.25244881E-07   # C11' nu_2 nu_2
 03051616 4137   00   2    -2.99889776E-07   # C11 nu_3 nu_3
 03051616 4237   00   2     2.25244881E-07   # C11' nu_3 nu_3
