# SUSY Les Houches Accord 2 - MSSM spectrum + Decays
# SPheno v4.0.5be
# W. Porod, Comput. Phys. Commun. 153 (2003) 275-315, hep-ph/0301101;
# W. Porod, F.~Staub, Comput. Phys. Commun. 183 (2012) 2458
#                     arXiv:1104.1573 [hep-ph] 
# in case of problems send email to porod@physik.uni-wuerzburg.de
# Created: 20.12.2022,  12:24
Block SPINFO         # Program information
     1   SPheno      # spectrum calculator
     2   v4.0.5be    # version number
#
Block SPhenoINFO     # SPheno specific information
    1      2         # using 2-loop RGEs
    2      2         # using pole masses for boundary conditions at mZ
Block MODSEL  # Model selection
    1    0    # general MSSM
Block MINPAR  # Input parameters
    3    3.67094407E+01  # tanb at m_Z    
    4   -1.00000000E+00  # Sign(mu)
Block EXTPAR  # non-universal input parameters
    0    2.44681415E+03  # scale for input parameters
    1   -7.45900482E+02  # M_1
    2   -7.28041143E+02  # M_2
    3    3.64954661E+03  # M_3
   11    2.67337800E+03  # A_t
   12   -3.77988032E+02  # A_b
   13   -8.27673475E+02  # A_tau
   23   -1.15158594E+02  # mu
   25    3.56856578E+01  # tan(beta)
   26    1.49111615E+03  # m_A, pole mass
   31    1.00000000E+04  # M_L11
   32    1.00000000E+04  # M_L22
   33    1.00000000E+04  # M_L33
   34    1.00000000E+04  # M_E11
   35    1.00000000E+04  # M_E22
   36    1.00000000E+04  # M_E33
   41    1.00000000E+04  # M_Q11
   42    1.00000000E+04  # M_Q22
   43    2.22672996E+03  # M_Q33
   44    1.00000000E+04  # M_U11
   45    1.00000000E+04  # M_U22
   46    2.58665771E+03  # M_U33
   47    1.00000000E+04  # M_D11
   48    1.00000000E+04  # M_D22
   49    4.74897418E+03  # M_D33
Block SMINPUTS  # SM parameters
         1     1.27908970E+02  # alpha_em^-1(MZ)^MSbar
         2     1.16637870E-05  # G_mu [GeV^-2]
         3     1.18400000E-01  # alpha_s(MZ)^MSbar
         4     9.11876000E+01  # m_Z(pole)
         5     4.18000000E+00  # m_b(m_b), MSbar
         6     1.73200000E+02  # m_t(pole)
         7     1.77700000E+00  # m_tau(pole)
         8     0.00000000E+00  # m_nu_3
        11     5.10998930E-04  # m_e(pole)
        12     0.00000000E+00  # m_nu_1
        13     1.05658372E-01  # m_muon(pole)
        14     0.00000000E+00  # m_nu_2
        21     5.00000000E-03  # m_d(2 GeV), MSbar
        22     2.50000000E-03  # m_u(2 GeV), MSbar
        23     9.50000000E-02  # m_s(2 GeV), MSbar
        24     1.27000000E+00  # m_c(m_c), MSbar
Block gauge Q=  2.44681415E+03  # (SUSY scale)
   1    3.55362975E-01  # g'(Q)^DRbar
   2    6.65198874E-01  # g(Q)^DRbar
   3    1.21977796E+00  # g3(Q)^DRbar
Block Yu Q=  2.44681415E+03  # (SUSY scale)
  1  1     8.38766344E-06   # Y_u(Q)^DRbar
  2  2     4.26093303E-03   # Y_c(Q)^DRbar
  3  3     1.01329711E+00   # Y_t(Q)^DRbar
Block Yd Q=  2.44681415E+03  # (SUSY scale)
  1  1     6.01471356E-04   # Y_d(Q)^DRbar
  2  2     1.14279558E-02   # Y_s(Q)^DRbar
  3  3     5.96471111E-01   # Y_b(Q)^DRbar
Block Ye Q=  2.44681415E+03  # (SUSY scale)
  1  1     1.04961150E-04   # Y_e(Q)^DRbar
  2  2     2.17026369E-02   # Y_mu(Q)^DRbar
  3  3     3.65002650E-01   # Y_tau(Q)^DRbar
Block Au Q=  2.44681415E+03  # (SUSY scale)
  1  1     0.00000000E+00   # A_u(Q)^DRbar
  2  2     0.00000000E+00   # A_c(Q)^DRbar
  3  3     2.67337800E+03   # A_t(Q)^DRbar
Block Ad Q=  2.44681415E+03  # (SUSY scale)
  1  1     0.00000000E+00   # A_d(Q)^DRbar
  2  2     0.00000000E+00   # A_s(Q)^DRbar
  3  3    -3.77988030E+02   # A_b(Q)^DRbar
Block Ae Q=  2.44681415E+03  # (SUSY scale)
  1  1     0.00000000E+00   # A_e(Q)^DRbar
  2  2     0.00000000E+00   # A_mu(Q)^DRbar
  3  3    -8.27673473E+02   # A_tau(Q)^DRbar
Block MSOFT Q=  2.44681415E+03  # soft SUSY breaking masses at Q
   1   -7.45900482E+02  # M_1
   2   -7.28041143E+02  # M_2
   3    3.64954661E+03  # M_3
  21    1.91081426E+06  # M^2_(H,d)
  22    1.08660742E+05  # M^2_(H,u)
  31    1.00000000E+04  # M_(L,11)
  32    1.00000000E+04  # M_(L,22)
  33    1.00000000E+04  # M_(L,33)
  34    1.00000000E+04  # M_(E,11)
  35    1.00000000E+04  # M_(E,22)
  36    1.00000000E+04  # M_(E,33)
  41    1.00000000E+04  # M_(Q,11)
  42    1.00000000E+04  # M_(Q,22)
  43    2.22672996E+03  # M_(Q,33)
  44    1.00000000E+04  # M_(U,11)
  45    1.00000000E+04  # M_(U,22)
  46    2.58665771E+03  # M_(U,33)
  47    1.00000000E+04  # M_(D,11)
  48    1.00000000E+04  # M_(D,22)
  49    4.74897418E+03  # M_(D,33)
Block MASS  # Mass spectrum
#   PDG code      mass          particle
         6     1.73200000E+02  # m_t(pole)
        23     9.11876000E+01  # m_Z(pole)
        24     8.04299946E+01  # W+
        15     1.77700000E+00  # m_tau(pole)
        25     1.22874836E+02  # h0
        35     1.49078871E+03  # H0
        36     1.49111615E+03  # A0
        37     1.49498203E+03  # H+
   1000001     1.00822281E+04  # ~d_L
   2000001     1.00582615E+04  # ~d_R
   1000002     1.00819588E+04  # ~u_L
   2000002     1.00607457E+04  # ~u_R
   1000003     1.00822378E+04  # ~s_L
   2000003     1.00582779E+04  # ~s_R
   1000004     1.00819685E+04  # ~c_L
   2000004     1.00607480E+04  # ~c_R
   1000005     2.29378621E+03  # ~b_1
   2000005     4.79607726E+03  # ~b_2
   1000006     2.27712509E+03  # ~t_1
   2000006     2.62914827E+03  # ~t_2
   1000011     1.00208079E+04  # ~e_L-
   2000011     1.00091249E+04  # ~e_R-
   1000012     1.00200389E+04  # ~nu_eL
   1000013     1.00208493E+04  # ~mu_L-
   2000013     1.00092055E+04  # ~mu_R-
   1000014     1.00200802E+04  # ~nu_muL
   1000015     1.00319353E+04  # ~tau_1-
   2000015     1.00326960E+04  # ~tau_2-
   1000016     1.00318029E+04  # ~nu_tauL
   1000021     4.04484214E+03  # ~g
   1000022     1.20011625E+02  # ~chi_10
   1000023     1.31318942E+02  # ~chi_20
   1000025     7.57653093E+02  # ~chi_30
   1000035     7.94879482E+02  # ~chi_40
   1000024     1.25140503E+02  # ~chi_1+
   1000037     7.94311634E+02  # ~chi_2+
# Higgs mixing
Block alpha # Effective Higgs mixing angle
          -2.75308892E-02   # alpha
Block Hmix Q=  2.44681415E+03  # Higgs mixing parameters
   1   -1.15158594E+02  # mu
   2    3.56856578E+01  # tan[beta](Q)
   3    2.43476151E+02  # v(Q)
   4    2.22342737E+06  # m^2_A(Q)
Block stopmix # stop mixing matrix
   1  1    -9.74893575E-01   # Re[R_st(1,1)]
   1  2     2.22671324E-01   # Re[R_st(1,2)]
   2  1    -2.22671324E-01   # Re[R_st(2,1)]
   2  2    -9.74893575E-01   # Re[R_st(2,2)]
Block sbotmix # sbottom mixing matrix
   1  1    -9.99999909E-01   # Re[R_sb(1,1)]
   1  2     4.26120151E-04   # Re[R_sb(1,2)]
   2  1    -4.26120151E-04   # Re[R_sb(2,1)]
   2  2    -9.99999909E-01   # Re[R_sb(2,2)]
Block staumix # stau mixing matrix
   1  1    -4.03805938E-01   # Re[R_sta(1,1)]
   1  2     9.14844667E-01   # Re[R_sta(1,2)]
   2  1    -9.14844667E-01   # Re[R_sta(2,1)]
   2  2    -4.03805938E-01   # Re[R_sta(2,2)]
Block Nmix # neutralino mixing matrix
   1  1    -4.94322508E-02   # Re[N(1,1)]
   1  2     8.56414357E-02   # Re[N(1,2)]
   1  3     7.21519830E-01   # Re[N(1,3)]
   1  4    -6.85296382E-01   # Re[N(1,4)]
   2  1     3.50795416E-02   # Re[N(2,1)]
   2  2    -6.22176242E-02   # Re[N(2,2)]
   2  3     6.92041296E-01   # Re[N(2,3)]
   2  4     7.18315555E-01   # Re[N(2,4)]
   3  1    -9.82844696E-01   # Re[N(3,1)]
   3  2    -1.79856036E-01   # Re[N(3,2)]
   3  3    -7.93489556E-03   # Re[N(3,3)]
   3  4     4.00642883E-02   # Re[N(3,4)]
   4  1     1.74190073E-01   # Re[N(4,1)]
   4  2    -9.77980735E-01   # Re[N(4,2)]
   4  3     2.06159150E-02   # Re[N(4,3)]
   4  4    -1.13077337E-01   # Re[N(4,4)]
Block Umix # chargino mixing matrix
   1  1    -2.70661525E-02   # Re[U(1,1)]
   1  2    -9.99633645E-01   # Re[U(1,2)]
   2  1    -9.99633645E-01   # Re[U(2,1)]
   2  2     2.70661525E-02   # Re[U(2,2)]
Block Vmix # chargino mixing matrix
   1  1     1.48926062E-01   # Re[V(1,1)]
   1  2     9.88848334E-01   # Re[V(1,2)]
   2  1     9.88848334E-01   # Re[V(2,1)]
   2  2    -1.48926062E-01   # Re[V(2,2)]
DECAY        23     2.49520000E+00   # Z
DECAY        24     2.08500000E+00   # W
DECAY   2000011     4.97178163E+01   # ~e^-_R
#    BR                NDA      ID1      ID2
     2.47108955E-03    2     1000022        11   # BR(~e^-_R -> chi^0_1 e^-)
     1.24438345E-03    2     1000023        11   # BR(~e^-_R -> chi^0_2 e^-)
     9.65977690E-01    2     1000025        11   # BR(~e^-_R -> chi^0_3 e^-)
     3.03067928E-02    2     1000035        11   # BR(~e^-_R -> chi^0_4 e^-)
DECAY   1000011     1.43120765E+02   # ~e^-_L
#    BR                NDA      ID1      ID2
     1.08098504E-03    2     1000022        11   # BR(~e^-_L -> chi^0_1 e^-)
     5.82353717E-04    2     1000023        11   # BR(~e^-_L -> chi^0_2 e^-)
     1.51388687E-01    2     1000025        11   # BR(~e^-_L -> chi^0_3 e^-)
     2.38305160E-01    2     1000035        11   # BR(~e^-_L -> chi^0_4 e^-)
     4.51388845E-04    2    -1000024        12   # BR(~e^-_L -> chi^-_1 nu_e)
     6.08191426E-01    2    -1000037        12   # BR(~e^-_L -> chi^-_2 nu_e)
#    BR                NDA      ID1      ID2       ID3
DECAY   2000013     4.99057404E+01   # ~mu^-_R
#    BR                NDA      ID1      ID2
     3.43986567E-03    2     1000022        13   # BR(~mu^-_R -> chi^0_1 mu^-)
     2.13942955E-03    2     1000023        13   # BR(~mu^-_R -> chi^0_2 mu^-)
     9.62348266E-01    2     1000025        13   # BR(~mu^-_R -> chi^0_3 mu^-)
     3.01937076E-02    2     1000035        13   # BR(~mu^-_R -> chi^0_4 mu^-)
     1.87737142E-03    2    -1000024        14   # BR(~mu^-_R -> chi^-_1 nu_mu)
DECAY   1000013     1.43215238E+02   # ~mu^-_L
#    BR                NDA      ID1      ID2
     1.42149498E-03    2     1000022        13   # BR(~mu^-_L -> chi^0_1 mu^-)
     8.95860045E-04    2     1000023        13   # BR(~mu^-_L -> chi^0_2 mu^-)
     1.51289503E-01    2     1000025        13   # BR(~mu^-_L -> chi^0_3 mu^-)
     2.38149244E-01    2     1000035        13   # BR(~mu^-_L -> chi^0_4 mu^-)
     4.51092950E-04    2    -1000024        14   # BR(~mu^-_L -> chi^-_1 nu_mu)
     6.07792805E-01    2    -1000037        14   # BR(~mu^-_L -> chi^-_2 nu_mu)
#    BR                NDA      ID1      ID2       ID3
DECAY   1000015     1.13918018E+02   # ~tau^-_1
#    BR                NDA      ID1      ID2
     1.40563072E-01    2     1000022        15   # BR(~tau^-_1 -> chi^0_1 tau^-)
     9.98742056E-02    2     1000023        15   # BR(~tau^-_1 -> chi^0_2 tau^-)
     3.84121157E-01    2     1000025        15   # BR(~tau^-_1 -> chi^0_3 tau^-)
     5.52242802E-02    2     1000035        15   # BR(~tau^-_1 -> chi^0_4 tau^-)
     2.03737478E-01    2    -1000024        16   # BR(~tau^-_1 -> chi^-_1 nu_tau)
     1.16479808E-01    2    -1000037        16   # BR(~tau^-_1 -> chi^-_2 nu_tau)
#    BR                NDA      ID1      ID2       ID3
DECAY   2000015     1.58954011E+02   # ~tau^-_2
#    BR                NDA      ID1      ID2
     7.51327335E-02    2     1000022        15   # BR(~tau^-_2 -> chi^0_1 tau^-)
     8.95143454E-02    2     1000023        15   # BR(~tau^-_2 -> chi^0_2 tau^-)
     1.64052173E-01    2     1000025        15   # BR(~tau^-_2 -> chi^0_3 tau^-)
     1.84890430E-01    2     1000035        15   # BR(~tau^-_2 -> chi^0_4 tau^-)
     2.14975222E-02    2    -1000024        16   # BR(~tau^-_2 -> chi^-_1 nu_tau)
     4.64912796E-01    2    -1000037        16   # BR(~tau^-_2 -> chi^-_2 nu_tau)
#    BR                NDA      ID1      ID2       ID3
DECAY   1000012     1.43120956E+02   # ~nu_e
#    BR                NDA      ID1      ID2
     3.86778190E-03    2     1000022        12   # BR(~nu_e -> chi^0_1 nu_e)
     2.01900763E-03    2     1000023        12   # BR(~nu_e -> chi^0_2 nu_e)
     3.63019783E-02    2     1000025        12   # BR(~nu_e -> chi^0_3 nu_e)
     3.49055625E-01    2     1000035        12   # BR(~nu_e -> chi^0_4 nu_e)
     1.36648775E-02    2     1000024        11   # BR(~nu_e -> chi^+_1 e^-)
     5.95090730E-01    2     1000037        11   # BR(~nu_e -> chi^+_2 e^-)
#    BR                NDA      ID1      ID2       ID3
DECAY   1000014     1.43215420E+02   # ~nu_mu
#    BR                NDA      ID1      ID2
     3.86524668E-03    2     1000022        14   # BR(~nu_mu -> chi^0_1 nu_mu)
     2.01768424E-03    2     1000023        14   # BR(~nu_mu -> chi^0_2 nu_mu)
     3.62781868E-02    2     1000025        14   # BR(~nu_mu -> chi^0_3 nu_mu)
     3.48826865E-01    2     1000035        14   # BR(~nu_mu -> chi^0_4 nu_mu)
     1.43108155E-02    2     1000024        13   # BR(~nu_mu -> chi^+_1 mu^-)
     5.94701202E-01    2     1000037        13   # BR(~nu_mu -> chi^+_2 mu^-)
#    BR                NDA      ID1      ID2       ID3
DECAY   1000016     1.69873578E+02   # ~nu_tau
#    BR                NDA      ID1      ID2
     3.26249043E-03    2     1000022        16   # BR(~nu_tau -> chi^0_1 nu_tau)
     1.70304172E-03    2     1000023        16   # BR(~nu_tau -> chi^0_2 nu_tau)
     3.06216774E-02    2     1000025        16   # BR(~nu_tau -> chi^0_3 nu_tau)
     2.94438442E-01    2     1000035        16   # BR(~nu_tau -> chi^0_4 nu_tau)
     1.67884627E-01    2     1000024        15   # BR(~nu_tau -> chi^+_1 tau^-)
     5.02089721E-01    2     1000037        15   # BR(~nu_tau -> chi^+_2 tau^-)
DECAY   2000001     5.63461970E+02   # ~d_R
#    BR                NDA      ID1      ID2
     9.51804212E-03    2     1000025         1   # BR(~d_R -> chi^0_3 d)
     2.98624563E-04    2     1000035         1   # BR(~d_R -> chi^0_4 d)
     9.90146471E-01    2     1000021         1   # BR(~d_R -> ~g d)
DECAY   1000001     6.93145496E+02   # ~d_L
#    BR                NDA      ID1      ID2
     5.70955813E-04    2     1000022         1   # BR(~d_L -> chi^0_1 d)
     3.00047211E-04    2     1000023         1   # BR(~d_L -> chi^0_2 d)
     6.43726430E-02    2     1000035         1   # BR(~d_L -> chi^0_4 d)
     1.26368557E-01    2    -1000037         2   # BR(~d_L -> chi^-_2 u)
     8.08292541E-01    2     1000021         1   # BR(~d_L -> ~g d)
DECAY   2000003     5.63515695E+02   # ~s_R
#    BR                NDA      ID1      ID2
     9.51715339E-03    2     1000025         3   # BR(~s_R -> chi^0_3 s)
     2.98615984E-04    2     1000035         3   # BR(~s_R -> chi^0_4 s)
     9.90054931E-01    2     1000021         3   # BR(~s_R -> ~g s)
DECAY   1000003     6.93176333E+02   # ~s_L
#    BR                NDA      ID1      ID2
     5.90544311E-04    2     1000022         3   # BR(~s_L -> chi^0_1 s)
     3.18076386E-04    2     1000023         3   # BR(~s_L -> chi^0_2 s)
     6.43698583E-02    2     1000035         3   # BR(~s_L -> chi^0_4 s)
     1.26363175E-01    2    -1000037         4   # BR(~s_L -> chi^-_2 c)
     8.08257956E-01    2     1000021         3   # BR(~s_L -> ~g s)
DECAY   1000005     8.58636520E+01   # ~b_1
#    BR                NDA      ID1      ID2
     9.89533163E-02    2     1000022         5   # BR(~b_1 -> chi^0_1 b)
     9.05000453E-02    2     1000023         5   # BR(~b_1 -> chi^0_2 b)
     9.27367149E-02    2     1000035         5   # BR(~b_1 -> chi^0_4 b)
     5.24355294E-01    2    -1000024         6   # BR(~b_1 -> chi^-_1 t)
     1.93443258E-01    2    -1000037         6   # BR(~b_1 -> chi^-_2 t)
DECAY   2000005     1.02117236E+02   # ~b_2
#    BR                NDA      ID1      ID2
     1.72887695E-01    2     1000022         5   # BR(~b_2 -> chi^0_1 b)
     1.59011857E-01    2     1000023         5   # BR(~b_2 -> chi^0_2 b)
     2.41006511E-02    2     1000025         5   # BR(~b_2 -> chi^0_3 b)
     8.90628643E-04    2     1000035         5   # BR(~b_2 -> chi^0_4 b)
     3.30856401E-01    2    -1000024         6   # BR(~b_2 -> chi^-_1 t)
     2.37877035E-04    2    -1000037         6   # BR(~b_2 -> chi^-_2 t)
     3.09060145E-01    2     1000021         5   # BR(~b_2 -> ~g b)
     1.48077588E-03    2     1000006       -37   # BR(~b_2 -> ~t_1 H^-)
     6.35359336E-04    2     1000005        36   # BR(~b_2 -> ~b_1 A^0)
     6.35277725E-04    2     1000005        35   # BR(~b_2 -> ~b_1 H^0)
DECAY   2000002     5.80367382E+02   # ~u_R
#    BR                NDA      ID1      ID2
     3.69725090E-02    2     1000025         2   # BR(~u_R -> chi^0_3 u)
     1.15999735E-03    2     1000035         2   # BR(~u_R -> chi^0_4 u)
     9.61725303E-01    2     1000021         2   # BR(~u_R -> ~g u)
DECAY   1000002     6.93142245E+02   # ~u_L
#    BR                NDA      ID1      ID2
     3.77889178E-04    2     1000022         2   # BR(~u_L -> chi^0_1 u)
     2.00494618E-04    2     1000023         2   # BR(~u_L -> chi^0_2 u)
     7.97180263E-03    2     1000025         2   # BR(~u_L -> chi^0_3 u)
     5.66989315E-02    2     1000035         2   # BR(~u_L -> chi^0_4 u)
     2.83909080E-03    2     1000024         1   # BR(~u_L -> chi^+_1 d)
     1.23653615E-01    2     1000037         1   # BR(~u_L -> chi^+_2 d)
     8.08258177E-01    2     1000021         2   # BR(~u_L -> ~g u)
DECAY   2000004     5.80374845E+02   # ~c_R
#    BR                NDA      ID1      ID2
     3.69720499E-02    2     1000025         4   # BR(~c_R -> chi^0_3 c)
     1.16006130E-03    2     1000035         4   # BR(~c_R -> chi^0_4 c)
     9.61713273E-01    2     1000021         4   # BR(~c_R -> ~g c)
DECAY   1000004     6.93173048E+02   # ~c_L
#    BR                NDA      ID1      ID2
     3.80339405E-04    2     1000022         4   # BR(~c_L -> chi^0_1 c)
     2.03195785E-04    2     1000023         4   # BR(~c_L -> chi^0_2 c)
     7.97146460E-03    2     1000025         4   # BR(~c_L -> chi^0_3 c)
     5.66965293E-02    2     1000035         4   # BR(~c_L -> chi^0_4 c)
     2.87661259E-03    2     1000024         3   # BR(~c_L -> chi^+_1 s)
     1.23648269E-01    2     1000037         3   # BR(~c_L -> chi^+_2 s)
     8.08223589E-01    2     1000021         4   # BR(~c_L -> ~g c)
DECAY   1000006     8.75433208E+01   # ~t_1
#    BR                NDA      ID1      ID2
     2.55047457E-01    2     1000022         6   # BR(~t_1 -> chi^0_1 t)
     2.76823649E-01    2     1000023         6   # BR(~t_1 -> chi^0_2 t)
     1.20895822E-02    2     1000025         6   # BR(~t_1 -> chi^0_3 t)
     6.75620799E-02    2     1000035         6   # BR(~t_1 -> chi^0_4 t)
     2.26325020E-01    2     1000024         5   # BR(~t_1 -> chi^+_1 b)
     1.47519823E-01    2     1000037         5   # BR(~t_1 -> chi^+_2 b)
#    BR                NDA      ID1      ID2       ID3
     1.46057432E-02    3     1000022        24         5   # BR(~t_1 -> chi^0_1 W^+ b)
DECAY   2000006     1.26653767E+02   # ~t_2
#    BR                NDA      ID1      ID2
     1.89780463E-01    2     1000022         6   # BR(~t_2 -> chi^0_1 t)
     2.10396742E-01    2     1000023         6   # BR(~t_2 -> chi^0_2 t)
     3.74175607E-02    2     1000025         6   # BR(~t_2 -> chi^0_3 t)
     1.67770238E-02    2     1000035         6   # BR(~t_2 -> chi^0_4 t)
     3.82031338E-01    2     1000024         5   # BR(~t_2 -> chi^+_1 b)
     2.93993885E-02    2     1000037         5   # BR(~t_2 -> chi^+_2 b)
     6.03227974E-02    2     1000005        24   # BR(~t_2 -> ~b_1 W^+)
     3.23156291E-02    2     1000006        23   # BR(~t_2 -> ~t_1 Z)
     4.15590575E-02    2     1000006        25   # BR(~t_2 -> ~t_1 h^0)
DECAY   1000024     1.24092929E-08   # chi^+_1
#    BR                NDA      ID1      ID2       ID3
     3.84890431E-01    3     1000022        -1         2   # BR(chi^+_1 -> chi^0_1 d_bar u)
     2.86450166E-01    3     1000022        -3         4   # BR(chi^+_1 -> chi^0_1 s_bar c)
     1.28296845E-01    3     1000022       -11        12   # BR(chi^+_1 -> chi^0_1 e^+ nu_e)
     1.28025934E-01    3     1000022       -13        14   # BR(chi^+_1 -> chi^0_1 mu^+ nu_mu)
     7.23366234E-02    3     1000022       -15        16   # BR(chi^+_1 -> chi^0_1 tau^+ nu_tau)
DECAY   1000037     7.00155936E+00   # chi^+_2
#    BR                NDA      ID1      ID2
     2.42099115E-01    2     1000022        24   # BR(chi^+_2 -> chi^0_1 W^+)
     2.62884386E-01    2     1000023        24   # BR(chi^+_2 -> chi^0_2 W^+)
     2.51830995E-01    2     1000024        23   # BR(chi^+_2 -> chi^+_1 Z)
     2.35287027E-01    2     1000024        25   # BR(chi^+_2 -> chi^+_1 h^0)
#    BR                NDA      ID1      ID2       ID3
     2.00291715E-03    3     1000024         6        -6   # BR(chi^+_2 -> chi^+_1 t t_bar)
     2.75483569E-03    3     1000022        -5         6   # BR(chi^+_2 -> chi^0_1 b_bar t)
     3.09466835E-03    3     1000023        -5         6   # BR(chi^+_2 -> chi^0_2 b_bar t)
DECAY   1000022     0.00000000E+00   # chi^0_1
DECAY   1000023     5.96829740E-07   # chi^0_2
#    BR                NDA      ID1      ID2
     1.74039385E-01    2     1000022        22   # BR(chi^0_2 -> chi^0_1 photon)
#    BR                NDA      ID1      ID2       ID3
     1.11554332E-01    3     1000022         2        -2   # BR(chi^0_2 -> chi^0_1 u u_bar)
     9.42772046E-02    3     1000022         4        -4   # BR(chi^0_2 -> chi^0_1 c c_bar)
     1.43034777E-01    3     1000022         1        -1   # BR(chi^0_2 -> chi^0_1 d d_bar)
     1.42917713E-01    3     1000022         3        -3   # BR(chi^0_2 -> chi^0_1 s s_bar)
     1.99766163E-02    3     1000022         5        -5   # BR(chi^0_2 -> chi^0_1 b b_bar)
     3.22788977E-02    3     1000022        11       -11   # BR(chi^0_2 -> chi^0_1 e^- e^+)
     3.22372825E-02    3     1000022        13       -13   # BR(chi^0_2 -> chi^0_1 mu^- mu^+)
     2.24442471E-02    3     1000022        15       -15   # BR(chi^0_2 -> chi^0_1 tau^- tau^+)
     1.91278954E-01    3     1000022        12       -12   # BR(chi^0_2 -> chi^0_1 nu_e nu_bar_e)
     6.64559241E-03    3     1000024         1        -2   # BR(chi^0_2 -> chi^+_1 d u_bar)
     6.64559241E-03    3    -1000024        -1         2   # BR(chi^0_2 -> chi^-_1 d_bar u)
     5.41631934E-03    3     1000024         3        -4   # BR(chi^0_2 -> chi^+_1 s c_bar)
     5.41631934E-03    3    -1000024        -3         4   # BR(chi^0_2 -> chi^-_1 s_bar c)
     2.21519814E-03    3     1000024        11       -12   # BR(chi^0_2 -> chi^+_1 e^- nu_bar_e)
     2.21519814E-03    3    -1000024       -11        12   # BR(chi^0_2 -> chi^-_1 e^+ nu_e)
     2.21196281E-03    3     1000024        13       -14   # BR(chi^0_2 -> chi^+_1 mu^- nu_bar_mu)
     2.21196281E-03    3    -1000024       -13        14   # BR(chi^0_2 -> chi^-_1 mu^+ nu_mu)
     1.49122275E-03    3     1000024        15       -16   # BR(chi^0_2 -> chi^+_1 tau^- nu_bar_tau)
     1.49122275E-03    3    -1000024       -15        16   # BR(chi^0_2 -> chi^-_1 tau^+ nu_tau)
DECAY   1000025     2.18934606E+00   # chi^0_3
#    BR                NDA      ID1      ID2
     3.88726923E-01    2     1000024       -24   # BR(chi^0_3 -> chi^+_1 W^-)
     3.88726923E-01    2    -1000024        24   # BR(chi^0_3 -> chi^-_1 W^+)
     2.99728613E-02    2     1000022        23   # BR(chi^0_3 -> chi^0_1 Z)
     7.35211962E-02    2     1000023        23   # BR(chi^0_3 -> chi^0_2 Z)
     5.41295929E-02    2     1000022        25   # BR(chi^0_3 -> chi^0_1 h^0)
     5.48910407E-02    2     1000023        25   # BR(chi^0_3 -> chi^0_2 h^0)
#    BR                NDA      ID1      ID2       ID3
     2.45223352E-04    3     1000022         6        -6   # BR(chi^0_3 -> chi^0_1 t t_bar)
     2.57928452E-04    3     1000023         6        -6   # BR(chi^0_3 -> chi^0_2 t t_bar)
     4.74856821E-03    3     1000024         5        -6   # BR(chi^0_3 -> chi^+_1 b t_bar)
     4.74856821E-03    3    -1000024        -5         6   # BR(chi^0_3 -> chi^-_1 b_bar t)
DECAY   1000035     7.45149408E+00   # chi^0_4
#    BR                NDA      ID1      ID2
     1.95180963E-01    2     1000024       -24   # BR(chi^0_4 -> chi^+_1 W^-)
     1.95180963E-01    2    -1000024        24   # BR(chi^0_4 -> chi^-_1 W^+)
     8.48799149E-02    2     1000022        23   # BR(chi^0_4 -> chi^0_1 Z)
     1.94937639E-01    2     1000023        23   # BR(chi^0_4 -> chi^0_2 Z)
     1.60201475E-01    2     1000022        25   # BR(chi^0_4 -> chi^0_1 h^0)
     1.62215570E-01    2     1000023        25   # BR(chi^0_4 -> chi^0_2 h^0)
#    BR                NDA      ID1      ID2       ID3
     8.81566716E-04    3     1000022         6        -6   # BR(chi^0_4 -> chi^0_1 t t_bar)
     9.36673916E-04    3     1000023         6        -6   # BR(chi^0_4 -> chi^0_2 t t_bar)
     2.74336034E-03    3     1000024         5        -6   # BR(chi^0_4 -> chi^+_1 b t_bar)
     2.74336034E-03    3    -1000024        -5         6   # BR(chi^0_4 -> chi^-_1 b_bar t)
DECAY   1000021     1.52561431E+02   # ~g
#    BR                NDA      ID1      ID2
     4.74306755E-03    2     1000006        -4   # BR(~g -> ~t_1 c_bar)
     4.74306755E-03    2    -1000006         4   # BR(~g -> ~t^*_1 c)
     1.92534188E-01    2     1000006        -6   # BR(~g -> ~t_1 t_bar)
     1.92534188E-01    2    -1000006         6   # BR(~g -> ~t^*_1 t)
     1.21890556E-01    2     2000006        -6   # BR(~g -> ~t_2 t_bar)
     1.21890556E-01    2    -2000006         6   # BR(~g -> ~t^*_2 t)
     1.80594002E-01    2     1000005        -5   # BR(~g -> ~b_1 b_bar)
     1.80594002E-01    2    -1000005         5   # BR(~g -> ~b^*_1 b)
#    BR                NDA      ID1      ID2       ID3
DECAY        25     3.66720150E-03   # Gamma(h0)
     2.31857487E-03   2        22        22   # BR(h0 -> photon photon)
     1.30418811E-03   2        22        23   # BR(h0 -> photon Z)
     2.23130181E-02   2        23        23   # BR(h0 -> Z Z)
     1.92369785E-01   2       -24        24   # BR(h0 -> W W)
     7.30739871E-02   2        21        21   # BR(h0 -> gluon gluon)
     5.43723749E-09   2       -11        11   # BR(h0 -> Electron electron)
     2.41856797E-04   2       -13        13   # BR(h0 -> Muon muon)
     6.97329634E-02   2       -15        15   # BR(h0 -> Tau tau)
     1.52197325E-07   2        -2         2   # BR(h0 -> Up up)
     2.95330489E-02   2        -4         4   # BR(h0 -> Charm charm)
     6.31382783E-07   2        -1         1   # BR(h0 -> Down down)
     2.28356812E-04   2        -3         3   # BR(h0 -> Strange strange)
     6.08883432E-01   2        -5         5   # BR(h0 -> Bottom bottom)
DECAY        35     4.14883652E+01   # Gamma(HH)
     2.38226463E-08   2        22        22   # BR(HH -> photon photon)
     7.69805351E-08   2        22        23   # BR(HH -> photon Z)
     1.68169879E-06   2        23        23   # BR(HH -> Z Z)
     1.35548161E-06   2       -24        24   # BR(HH -> W W)
     1.95270877E-05   2        21        21   # BR(HH -> gluon gluon)
     7.71372619E-09   2       -11        11   # BR(HH -> Electron electron)
     3.43377548E-04   2       -13        13   # BR(HH -> Muon muon)
     9.91604417E-02   2       -15        15   # BR(HH -> Tau tau)
     7.99079913E-14   2        -2         2   # BR(HH -> Up up)
     1.54988730E-08   2        -4         4   # BR(HH -> Charm charm)
     1.14426209E-03   2        -6         6   # BR(HH -> Top top)
     6.21785747E-07   2        -1         1   # BR(HH -> Down down)
     2.24902409E-04   2        -3         3   # BR(HH -> Strange strange)
     6.24282445E-01   2        -5         5   # BR(HH -> Bottom bottom)
     7.06219932E-03   2  -1000024   1000024   # BR(HH -> Chargino1 chargino1)
     8.06606524E-02   2  -1000024   1000037   # BR(HH -> Chargino1 chargino2)
     8.06606524E-02   2  -1000037   1000024   # BR(HH -> Chargino2 chargino1)
     5.60395244E-07   2  -1000037   1000037   # BR(HH -> Chargino2 chargino2)
     1.91699135E-03   2   1000022   1000022   # BR(HH -> neutralino1 neutralino1)
     7.48467272E-05   2   1000022   1000023   # BR(HH -> neutralino1 neutralino2)
     2.07338551E-02   2   1000022   1000025   # BR(HH -> neutralino1 neutralino3)
     2.51853174E-02   2   1000022   1000035   # BR(HH -> neutralino1 neutralino4)
     1.03116969E-03   2   1000023   1000023   # BR(HH -> neutralino2 neutralino2)
     2.58674858E-02   2   1000023   1000025   # BR(HH -> neutralino2 neutralino3)
     3.16192982E-02   2   1000023   1000035   # BR(HH -> neutralino2 neutralino4)
     1.24919690E-07   2   1000025   1000025   # BR(HH -> neutralino3 neutralino3)
     4.07872523E-08   2   1000025   1000035   # BR(HH -> neutralino3 neutralino4)
     8.06631546E-06   2        25        25   # BR(HH -> h0 h0)
DECAY        36     4.03845031E+01   # Gamma(A0)
     1.79023749E-07   2        22        22   # BR(A0 -> photon photon)
     2.71552352E-07   2        22        23   # BR(A0 -> photon Z)
     3.54136418E-05   2        21        21   # BR(A0 -> gluon gluon)
     7.63431502E-09   2       -11        11   # BR(A0 -> Electron electron)
     3.39842535E-04   2       -13        13   # BR(A0 -> Muon muon)
     9.81401984E-02   2       -15        15   # BR(A0 -> Tau tau)
     7.61432575E-14   2        -2         2   # BR(A0 -> Up up)
     1.47672287E-08   2        -4         4   # BR(A0 -> Charm charm)
     1.15639272E-03   2        -6         6   # BR(A0 -> Top top)
     6.15368001E-07   2        -1         1   # BR(A0 -> Down down)
     2.22580824E-04   2        -3         3   # BR(A0 -> Strange strange)
     6.17851454E-01   2        -5         5   # BR(A0 -> Bottom bottom)
     7.57654064E-03   2  -1000024   1000024   # BR(A0 -> Chargino1 chargino1)
     8.26660825E-02   2  -1000024   1000037   # BR(A0 -> Chargino1 chargino2)
     8.26660825E-02   2  -1000037   1000024   # BR(A0 -> Chargino2 chargino1)
     4.88614558E-05   2  -1000037   1000037   # BR(A0 -> Chargino2 chargino2)
     2.23163558E-03   2   1000022   1000022   # BR(A0 -> neutralino1 neutralino1)
     3.24747219E-05   2   1000022   1000023   # BR(A0 -> neutralino1 neutralino2)
     2.85700036E-02   2   1000022   1000025   # BR(A0 -> neutralino1 neutralino3)
     3.49321457E-02   2   1000022   1000035   # BR(A0 -> neutralino1 neutralino4)
     9.70241983E-04   2   1000023   1000023   # BR(A0 -> neutralino2 neutralino2)
     1.92168240E-02   2   1000023   1000025   # BR(A0 -> neutralino2 neutralino3)
     2.33198220E-02   2   1000023   1000035   # BR(A0 -> neutralino2 neutralino4)
     8.81984611E-06   2   1000025   1000025   # BR(A0 -> neutralino3 neutralino3)
     1.11979071E-05   2   1000025   1000035   # BR(A0 -> neutralino3 neutralino4)
     2.29671696E-06   2        23        25   # BR(A0 -> Z h0)
     4.02613423E-39   2        25        25   # BR(A0 -> h0 h0)
DECAY        37     4.01087691E+01   # Gamma(Hp)
     8.30639939E-09   2       -11        12   # BR(Hp -> Electron nu_e)
     3.55124514E-04   2       -13        14   # BR(Hp -> Muon nu_mu)
     1.00449194E-01   2       -15        16   # BR(Hp -> Tau nu_tau)
     5.81953033E-07   2        -1         2   # BR(Hp -> Down up)
     9.74101693E-06   2        -3         2   # BR(Hp -> Strange up)
     6.57387218E-06   2        -5         2   # BR(Hp -> Bottom up)
     2.76526908E-08   2        -1         4   # BR(Hp -> Down charm)
     2.09752034E-04   2        -3         4   # BR(Hp -> Strange charm)
     9.20576329E-04   2        -5         4   # BR(Hp -> Bottom charm)
     7.54472077E-08   2        -1         6   # BR(Hp -> Down top)
     1.94671080E-06   2        -3         6   # BR(Hp -> Strange top)
     6.14440593E-01   2        -5         6   # BR(Hp -> Bottom top)
     1.94481143E-04   2   1000022   1000024   # BR(Hp -> neutralino1 chargino1)
     9.04784611E-02   2   1000022   1000037   # BR(Hp -> neutralino1 chargino2)
     8.60943069E-04   2   1000023   1000024   # BR(Hp -> neutralino2 chargino1)
     8.15311568E-02   2   1000023   1000037   # BR(Hp -> neutralino2 chargino2)
     1.08278114E-01   2   1000024   1000025   # BR(Hp -> chargino1 neutralino3)
     1.98488816E-06   2   1000025   1000037   # BR(Hp -> neutralino3 chargino2)
     2.25014732E-03   2   1000024   1000035   # BR(Hp -> chargino1 neutralino4)
     8.17950696E-06   2   1000035   1000037   # BR(Hp -> neutralino4 chargino2)
     2.33687318E-06   2        24        25   # BR(Hp -> W h0)
     4.39116798E-11   2        24        35   # BR(Hp -> W HH)
     2.92465611E-11   2        24        36   # BR(Hp -> W A0)
DECAY         6     2.43000000E+00   # top
#    BR                NDA      ID1      ID2
     1.00000000E+00    2           5        24   # BR(t -> b W)
Block HiggsBoundsInputHiggsCouplingsFermions
# ScalarNormEffCoupSq PseudoSNormEffCoupSq NP IP1 IP2 IP2
    9.65737427E-01    0.00000000E+00        3  25   5   5  # h0-b-b eff. coupling^2, normalised to SM
    1.27350044E+03    0.00000000E+00        3  35   5   5  # H0-b-b eff. coupling^2, normalised to SM
    0.00000000E+00    1.27346617E+03        3  36   5   5  # A0-b-b eff. coupling^2, normalised to SM
#
    1.00002690E+00    0.00000000E+00        3  25   6   6  # h0-t-t eff. coupling^2, normalised to SM
    7.58353420E-04    0.00000000E+00        3  35   6   6  # H0-t-t eff. coupling^2, normalised to SM
    0.00000000E+00    7.85258393E-04        3  36   6   6  # A0-t-t eff. coupling^2, normalised to SM
#
    9.65737427E-01    0.00000000E+00        3  25  15  15  # h0-tau-tau eff. coupling^2, normalised to SM
    1.27350044E+03    0.00000000E+00        3  35  15  15  # H0-tau-tau eff. coupling^2, normalised to SM
    0.00000000E+00    1.27346617E+03        3  36  15  15  # A0-tau-tau eff. coupling^2, normalised to SM
#
Block HiggsBoundsInputHiggsCouplingsBosons
    9.99999766E-01        3  25  24  24  # h0-W-W eff. coupling^2, normalised to SM
    2.34489895E-07        3  35  24  24  # H0-W-W eff. coupling^2, normalised to SM
    0.00000000E+00        3  36  24  24  # A0-W-W eff. coupling^2, normalised to SM
#
    9.99999766E-01        3  25  23  23  # h0-Z-Z eff. coupling^2, normalised to SM
    2.34489895E-07        3  35  23  23  # H0-Z-Z eff. coupling^2, normalised to SM
    0.00000000E+00        3  36  23  23  # A0-Z-Z eff. coupling^2, normalised to SM
#
    1.26242629E+00        3  25  21  21  # h0-g-g eff. coupling^2, normalised to SM
    1.03002643E-02        3  35  21  21  # H0-g-g eff. coupling^2, normalised to SM
    1.31019669E-01        3  36  21  21  # A0-g-g eff. coupling^2, normalised to SM
#
    0.00000000E+00        3  25  25  23  # h0-h0-Z eff. coupling^2, normalised to SM
    0.00000000E+00        3  35  25  23  # H0-h0-Z eff. coupling^2, normalised to SM
    2.34489895E-07        3  36  25  23  # A0-h0-Z eff. coupling^2, normalised to SM
    0.00000000E+00        3  35  35  23  # H0-H0-Z eff. coupling^2, normalised to SM
    9.99999766E-01        3  36  35  23  # A0-H0-Z eff. coupling^2, normalised to SM
    0.00000000E+00        3  36  36  23  # A0-A0-Z eff. coupling^2, normalised to SM
#
    0.00000000E+00        4  25  21  21  23  # h0-g-g-Z eff. coupling^2, normalised to SM
    0.00000000E+00        4  35  21  21  23  # H0-g-g-Z eff. coupling^2, normalised to SM
    0.00000000E+00        4  36  21  21  23  # A0-g-g-Z eff. coupling^2, normalised to SM
Block SPhenoLowEnergy  # low energy observables
    1    3.31307723E-04   # BR(b -> s gamma)
    2    1.58795043E-06   # BR(b -> s mu+ mu-)
    3    3.52277549E-05   # BR(b -> s nu nu)
    4    3.49593002E-15   # BR(Bd -> e+ e-)
    5    1.49337487E-10   # BR(Bd -> mu+ mu-)
    6    3.09901400E-08   # BR(Bd -> tau+ tau-)
    7    1.19515476E-13   # BR(Bs -> e+ e-)
    8    5.10553279E-09   # BR(Bs -> mu+ mu-)
    9    1.07322224E-06   # BR(Bs -> tau+ tau-)
   10    9.35146699E-05   # BR(B_u -> tau nu)
   11    9.65970739E-01   # BR(B_u -> tau nu)/BR(B_u -> tau nu)_SM
   12    5.42249965E-01   # |Delta(M_Bd)| [ps^-1] 
   13    1.93609352E+01   # |Delta(M_Bs)| [ps^-1] 
   14    0.00000000E+00   # neutron EDM according to the chiral quark model
   15    0.00000000E+00   # neutron EDM according to the relativistic quark-parton model
   16    2.15860106E-03   # epsilon_K
   17    2.28167508E-15   # Delta(M_K)
   18    2.47802826E-11   # BR(K^0 -> pi^0 nu nu)
   19    8.28584620E-11   # BR(K^+ -> pi^+ nu nu)
   20    3.84079714E-16   # Delta(g-2)_electron/2
   21    1.64207087E-11   # Delta(g-2)_muon/2
   22    4.65240782E-09   # Delta(g-2)_tau/2
   23    0.00000000E+00   # electric dipole moment of the electron
   24    0.00000000E+00   # electric dipole moment of the muon
   25    0.00000000E+00   # electric dipole moment of the tau
   26    0.00000000E+00   # Br(mu -> e gamma)
   27    0.00000000E+00   # Br(tau -> e gamma)
   28    0.00000000E+00   # Br(tau -> mu gamma)
   29    0.00000000E+00   # Br(mu -> 3 e)
   30    0.00000000E+00   # Br(tau -> 3 e)
   31    0.00000000E+00   # Br(tau -> 3 mu)
   39    8.08119960E-05   # Delta(rho_parameter)
   40    0.00000000E+00   # BR(Z -> e mu)
   41    0.00000000E+00   # BR(Z -> e tau)
   42    0.00000000E+00   # BR(Z -> mu tau)
Block FWCOEF Q=  1.60000000E+02  # Wilson coefficients at scale Q
#    id        order  M        value         comment
     0305 4422   00   0    -1.88819110E-01   # C7
     0305 4422   00   2    -1.98347704E-01   # C7
     0305 4322   00   2    -3.40090179E-04   # C7'
     0305 6421   00   0    -9.52278348E-02   # C8
     0305 6421   00   2    -1.14751239E-01   # C8
     0305 6321   00   2    -4.52485914E-04   # C8'
 03051111 4133   00   0     1.60958319E+00   # C9 e+e-
 03051111 4133   00   2     1.61023451E+00   # C9 e+e-
 03051111 4233   00   2     2.23236732E-04   # C9' e+e-
 03051111 4137   00   0    -4.43227530E+00   # C10 e+e-
 03051111 4137   00   2    -4.42822631E+00   # C10 e+e-
 03051111 4237   00   2    -1.69213062E-03   # C10' e+e-
 03051313 4133   00   0     1.60958319E+00   # C9 mu+mu-
 03051313 4133   00   2     1.61023441E+00   # C9 mu+mu-
 03051313 4233   00   2     2.23234203E-04   # C9' mu+mu-
 03051313 4137   00   0    -4.43227530E+00   # C10 mu+mu-
 03051313 4137   00   2    -4.42822641E+00   # C10 mu+mu-
 03051313 4237   00   2    -1.69212844E-03   # C10' mu+mu-
 03051212 4137   00   0     1.50535012E+00   # C11 nu_1 nu_1
 03051212 4137   00   2     1.50447272E+00   # C11 nu_1 nu_1
 03051212 4237   00   2     3.67314100E-04   # C11' nu_1 nu_1
 03051414 4137   00   0     1.50535012E+00   # C11 nu_2 nu_2
 03051414 4137   00   2     1.50447272E+00   # C11 nu_2 nu_2
 03051414 4237   00   2     3.67314630E-04   # C11' nu_2 nu_2
 03051616 4137   00   0     1.50535012E+00   # C11 nu_3 nu_3
 03051616 4137   00   2     1.50447272E+00   # C11 nu_3 nu_3
 03051616 4237   00   2     3.67463922E-04   # C11' nu_3 nu_3
Block IMFWCOEF Q=  1.60000000E+02  # Im(Wilson coefficients) at scale Q
#    id        order  M        value         comment
     0305 4422   00   0     3.85826210E-07   # C7
     0305 4422   00   2     1.33328005E-05   # C7
     0305 4322   00   2     7.81273369E-07   # C7'
     0305 6421   00   0     3.30485665E-07   # C8
     0305 6421   00   2     6.50416521E-06   # C8
     0305 6321   00   2     2.98460316E-07   # C8'
 03051111 4133   00   2     6.66728499E-07   # C9 e+e-
 03051111 4233   00   2     5.72636031E-06   # C9' e+e-
 03051111 4137   00   2    -1.51422830E-07   # C10 e+e-
 03051111 4237   00   2    -4.34269420E-05   # C10' e+e-
 03051313 4133   00   2     6.66725899E-07   # C9 mu+mu-
 03051313 4233   00   2     5.72635875E-06   # C9' mu+mu-
 03051313 4137   00   2    -1.51420261E-07   # C10 mu+mu-
 03051313 4237   00   2    -4.34269467E-05   # C10' mu+mu-
 03051212 4137   00   2     5.99784940E-08   # C11 nu_1 nu_1
 03051212 4237   00   2     9.42677424E-06   # C11' nu_1 nu_1
 03051414 4137   00   2     5.99786112E-08   # C11 nu_2 nu_2
 03051414 4237   00   2     9.42677424E-06   # C11' nu_2 nu_2
 03051616 4137   00   2     6.00114091E-08   # C11 nu_3 nu_3
 03051616 4237   00   2     9.42677423E-06   # C11' nu_3 nu_3
