# SUSY Les Houches Accord 2 - MSSM spectrum + Decays
# SPheno v4.0.5be
# W. Porod, Comput. Phys. Commun. 153 (2003) 275-315, hep-ph/0301101;
# W. Porod, F.~Staub, Comput. Phys. Commun. 183 (2012) 2458
#                     arXiv:1104.1573 [hep-ph] 
# in case of problems send email to porod@physik.uni-wuerzburg.de
# Created: 20.12.2022,  15:46
Block SPINFO         # Program information
     1   SPheno      # spectrum calculator
     2   v4.0.5be    # version number
#
Block SPhenoINFO     # SPheno specific information
    1      2         # using 2-loop RGEs
    2      2         # using pole masses for boundary conditions at mZ
Block MODSEL  # Model selection
    1    0    # general MSSM
Block MINPAR  # Input parameters
    3    1.00415537E+01  # tanb at m_Z    
    4    1.00000000E+00  # Sign(mu)
Block EXTPAR  # non-universal input parameters
    0    4.10812525E+03  # scale for input parameters
    1    2.75221787E+02  # M_1
    2    6.80573649E+02  # M_2
    3    4.49875984E+03  # M_3
   11   -2.10784864E+03  # A_t
   12   -4.76670696E+02  # A_b
   13   -9.48360251E+02  # A_tau
   23    1.91155078E+03  # mu
   25    9.54482512E+00  # tan(beta)
   26    2.59107922E+03  # m_A, pole mass
   31    1.00000000E+04  # M_L11
   32    1.00000000E+04  # M_L22
   33    1.00000000E+04  # M_L33
   34    1.00000000E+04  # M_E11
   35    1.00000000E+04  # M_E22
   36    1.00000000E+04  # M_E33
   41    1.00000000E+04  # M_Q11
   42    1.00000000E+04  # M_Q22
   43    3.47390460E+03  # M_Q33
   44    1.00000000E+04  # M_U11
   45    1.00000000E+04  # M_U22
   46    4.57192281E+03  # M_U33
   47    1.00000000E+04  # M_D11
   48    1.00000000E+04  # M_D22
   49    3.78459678E+03  # M_D33
Block SMINPUTS  # SM parameters
         1     1.27908970E+02  # alpha_em^-1(MZ)^MSbar
         2     1.16637870E-05  # G_mu [GeV^-2]
         3     1.18400000E-01  # alpha_s(MZ)^MSbar
         4     9.11876000E+01  # m_Z(pole)
         5     4.18000000E+00  # m_b(m_b), MSbar
         6     1.73200000E+02  # m_t(pole)
         7     1.77700000E+00  # m_tau(pole)
         8     0.00000000E+00  # m_nu_3
        11     5.10998930E-04  # m_e(pole)
        12     0.00000000E+00  # m_nu_1
        13     1.05658372E-01  # m_muon(pole)
        14     0.00000000E+00  # m_nu_2
        21     5.00000000E-03  # m_d(2 GeV), MSbar
        22     2.50000000E-03  # m_u(2 GeV), MSbar
        23     9.50000000E-02  # m_s(2 GeV), MSbar
        24     1.27000000E+00  # m_c(m_c), MSbar
Block gauge Q=  4.10812525E+03  # (SUSY scale)
   1    3.55362975E-01  # g'(Q)^DRbar
   2    6.65198874E-01  # g(Q)^DRbar
   3    1.21977796E+00  # g3(Q)^DRbar
Block Yu Q=  4.10812525E+03  # (SUSY scale)
  1  1     8.43026210E-06   # Y_u(Q)^DRbar
  2  2     4.28257315E-03   # Y_c(Q)^DRbar
  3  3     1.01844337E+00   # Y_t(Q)^DRbar
Block Yd Q=  4.10812525E+03  # (SUSY scale)
  1  1     1.61692286E-04   # Y_d(Q)^DRbar
  2  2     3.07215343E-03   # Y_s(Q)^DRbar
  3  3     1.60348080E-01   # Y_b(Q)^DRbar
Block Ye Q=  4.10812525E+03  # (SUSY scale)
  1  1     2.82164862E-05   # Y_e(Q)^DRbar
  2  2     5.83427445E-03   # Y_mu(Q)^DRbar
  3  3     9.81228983E-02   # Y_tau(Q)^DRbar
Block Au Q=  4.10812525E+03  # (SUSY scale)
  1  1     0.00000000E+00   # A_u(Q)^DRbar
  2  2     0.00000000E+00   # A_c(Q)^DRbar
  3  3    -2.10784902E+03   # A_t(Q)^DRbar
Block Ad Q=  4.10812525E+03  # (SUSY scale)
  1  1     0.00000000E+00   # A_d(Q)^DRbar
  2  2     0.00000000E+00   # A_s(Q)^DRbar
  3  3    -4.76670636E+02   # A_b(Q)^DRbar
Block Ae Q=  4.10812525E+03  # (SUSY scale)
  1  1     0.00000000E+00   # A_e(Q)^DRbar
  2  2     0.00000000E+00   # A_mu(Q)^DRbar
  3  3    -9.48360194E+02   # A_tau(Q)^DRbar
Block MSOFT Q=  4.10812525E+03  # soft SUSY breaking masses at Q
   1    2.75221787E+02  # M_1
   2    6.80573649E+02  # M_2
   3    4.49875984E+03  # M_3
  21    2.89186701E+06  # M^2_(H,d)
  22   -3.27747782E+06  # M^2_(H,u)
  31    1.00000000E+04  # M_(L,11)
  32    1.00000000E+04  # M_(L,22)
  33    1.00000000E+04  # M_(L,33)
  34    1.00000000E+04  # M_(E,11)
  35    1.00000000E+04  # M_(E,22)
  36    1.00000000E+04  # M_(E,33)
  41    1.00000000E+04  # M_(Q,11)
  42    1.00000000E+04  # M_(Q,22)
  43    3.47390460E+03  # M_(Q,33)
  44    1.00000000E+04  # M_(U,11)
  45    1.00000000E+04  # M_(U,22)
  46    4.57192281E+03  # M_(U,33)
  47    1.00000000E+04  # M_(D,11)
  48    1.00000000E+04  # M_(D,22)
  49    3.78459678E+03  # M_(D,33)
Block MASS  # Mass spectrum
#   PDG code      mass          particle
         6     1.73200000E+02  # m_t(pole)
        23     9.11876000E+01  # m_Z(pole)
        24     8.04299946E+01  # W+
        15     1.77700000E+00  # m_tau(pole)
        25     1.21096519E+02  # h0
        35     2.59102509E+03  # H0
        36     2.59107922E+03  # A0
        37     2.59244990E+03  # H+
   1000001     1.01004698E+04  # ~d_L
   2000001     1.00760702E+04  # ~d_R
   1000002     1.01001100E+04  # ~u_L
   2000002     1.00790283E+04  # ~u_R
   1000003     1.01004702E+04  # ~s_L
   2000003     1.00760704E+04  # ~s_R
   1000004     1.01001104E+04  # ~c_L
   2000004     1.00790288E+04  # ~c_R
   1000005     3.62393321E+03  # ~b_1
   2000005     3.94157294E+03  # ~b_2
   1000006     3.62407665E+03  # ~t_1
   2000006     4.65682565E+03  # ~t_2
   1000011     1.00211015E+04  # ~e_L-
   2000011     1.00090309E+04  # ~e_R-
   1000012     1.00203416E+04  # ~nu_eL
   1000013     1.00211028E+04  # ~mu_L-
   2000013     1.00090312E+04  # ~mu_R-
   1000014     1.00203421E+04  # ~nu_muL
   1000015     1.00091046E+04  # ~tau_1-
   2000015     1.00215024E+04  # ~tau_2-
   1000016     1.00205024E+04  # ~nu_tauL
   1000021     4.97117038E+03  # ~g
   1000022     2.76332186E+02  # ~chi_10
   1000023     7.36525633E+02  # ~chi_20
   1000025     1.93389738E+03  # ~chi_30
   1000035     1.93642944E+03  # ~chi_40
   1000024     7.36472226E+02  # ~chi_1+
   1000037     1.93653800E+03  # ~chi_2+
# Higgs mixing
Block alpha # Effective Higgs mixing angle
          -9.95816718E-02   # alpha
Block Hmix Q=  4.10812525E+03  # Higgs mixing parameters
   1    1.91155078E+03  # mu
   2    9.54482512E+00  # tan[beta](Q)
   3    2.42939551E+02  # v(Q)
   4    6.71369152E+06  # m^2_A(Q)
Block stopmix # stop mixing matrix
   1  1     9.99214564E-01   # Re[R_st(1,1)]
   1  2     3.96264419E-02   # Re[R_st(1,2)]
   2  1    -3.96264419E-02   # Re[R_st(2,1)]
   2  2     9.99214564E-01   # Re[R_st(2,2)]
Block sbotmix # sbottom mixing matrix
   1  1     9.99855572E-01   # Re[R_sb(1,1)]
   1  2     1.69951428E-02   # Re[R_sb(1,2)]
   2  1    -1.69951428E-02   # Re[R_sb(2,1)]
   2  2     9.99855572E-01   # Re[R_sb(2,2)]
Block staumix # stau mixing matrix
   1  1     1.40581068E-01   # Re[R_sta(1,1)]
   1  2     9.90069171E-01   # Re[R_sta(1,2)]
   2  1    -9.90069171E-01   # Re[R_sta(2,1)]
   2  2     1.40581068E-01   # Re[R_sta(2,2)]
Block Nmix # neutralino mixing matrix
   1  1     9.99697660E-01   # Re[N(1,1)]
   1  2    -1.41654955E-03   # Re[N(1,2)]
   1  3     2.38336027E-02   # Re[N(1,3)]
   1  4    -5.87722989E-03   # Re[N(1,4)]
   2  1    -2.72250467E-03   # Re[N(2,1)]
   2  2    -9.98525053E-01   # Re[N(2,2)]
   2  3     4.92566861E-02   # Re[N(2,3)]
   2  4    -2.26734455E-02   # Re[N(2,4)]
   3  1     1.26621879E-02   # Re[N(3,1)]
   3  2    -1.88333809E-02   # Re[N(3,2)]
   3  3    -7.06629638E-01   # Re[N(3,3)]
   3  4    -7.07219575E-01   # Re[N(3,4)]
   4  1    -2.09008619E-02   # Re[N(4,1)]
   4  2     5.09020180E-02   # Re[N(4,2)]
   4  3     7.05464594E-01   # Re[N(4,3)]
   4  4    -7.06605863E-01   # Re[N(4,4)]
Block Umix # chargino mixing matrix
   1  1    -9.97561797E-01   # Re[U(1,1)]
   1  2     6.97886924E-02   # Re[U(1,2)]
   2  1     6.97886924E-02   # Re[U(2,1)]
   2  2     9.97561797E-01   # Re[U(2,2)]
Block Vmix # chargino mixing matrix
   1  1    -9.99478328E-01   # Re[V(1,1)]
   1  2     3.22966254E-02   # Re[V(1,2)]
   2  1     3.22966254E-02   # Re[V(2,1)]
   2  2     9.99478328E-01   # Re[V(2,2)]
DECAY        23     2.49520000E+00   # Z
DECAY        24     2.08500000E+00   # W
DECAY   2000011     5.02129249E+01   # ~e^-_R
#    BR                NDA      ID1      ID2
     9.99438443E-01    2     1000022        11   # BR(~e^-_R -> chi^0_1 e^-)
     1.48818091E-04    2     1000025        11   # BR(~e^-_R -> chi^0_3 e^-)
     4.05392437E-04    2     1000035        11   # BR(~e^-_R -> chi^0_4 e^-)
DECAY   1000011     1.43435435E+02   # ~e^-_L
#    BR                NDA      ID1      ID2
     8.71110455E-02    2     1000022        11   # BR(~e^-_L -> chi^0_1 e^-)
     3.04186268E-01    2     1000023        11   # BR(~e^-_L -> chi^0_2 e^-)
     4.49970989E-04    2     1000035        11   # BR(~e^-_L -> chi^0_4 e^-)
     6.05435292E-01    2    -1000024        12   # BR(~e^-_L -> chi^-_1 nu_e)
     2.77590441E-03    2    -1000037        12   # BR(~e^-_L -> chi^-_2 nu_e)
#    BR                NDA      ID1      ID2       ID3
DECAY   2000013     5.02254902E+01   # ~mu^-_R
#    BR                NDA      ID1      ID2
     9.99188512E-01    2     1000022        13   # BR(~mu^-_R -> chi^0_1 mu^-)
     2.11226759E-04    2     1000025        13   # BR(~mu^-_R -> chi^0_3 mu^-)
     4.67519067E-04    2     1000035        13   # BR(~mu^-_R -> chi^0_4 mu^-)
     1.24426313E-04    2    -1000037        14   # BR(~mu^-_R -> chi^-_2 nu_mu)
DECAY   1000013     1.43441744E+02   # ~mu^-_L
#    BR                NDA      ID1      ID2
     8.71072519E-02    2     1000022        13   # BR(~mu^-_L -> chi^0_1 mu^-)
     3.04173041E-01    2     1000023        13   # BR(~mu^-_L -> chi^0_2 mu^-)
     4.71770865E-04    2     1000035        13   # BR(~mu^-_L -> chi^0_4 mu^-)
     6.05408741E-01    2    -1000024        14   # BR(~mu^-_L -> chi^-_1 nu_mu)
     2.77578272E-03    2    -1000037        14   # BR(~mu^-_L -> chi^-_2 nu_mu)
#    BR                NDA      ID1      ID2       ID3
DECAY   1000015     5.55969627E+01   # ~tau^-_1
#    BR                NDA      ID1      ID2
     8.89862920E-01    2     1000022        15   # BR(~tau^-_1 -> chi^0_1 tau^-)
     1.78153512E-02    2     1000023        15   # BR(~tau^-_1 -> chi^0_2 tau^-)
     1.53194374E-02    2     1000025        15   # BR(~tau^-_1 -> chi^0_3 tau^-)
     1.44162083E-02    2     1000035        15   # BR(~tau^-_1 -> chi^0_4 tau^-)
     3.54759454E-02    2    -1000024        16   # BR(~tau^-_1 -> chi^-_1 nu_tau)
     2.71101379E-02    2    -1000037        16   # BR(~tau^-_1 -> chi^-_2 nu_tau)
DECAY   2000015     1.43388696E+02   # ~tau^-_2
#    BR                NDA      ID1      ID2
     9.21257413E-02    2     1000022        15   # BR(~tau^-_2 -> chi^0_1 tau^-)
     2.97448114E-01    2     1000023        15   # BR(~tau^-_2 -> chi^0_2 tau^-)
     6.53741627E-03    2     1000025        15   # BR(~tau^-_2 -> chi^0_3 tau^-)
     7.34359781E-03    2     1000035        15   # BR(~tau^-_2 -> chi^0_4 tau^-)
     5.91949182E-01    2    -1000024        16   # BR(~tau^-_2 -> chi^-_1 nu_tau)
     4.59594828E-03    2    -1000037        16   # BR(~tau^-_2 -> chi^-_2 nu_tau)
#    BR                NDA      ID1      ID2       ID3
DECAY   1000012     1.43439011E+02   # ~nu_e
#    BR                NDA      ID1      ID2
     8.80312972E-02    2     1000022        12   # BR(~nu_e -> chi^0_1 nu_e)
     3.02388179E-01    2     1000023        12   # BR(~nu_e -> chi^0_2 nu_e)
     1.86746325E-04    2     1000025        12   # BR(~nu_e -> chi^0_3 nu_e)
     1.09771717E-03    2     1000035        12   # BR(~nu_e -> chi^0_4 nu_e)
     6.07701630E-01    2     1000024        11   # BR(~nu_e -> chi^+_1 e^-)
     5.94429767E-04    2     1000037        11   # BR(~nu_e -> chi^+_2 e^-)
#    BR                NDA      ID1      ID2       ID3
DECAY   1000014     1.43445309E+02   # ~nu_mu
#    BR                NDA      ID1      ID2
     8.80274369E-02    2     1000022        14   # BR(~nu_mu -> chi^0_1 nu_mu)
     3.02374919E-01    2     1000023        14   # BR(~nu_mu -> chi^0_2 nu_mu)
     1.86738138E-04    2     1000025        14   # BR(~nu_mu -> chi^0_3 nu_mu)
     1.09766905E-03    2     1000035        14   # BR(~nu_mu -> chi^0_4 nu_mu)
     6.07675209E-01    2     1000024        13   # BR(~nu_mu -> chi^+_1 mu^-)
     6.38027174E-04    2     1000037        13   # BR(~nu_mu -> chi^+_2 mu^-)
#    BR                NDA      ID1      ID2       ID3
DECAY   1000016     1.45220630E+02   # ~nu_tau
#    BR                NDA      ID1      ID2
     8.69526973E-02    2     1000022        16   # BR(~nu_tau -> chi^0_1 nu_tau)
     2.98683270E-01    2     1000023        16   # BR(~nu_tau -> chi^0_2 nu_tau)
     1.84458673E-04    2     1000025        16   # BR(~nu_tau -> chi^0_3 nu_tau)
     1.08427009E-03    2     1000035        16   # BR(~nu_tau -> chi^0_4 nu_tau)
     6.00319288E-01    2     1000024        15   # BR(~nu_tau -> chi^+_1 tau^-)
     1.27760161E-02    2     1000037        15   # BR(~nu_tau -> chi^+_2 tau^-)
#    BR                NDA      ID1      ID2       ID3
DECAY   2000001     4.60893033E+02   # ~d_R
#    BR                NDA      ID1      ID2
     1.21797075E-02    2     1000022         1   # BR(~d_R -> chi^0_1 d)
     9.87813421E-01    2     1000021         1   # BR(~d_R -> ~g d)
DECAY   1000001     5.91126667E+02   # ~d_L
#    BR                NDA      ID1      ID2
     2.41787721E-03    2     1000022         1   # BR(~d_L -> chi^0_1 d)
     7.41189754E-02    2     1000023         1   # BR(~d_L -> chi^0_2 d)
     2.08214778E-04    2     1000035         1   # BR(~d_L -> chi^0_4 d)
     1.48096087E-01    2    -1000024         2   # BR(~d_L -> chi^-_1 u)
     6.79725931E-04    2    -1000037         2   # BR(~d_L -> chi^-_2 u)
     7.74448077E-01    2     1000021         1   # BR(~d_L -> ~g d)
DECAY   2000003     4.60896555E+02   # ~s_R
#    BR                NDA      ID1      ID2
     1.21796170E-02    2     1000022         3   # BR(~s_R -> chi^0_1 s)
     9.87805918E-01    2     1000021         3   # BR(~s_R -> ~g s)
DECAY   1000003     5.91131888E+02   # ~s_L
#    BR                NDA      ID1      ID2
     2.41785776E-03    2     1000022         3   # BR(~s_L -> chi^0_1 s)
     7.41183312E-02    2     1000023         3   # BR(~s_L -> chi^0_2 s)
     2.09690643E-04    2     1000035         3   # BR(~s_L -> chi^0_4 s)
     1.48094784E-01    2    -1000024         4   # BR(~s_L -> chi^-_1 c)
     6.85505347E-04    2    -1000037         4   # BR(~s_L -> chi^-_2 c)
     7.74441306E-01    2     1000021         3   # BR(~s_L -> ~g s)
DECAY   1000005     8.32234274E+01   # ~b_1
#    BR                NDA      ID1      ID2
     6.14498114E-03    2     1000022         5   # BR(~b_1 -> chi^0_1 b)
     1.75561983E-01    2     1000023         5   # BR(~b_1 -> chi^0_2 b)
     5.71372267E-03    2     1000025         5   # BR(~b_1 -> chi^0_3 b)
     5.90513132E-03    2     1000035         5   # BR(~b_1 -> chi^0_4 b)
     3.49110173E-01    2    -1000024         6   # BR(~b_1 -> chi^-_1 t)
     4.57564010E-01    2    -1000037         6   # BR(~b_1 -> chi^-_2 t)
DECAY   2000005     4.62239795E+00   # ~b_2
#    BR                NDA      ID1      ID2
     4.70700673E-01    2     1000022         5   # BR(~b_2 -> chi^0_1 b)
     1.26065954E-01    2     1000025         5   # BR(~b_2 -> chi^0_3 b)
     1.26168415E-01    2     1000035         5   # BR(~b_2 -> chi^0_4 b)
     2.56478988E-01    2    -1000037         6   # BR(~b_2 -> chi^-_2 t)
     8.69624754E-03    2     1000006       -24   # BR(~b_2 -> ~t_1 W^-)
     4.23232534E-03    2     1000005        23   # BR(~b_2 -> ~b_1 Z)
     7.64677408E-03    2     1000005        25   # BR(~b_2 -> ~b_1 h^0)
DECAY   2000002     4.78055389E+02   # ~u_R
#    BR                NDA      ID1      ID2
     4.69836377E-02    2     1000022         2   # BR(~u_R -> chi^0_1 u)
     9.52989936E-01    2     1000021         2   # BR(~u_R -> ~g u)
DECAY   1000002     5.91107734E+02   # ~u_L
#    BR                NDA      ID1      ID2
     2.34212010E-03    2     1000022         2   # BR(~u_L -> chi^0_1 u)
     7.42627374E-02    2     1000023         2   # BR(~u_L -> chi^0_2 u)
     1.55328715E-04    2     1000035         2   # BR(~u_L -> chi^0_4 u)
     1.48665035E-01    2     1000024         1   # BR(~u_L -> chi^+_1 d)
     1.45578952E-04    2     1000037         1   # BR(~u_L -> chi^+_2 d)
     7.74410017E-01    2     1000021         2   # BR(~u_L -> ~g u)
DECAY   2000004     4.78062233E+02   # ~c_R
#    BR                NDA      ID1      ID2
     4.69829658E-02    2     1000022         4   # BR(~c_R -> chi^0_1 c)
     9.52976337E-01    2     1000021         4   # BR(~c_R -> ~g c)
DECAY   1000004     5.91112924E+02   # ~c_L
#    BR                NDA      ID1      ID2
     2.34209976E-03    2     1000022         4   # BR(~c_L -> chi^0_1 c)
     7.42620880E-02    2     1000023         4   # BR(~c_L -> chi^0_2 c)
     1.58217851E-04    2     1000035         4   # BR(~c_L -> chi^0_4 c)
     1.48663751E-01    2     1000024         3   # BR(~c_L -> chi^+_1 s)
     1.48532074E-04    2     1000037         3   # BR(~c_L -> chi^+_2 s)
     7.74403236E-01    2     1000021         4   # BR(~c_L -> ~g c)
DECAY   1000006     8.33390204E+01   # ~t_1
#    BR                NDA      ID1      ID2
     6.16592797E-03    2     1000022         6   # BR(~t_1 -> chi^0_1 t)
     1.75176140E-01    2     1000023         6   # BR(~t_1 -> chi^0_2 t)
     2.26232463E-01    2     1000025         6   # BR(~t_1 -> chi^0_3 t)
     2.25875289E-01    2     1000035         6   # BR(~t_1 -> chi^0_4 t)
     3.52395976E-01    2     1000024         5   # BR(~t_1 -> chi^+_1 b)
     1.14339386E-02    2     1000037         5   # BR(~t_1 -> chi^+_2 b)
#    BR                NDA      ID1      ID2       ID3
     2.71993860E-03    3     1000022        24         5   # BR(~t_1 -> chi^0_1 W^+ b)
DECAY   2000006     1.56014009E+02   # ~t_2
#    BR                NDA      ID1      ID2
     6.58017821E-02    2     1000022         6   # BR(~t_2 -> chi^0_1 t)
     2.10374422E-01    2     1000025         6   # BR(~t_2 -> chi^0_3 t)
     2.10989712E-01    2     1000035         6   # BR(~t_2 -> chi^0_4 t)
     4.20945503E-01    2     1000037         5   # BR(~t_2 -> chi^+_2 b)
     4.20271979E-02    2     1000005        24   # BR(~t_2 -> ~b_1 W^+)
     2.09233344E-02    2     1000006        23   # BR(~t_2 -> ~t_1 Z)
     2.88963168E-02    2     1000006        25   # BR(~t_2 -> ~t_1 h^0)
DECAY   1000024     1.53057962E-03   # chi^+_1
#    BR                NDA      ID1      ID2
     9.92685406E-01    2     1000022        24   # BR(chi^+_1 -> chi^0_1 W^+)
#    BR                NDA      ID1      ID2       ID3
     7.30685967E-03    3     1000022        -5         6   # BR(chi^+_1 -> chi^0_1 b_bar t)
DECAY   1000037     1.55191551E+01   # chi^+_2
#    BR                NDA      ID1      ID2
     8.86018223E-02    2     1000022        24   # BR(chi^+_2 -> chi^0_1 W^+)
     2.94497634E-01    2     1000023        24   # BR(chi^+_2 -> chi^0_2 W^+)
     2.91807658E-01    2     1000024        23   # BR(chi^+_2 -> chi^+_1 Z)
     2.98633037E-01    2     1000024        25   # BR(chi^+_2 -> chi^+_1 h^0)
#    BR                NDA      ID1      ID2       ID3
     1.31902482E-02    3     1000024         6        -6   # BR(chi^+_2 -> chi^+_1 t t_bar)
     3.27164444E-03    3     1000022        -5         6   # BR(chi^+_2 -> chi^0_1 b_bar t)
     9.99224850E-03    3     1000023        -5         6   # BR(chi^+_2 -> chi^0_2 b_bar t)
DECAY   1000022     0.00000000E+00   # chi^0_1
DECAY   1000023     1.40209014E-03   # chi^0_2
#    BR                NDA      ID1      ID2
     6.95589456E-02    2     1000022        23   # BR(chi^0_2 -> chi^0_1 Z)
     9.29826438E-01    2     1000022        25   # BR(chi^0_2 -> chi^0_1 h^0)
#    BR                NDA      ID1      ID2       ID3
     5.79939094E-04    3     1000022         6        -6   # BR(chi^0_2 -> chi^0_1 t t_bar)
DECAY   1000025     1.79030477E+01   # chi^0_3
#    BR                NDA      ID1      ID2
     2.55611585E-01    2     1000024       -24   # BR(chi^0_3 -> chi^+_1 W^-)
     2.55611585E-01    2    -1000024        24   # BR(chi^0_3 -> chi^-_1 W^+)
     5.70746759E-02    2     1000022        23   # BR(chi^0_3 -> chi^0_1 Z)
     2.23540662E-01    2     1000023        23   # BR(chi^0_3 -> chi^0_2 Z)
     3.47913326E-02    2     1000022        25   # BR(chi^0_3 -> chi^0_1 h^0)
     1.53675442E-01    2     1000023        25   # BR(chi^0_3 -> chi^0_2 h^0)
#    BR                NDA      ID1      ID2       ID3
     1.72026996E-03    3     1000022         6        -6   # BR(chi^0_3 -> chi^0_1 t t_bar)
     3.80308194E-03    3     1000023         6        -6   # BR(chi^0_3 -> chi^0_2 t t_bar)
     7.06452408E-03    3     1000024         5        -6   # BR(chi^0_3 -> chi^+_1 b t_bar)
     7.06452408E-03    3    -1000024        -5         6   # BR(chi^0_3 -> chi^-_1 b_bar t)
DECAY   1000035     1.53509602E+01   # chi^0_4
#    BR                NDA      ID1      ID2
     2.93179113E-01    2     1000024       -24   # BR(chi^0_4 -> chi^+_1 W^-)
     2.93179113E-01    2    -1000024        24   # BR(chi^0_4 -> chi^-_1 W^+)
     2.42984204E-02    2     1000022        23   # BR(chi^0_4 -> chi^0_1 Z)
     3.55589609E-02    2     1000023        23   # BR(chi^0_4 -> chi^0_2 Z)
     6.02969839E-02    2     1000022        25   # BR(chi^0_4 -> chi^0_1 h^0)
     2.65553124E-01    2     1000023        25   # BR(chi^0_4 -> chi^0_2 h^0)
#    BR                NDA      ID1      ID2       ID3
     2.12625951E-03    3     1000022         6        -6   # BR(chi^0_4 -> chi^0_1 t t_bar)
     5.75135177E-03    3     1000023         6        -6   # BR(chi^0_4 -> chi^0_2 t t_bar)
     1.00240752E-02    3     1000024         5        -6   # BR(chi^0_4 -> chi^+_1 b t_bar)
     1.00240752E-02    3    -1000024        -5         6   # BR(chi^0_4 -> chi^-_1 b_bar t)
DECAY   1000021     8.63004788E+01   # ~g
#    BR                NDA      ID1      ID2
     1.83852225E-01    2     1000006        -6   # BR(~g -> ~t_1 t_bar)
     1.83852225E-01    2    -1000006         6   # BR(~g -> ~t^*_1 t)
     1.12553686E-02    2     2000006        -6   # BR(~g -> ~t_2 t_bar)
     1.12553686E-02    2    -2000006         6   # BR(~g -> ~t^*_2 t)
     1.87158022E-01    2     1000005        -5   # BR(~g -> ~b_1 b_bar)
     1.87158022E-01    2    -1000005         5   # BR(~g -> ~b^*_1 b)
     1.17569402E-01    2     2000005        -5   # BR(~g -> ~b_2 b_bar)
     1.17569402E-01    2    -2000005         5   # BR(~g -> ~b^*_2 b)
#    BR                NDA      ID1      ID2       ID3
DECAY        25     3.39482592E-03   # Gamma(h0)
     2.35197896E-03   2        22        22   # BR(h0 -> photon photon)
     1.18524610E-03   2        22        23   # BR(h0 -> photon Z)
     1.90516321E-02   2        23        23   # BR(h0 -> Z Z)
     1.70265931E-01   2       -24        24   # BR(h0 -> W W)
     7.56055424E-02   2        21        21   # BR(h0 -> gluon gluon)
     5.60621452E-09   2       -11        11   # BR(h0 -> Electron electron)
     2.49372057E-04   2       -13        13   # BR(h0 -> Muon muon)
     7.18972246E-02   2       -15        15   # BR(h0 -> Tau tau)
     1.59740104E-07   2        -2         2   # BR(h0 -> Up up)
     3.09959794E-02   2        -4         4   # BR(h0 -> Charm charm)
     6.52618189E-07   2        -1         1   # BR(h0 -> Down down)
     2.36036705E-04   2        -3         3   # BR(h0 -> Strange strange)
     6.28160239E-01   2        -5         5   # BR(h0 -> Bottom bottom)
DECAY        35     4.45517981E+00   # Gamma(HH)
     7.27248693E-07   2        22        22   # BR(HH -> photon photon)
     1.45997772E-06   2        22        23   # BR(HH -> photon Z)
     8.89985995E-05   2        23        23   # BR(HH -> Z Z)
     3.27396243E-05   2       -24        24   # BR(HH -> W W)
     4.00012564E-05   2        21        21   # BR(HH -> gluon gluon)
     8.42280336E-09   2       -11        11   # BR(HH -> Electron electron)
     3.75006266E-04   2       -13        13   # BR(HH -> Muon muon)
     1.08303923E-01   2       -15        15   # BR(HH -> Tau tau)
     1.29549066E-11   2        -2         2   # BR(HH -> Up up)
     2.51304449E-06   2        -4         4   # BR(HH -> Charm charm)
     1.77378802E-01   2        -6         6   # BR(HH -> Top top)
     6.17680985E-07   2        -1         1   # BR(HH -> Down down)
     2.23419468E-04   2        -3         3   # BR(HH -> Strange strange)
     5.54664997E-01   2        -5         5   # BR(HH -> Bottom bottom)
     1.30178720E-02   2  -1000024   1000024   # BR(HH -> Chargino1 chargino1)
     6.54334561E-04   2   1000022   1000022   # BR(HH -> neutralino1 neutralino1)
     4.31546610E-03   2   1000022   1000023   # BR(HH -> neutralino1 neutralino2)
     1.02008779E-01   2   1000022   1000025   # BR(HH -> neutralino1 neutralino3)
     3.20647727E-02   2   1000022   1000035   # BR(HH -> neutralino1 neutralino4)
     6.46766628E-03   2   1000023   1000023   # BR(HH -> neutralino2 neutralino2)
     3.57895665E-04   2        25        25   # BR(HH -> h0 h0)
DECAY        36     4.75587217E+00   # Gamma(A0)
     1.37634481E-06   2        22        22   # BR(A0 -> photon photon)
     3.34479292E-06   2        22        23   # BR(A0 -> photon Z)
     1.46964946E-04   2        21        21   # BR(A0 -> gluon gluon)
     8.45837103E-09   2       -11        11   # BR(A0 -> Electron electron)
     3.76587815E-04   2       -13        13   # BR(A0 -> Muon muon)
     1.08760906E-01   2       -15        15   # BR(A0 -> Tau tau)
     1.23888199E-11   2        -2         2   # BR(A0 -> Up up)
     2.40316626E-06   2        -4         4   # BR(A0 -> Charm charm)
     1.72566430E-01   2        -6         6   # BR(A0 -> Top top)
     6.20286851E-07   2        -1         1   # BR(A0 -> Down down)
     2.24362482E-04   2        -3         3   # BR(A0 -> Strange strange)
     5.57005877E-01   2        -5         5   # BR(A0 -> Bottom bottom)
     2.00182139E-02   2  -1000024   1000024   # BR(A0 -> Chargino1 chargino1)
     7.06426939E-04   2   1000022   1000022   # BR(A0 -> neutralino1 neutralino1)
     5.23860620E-03   2   1000022   1000023   # BR(A0 -> neutralino1 neutralino2)
     3.05916296E-02   2   1000022   1000025   # BR(A0 -> neutralino1 neutralino3)
     9.42840009E-02   2   1000022   1000035   # BR(A0 -> neutralino1 neutralino4)
     9.94848319E-03   2   1000023   1000023   # BR(A0 -> neutralino2 neutralino2)
     1.23757552E-04   2        23        25   # BR(A0 -> Z h0)
     5.53568252E-37   2        25        25   # BR(A0 -> h0 h0)
DECAY        37     5.00682613E+00   # Gamma(Hp)
     8.63396586E-09   2       -11        12   # BR(Hp -> Electron nu_e)
     3.69129006E-04   2       -13        14   # BR(Hp -> Muon nu_mu)
     1.04410648E-01   2       -15        16   # BR(Hp -> Tau nu_tau)
     5.51521068E-07   2        -1         2   # BR(Hp -> Down up)
     9.29403007E-06   2        -3         2   # BR(Hp -> Strange up)
     5.68973578E-06   2        -5         2   # BR(Hp -> Bottom up)
     1.48402350E-07   2        -1         4   # BR(Hp -> Down charm)
     2.01391698E-04   2        -3         4   # BR(Hp -> Strange charm)
     7.96770545E-04   2        -5         4   # BR(Hp -> Bottom charm)
     1.33922914E-05   2        -1         6   # BR(Hp -> Down top)
     2.92289390E-04   2        -3         6   # BR(Hp -> Strange top)
     7.42868268E-01   2        -5         6   # BR(Hp -> Bottom top)
     8.77894076E-03   2   1000022   1000024   # BR(Hp -> neutralino1 chargino1)
     1.16887542E-01   2   1000022   1000037   # BR(Hp -> neutralino1 chargino2)
     7.28198956E-08   2   1000023   1000024   # BR(Hp -> neutralino2 chargino1)
     2.52480224E-02   2   1000024   1000025   # BR(Hp -> chargino1 neutralino3)
     1.17840676E-04   2        24        25   # BR(Hp -> W h0)
     1.59630659E-12   2        24        35   # BR(Hp -> W HH)
     1.31530613E-12   2        24        36   # BR(Hp -> W A0)
DECAY         6     2.43000000E+00   # top
#    BR                NDA      ID1      ID2
     1.00000000E+00    2           5        24   # BR(t -> b W)
Block HiggsBoundsInputHiggsCouplingsFermions
# ScalarNormEffCoupSq PseudoSNormEffCoupSq NP IP1 IP2 IP2
    9.10331987E-01    0.00000000E+00        3  25   5   5  # h0-b-b eff. coupling^2, normalised to SM
    9.11933546E+01    0.00000000E+00        3  35   5   5  # H0-b-b eff. coupling^2, normalised to SM
    0.00000000E+00    9.11036866E+01        3  36   5   5  # A0-b-b eff. coupling^2, normalised to SM
#
    1.00098424E+00    0.00000000E+00        3  25   6   6  # h0-t-t eff. coupling^2, normalised to SM
    9.99226290E-03    0.00000000E+00        3  35   6   6  # H0-t-t eff. coupling^2, normalised to SM
    0.00000000E+00    1.09765042E-02        3  36   6   6  # A0-t-t eff. coupling^2, normalised to SM
#
    9.10331987E-01    0.00000000E+00        3  25  15  15  # h0-tau-tau eff. coupling^2, normalised to SM
    9.11933546E+01    0.00000000E+00        3  35  15  15  # H0-tau-tau eff. coupling^2, normalised to SM
    0.00000000E+00    9.11036866E+01        3  36  15  15  # A0-tau-tau eff. coupling^2, normalised to SM
#
Block HiggsBoundsInputHiggsCouplingsBosons
    9.99976900E-01        3  25  24  24  # h0-W-W eff. coupling^2, normalised to SM
    2.31004820E-05        3  35  24  24  # H0-W-W eff. coupling^2, normalised to SM
    0.00000000E+00        3  36  24  24  # A0-W-W eff. coupling^2, normalised to SM
#
    9.99976900E-01        3  25  23  23  # h0-Z-Z eff. coupling^2, normalised to SM
    2.31004820E-05        3  35  23  23  # H0-Z-Z eff. coupling^2, normalised to SM
    0.00000000E+00        3  36  23  23  # A0-Z-Z eff. coupling^2, normalised to SM
#
    1.27295914E+00        3  25  21  21  # h0-g-g eff. coupling^2, normalised to SM
    6.48529858E-03        3  35  21  21  # H0-g-g eff. coupling^2, normalised to SM
    1.26185973E-01        3  36  21  21  # A0-g-g eff. coupling^2, normalised to SM
#
    0.00000000E+00        3  25  25  23  # h0-h0-Z eff. coupling^2, normalised to SM
    0.00000000E+00        3  35  25  23  # H0-h0-Z eff. coupling^2, normalised to SM
    2.31004820E-05        3  36  25  23  # A0-h0-Z eff. coupling^2, normalised to SM
    0.00000000E+00        3  35  35  23  # H0-H0-Z eff. coupling^2, normalised to SM
    9.99976900E-01        3  36  35  23  # A0-H0-Z eff. coupling^2, normalised to SM
    0.00000000E+00        3  36  36  23  # A0-A0-Z eff. coupling^2, normalised to SM
#
    0.00000000E+00        4  25  21  21  23  # h0-g-g-Z eff. coupling^2, normalised to SM
    0.00000000E+00        4  35  21  21  23  # H0-g-g-Z eff. coupling^2, normalised to SM
    0.00000000E+00        4  36  21  21  23  # A0-g-g-Z eff. coupling^2, normalised to SM
Block SPhenoLowEnergy  # low energy observables
    1    3.27394976E-04   # BR(b -> s gamma)
    2    1.58978788E-06   # BR(b -> s mu+ mu-)
    3    3.52615893E-05   # BR(b -> s nu nu)
    4    2.56281418E-15   # BR(Bd -> e+ e-)
    5    1.09480506E-10   # BR(Bd -> mu+ mu-)
    6    2.29183133E-08   # BR(Bd -> tau+ tau-)
    7    8.62652999E-14   # BR(Bs -> e+ e-)
    8    3.68525068E-09   # BR(Bs -> mu+ mu-)
    9    7.81662624E-07   # BR(Bs -> tau+ tau-)
   10    9.67178404E-05   # BR(B_u -> tau nu)
   11    9.99058263E-01   # BR(B_u -> tau nu)/BR(B_u -> tau nu)_SM
   12    5.41986791E-01   # |Delta(M_Bd)| [ps^-1] 
   13    1.93651317E+01   # |Delta(M_Bs)| [ps^-1] 
   14    0.00000000E+00   # neutron EDM according to the chiral quark model
   15    0.00000000E+00   # neutron EDM according to the relativistic quark-parton model
   16    2.15727706E-03   # epsilon_K
   17    2.28165785E-15   # Delta(M_K)
   18    2.48049379E-11   # BR(K^0 -> pi^0 nu nu)
   19    8.29169254E-11   # BR(K^+ -> pi^+ nu nu)
   20    6.30934754E-17   # Delta(g-2)_electron/2
   21    2.69744349E-12   # Delta(g-2)_muon/2
   22    7.63073580E-10   # Delta(g-2)_tau/2
   23    0.00000000E+00   # electric dipole moment of the electron
   24    0.00000000E+00   # electric dipole moment of the muon
   25    0.00000000E+00   # electric dipole moment of the tau
   26    0.00000000E+00   # Br(mu -> e gamma)
   27    0.00000000E+00   # Br(tau -> e gamma)
   28    0.00000000E+00   # Br(tau -> mu gamma)
   29    0.00000000E+00   # Br(mu -> 3 e)
   30    0.00000000E+00   # Br(tau -> 3 e)
   31    0.00000000E+00   # Br(tau -> 3 mu)
   39   -3.79241056E-05   # Delta(rho_parameter)
   40    0.00000000E+00   # BR(Z -> e mu)
   41    0.00000000E+00   # BR(Z -> e tau)
   42    0.00000000E+00   # BR(Z -> mu tau)
Block FWCOEF Q=  1.60000000E+02  # Wilson coefficients at scale Q
#    id        order  M        value         comment
     0305 4422   00   0    -1.88819110E-01   # C7
     0305 4422   00   2    -1.95821281E-01   # C7
     0305 4322   00   2    -1.58498980E-04   # C7'
     0305 6421   00   0    -9.52278348E-02   # C8
     0305 6421   00   2    -1.05632898E-01   # C8
     0305 6321   00   2    -2.15566507E-04   # C8'
 03051111 4133   00   0     1.62714740E+00   # C9 e+e-
 03051111 4133   00   2     1.62734187E+00   # C9 e+e-
 03051111 4233   00   2     2.19310794E-05   # C9' e+e-
 03051111 4137   00   0    -4.44983950E+00   # C10 e+e-
 03051111 4137   00   2    -4.44905392E+00   # C10 e+e-
 03051111 4237   00   2    -1.61841242E-04   # C10' e+e-
 03051313 4133   00   0     1.62714740E+00   # C9 mu+mu-
 03051313 4133   00   2     1.62734186E+00   # C9 mu+mu-
 03051313 4233   00   2     2.19310770E-05   # C9' mu+mu-
 03051313 4137   00   0    -4.44983950E+00   # C10 mu+mu-
 03051313 4137   00   2    -4.44905392E+00   # C10 mu+mu-
 03051313 4237   00   2    -1.61841241E-04   # C10' mu+mu-
 03051212 4137   00   0     1.50535012E+00   # C11 nu_1 nu_1
 03051212 4137   00   2     1.50518177E+00   # C11 nu_1 nu_1
 03051212 4237   00   2     3.49918943E-05   # C11' nu_1 nu_1
 03051414 4137   00   0     1.50535012E+00   # C11 nu_2 nu_2
 03051414 4137   00   2     1.50518177E+00   # C11 nu_2 nu_2
 03051414 4237   00   2     3.49918948E-05   # C11' nu_2 nu_2
 03051616 4137   00   0     1.50535012E+00   # C11 nu_3 nu_3
 03051616 4137   00   2     1.50518177E+00   # C11 nu_3 nu_3
 03051616 4237   00   2     3.49920212E-05   # C11' nu_3 nu_3
Block IMFWCOEF Q=  1.60000000E+02  # Im(Wilson coefficients) at scale Q
#    id        order  M        value         comment
     0305 4422   00   0     3.85828427E-07   # C7
     0305 4422   00   2     2.55851297E-06   # C7
     0305 4322   00   2     2.18922989E-07   # C7'
     0305 6421   00   0     3.30487564E-07   # C8
     0305 6421   00   2    -8.72417184E-07   # C8
     0305 6321   00   2     4.44430847E-08   # C8'
 03051111 4133   00   2     4.30191550E-07   # C9 e+e-
 03051111 4233   00   2     4.50909063E-07   # C9' e+e-
 03051111 4137   00   2     4.77354746E-07   # C10 e+e-
 03051111 4237   00   2    -3.32870217E-06   # C10' e+e-
 03051313 4133   00   2     4.30191335E-07   # C9 mu+mu-
 03051313 4233   00   2     4.50909056E-07   # C9' mu+mu-
 03051313 4137   00   2     4.77354966E-07   # C10 mu+mu-
 03051313 4237   00   2    -3.32870219E-06   # C10' mu+mu-
 03051212 4137   00   2    -7.62604211E-08   # C11 nu_1 nu_1
 03051212 4237   00   2     7.19704620E-07   # C11' nu_1 nu_1
 03051414 4137   00   2    -7.62604104E-08   # C11 nu_2 nu_2
 03051414 4237   00   2     7.19704620E-07   # C11' nu_2 nu_2
 03051616 4137   00   2    -7.62573781E-08   # C11 nu_3 nu_3
 03051616 4237   00   2     7.19704619E-07   # C11' nu_3 nu_3
