# SUSY Les Houches Accord 2 - MSSM spectrum + Decays
# SPheno v4.0.5be
# W. Porod, Comput. Phys. Commun. 153 (2003) 275-315, hep-ph/0301101;
# W. Porod, F.~Staub, Comput. Phys. Commun. 183 (2012) 2458
#                     arXiv:1104.1573 [hep-ph] 
# in case of problems send email to porod@physik.uni-wuerzburg.de
# Created: 08.09.2021,  19:24
Block SPINFO         # Program information
     1   SPheno      # spectrum calculator
     2   v4.0.5be    # version number
#
Block SPhenoINFO     # SPheno specific information
    1      2         # using 2-loop RGEs
    2      2         # using pole masses for boundary conditions at mZ
Block MODSEL  # Model selection
    1    0    # general MSSM
Block MINPAR  # Input parameters
    3    1.45127335E+00  # tanb at m_Z    
    4    1.00000000E+00  # Sign(mu)
Block EXTPAR  # non-universal input parameters
    0    2.73636894E+03  # scale for input parameters
    1   -3.91613474E+01  # M_1
    2    1.44684534E+03  # M_2
    3    1.20796940E+03  # M_3
   11   -7.26198463E+02  # A_t
   12   -1.24218151E+03  # A_b
   13   -1.78211632E+03  # A_tau
   23    7.89034338E+02  # mu
   25    1.35199852E+00  # tan(beta)
   26    4.17599987E+03  # m_A, pole mass
   31    1.00000000E+04  # M_L11
   32    1.00000000E+04  # M_L22
   33    1.00000000E+04  # M_L33
   34    1.00000000E+04  # M_E11
   35    1.00000000E+04  # M_E22
   36    1.00000000E+04  # M_E33
   41    1.00000000E+04  # M_Q11
   42    1.00000000E+04  # M_Q22
   43    2.05829418E+03  # M_Q33
   44    1.00000000E+04  # M_U11
   45    1.00000000E+04  # M_U22
   46    3.59442829E+03  # M_U33
   47    1.00000000E+04  # M_D11
   48    1.00000000E+04  # M_D22
   49    2.22505031E+03  # M_D33
Block SMINPUTS  # SM parameters
         1     1.27908970E+02  # alpha_em^-1(MZ)^MSbar
         2     1.16637870E-05  # G_mu [GeV^-2]
         3     1.18400000E-01  # alpha_s(MZ)^MSbar
         4     9.11876000E+01  # m_Z(pole)
         5     4.18000000E+00  # m_b(m_b), MSbar
         6     1.73200000E+02  # m_t(pole)
         7     1.77700000E+00  # m_tau(pole)
         8     0.00000000E+00  # m_nu_3
        11     5.10998930E-04  # m_e(pole)
        12     0.00000000E+00  # m_nu_1
        13     1.05658372E-01  # m_muon(pole)
        14     0.00000000E+00  # m_nu_2
        21     5.00000000E-03  # m_d(2 GeV), MSbar
        22     2.50000000E-03  # m_u(2 GeV), MSbar
        23     9.50000000E-02  # m_s(2 GeV), MSbar
        24     1.27000000E+00  # m_c(m_c), MSbar
Block gauge Q=  2.73636894E+03  # (SUSY scale)
   1    3.55362975E-01  # g'(Q)^DRbar
   2    6.65198874E-01  # g(Q)^DRbar
   3    1.21977796E+00  # g3(Q)^DRbar
Block Yu Q=  2.73636894E+03  # (SUSY scale)
  1  1     1.04286082E-05   # Y_u(Q)^DRbar
  2  2     5.29773299E-03   # Y_c(Q)^DRbar
  3  3     1.25985964E+00   # Y_t(Q)^DRbar
Block Yd Q=  2.73636894E+03  # (SUSY scale)
  1  1     2.83323643E-05   # Y_d(Q)^DRbar
  2  2     5.38314922E-04   # Y_s(Q)^DRbar
  3  3     2.80968273E-02   # Y_b(Q)^DRbar
Block Ye Q=  2.73636894E+03  # (SUSY scale)
  1  1     4.94420475E-06   # Y_e(Q)^DRbar
  2  2     1.02230473E-03   # Y_mu(Q)^DRbar
  3  3     1.71934838E-02   # Y_tau(Q)^DRbar
Block Au Q=  2.73636894E+03  # (SUSY scale)
  1  1     0.00000000E+00   # A_u(Q)^DRbar
  2  2     0.00000000E+00   # A_c(Q)^DRbar
  3  3    -7.26198501E+02   # A_t(Q)^DRbar
Block Ad Q=  2.73636894E+03  # (SUSY scale)
  1  1     0.00000000E+00   # A_d(Q)^DRbar
  2  2     0.00000000E+00   # A_s(Q)^DRbar
  3  3    -1.24218147E+03   # A_b(Q)^DRbar
Block Ae Q=  2.73636894E+03  # (SUSY scale)
  1  1     0.00000000E+00   # A_e(Q)^DRbar
  2  2     0.00000000E+00   # A_mu(Q)^DRbar
  3  3    -1.78211630E+03   # A_tau(Q)^DRbar
Block MSOFT Q=  2.73636894E+03  # soft SUSY breaking masses at Q
   1   -3.91613474E+01  # M_1
   2    1.44684534E+03  # M_2
   3    1.20796940E+03  # M_3
  21    1.06593285E+07  # M^2_(H,d)
  22    5.78602795E+06  # M^2_(H,u)
  31    1.00000000E+04  # M_(L,11)
  32    1.00000000E+04  # M_(L,22)
  33    1.00000000E+04  # M_(L,33)
  34    1.00000000E+04  # M_(E,11)
  35    1.00000000E+04  # M_(E,22)
  36    1.00000000E+04  # M_(E,33)
  41    1.00000000E+04  # M_(Q,11)
  42    1.00000000E+04  # M_(Q,22)
  43    2.05829418E+03  # M_(Q,33)
  44    1.00000000E+04  # M_(U,11)
  45    1.00000000E+04  # M_(U,22)
  46    3.59442829E+03  # M_(U,33)
  47    1.00000000E+04  # M_(D,11)
  48    1.00000000E+04  # M_(D,22)
  49    2.22505031E+03  # M_(D,33)
Block MASS  # Mass spectrum
#   PDG code      mass          particle
         6     1.73200000E+02  # m_t(pole)
        23     9.11876000E+01  # m_Z(pole)
        24     8.04299946E+01  # W+
        15     1.77700000E+00  # m_tau(pole)
        25     8.99739965E+01  # h0
        35     4.17617000E+03  # H0
        36     4.17599987E+03  # A0
        37     4.17658153E+03  # H+
   1000001     1.01212602E+04  # ~d_L
   2000001     1.00975446E+04  # ~d_R
   1000002     1.01211150E+04  # ~u_L
   2000002     1.01012649E+04  # ~u_R
   1000003     1.01212616E+04  # ~s_L
   2000003     1.00975446E+04  # ~s_R
   1000004     1.01211165E+04  # ~c_L
   2000004     1.01012678E+04  # ~c_R
   1000005     2.08684641E+03  # ~b_1
   2000005     2.26926903E+03  # ~b_2
   1000006     2.09043916E+03  # ~t_1
   2000006     3.58188609E+03  # ~t_2
   1000011     1.00200927E+04  # ~e_L-
   2000011     1.00084029E+04  # ~e_R-
   1000012     1.00195494E+04  # ~nu_eL
   1000013     1.00200928E+04  # ~mu_L-
   2000013     1.00084030E+04  # ~mu_R-
   1000014     1.00195495E+04  # ~nu_muL
   1000015     1.00084395E+04  # ~tau_1-
   2000015     1.00201198E+04  # ~tau_2-
   1000016     1.00195708E+04  # ~nu_tauL
   1000021     1.51006411E+03  # ~g
   1000022     4.31187210E+01  # ~chi_10
   1000023     7.75069957E+02  # ~chi_20
   1000025     7.81277095E+02  # ~chi_30
   1000035     1.54512221E+03  # ~chi_40
   1000024     7.72859894E+02  # ~chi_1+
   1000037     1.54507424E+03  # ~chi_2+
# Higgs mixing
Block alpha # Effective Higgs mixing angle
          -6.03746897E-01   # alpha
Block Hmix Q=  2.73636894E+03  # Higgs mixing parameters
   1    7.89034338E+02  # mu
   2    1.35199852E+00  # tan[beta](Q)
   3    2.43443691E+02  # v(Q)
   4    1.74389749E+07  # m^2_A(Q)
Block stopmix # stop mixing matrix
   1  1     9.99709418E-01   # Re[R_st(1,1)]
   1  2     2.41055920E-02   # Re[R_st(1,2)]
   2  1    -2.41055920E-02   # Re[R_st(2,1)]
   2  2     9.99709418E-01   # Re[R_st(2,2)]
Block sbotmix # sbottom mixing matrix
   1  1     9.99974182E-01   # Re[R_sb(1,1)]
   1  2     7.18575833E-03   # Re[R_sb(1,2)]
   2  1    -7.18575833E-03   # Re[R_sb(2,1)]
   2  2     9.99974182E-01   # Re[R_sb(2,2)]
Block staumix # stau mixing matrix
   1  1     2.18667940E-02   # Re[R_sta(1,1)]
   1  2     9.99760893E-01   # Re[R_sta(1,2)]
   2  1    -9.99760893E-01   # Re[R_sta(2,1)]
   2  2     2.18667940E-02   # Re[R_sta(2,2)]
Block Nmix # neutralino mixing matrix
   1  1     9.98556129E-01   # Re[N(1,1)]
   1  2    -2.62601944E-03   # Re[N(1,2)]
   1  3     4.36200466E-02   # Re[N(1,3)]
   1  4    -3.12418564E-02   # Re[N(1,4)]
   2  1    -5.29221757E-02   # Re[N(2,1)]
   2  2    -1.06327126E-01   # Re[N(2,2)]
   2  3     7.02576908E-01   # Re[N(2,3)]
   2  4    -7.01626306E-01   # Re[N(2,4)]
   3  1     8.72135523E-03   # Re[N(3,1)]
   3  2    -5.57789561E-03   # Re[N(3,2)]
   3  3    -7.06683787E-01   # Re[N(3,3)]
   3  4    -7.07453779E-01   # Re[N(3,4)]
   4  1     2.97309894E-03   # Re[N(4,1)]
   4  2    -9.94312091E-01   # Re[N(4,2)]
   4  3    -7.12811629E-02   # Re[N(4,3)]
   4  4     7.90798528E-02   # Re[N(4,4)]
Block Umix # chargino mixing matrix
   1  1    -1.00168169E-01   # Re[U(1,1)]
   1  2     9.94970521E-01   # Re[U(1,2)]
   2  1     9.94970521E-01   # Re[U(2,1)]
   2  2     1.00168169E-01   # Re[U(2,2)]
Block Vmix # chargino mixing matrix
   1  1    -1.11261821E-01   # Re[V(1,1)]
   1  2     9.93791129E-01   # Re[V(1,2)]
   2  1     9.93791129E-01   # Re[V(2,1)]
   2  2     1.11261821E-01   # Re[V(2,2)]
DECAY        23     2.49520000E+00   # Z
DECAY        24     2.08500000E+00   # W
DECAY   2000011     5.02849556E+01   # ~e^-_R
#    BR                NDA      ID1      ID2
     9.97148970E-01    2     1000022        11   # BR(~e^-_R -> chi^0_1 e^-)
     2.76746261E-03    2     1000023        11   # BR(~e^-_R -> chi^0_2 e^-)
DECAY   1000011     1.38731812E+02   # ~e^-_L
#    BR                NDA      ID1      ID2
     8.95741483E-02    2     1000022        11   # BR(~e^-_L -> chi^0_1 e^-)
     5.69077587E-03    2     1000023        11   # BR(~e^-_L -> chi^0_2 e^-)
     2.98574391E-01    2     1000035        11   # BR(~e^-_L -> chi^0_4 e^-)
     6.30384420E-03    2    -1000024        12   # BR(~e^-_L -> chi^-_1 nu_e)
     5.99856575E-01    2    -1000037        12   # BR(~e^-_L -> chi^-_2 nu_e)
#    BR                NDA      ID1      ID2       ID3
DECAY   2000013     5.02853672E+01   # ~mu^-_R
#    BR                NDA      ID1      ID2
     9.97140826E-01    2     1000022        13   # BR(~mu^-_R -> chi^0_1 mu^-)
     2.76945845E-03    2     1000023        13   # BR(~mu^-_R -> chi^0_2 mu^-)
DECAY   1000013     1.38732019E+02   # ~mu^-_L
#    BR                NDA      ID1      ID2
     8.95740181E-02    2     1000022        13   # BR(~mu^-_L -> chi^0_1 mu^-)
     5.69149962E-03    2     1000023        13   # BR(~mu^-_L -> chi^0_2 mu^-)
     2.98573956E-01    2     1000035        13   # BR(~mu^-_L -> chi^0_4 mu^-)
     6.30383485E-03    2    -1000024        14   # BR(~mu^-_L -> chi^-_1 nu_mu)
     5.99855686E-01    2    -1000037        14   # BR(~mu^-_L -> chi^-_2 nu_mu)
#    BR                NDA      ID1      ID2       ID3
DECAY   1000015     5.04441480E+01   # ~tau^-_1
#    BR                NDA      ID1      ID2
     9.93682975E-01    2     1000022        15   # BR(~tau^-_1 -> chi^0_1 tau^-)
     3.40968048E-03    2     1000023        15   # BR(~tau^-_1 -> chi^0_2 tau^-)
     6.40552276E-04    2     1000025        15   # BR(~tau^-_1 -> chi^0_3 tau^-)
     3.11756111E-04    2     1000035        15   # BR(~tau^-_1 -> chi^0_4 tau^-)
     1.34351959E-03    2    -1000024        16   # BR(~tau^-_1 -> chi^-_1 nu_tau)
     6.11516486E-04    2    -1000037        16   # BR(~tau^-_1 -> chi^-_2 nu_tau)
DECAY   2000015     1.38747651E+02   # ~tau^-_2
#    BR                NDA      ID1      ID2
     8.96832536E-02    2     1000022        15   # BR(~tau^-_2 -> chi^0_1 tau^-)
     5.86745851E-03    2     1000023        15   # BR(~tau^-_2 -> chi^0_2 tau^-)
     2.13445417E-04    2     1000025        15   # BR(~tau^-_2 -> chi^0_3 tau^-)
     2.98434943E-01    2     1000035        15   # BR(~tau^-_2 -> chi^0_4 tau^-)
     6.22957116E-03    2    -1000024        16   # BR(~tau^-_2 -> chi^-_1 nu_tau)
     5.99571329E-01    2    -1000037        16   # BR(~tau^-_2 -> chi^-_2 nu_tau)
#    BR                NDA      ID1      ID2       ID3
DECAY   1000012     1.38724067E+02   # ~nu_e
#    BR                NDA      ID1      ID2
     9.13555815E-02    2     1000022        12   # BR(~nu_e -> chi^0_1 nu_e)
     1.91376186E-03    2     1000023        12   # BR(~nu_e -> chi^0_2 nu_e)
     3.00487139E-01    2     1000035        12   # BR(~nu_e -> chi^0_4 nu_e)
     7.77747214E-03    2     1000024        11   # BR(~nu_e -> chi^+_1 e^-)
     5.98433134E-01    2     1000037        11   # BR(~nu_e -> chi^+_2 e^-)
#    BR                NDA      ID1      ID2       ID3
DECAY   1000014     1.38724274E+02   # ~nu_mu
#    BR                NDA      ID1      ID2
     9.13554459E-02    2     1000022        14   # BR(~nu_mu -> chi^0_1 nu_mu)
     1.91375902E-03    2     1000023        14   # BR(~nu_mu -> chi^0_2 nu_mu)
     3.00486693E-01    2     1000035        14   # BR(~nu_mu -> chi^0_4 nu_mu)
     7.77892922E-03    2     1000024        13   # BR(~nu_mu -> chi^+_1 mu^-)
     5.98432261E-01    2     1000037        13   # BR(~nu_mu -> chi^+_2 mu^-)
#    BR                NDA      ID1      ID2       ID3
DECAY   1000016     1.38782600E+02   # ~nu_tau
#    BR                NDA      ID1      ID2
     9.13172461E-02    2     1000022        16   # BR(~nu_tau -> chi^0_1 nu_tau)
     1.91295889E-03    2     1000023        16   # BR(~nu_tau -> chi^0_2 nu_tau)
     3.00361108E-01    2     1000035        16   # BR(~nu_tau -> chi^0_4 nu_tau)
     8.18945449E-03    2     1000024        15   # BR(~nu_tau -> chi^+_1 tau^-)
     5.98186334E-01    2     1000037        15   # BR(~nu_tau -> chi^+_2 tau^-)
#    BR                NDA      ID1      ID2       ID3
DECAY   2000001     7.67418010E+02   # ~d_R
#    BR                NDA      ID1      ID2
     7.32444805E-03    2     1000022         1   # BR(~d_R -> chi^0_1 d)
     9.92654605E-01    2     1000021         1   # BR(~d_R -> ~g d)
DECAY   1000001     8.92683689E+02   # ~d_L
#    BR                NDA      ID1      ID2
     1.62480721E-03    2     1000022         1   # BR(~d_L -> chi^0_1 d)
     4.63134179E-04    2     1000023         1   # BR(~d_L -> chi^0_2 d)
     4.71156875E-02    2     1000035         1   # BR(~d_L -> chi^0_4 d)
     9.89806237E-04    2    -1000024         2   # BR(~d_L -> chi^-_1 u)
     9.42560936E-02    2    -1000037         2   # BR(~d_L -> chi^-_2 u)
     8.55547964E-01    2     1000021         1   # BR(~d_L -> ~g d)
DECAY   2000003     7.67418125E+02   # ~s_R
#    BR                NDA      ID1      ID2
     7.32444709E-03    2     1000022         3   # BR(~s_R -> chi^0_1 s)
     9.92654457E-01    2     1000021         3   # BR(~s_R -> ~g s)
DECAY   1000003     8.92689464E+02   # ~s_L
#    BR                NDA      ID1      ID2
     1.62479705E-03    2     1000022         3   # BR(~s_L -> chi^0_1 s)
     4.63163020E-04    2     1000023         3   # BR(~s_L -> chi^0_2 s)
     4.71153902E-02    2     1000035         3   # BR(~s_L -> chi^0_4 s)
     9.95976093E-04    2    -1000024         4   # BR(~s_L -> chi^-_1 c)
     9.42555764E-02    2    -1000037         4   # BR(~s_L -> chi^-_2 c)
     8.55542557E-01    2     1000021         3   # BR(~s_L -> ~g s)
DECAY   1000005     9.09735420E+01   # ~b_1
#    BR                NDA      ID1      ID2
     3.28777454E-03    2     1000022         5   # BR(~b_1 -> chi^0_1 b)
     8.39124881E-04    2     1000023         5   # BR(~b_1 -> chi^0_2 b)
     1.36424048E-04    2     1000025         5   # BR(~b_1 -> chi^0_3 b)
     2.03953321E-02    2     1000035         5   # BR(~b_1 -> chi^0_4 b)
     5.20213889E-01    2    -1000024         6   # BR(~b_1 -> chi^-_1 t)
     4.41861049E-02    2    -1000037         6   # BR(~b_1 -> chi^-_2 t)
     4.10941351E-01    2     1000021         5   # BR(~b_1 -> ~g b)
DECAY   2000005     5.69306412E+01   # ~b_2
#    BR                NDA      ID1      ID2
     2.21700948E-02    2     1000022         5   # BR(~b_2 -> chi^0_1 b)
     2.83687532E-04    2     1000023         5   # BR(~b_2 -> chi^0_2 b)
     2.45129224E-04    2     1000025         5   # BR(~b_2 -> chi^0_3 b)
     5.28160065E-04    2    -1000024         6   # BR(~b_2 -> chi^-_1 t)
     9.76711427E-01    2     1000021         5   # BR(~b_2 -> ~g b)
DECAY   2000002     7.84643628E+02   # ~u_R
#    BR                NDA      ID1      ID2
     2.86651634E-02    2     1000022         2   # BR(~u_R -> chi^0_1 u)
     9.71252859E-01    2     1000021         2   # BR(~u_R -> ~g u)
DECAY   1000002     8.92679163E+02   # ~u_L
#    BR                NDA      ID1      ID2
     1.53158478E-03    2     1000022         2   # BR(~u_L -> chi^0_1 u)
     6.60812289E-04    2     1000023         2   # BR(~u_L -> chi^0_2 u)
     4.70149451E-02    2     1000035         2   # BR(~u_L -> chi^0_4 u)
     1.22117785E-03    2     1000024         1   # BR(~u_L -> chi^+_1 d)
     9.40317715E-02    2     1000037         1   # BR(~u_L -> chi^+_2 d)
     8.55538910E-01    2     1000021         2   # BR(~u_L -> ~g u)
DECAY   2000004     7.84654986E+02   # ~c_R
#    BR                NDA      ID1      ID2
     2.86647625E-02    2     1000022         4   # BR(~c_R -> chi^0_1 c)
     9.71239065E-01    2     1000021         4   # BR(~c_R -> ~g c)
DECAY   1000004     8.92684917E+02   # ~c_L
#    BR                NDA      ID1      ID2
     1.53158126E-03    2     1000022         4   # BR(~c_L -> chi^0_1 c)
     6.63886104E-04    2     1000023         4   # BR(~c_L -> chi^0_2 c)
     4.70146893E-02    2     1000035         4   # BR(~c_L -> chi^0_4 c)
     1.22123388E-03    2     1000024         3   # BR(~c_L -> chi^+_1 s)
     9.40311813E-02    2     1000037         3   # BR(~c_L -> chi^+_2 s)
     8.55533499E-01    2     1000021         4   # BR(~c_L -> ~g c)
DECAY   1000006     8.98514487E+01   # ~t_1
#    BR                NDA      ID1      ID2
     4.06201092E-03    2     1000022         6   # BR(~t_1 -> chi^0_1 t)
     2.62382175E-01    2     1000023         6   # BR(~t_1 -> chi^0_2 t)
     2.66160016E-01    2     1000025         6   # BR(~t_1 -> chi^0_3 t)
     2.23425979E-02    2     1000035         6   # BR(~t_1 -> chi^0_4 t)
     4.00928548E-03    2     1000024         5   # BR(~t_1 -> chi^+_1 b)
     4.11909439E-02    2     1000037         5   # BR(~t_1 -> chi^+_2 b)
     3.99366511E-01    2     1000021         6   # BR(~t_1 -> ~g t)
#    BR                NDA      ID1      ID2       ID3
     4.86459499E-04    3     1000022        24         5   # BR(~t_1 -> chi^0_1 W^+ b)
DECAY   2000006     4.12744035E+02   # ~t_2
#    BR                NDA      ID1      ID2
     1.93959745E-02    2     1000022         6   # BR(~t_2 -> chi^0_1 t)
     1.21975267E-01    2     1000023         6   # BR(~t_2 -> chi^0_2 t)
     1.23854002E-01    2     1000025         6   # BR(~t_2 -> chi^0_3 t)
     1.40163607E-03    2     1000035         6   # BR(~t_2 -> chi^0_4 t)
     2.45184744E-01    2     1000024         5   # BR(~t_2 -> chi^+_1 b)
     2.78591406E-03    2     1000037         5   # BR(~t_2 -> chi^+_2 b)
     4.58837312E-01    2     1000021         6   # BR(~t_2 -> ~g t)
     1.26287653E-02    2     1000005        24   # BR(~t_2 -> ~b_1 W^+)
     6.26906549E-03    2     1000006        23   # BR(~t_2 -> ~t_1 Z)
     7.66683363E-03    2     1000006        25   # BR(~t_2 -> ~t_1 h^0)
DECAY   1000024     4.57166793E-01   # chi^+_1
#    BR                NDA      ID1      ID2
     9.85220581E-01    2     1000022        24   # BR(chi^+_1 -> chi^0_1 W^+)
#    BR                NDA      ID1      ID2       ID3
     1.47794185E-02    3     1000022        -5         6   # BR(chi^+_1 -> chi^0_1 b_bar t)
DECAY   1000037     2.30502043E+01   # chi^+_2
#    BR                NDA      ID1      ID2
     2.55717439E-01    2     1000023        24   # BR(chi^+_2 -> chi^0_2 W^+)
     2.55235252E-01    2     1000025        24   # BR(chi^+_2 -> chi^0_3 W^+)
     2.49546744E-01    2     1000024        23   # BR(chi^+_2 -> chi^+_1 Z)
     2.28967297E-01    2     1000024        25   # BR(chi^+_2 -> chi^+_1 h^0)
#    BR                NDA      ID1      ID2       ID3
     4.83301573E-03    3     1000024         6        -6   # BR(chi^+_2 -> chi^+_1 t t_bar)
     5.19563352E-03    3     1000023        -5         6   # BR(chi^+_2 -> chi^0_2 b_bar t)
     4.73631028E-04    3     1000025        -5         6   # BR(chi^+_2 -> chi^0_3 b_bar t)
DECAY   1000022     0.00000000E+00   # chi^0_1
DECAY   1000023     5.27134687E-01   # chi^0_2
#    BR                NDA      ID1      ID2
     2.27614399E-02    2     1000022        23   # BR(chi^0_2 -> chi^0_1 Z)
     9.74354602E-01    2     1000022        25   # BR(chi^0_2 -> chi^0_1 h^0)
#    BR                NDA      ID1      ID2       ID3
     2.88324899E-03    3     1000022         6        -6   # BR(chi^0_2 -> chi^0_1 t t_bar)
DECAY   1000025     4.72406642E-01   # chi^0_3
#    BR                NDA      ID1      ID2
     9.57032715E-01    2     1000022        23   # BR(chi^0_3 -> chi^0_1 Z)
     3.75510807E-02    2     1000022        25   # BR(chi^0_3 -> chi^0_1 h^0)
#    BR                NDA      ID1      ID2       ID3
     5.36225428E-03    3     1000022         6        -6   # BR(chi^0_3 -> chi^0_1 t t_bar)
DECAY   1000035     2.31304951E+01   # chi^0_4
#    BR                NDA      ID1      ID2
     2.46911640E-01    2     1000024       -24   # BR(chi^0_4 -> chi^+_1 W^-)
     2.46911640E-01    2    -1000024        24   # BR(chi^0_4 -> chi^-_1 W^+)
     6.76342188E-04    2     1000023        23   # BR(chi^0_4 -> chi^0_2 Z)
     2.57654478E-01    2     1000025        23   # BR(chi^0_4 -> chi^0_3 Z)
     2.28548781E-01    2     1000023        25   # BR(chi^0_4 -> chi^0_2 h^0)
     7.90645376E-03    2     1000025        25   # BR(chi^0_4 -> chi^0_3 h^0)
#    BR                NDA      ID1      ID2       ID3
     1.54581348E-03    3     1000023         6        -6   # BR(chi^0_4 -> chi^0_2 t t_bar)
     1.79091903E-04    3     1000025         6        -6   # BR(chi^0_4 -> chi^0_3 t t_bar)
     4.80860829E-03    3     1000024         5        -6   # BR(chi^0_4 -> chi^+_1 b t_bar)
     4.80860829E-03    3    -1000024        -5         6   # BR(chi^0_4 -> chi^-_1 b_bar t)
DECAY   1000021     6.31331257E-03   # ~g
#    BR                NDA      ID1      ID2
     1.13562651E-03    2     1000022        21   # BR(~g -> chi^0_1 g)
     2.35187360E-02    2     1000023        21   # BR(~g -> chi^0_2 g)
     2.38370222E-02    2     1000025        21   # BR(~g -> chi^0_3 g)
#    BR                NDA      ID1      ID2       ID3
     2.36441868E-04    3     1000022         2        -2   # BR(~g -> chi^0_1 u u_bar)
     2.36441757E-04    3     1000022         4        -4   # BR(~g -> chi^0_1 c c_bar)
     2.22902057E-02    3     1000022         6        -6   # BR(~g -> chi^0_1 t t_bar)
     4.57158602E-02    3     1000022         5        -5   # BR(~g -> chi^0_1 b b_bar)
     1.84926542E-01    3     1000023         6        -6   # BR(~g -> chi^0_2 t t_bar)
     1.27331001E-03    3     1000023         5        -5   # BR(~g -> chi^0_2 b b_bar)
     1.91699322E-01    3     1000025         6        -6   # BR(~g -> chi^0_3 t t_bar)
     3.05416437E-04    3     1000025         5        -5   # BR(~g -> chi^0_3 b b_bar)
     2.52336241E-01    3     1000024         5        -6   # BR(~g -> chi^+_1 b t_bar)
     2.52336241E-01    3    -1000024        -5         6   # BR(~g -> chi^-_1 b_bar t)
DECAY        25     1.71208878E-03   # Gamma(h0)
     1.58189021E-03   2        22        22   # BR(h0 -> photon photon)
     1.17708393E-04   2        23        23   # BR(h0 -> Z Z)
     7.35592336E-04   2       -24        24   # BR(h0 -> W W)
     6.40440903E-02   2        21        21   # BR(h0 -> gluon gluon)
     6.69152949E-09   2       -11        11   # BR(h0 -> Electron electron)
     2.97621301E-04   2       -13        13   # BR(h0 -> Muon muon)
     8.57170706E-02   2       -15        15   # BR(h0 -> Tau tau)
     2.02362024E-07   2        -2         2   # BR(h0 -> Up up)
     3.92479405E-02   2        -4         4   # BR(h0 -> Charm charm)
     8.22718316E-07   2        -1         1   # BR(h0 -> Down down)
     2.97552695E-04   2        -3         3   # BR(h0 -> Strange strange)
     7.89429147E-01   2        -5         5   # BR(h0 -> Bottom bottom)
     1.85303554E-02   2   1000022   1000022   # BR(h0 -> neutralino1 neutralino1)
DECAY        35     1.03476786E+02   # Gamma(HH)
     7.81995328E-07   2        22        22   # BR(HH -> photon photon)
     2.55954392E-07   2        22        23   # BR(HH -> photon Z)
     1.72893439E-05   2        23        23   # BR(HH -> Z Z)
     3.47526194E-06   2       -24        24   # BR(HH -> W W)
     1.30243047E-04   2        21        21   # BR(HH -> gluon gluon)
     1.07768686E-11   2       -11        11   # BR(HH -> Electron electron)
     4.79887750E-07   2       -13        13   # BR(HH -> Muon muon)
     1.38604856E-04   2       -15        15   # BR(HH -> Tau tau)
     3.86470450E-11   2        -2         2   # BR(HH -> Up up)
     7.49780338E-06   2        -4         4   # BR(HH -> Charm charm)
     5.55840035E-01   2        -6         6   # BR(HH -> Top top)
     7.61546664E-10   2        -1         1   # BR(HH -> Down down)
     2.75453591E-07   2        -3         3   # BR(HH -> Strange strange)
     7.10562206E-04   2        -5         5   # BR(HH -> Bottom bottom)
     3.99173127E-04   2  -1000024   1000024   # BR(HH -> Chargino1 chargino1)
     1.32668462E-01   2  -1000024   1000037   # BR(HH -> Chargino1 chargino2)
     1.32668462E-01   2  -1000037   1000024   # BR(HH -> Chargino2 chargino1)
     5.26020191E-05   2  -1000037   1000037   # BR(HH -> Chargino2 chargino2)
     3.63827684E-05   2   1000022   1000022   # BR(HH -> neutralino1 neutralino1)
     1.49742349E-03   2   1000022   1000023   # BR(HH -> neutralino1 neutralino2)
     4.26831240E-02   2   1000022   1000025   # BR(HH -> neutralino1 neutralino3)
     1.66780374E-05   2   1000022   1000035   # BR(HH -> neutralino1 neutralino4)
     6.98492077E-05   2   1000023   1000023   # BR(HH -> neutralino2 neutralino2)
     1.15297138E-03   2   1000023   1000025   # BR(HH -> neutralino2 neutralino3)
     3.09700284E-03   2   1000023   1000035   # BR(HH -> neutralino2 neutralino4)
     3.71946684E-05   2   1000025   1000025   # BR(HH -> neutralino3 neutralino3)
     1.28242311E-01   2   1000025   1000035   # BR(HH -> neutralino3 neutralino4)
     2.68890389E-05   2   1000035   1000035   # BR(HH -> neutralino4 neutralino4)
     2.30292424E-04   2        25        25   # BR(HH -> h0 h0)
     2.60438463E-04   2  -1000006   1000006   # BR(HH -> Stop1 stop1)
     1.12422464E-05   2  -1000005   1000005   # BR(HH -> Sbottom1 sbottom1)
DECAY        36     9.68006489E+01   # Gamma(A0)
     1.15646699E-06   2        22        22   # BR(A0 -> photon photon)
     6.24407266E-07   2        22        23   # BR(A0 -> photon Z)
     1.67662586E-04   2        21        21   # BR(A0 -> gluon gluon)
     1.08108124E-11   2       -11        11   # BR(A0 -> Electron electron)
     4.81399089E-07   2       -13        13   # BR(A0 -> Muon muon)
     1.39041404E-04   2       -15        15   # BR(A0 -> Tau tau)
     3.63670389E-11   2        -2         2   # BR(A0 -> Up up)
     7.05527530E-06   2        -4         4   # BR(A0 -> Charm charm)
     5.25728726E-01   2        -6         6   # BR(A0 -> Top top)
     7.63845800E-10   2        -1         1   # BR(A0 -> Down down)
     2.76286272E-07   2        -3         3   # BR(A0 -> Strange strange)
     7.12756716E-04   2        -5         5   # BR(A0 -> Bottom bottom)
     8.83005630E-03   2  -1000024   1000024   # BR(A0 -> Chargino1 chargino1)
     1.34445352E-01   2  -1000024   1000037   # BR(A0 -> Chargino1 chargino2)
     1.34445352E-01   2  -1000037   1000024   # BR(A0 -> Chargino2 chargino1)
     6.54715609E-03   2  -1000037   1000037   # BR(A0 -> Chargino2 chargino2)
     2.78087637E-04   2   1000022   1000022   # BR(A0 -> neutralino1 neutralino1)
     4.58144449E-02   2   1000022   1000023   # BR(A0 -> neutralino1 neutralino2)
     1.52942522E-03   2   1000022   1000025   # BR(A0 -> neutralino1 neutralino3)
     1.27599326E-05   2   1000022   1000035   # BR(A0 -> neutralino1 neutralino4)
     2.55082125E-03   2   1000023   1000023   # BR(A0 -> neutralino2 neutralino2)
     2.85811551E-06   2   1000023   1000025   # BR(A0 -> neutralino2 neutralino3)
     1.32028498E-01   2   1000023   1000035   # BR(A0 -> neutralino2 neutralino4)
     1.56181369E-06   2   1000025   1000025   # BR(A0 -> neutralino3 neutralino3)
     3.41802600E-03   2   1000025   1000035   # BR(A0 -> neutralino3 neutralino4)
     3.29688851E-03   2   1000035   1000035   # BR(A0 -> neutralino4 neutralino4)
     4.09299162E-05   2        23        25   # BR(A0 -> Z h0)
     1.27596753E-36   2        25        25   # BR(A0 -> h0 h0)
DECAY        37     1.21673480E+02   # Gamma(Hp)
     1.19559514E-11   2       -11        12   # BR(Hp -> Electron nu_e)
     5.11154264E-07   2       -13        14   # BR(Hp -> Muon nu_mu)
     1.44583541E-04   2       -15        16   # BR(Hp -> Tau nu_tau)
     7.75809442E-10   2        -1         2   # BR(Hp -> Down up)
     1.24444461E-08   2        -3         2   # BR(Hp -> Strange up)
     7.96879448E-09   2        -5         2   # BR(Hp -> Bottom up)
     3.69908708E-07   2        -1         4   # BR(Hp -> Down charm)
     8.14234968E-06   2        -3         4   # BR(Hp -> Strange charm)
     1.12818878E-06   2        -5         4   # BR(Hp -> Bottom charm)
     4.05966415E-05   2        -1         6   # BR(Hp -> Down top)
     8.85141734E-04   2        -3         6   # BR(Hp -> Strange top)
     6.22320414E-01   2        -5         6   # BR(Hp -> Bottom top)
     3.73018642E-02   2   1000022   1000024   # BR(Hp -> neutralino1 chargino1)
     2.33381394E-05   2   1000022   1000037   # BR(Hp -> neutralino1 chargino2)
     1.18443073E-04   2   1000023   1000024   # BR(Hp -> neutralino2 chargino1)
     1.13464988E-01   2   1000023   1000037   # BR(Hp -> neutralino2 chargino2)
     1.74081466E-03   2   1000024   1000025   # BR(Hp -> chargino1 neutralino3)
     1.11349569E-01   2   1000025   1000037   # BR(Hp -> neutralino3 chargino2)
     1.12547188E-01   2   1000024   1000035   # BR(Hp -> chargino1 neutralino4)
     1.84053172E-08   2   1000035   1000037   # BR(Hp -> neutralino4 chargino2)
     3.25869476E-05   2        24        25   # BR(Hp -> W h0)
     2.02815173E-05   2  -1000005   1000006   # BR(Hp -> Sbottom1 stop1)
DECAY         6     2.43000000E+00   # top
#    BR                NDA      ID1      ID2
     1.00000000E+00    2           5        24   # BR(t -> b W)
Block HiggsBoundsInputHiggsCouplingsFermions
# ScalarNormEffCoupSq PseudoSNormEffCoupSq NP IP1 IP2 IP2
    9.11484292E-01    0.00000000E+00        3  25   5   5  # h0-b-b eff. coupling^2, normalised to SM
    1.91641571E+00    0.00000000E+00        3  35   5   5  # H0-b-b eff. coupling^2, normalised to SM
    0.00000000E+00    1.82790000E+00        3  36   5   5  # A0-b-b eff. coupling^2, normalised to SM
#
    1.04842481E+00    0.00000000E+00        3  25   6   6  # h0-t-t eff. coupling^2, normalised to SM
    4.98651071E-01    0.00000000E+00        3  35   6   6  # H0-t-t eff. coupling^2, normalised to SM
    0.00000000E+00    5.47075880E-01        3  36   6   6  # A0-t-t eff. coupling^2, normalised to SM
#
    9.11484292E-01    0.00000000E+00        3  25  15  15  # h0-tau-tau eff. coupling^2, normalised to SM
    1.91641571E+00    0.00000000E+00        3  35  15  15  # H0-tau-tau eff. coupling^2, normalised to SM
    0.00000000E+00    1.82790000E+00        3  36  15  15  # A0-tau-tau eff. coupling^2, normalised to SM
#
Block HiggsBoundsInputHiggsCouplingsBosons
    9.98905153E-01        3  25  24  24  # h0-W-W eff. coupling^2, normalised to SM
    1.09484680E-03        3  35  24  24  # H0-W-W eff. coupling^2, normalised to SM
    0.00000000E+00        3  36  24  24  # A0-W-W eff. coupling^2, normalised to SM
#
    9.98905153E-01        3  25  23  23  # h0-Z-Z eff. coupling^2, normalised to SM
    1.09484680E-03        3  35  23  23  # H0-Z-Z eff. coupling^2, normalised to SM
    0.00000000E+00        3  36  23  23  # A0-Z-Z eff. coupling^2, normalised to SM
#
    1.33989951E+00        3  25  21  21  # h0-g-g eff. coupling^2, normalised to SM
    4.58707715E-01        3  35  21  21  # H0-g-g eff. coupling^2, normalised to SM
    7.40912815E-01        3  36  21  21  # A0-g-g eff. coupling^2, normalised to SM
#
    0.00000000E+00        3  25  25  23  # h0-h0-Z eff. coupling^2, normalised to SM
    0.00000000E+00        3  35  25  23  # H0-h0-Z eff. coupling^2, normalised to SM
    1.09484680E-03        3  36  25  23  # A0-h0-Z eff. coupling^2, normalised to SM
    0.00000000E+00        3  35  35  23  # H0-H0-Z eff. coupling^2, normalised to SM
    9.98905153E-01        3  36  35  23  # A0-H0-Z eff. coupling^2, normalised to SM
    0.00000000E+00        3  36  36  23  # A0-A0-Z eff. coupling^2, normalised to SM
#
    0.00000000E+00        4  25  21  21  23  # h0-g-g-Z eff. coupling^2, normalised to SM
    0.00000000E+00        4  35  21  21  23  # H0-g-g-Z eff. coupling^2, normalised to SM
    0.00000000E+00        4  36  21  21  23  # A0-g-g-Z eff. coupling^2, normalised to SM
Block SPhenoLowEnergy  # low energy observables
    1    3.22722632E-04   # BR(b -> s gamma)
    2    1.59495697E-06   # BR(b -> s mu+ mu-)
    3    3.53543648E-05   # BR(b -> s nu nu)
    4    2.55121446E-15   # BR(Bd -> e+ e-)
    5    1.08984974E-10   # BR(Bd -> mu+ mu-)
    6    2.28142317E-08   # BR(Bd -> tau+ tau-)
    7    8.59345623E-14   # BR(Bs -> e+ e-)
    8    3.67112092E-09   # BR(Bs -> mu+ mu-)
    9    7.78626465E-07   # BR(Bs -> tau+ tau-)
   10    9.68082780E-05   # BR(B_u -> tau nu)
   11    9.99992449E-01   # BR(B_u -> tau nu)/BR(B_u -> tau nu)_SM
   12    5.45673831E-01   # |Delta(M_Bd)| [ps^-1] 
   13    1.94972673E+01   # |Delta(M_Bs)| [ps^-1] 
   14    0.00000000E+00   # neutron EDM according to the chiral quark model
   15    0.00000000E+00   # neutron EDM according to the relativistic quark-parton model
   16    2.17246097E-03   # epsilon_K
   17    2.28181495E-15   # Delta(M_K)
   18    2.48687206E-11   # BR(K^0 -> pi^0 nu nu)
   19    8.30687340E-11   # BR(K^+ -> pi^+ nu nu)
   20    1.01913824E-18   # Delta(g-2)_electron/2
   21    4.35713197E-14   # Delta(g-2)_muon/2
   22    1.23083869E-11   # Delta(g-2)_tau/2
   23    0.00000000E+00   # electric dipole moment of the electron
   24    0.00000000E+00   # electric dipole moment of the muon
   25    0.00000000E+00   # electric dipole moment of the tau
   26    0.00000000E+00   # Br(mu -> e gamma)
   27    0.00000000E+00   # Br(tau -> e gamma)
   28    0.00000000E+00   # Br(tau -> mu gamma)
   29    0.00000000E+00   # Br(mu -> 3 e)
   30    0.00000000E+00   # Br(tau -> 3 e)
   31    0.00000000E+00   # Br(tau -> 3 mu)
   39   -2.90661664E-03   # Delta(rho_parameter)
   40    0.00000000E+00   # BR(Z -> e mu)
   41    0.00000000E+00   # BR(Z -> e tau)
   42    0.00000000E+00   # BR(Z -> mu tau)
Block FWCOEF Q=  1.60000000E+02  # Wilson coefficients at scale Q
#    id        order  M        value         comment
     0305 4422   00   0    -1.88819110E-01   # C7
     0305 4422   00   2    -1.91159756E-01   # C7
     0305 4322   00   2    -6.85611890E-05   # C7'
     0305 6421   00   0    -9.52278348E-02   # C8
     0305 6421   00   2    -9.98782203E-02   # C8
     0305 6321   00   2    -1.04356890E-04   # C8'
 03051111 4133   00   0     1.61350972E+00   # C9 e+e-
 03051111 4133   00   2     1.61484660E+00   # C9 e+e-
 03051111 4233   00   2     1.93961479E-06   # C9' e+e-
 03051111 4137   00   0    -4.43620182E+00   # C10 e+e-
 03051111 4137   00   2    -4.44453315E+00   # C10 e+e-
 03051111 4237   00   2    -1.06732533E-05   # C10' e+e-
 03051313 4133   00   0     1.61350972E+00   # C9 mu+mu-
 03051313 4133   00   2     1.61484660E+00   # C9 mu+mu-
 03051313 4233   00   2     1.93961479E-06   # C9' mu+mu-
 03051313 4137   00   0    -4.43620182E+00   # C10 mu+mu-
 03051313 4137   00   2    -4.44453315E+00   # C10 mu+mu-
 03051313 4237   00   2    -1.06732533E-05   # C10' mu+mu-
 03051212 4137   00   0     1.50535012E+00   # C11 nu_1 nu_1
 03051212 4137   00   2     1.50715928E+00   # C11 nu_1 nu_1
 03051212 4237   00   2     2.31277955E-06   # C11' nu_1 nu_1
 03051414 4137   00   0     1.50535012E+00   # C11 nu_2 nu_2
 03051414 4137   00   2     1.50715928E+00   # C11 nu_2 nu_2
 03051414 4237   00   2     2.31277955E-06   # C11' nu_2 nu_2
 03051616 4137   00   0     1.50535012E+00   # C11 nu_3 nu_3
 03051616 4137   00   2     1.50715928E+00   # C11 nu_3 nu_3
 03051616 4237   00   2     2.31277956E-06   # C11' nu_3 nu_3
Block IMFWCOEF Q=  1.60000000E+02  # Im(Wilson coefficients) at scale Q
#    id        order  M        value         comment
     0305 4422   00   0     3.85821554E-07   # C7
     0305 4422   00   2     3.26554384E-06   # C7
     0305 4322   00   2     9.17314725E-08   # C7'
     0305 6421   00   0     3.30481677E-07   # C8
     0305 6421   00   2    -6.72094803E-06   # C8
     0305 6321   00   2    -1.20405888E-07   # C8'
 03051111 4133   00   2     1.37829622E-06   # C9 e+e-
 03051111 4233   00   2     3.51758198E-08   # C9' e+e-
 03051111 4137   00   2     7.90852704E-08   # C10 e+e-
 03051111 4237   00   2    -1.94713833E-07   # C10' e+e-
 03051313 4133   00   2     1.37829621E-06   # C9 mu+mu-
 03051313 4233   00   2     3.51758197E-08   # C9' mu+mu-
 03051313 4137   00   2     7.90852802E-08   # C10 mu+mu-
 03051313 4237   00   2    -1.94713833E-07   # C10' mu+mu-
 03051212 4137   00   2     2.25788564E-08   # C11 nu_1 nu_1
 03051212 4237   00   2     4.21932092E-08   # C11' nu_1 nu_1
 03051414 4137   00   2     2.25788567E-08   # C11 nu_2 nu_2
 03051414 4237   00   2     4.21932092E-08   # C11' nu_2 nu_2
 03051616 4137   00   2     2.25789563E-08   # C11 nu_3 nu_3
 03051616 4237   00   2     4.21932091E-08   # C11' nu_3 nu_3
