# SUSY Les Houches Accord 2 - MSSM spectrum + Decays
# SPheno v4.0.5be
# W. Porod, Comput. Phys. Commun. 153 (2003) 275-315, hep-ph/0301101;
# W. Porod, F.~Staub, Comput. Phys. Commun. 183 (2012) 2458
#                     arXiv:1104.1573 [hep-ph] 
# in case of problems send email to porod@physik.uni-wuerzburg.de
# Created: 20.12.2022,  22:17
Block SPINFO         # Program information
     1   SPheno      # spectrum calculator
     2   v4.0.5be    # version number
#
Block SPhenoINFO     # SPheno specific information
    1      2         # using 2-loop RGEs
    2      2         # using pole masses for boundary conditions at mZ
Block MODSEL  # Model selection
    1    0    # general MSSM
Block MINPAR  # Input parameters
    3    2.31731363E+01  # tanb at m_Z    
    4    1.00000000E+00  # Sign(mu)
Block EXTPAR  # non-universal input parameters
    0    3.79002072E+03  # scale for input parameters
    1   -6.37164575E+01  # M_1
    2    5.67478956E+02  # M_2
    3    3.49805544E+03  # M_3
   11    5.42744875E+03  # A_t
   12   -8.20375385E+02  # A_b
   13    1.05760632E+03  # A_tau
   23    4.68415872E+02  # mu
   25    2.21524696E+01  # tan(beta)
   26    3.88413307E+03  # m_A, pole mass
   31    1.00000000E+04  # M_L11
   32    1.00000000E+04  # M_L22
   33    1.00000000E+04  # M_L33
   34    1.00000000E+04  # M_E11
   35    1.00000000E+04  # M_E22
   36    1.00000000E+04  # M_E33
   41    1.00000000E+04  # M_Q11
   42    1.00000000E+04  # M_Q22
   43    3.44527848E+03  # M_Q33
   44    1.00000000E+04  # M_U11
   45    1.00000000E+04  # M_U22
   46    4.08279575E+03  # M_U33
   47    1.00000000E+04  # M_D11
   48    1.00000000E+04  # M_D22
   49    3.29172496E+03  # M_D33
Block SMINPUTS  # SM parameters
         1     1.27908970E+02  # alpha_em^-1(MZ)^MSbar
         2     1.16637870E-05  # G_mu [GeV^-2]
         3     1.18400000E-01  # alpha_s(MZ)^MSbar
         4     9.11876000E+01  # m_Z(pole)
         5     4.18000000E+00  # m_b(m_b), MSbar
         6     1.73200000E+02  # m_t(pole)
         7     1.77700000E+00  # m_tau(pole)
         8     0.00000000E+00  # m_nu_3
        11     5.10998930E-04  # m_e(pole)
        12     0.00000000E+00  # m_nu_1
        13     1.05658372E-01  # m_muon(pole)
        14     0.00000000E+00  # m_nu_2
        21     5.00000000E-03  # m_d(2 GeV), MSbar
        22     2.50000000E-03  # m_u(2 GeV), MSbar
        23     9.50000000E-02  # m_s(2 GeV), MSbar
        24     1.27000000E+00  # m_c(m_c), MSbar
Block gauge Q=  3.79002072E+03  # (SUSY scale)
   1    3.55362975E-01  # g'(Q)^DRbar
   2    6.65198874E-01  # g(Q)^DRbar
   3    1.21977796E+00  # g3(Q)^DRbar
Block Yu Q=  3.79002072E+03  # (SUSY scale)
  1  1     8.39291051E-06   # Y_u(Q)^DRbar
  2  2     4.26359854E-03   # Y_c(Q)^DRbar
  3  3     1.01393100E+00   # Y_t(Q)^DRbar
Block Yd Q=  3.79002072E+03  # (SUSY scale)
  1  1     3.73606987E-04   # Y_d(Q)^DRbar
  2  2     7.09853274E-03   # Y_s(Q)^DRbar
  3  3     3.70501059E-01   # Y_b(Q)^DRbar
Block Ye Q=  3.79002072E+03  # (SUSY scale)
  1  1     6.51971512E-05   # Y_e(Q)^DRbar
  2  2     1.34807031E-02   # Y_mu(Q)^DRbar
  3  3     2.26723249E-01   # Y_tau(Q)^DRbar
Block Au Q=  3.79002072E+03  # (SUSY scale)
  1  1     0.00000000E+00   # A_u(Q)^DRbar
  2  2     0.00000000E+00   # A_c(Q)^DRbar
  3  3     5.42744876E+03   # A_t(Q)^DRbar
Block Ad Q=  3.79002072E+03  # (SUSY scale)
  1  1     0.00000000E+00   # A_d(Q)^DRbar
  2  2     0.00000000E+00   # A_s(Q)^DRbar
  3  3    -8.20375389E+02   # A_b(Q)^DRbar
Block Ae Q=  3.79002072E+03  # (SUSY scale)
  1  1     0.00000000E+00   # A_e(Q)^DRbar
  2  2     0.00000000E+00   # A_mu(Q)^DRbar
  3  3     1.05760632E+03   # A_tau(Q)^DRbar
Block MSOFT Q=  3.79002072E+03  # soft SUSY breaking masses at Q
   1   -6.37164575E+01  # M_1
   2    5.67478956E+02  # M_2
   3    3.49805544E+03  # M_3
  21    1.48184986E+07  # M^2_(H,d)
  22    1.20310129E+05  # M^2_(H,u)
  31    1.00000000E+04  # M_(L,11)
  32    1.00000000E+04  # M_(L,22)
  33    1.00000000E+04  # M_(L,33)
  34    1.00000000E+04  # M_(E,11)
  35    1.00000000E+04  # M_(E,22)
  36    1.00000000E+04  # M_(E,33)
  41    1.00000000E+04  # M_(Q,11)
  42    1.00000000E+04  # M_(Q,22)
  43    3.44527848E+03  # M_(Q,33)
  44    1.00000000E+04  # M_(U,11)
  45    1.00000000E+04  # M_(U,22)
  46    4.08279575E+03  # M_(U,33)
  47    1.00000000E+04  # M_(D,11)
  48    1.00000000E+04  # M_(D,22)
  49    3.29172496E+03  # M_(D,33)
Block MASS  # Mass spectrum
#   PDG code      mass          particle
         6     1.73200000E+02  # m_t(pole)
        23     9.11876000E+01  # m_Z(pole)
        24     8.04299946E+01  # W+
        15     1.77700000E+00  # m_tau(pole)
        25     1.26575839E+02  # h0
        35     3.88352575E+03  # H0
        36     3.88413307E+03  # A0
        37     3.88587440E+03  # H+
   1000001     1.01050229E+04  # ~d_L
   2000001     1.00803039E+04  # ~d_R
   1000002     1.01046596E+04  # ~u_L
   2000002     1.00831542E+04  # ~u_R
   1000003     1.01050242E+04  # ~s_L
   2000003     1.00803056E+04  # ~s_R
   1000004     1.01046609E+04  # ~c_L
   2000004     1.00831549E+04  # ~c_R
   1000005     3.42435853E+03  # ~b_1
   2000005     3.53605478E+03  # ~b_2
   1000006     3.52158471E+03  # ~t_1
   2000006     4.07891852E+03  # ~t_2
   1000011     1.00211704E+04  # ~e_L-
   2000011     1.00091796E+04  # ~e_R-
   1000012     1.00204048E+04  # ~nu_eL
   1000013     1.00211753E+04  # ~mu_L-
   2000013     1.00091884E+04  # ~mu_R-
   1000014     1.00204094E+04  # ~nu_muL
   1000015     1.00117212E+04  # ~tau_1-
   2000015     1.00225716E+04  # ~tau_2-
   1000016     1.00217403E+04  # ~nu_tauL
   1000021     3.96791906E+03  # ~g
   1000022     6.40593260E+01  # ~chi_10
   1000023     4.54699479E+02  # ~chi_20
   1000025     4.78330230E+02  # ~chi_30
   1000035     6.41731042E+02  # ~chi_40
   1000024     4.55137161E+02  # ~chi_1+
   1000037     6.41818903E+02  # ~chi_2+
# Higgs mixing
Block alpha # Effective Higgs mixing angle
          -4.31992298E-02   # alpha
Block Hmix Q=  3.79002072E+03  # Higgs mixing parameters
   1    4.68415872E+02  # mu
   2    2.21524696E+01  # tan[beta](Q)
   3    2.42983218E+02  # v(Q)
   4    1.50864897E+07  # m^2_A(Q)
Block stopmix # stop mixing matrix
   1  1    -9.86576576E-01   # Re[R_st(1,1)]
   1  2     1.63299295E-01   # Re[R_st(1,2)]
   2  1    -1.63299295E-01   # Re[R_st(2,1)]
   2  2    -9.86576576E-01   # Re[R_st(2,2)]
Block sbotmix # sbottom mixing matrix
   1  1     3.30006339E-02   # Re[R_sb(1,1)]
   1  2     9.99455331E-01   # Re[R_sb(1,2)]
   2  1    -9.99455331E-01   # Re[R_sb(2,1)]
   2  2     3.30006339E-02   # Re[R_sb(2,2)]
Block staumix # stau mixing matrix
   1  1     7.77469679E-02   # Re[R_sta(1,1)]
   1  2     9.96973124E-01   # Re[R_sta(1,2)]
   2  1    -9.96973124E-01   # Re[R_sta(2,1)]
   2  2     7.77469679E-02   # Re[R_sta(2,2)]
Block Nmix # neutralino mixing matrix
   1  1     9.95529595E-01   # Re[N(1,1)]
   1  2     6.44236311E-04   # Re[N(1,2)]
   1  3     9.40582733E-02   # Re[N(1,3)]
   1  4     8.57037098E-03   # Re[N(1,4)]
   2  1    -5.80092872E-02   # Re[N(2,1)]
   2  2    -3.43443706E-01   # Re[N(2,2)]
   2  3     6.75546760E-01   # Re[N(2,3)]
   2  4    -6.49859922E-01   # Re[N(2,4)]
   3  1     7.23138195E-02   # Re[N(3,1)]
   3  2    -5.00491374E-02   # Re[N(3,2)]
   3  3    -7.00509769E-01   # Re[N(3,3)]
   3  4    -7.08203261E-01   # Re[N(3,4)]
   4  1     1.80681815E-02   # Re[N(4,1)]
   4  2    -9.37838520E-01   # Re[N(4,2)]
   4  3    -2.09942088E-01   # Re[N(4,3)]
   4  4     2.75783920E-01   # Re[N(4,4)]
Block Umix # chargino mixing matrix
   1  1    -2.96556369E-01   # Re[U(1,1)]
   1  2     9.55015351E-01   # Re[U(1,2)]
   2  1     9.55015351E-01   # Re[U(2,1)]
   2  2     2.96556369E-01   # Re[U(2,2)]
Block Vmix # chargino mixing matrix
   1  1    -3.90438327E-01   # Re[V(1,1)]
   1  2     9.20629085E-01   # Re[V(1,2)]
   2  1     9.20629085E-01   # Re[V(2,1)]
   2  2     3.90438327E-01   # Re[V(2,2)]
DECAY        23     2.49520000E+00   # Z
DECAY        24     2.08500000E+00   # W
DECAY   2000011     5.02863574E+01   # ~e^-_R
#    BR                NDA      ID1      ID2
     9.91118473E-01    2     1000022        11   # BR(~e^-_R -> chi^0_1 e^-)
     3.35161764E-03    2     1000023        11   # BR(~e^-_R -> chi^0_2 e^-)
     5.20607154E-03    2     1000025        11   # BR(~e^-_R -> chi^0_3 e^-)
     3.23820890E-04    2     1000035        11   # BR(~e^-_R -> chi^0_4 e^-)
DECAY   1000011     1.43885269E+02   # ~e^-_L
#    BR                NDA      ID1      ID2
     8.69102510E-02    2     1000022        11   # BR(~e^-_L -> chi^0_1 e^-)
     4.28020459E-02    2     1000023        11   # BR(~e^-_L -> chi^0_2 e^-)
     2.61942627E-01    2     1000035        11   # BR(~e^-_L -> chi^0_4 e^-)
     5.36977691E-02    2    -1000024        12   # BR(~e^-_L -> chi^-_1 nu_e)
     5.54607523E-01    2    -1000037        12   # BR(~e^-_L -> chi^-_2 nu_e)
#    BR                NDA      ID1      ID2       ID3
DECAY   2000013     5.03584497E+01   # ~mu^-_R
#    BR                NDA      ID1      ID2
     9.89706831E-01    2     1000022        13   # BR(~mu^-_R -> chi^0_1 mu^-)
     3.67340333E-03    2     1000023        13   # BR(~mu^-_R -> chi^0_2 mu^-)
     5.54963154E-03    2     1000025        13   # BR(~mu^-_R -> chi^0_3 mu^-)
     3.54769675E-04    2     1000035        13   # BR(~mu^-_R -> chi^0_4 mu^-)
     6.52686471E-04    2    -1000024        14   # BR(~mu^-_R -> chi^-_1 nu_mu)
DECAY   1000013     1.43921408E+02   # ~mu^-_L
#    BR                NDA      ID1      ID2
     8.68906970E-02    2     1000022        13   # BR(~mu^-_L -> chi^0_1 mu^-)
     4.29057238E-02    2     1000023        13   # BR(~mu^-_L -> chi^0_2 mu^-)
     1.62740015E-04    2     1000025        13   # BR(~mu^-_L -> chi^0_3 mu^-)
     2.61887992E-01    2     1000035        13   # BR(~mu^-_L -> chi^0_4 mu^-)
     5.36843119E-02    2    -1000024        14   # BR(~mu^-_L -> chi^-_1 nu_mu)
     5.54468535E-01    2    -1000037        14   # BR(~mu^-_L -> chi^-_2 nu_mu)
#    BR                NDA      ID1      ID2       ID3
DECAY   1000015     7.11961479E+01   # ~tau^-_1
#    BR                NDA      ID1      ID2
     7.00622835E-01    2     1000022        15   # BR(~tau^-_1 -> chi^0_1 tau^-)
     7.79552401E-02    2     1000023        15   # BR(~tau^-_1 -> chi^0_2 tau^-)
     7.10420125E-02    2     1000025        15   # BR(~tau^-_1 -> chi^0_3 tau^-)
     5.86015919E-04    2     1000035        15   # BR(~tau^-_1 -> chi^0_4 tau^-)
     1.48930320E-01    2    -1000024        16   # BR(~tau^-_1 -> chi^-_1 nu_tau)
     8.63576211E-04    2    -1000037        16   # BR(~tau^-_1 -> chi^-_2 nu_tau)
DECAY   2000015     1.53596763E+02   # ~tau^-_2
#    BR                NDA      ID1      ID2
     8.24164520E-02    2     1000022        15   # BR(~tau^-_2 -> chi^0_1 tau^-)
     6.56810336E-02    2     1000023        15   # BR(~tau^-_2 -> chi^0_2 tau^-)
     3.39708427E-02    2     1000025        15   # BR(~tau^-_2 -> chi^0_3 tau^-)
     2.51085243E-01    2     1000035        15   # BR(~tau^-_2 -> chi^0_4 tau^-)
     4.18115204E-02    2    -1000024        16   # BR(~tau^-_2 -> chi^-_1 nu_tau)
     5.25034908E-01    2    -1000037        16   # BR(~tau^-_2 -> chi^-_2 nu_tau)
#    BR                NDA      ID1      ID2       ID3
DECAY   1000012     1.43890358E+02   # ~nu_e
#    BR                NDA      ID1      ID2
     8.64804863E-02    2     1000022        12   # BR(~nu_e -> chi^0_1 nu_e)
     2.98015192E-02    2     1000023        12   # BR(~nu_e -> chi^0_2 nu_e)
     2.39956872E-03    2     1000025        12   # BR(~nu_e -> chi^0_3 nu_e)
     2.72921065E-01    2     1000035        12   # BR(~nu_e -> chi^0_4 nu_e)
     9.30674531E-02    2     1000024        11   # BR(~nu_e -> chi^+_1 e^-)
     5.15329907E-01    2     1000037        11   # BR(~nu_e -> chi^+_2 e^-)
#    BR                NDA      ID1      ID2       ID3
DECAY   1000014     1.43926490E+02   # ~nu_mu
#    BR                NDA      ID1      ID2
     8.64588158E-02    2     1000022        14   # BR(~nu_mu -> chi^0_1 nu_mu)
     2.97940516E-02    2     1000023        14   # BR(~nu_mu -> chi^0_2 nu_mu)
     2.39896744E-03    2     1000025        14   # BR(~nu_mu -> chi^0_3 nu_mu)
     2.72852678E-01    2     1000035        14   # BR(~nu_mu -> chi^0_4 nu_mu)
     9.32727447E-02    2     1000024        13   # BR(~nu_mu -> chi^+_1 mu^-)
     5.15222742E-01    2     1000037        13   # BR(~nu_mu -> chi^+_2 mu^-)
#    BR                NDA      ID1      ID2       ID3
DECAY   1000016     1.54112532E+02   # ~nu_tau
#    BR                NDA      ID1      ID2
     8.07550606E-02    2     1000022        16   # BR(~nu_tau -> chi^0_1 nu_tau)
     2.78285447E-02    2     1000023        16   # BR(~nu_tau -> chi^0_2 nu_tau)
     2.24070836E-03    2     1000025        16   # BR(~nu_tau -> chi^0_3 nu_tau)
     2.54852927E-01    2     1000035        16   # BR(~nu_tau -> chi^0_4 nu_tau)
     1.47306166E-01    2     1000024        15   # BR(~nu_tau -> chi^+_1 tau^-)
     4.87016593E-01    2     1000037        15   # BR(~nu_tau -> chi^+_2 tau^-)
#    BR                NDA      ID1      ID2       ID3
DECAY   2000001     5.73830412E+02   # ~d_R
#    BR                NDA      ID1      ID2
     9.71908410E-03    2     1000022         1   # BR(~d_R -> chi^0_1 d)
     9.90193720E-01    2     1000021         1   # BR(~d_R -> ~g d)
DECAY   1000001     7.04437773E+02   # ~d_L
#    BR                NDA      ID1      ID2
     1.96973559E-03    2     1000022         1   # BR(~d_L -> chi^0_1 d)
     6.97788319E-03    2     1000023         1   # BR(~d_L -> chi^0_2 d)
     2.48913232E-04    2     1000025         1   # BR(~d_L -> chi^0_3 d)
     5.54649510E-02    2     1000035         1   # BR(~d_L -> chi^0_4 d)
     1.10605945E-02    2    -1000024         2   # BR(~d_L -> chi^-_1 u)
     1.14245061E-01    2    -1000037         2   # BR(~d_L -> chi^-_2 u)
     8.10032861E-01    2     1000021         1   # BR(~d_L -> ~g d)
DECAY   2000003     5.73850644E+02   # ~s_R
#    BR                NDA      ID1      ID2
     9.71889840E-03    2     1000022         3   # BR(~s_R -> chi^0_1 s)
     9.90159098E-01    2     1000021         3   # BR(~s_R -> ~g s)
DECAY   1000003     7.04451612E+02   # ~s_L
#    BR                NDA      ID1      ID2
     1.96982399E-03    2     1000022         3   # BR(~s_L -> chi^0_1 s)
     6.98426391E-03    2     1000023         3   # BR(~s_L -> chi^0_2 s)
     2.55913886E-04    2     1000025         3   # BR(~s_L -> chi^0_3 s)
     5.54644967E-02    2     1000035         3   # BR(~s_L -> chi^0_4 s)
     1.10647516E-02    2    -1000024         4   # BR(~s_L -> chi^-_1 c)
     1.14243623E-01    2    -1000037         4   # BR(~s_L -> chi^-_2 c)
     8.10017127E-01    2     1000021         3   # BR(~s_L -> ~g s)
DECAY   1000005     1.99568134E+01   # ~b_1
#    BR                NDA      ID1      ID2
     1.00897563E-01    2     1000022         5   # BR(~b_1 -> chi^0_1 b)
     2.14767531E-01    2     1000023         5   # BR(~b_1 -> chi^0_2 b)
     2.19202038E-01    2     1000025         5   # BR(~b_1 -> chi^0_3 b)
     1.26682247E-02    2     1000035         5   # BR(~b_1 -> chi^0_4 b)
     4.27119442E-01    2    -1000024         6   # BR(~b_1 -> chi^-_1 t)
     2.53452011E-02    2    -1000037         6   # BR(~b_1 -> chi^-_2 t)
DECAY   2000005     1.22894476E+02   # ~b_2
#    BR                NDA      ID1      ID2
     4.32769925E-03    2     1000022         5   # BR(~b_2 -> chi^0_1 b)
     4.69044110E-02    2     1000023         5   # BR(~b_2 -> chi^0_2 b)
     3.80410043E-02    2     1000025         5   # BR(~b_2 -> chi^0_3 b)
     1.09254899E-01    2     1000035         5   # BR(~b_2 -> chi^0_4 b)
     4.95966381E-01    2    -1000024         6   # BR(~b_2 -> chi^-_1 t)
     3.05499442E-01    2    -1000037         6   # BR(~b_2 -> chi^-_2 t)
DECAY   2000002     5.90996469E+02   # ~u_R
#    BR                NDA      ID1      ID2
     3.77578095E-02    2     1000022         2   # BR(~u_R -> chi^0_1 u)
     1.27691053E-04    2     1000023         2   # BR(~u_R -> chi^0_2 u)
     1.98344078E-04    2     1000025         2   # BR(~u_R -> chi^0_3 u)
     9.61903818E-01    2     1000021         2   # BR(~u_R -> ~g u)
DECAY   1000002     7.04422637E+02   # ~u_L
#    BR                NDA      ID1      ID2
     1.99854807E-03    2     1000022         2   # BR(~u_L -> chi^0_1 u)
     7.87012903E-03    2     1000023         2   # BR(~u_L -> chi^0_2 u)
     5.47081820E-02    2     1000035         2   # BR(~u_L -> chi^0_4 u)
     1.91718160E-02    2     1000024         1   # BR(~u_L -> chi^+_1 d)
     1.06164567E-01    2     1000037         1   # BR(~u_L -> chi^+_2 d)
     8.09999907E-01    2     1000021         2   # BR(~u_L -> ~g u)
DECAY   2000004     5.91003767E+02   # ~c_R
#    BR                NDA      ID1      ID2
     3.77573449E-02    2     1000022         4   # BR(~c_R -> chi^0_1 c)
     1.30285068E-04    2     1000023         4   # BR(~c_R -> chi^0_2 c)
     2.01421655E-04    2     1000025         4   # BR(~c_R -> chi^0_3 c)
     9.61892004E-01    2     1000021         4   # BR(~c_R -> ~g c)
DECAY   1000004     7.04436444E+02   # ~c_L
#    BR                NDA      ID1      ID2
     1.99850945E-03    2     1000022         4   # BR(~c_L -> chi^0_1 c)
     7.87215411E-03    2     1000023         4   # BR(~c_L -> chi^0_2 c)
     5.47075113E-02    2     1000035         4   # BR(~c_L -> chi^0_4 c)
     1.91844663E-02    2     1000024         3   # BR(~c_L -> chi^+_1 s)
     1.06163753E-01    2     1000037         3   # BR(~c_L -> chi^+_2 s)
     8.09984167E-01    2     1000021         4   # BR(~c_L -> ~g c)
DECAY   1000006     1.23396751E+02   # ~t_1
#    BR                NDA      ID1      ID2
     1.16567092E-04    2     1000022         4   # BR(~t_1 -> chi^0_1 c)
     5.95147851E-03    2     1000022         6   # BR(~t_1 -> chi^0_1 t)
     4.45916640E-04    2     1000023         4   # BR(~t_1 -> chi^0_2 c)
     2.34318787E-01    2     1000023         6   # BR(~t_1 -> chi^0_2 t)
     2.76596074E-01    2     1000025         6   # BR(~t_1 -> chi^0_3 t)
     1.64392970E-01    2     1000035         6   # BR(~t_1 -> chi^0_4 t)
     7.27967910E-02    2     1000024         5   # BR(~t_1 -> chi^+_1 b)
     2.43654448E-01    2     1000037         5   # BR(~t_1 -> chi^+_2 b)
#    BR                NDA      ID1      ID2       ID3
     1.71965810E-03    3     1000022        24         5   # BR(~t_1 -> chi^0_1 W^+ b)
DECAY   2000006     2.14161244E+02   # ~t_2
#    BR                NDA      ID1      ID2
     4.07035255E-02    2     1000022         6   # BR(~t_2 -> chi^0_1 t)
     1.71324231E-01    2     1000023         6   # BR(~t_2 -> chi^0_2 t)
     1.92342452E-01    2     1000025         6   # BR(~t_2 -> chi^0_3 t)
     1.54387080E-02    2     1000035         6   # BR(~t_2 -> chi^0_4 t)
     3.44154750E-01    2     1000024         5   # BR(~t_2 -> chi^+_1 b)
     3.05393447E-02    2     1000037         5   # BR(~t_2 -> chi^+_2 b)
     1.57405489E-04    2     1000005        24   # BR(~t_2 -> ~b_1 W^+)
     8.51985895E-02    2     2000005        24   # BR(~t_2 -> ~b_2 W^+)
     4.43296513E-02    2     1000006        23   # BR(~t_2 -> ~t_1 Z)
     7.58113430E-02    2     1000006        25   # BR(~t_2 -> ~t_1 h^0)
DECAY   1000024     2.45445058E-01   # chi^+_1
#    BR                NDA      ID1      ID2
     9.97148894E-01    2     1000022        24   # BR(chi^+_1 -> chi^0_1 W^+)
#    BR                NDA      ID1      ID2       ID3
     2.85109735E-03    3     1000022        -5         6   # BR(chi^+_1 -> chi^0_1 b_bar t)
DECAY   1000037     3.44328119E+00   # chi^+_2
#    BR                NDA      ID1      ID2
     2.11501211E-02    2     1000022        24   # BR(chi^+_2 -> chi^0_1 W^+)
     2.59774797E-01    2     1000023        24   # BR(chi^+_2 -> chi^0_2 W^+)
     3.51615220E-01    2     1000025        24   # BR(chi^+_2 -> chi^0_3 W^+)
     2.28373556E-01    2     1000024        23   # BR(chi^+_2 -> chi^+_1 Z)
     1.38928509E-01    2     1000024        25   # BR(chi^+_2 -> chi^+_1 h^0)
#    BR                NDA      ID1      ID2       ID3
     1.56827980E-04    3     1000022        -5         6   # BR(chi^+_2 -> chi^0_1 b_bar t)
DECAY   1000022     0.00000000E+00   # chi^0_1
DECAY   1000023     2.89924141E-01   # chi^0_2
#    BR                NDA      ID1      ID2
     5.10390524E-01    2     1000022        23   # BR(chi^0_2 -> chi^0_1 Z)
     4.89581445E-01    2     1000022        25   # BR(chi^0_2 -> chi^0_1 h^0)
#    BR                NDA      ID1      ID2       ID3
DECAY   1000025     2.79738587E-01   # chi^0_3
#    BR                NDA      ID1      ID2
     4.62353854E-01    2     1000022        23   # BR(chi^0_3 -> chi^0_1 Z)
     5.37250794E-01    2     1000022        25   # BR(chi^0_3 -> chi^0_1 h^0)
#    BR                NDA      ID1      ID2       ID3
     1.01430719E-04    3     1000022         6        -6   # BR(chi^0_3 -> chi^0_1 t t_bar)
DECAY   1000035     4.01357116E+00   # chi^0_4
#    BR                NDA      ID1      ID2
     2.20980536E-01    2     1000024       -24   # BR(chi^0_4 -> chi^+_1 W^-)
     2.20980536E-01    2    -1000024        24   # BR(chi^0_4 -> chi^-_1 W^+)
     1.07419985E-02    2     1000022        23   # BR(chi^0_4 -> chi^0_1 Z)
     4.93083474E-03    2     1000023        23   # BR(chi^0_4 -> chi^0_2 Z)
     3.07304465E-01    2     1000025        23   # BR(chi^0_4 -> chi^0_3 Z)
     9.45839903E-03    2     1000022        25   # BR(chi^0_4 -> chi^0_1 h^0)
     1.13222354E-01    2     1000023        25   # BR(chi^0_4 -> chi^0_2 h^0)
     1.12315142E-01    2     1000025        25   # BR(chi^0_4 -> chi^0_3 h^0)
#    BR                NDA      ID1      ID2       ID3
DECAY   1000021     1.87480359E+01   # ~g
#    BR                NDA      ID1      ID2
     4.14200580E-03    2     1000006        -4   # BR(~g -> ~t_1 c_bar)
     4.14200580E-03    2    -1000006         4   # BR(~g -> ~t^*_1 c)
     1.48507905E-01    2     1000006        -6   # BR(~g -> ~t_1 t_bar)
     1.48507905E-01    2    -1000006         6   # BR(~g -> ~t^*_1 t)
     2.03902379E-01    2     1000005        -5   # BR(~g -> ~b_1 b_bar)
     2.03902379E-01    2    -1000005         5   # BR(~g -> ~b^*_1 b)
     1.32791352E-01    2     2000005        -5   # BR(~g -> ~b_2 b_bar)
     1.32791352E-01    2    -2000005         5   # BR(~g -> ~b^*_2 b)
     2.30390476E-04    2     1000023        21   # BR(~g -> chi^0_2 g)
     3.22545554E-04    2     1000025        21   # BR(~g -> chi^0_3 g)
#    BR                NDA      ID1      ID2       ID3
     1.10469470E-03    3     1000022         6        -6   # BR(~g -> chi^0_1 t t_bar)
     4.38665136E-03    3     1000023         6        -6   # BR(~g -> chi^0_2 t t_bar)
     4.90466239E-03    3     1000025         6        -6   # BR(~g -> chi^0_3 t t_bar)
     3.79949824E-04    3     1000035         6        -6   # BR(~g -> chi^0_4 t t_bar)
     4.44104785E-03    3     1000024         5        -6   # BR(~g -> chi^+_1 b t_bar)
     4.44104785E-03    3    -1000024        -5         6   # BR(~g -> chi^-_1 b_bar t)
     3.79314217E-04    3     1000037         5        -6   # BR(~g -> chi^+_2 b t_bar)
     3.79314217E-04    3    -1000037        -5         6   # BR(~g -> chi^-_2 b_bar t)
DECAY        25     4.09276479E-03   # Gamma(h0)
     2.34675345E-03   2        22        22   # BR(h0 -> photon photon)
     1.63187591E-03   2        22        23   # BR(h0 -> photon Z)
     3.18364847E-02   2        23        23   # BR(h0 -> Z Z)
     2.55064779E-01   2       -24        24   # BR(h0 -> W W)
     7.13591585E-02   2        21        21   # BR(h0 -> gluon gluon)
     4.92116639E-09   2       -11        11   # BR(h0 -> Electron electron)
     2.18903120E-04   2       -13        13   # BR(h0 -> Muon muon)
     6.31197263E-02   2       -15        15   # BR(h0 -> Tau tau)
     1.39571898E-07   2        -2         2   # BR(h0 -> Up up)
     2.70852590E-02   2        -4         4   # BR(h0 -> Charm charm)
     5.68387896E-07   2        -1         1   # BR(h0 -> Down down)
     2.05573011E-04   2        -3         3   # BR(h0 -> Strange strange)
     5.47130774E-01   2        -5         5   # BR(h0 -> Bottom bottom)
DECAY        35     7.39793681E+01   # Gamma(HH)
     3.71332070E-08   2        22        22   # BR(HH -> photon photon)
     9.34546739E-08   2        22        23   # BR(HH -> photon Z)
     6.66655424E-07   2        23        23   # BR(HH -> Z Z)
     1.45767106E-07   2       -24        24   # BR(HH -> W W)
     8.62242412E-07   2        21        21   # BR(HH -> gluon gluon)
     4.46943555E-09   2       -11        11   # BR(HH -> Electron electron)
     1.99016337E-04   2       -13        13   # BR(HH -> Muon muon)
     5.74807017E-02   2       -15        15   # BR(HH -> Tau tau)
     2.50995440E-13   2        -2         2   # BR(HH -> Up up)
     4.86928372E-08   2        -4         4   # BR(HH -> Charm charm)
     3.48034789E-03   2        -6         6   # BR(HH -> Top top)
     3.15864569E-07   2        -1         1   # BR(HH -> Down down)
     1.14248199E-04   2        -3         3   # BR(HH -> Strange strange)
     2.78700076E-01   2        -5         5   # BR(HH -> Bottom bottom)
     7.02796314E-02   2  -1000024   1000024   # BR(HH -> Chargino1 chargino1)
     1.46995362E-01   2  -1000024   1000037   # BR(HH -> Chargino1 chargino2)
     1.46995362E-01   2  -1000037   1000024   # BR(HH -> Chargino2 chargino1)
     3.60830716E-02   2  -1000037   1000037   # BR(HH -> Chargino2 chargino2)
     1.04762537E-03   2   1000022   1000022   # BR(HH -> neutralino1 neutralino1)
     2.89542136E-02   2   1000022   1000023   # BR(HH -> neutralino1 neutralino2)
     3.00593702E-02   2   1000022   1000025   # BR(HH -> neutralino1 neutralino3)
     4.70275707E-04   2   1000022   1000035   # BR(HH -> neutralino1 neutralino4)
     2.39480421E-02   2   1000023   1000023   # BR(HH -> neutralino2 neutralino2)
     1.08813364E-02   2   1000023   1000025   # BR(HH -> neutralino2 neutralino3)
     4.42137590E-02   2   1000023   1000035   # BR(HH -> neutralino2 neutralino4)
     1.71018675E-03   2   1000025   1000025   # BR(HH -> neutralino3 neutralino3)
     9.89574553E-02   2   1000025   1000035   # BR(HH -> neutralino3 neutralino4)
     1.94228358E-02   2   1000035   1000035   # BR(HH -> neutralino4 neutralino4)
     4.90763539E-06   2        25        25   # BR(HH -> h0 h0)
DECAY        36     7.27933843E+01   # Gamma(A0)
     7.33935789E-08   2        22        22   # BR(A0 -> photon photon)
     1.23315774E-07   2        22        23   # BR(A0 -> photon Z)
     6.66807242E-06   2        21        21   # BR(A0 -> gluon gluon)
     4.32823702E-09   2       -11        11   # BR(A0 -> Electron electron)
     1.92729253E-04   2       -13        13   # BR(A0 -> Muon muon)
     5.56648936E-02   2       -15        15   # BR(A0 -> Tau tau)
     2.32253363E-13   2        -2         2   # BR(A0 -> Up up)
     4.50552625E-08   2        -4         4   # BR(A0 -> Charm charm)
     3.24371130E-03   2        -6         6   # BR(A0 -> Top top)
     3.05877608E-07   2        -1         1   # BR(A0 -> Down down)
     1.10636705E-04   2        -3         3   # BR(A0 -> Strange strange)
     2.69891121E-01   2        -5         5   # BR(A0 -> Bottom bottom)
     8.59575449E-02   2  -1000024   1000024   # BR(A0 -> Chargino1 chargino1)
     1.35061936E-01   2  -1000024   1000037   # BR(A0 -> Chargino1 chargino2)
     1.35061936E-01   2  -1000037   1000024   # BR(A0 -> Chargino2 chargino1)
     5.08671738E-02   2  -1000037   1000037   # BR(A0 -> Chargino2 chargino2)
     1.04901910E-03   2   1000022   1000022   # BR(A0 -> neutralino1 neutralino1)
     3.38449170E-02   2   1000022   1000023   # BR(A0 -> neutralino1 neutralino2)
     2.57673097E-02   2   1000022   1000025   # BR(A0 -> neutralino1 neutralino3)
     8.39141042E-04   2   1000022   1000035   # BR(A0 -> neutralino1 neutralino4)
     3.02600774E-02   2   1000023   1000023   # BR(A0 -> neutralino2 neutralino2)
     7.98095997E-03   2   1000023   1000025   # BR(A0 -> neutralino2 neutralino3)
     5.63589296E-02   2   1000023   1000035   # BR(A0 -> neutralino2 neutralino4)
     1.55170099E-03   2   1000025   1000025   # BR(A0 -> neutralino3 neutralino3)
     7.92128814E-02   2   1000025   1000035   # BR(A0 -> neutralino3 neutralino4)
     2.70747760E-02   2   1000035   1000035   # BR(A0 -> neutralino4 neutralino4)
     1.38449378E-06   2        23        25   # BR(A0 -> Z h0)
     5.26228930E-38   2        25        25   # BR(A0 -> h0 h0)
DECAY        37     7.34936728E+01   # Gamma(Hp)
     4.69536193E-09   2       -11        12   # BR(Hp -> Electron nu_e)
     2.00741388E-04   2       -13        14   # BR(Hp -> Muon nu_mu)
     5.67810954E-02   2       -15        16   # BR(Hp -> Tau nu_tau)
     2.88611067E-07   2        -1         2   # BR(Hp -> Down up)
     4.88556747E-06   2        -3         2   # BR(Hp -> Strange up)
     2.90687559E-06   2        -5         2   # BR(Hp -> Bottom up)
     1.57690888E-08   2        -1         4   # BR(Hp -> Down charm)
     1.04055613E-04   2        -3         4   # BR(Hp -> Strange charm)
     4.07066718E-04   2        -5         4   # BR(Hp -> Bottom charm)
     2.47029508E-07   2        -1         6   # BR(Hp -> Down top)
     5.54091938E-06   2        -3         6   # BR(Hp -> Strange top)
     2.78171402E-01   2        -5         6   # BR(Hp -> Bottom top)
     6.22675051E-02   2   1000022   1000024   # BR(Hp -> neutralino1 chargino1)
     1.31579577E-03   2   1000022   1000037   # BR(Hp -> neutralino1 chargino2)
     9.53325713E-04   2   1000023   1000024   # BR(Hp -> neutralino2 chargino1)
     2.13367174E-01   2   1000023   1000037   # BR(Hp -> neutralino2 chargino2)
     3.04165140E-02   2   1000024   1000025   # BR(Hp -> chargino1 neutralino3)
     1.66987047E-01   2   1000025   1000037   # BR(Hp -> neutralino3 chargino2)
     1.88991468E-01   2   1000024   1000035   # BR(Hp -> chargino1 neutralino4)
     2.15459852E-05   2   1000035   1000037   # BR(Hp -> neutralino4 chargino2)
     1.37366029E-06   2        24        25   # BR(Hp -> W h0)
     1.32386323E-12   2        24        35   # BR(Hp -> W HH)
     2.96593669E-13   2        24        36   # BR(Hp -> W A0)
DECAY         6     2.43000000E+00   # top
#    BR                NDA      ID1      ID2
     1.00000000E+00    2           5        24   # BR(t -> b W)
Block HiggsBoundsInputHiggsCouplingsFermions
# ScalarNormEffCoupSq PseudoSNormEffCoupSq NP IP1 IP2 IP2
    9.17086343E-01    0.00000000E+00        3  25   5   5  # h0-b-b eff. coupling^2, normalised to SM
    4.90814823E+02    0.00000000E+00        3  35   5   5  # H0-b-b eff. coupling^2, normalised to SM
    0.00000000E+00    4.90731909E+02        3  36   5   5  # A0-b-b eff. coupling^2, normalised to SM
#
    1.00016896E+00    0.00000000E+00        3  25   6   6  # h0-t-t eff. coupling^2, normalised to SM
    1.86881335E-03    0.00000000E+00        3  35   6   6  # H0-t-t eff. coupling^2, normalised to SM
    0.00000000E+00    2.03777252E-03        3  36   6   6  # A0-t-t eff. coupling^2, normalised to SM
#
    9.17086343E-01    0.00000000E+00        3  25  15  15  # h0-tau-tau eff. coupling^2, normalised to SM
    4.90814823E+02    0.00000000E+00        3  35  15  15  # H0-tau-tau eff. coupling^2, normalised to SM
    0.00000000E+00    4.90731909E+02        3  36  15  15  # A0-tau-tau eff. coupling^2, normalised to SM
#
Block HiggsBoundsInputHiggsCouplingsBosons
    9.99996345E-01        3  25  24  24  # h0-W-W eff. coupling^2, normalised to SM
    3.65512245E-06        3  35  24  24  # H0-W-W eff. coupling^2, normalised to SM
    0.00000000E+00        3  36  24  24  # A0-W-W eff. coupling^2, normalised to SM
#
    9.99996345E-01        3  25  23  23  # h0-Z-Z eff. coupling^2, normalised to SM
    3.65512245E-06        3  35  23  23  # H0-Z-Z eff. coupling^2, normalised to SM
    0.00000000E+00        3  36  23  23  # A0-Z-Z eff. coupling^2, normalised to SM
#
    1.26870859E+00        3  25  21  21  # h0-g-g eff. coupling^2, normalised to SM
    7.69722809E-04        3  35  21  21  # H0-g-g eff. coupling^2, normalised to SM
    9.44821434E-02        3  36  21  21  # A0-g-g eff. coupling^2, normalised to SM
#
    0.00000000E+00        3  25  25  23  # h0-h0-Z eff. coupling^2, normalised to SM
    0.00000000E+00        3  35  25  23  # H0-h0-Z eff. coupling^2, normalised to SM
    3.65512245E-06        3  36  25  23  # A0-h0-Z eff. coupling^2, normalised to SM
    0.00000000E+00        3  35  35  23  # H0-H0-Z eff. coupling^2, normalised to SM
    9.99996345E-01        3  36  35  23  # A0-H0-Z eff. coupling^2, normalised to SM
    0.00000000E+00        3  36  36  23  # A0-A0-Z eff. coupling^2, normalised to SM
#
    0.00000000E+00        4  25  21  21  23  # h0-g-g-Z eff. coupling^2, normalised to SM
    0.00000000E+00        4  35  21  21  23  # H0-g-g-Z eff. coupling^2, normalised to SM
    0.00000000E+00        4  36  21  21  23  # A0-g-g-Z eff. coupling^2, normalised to SM
Block SPhenoLowEnergy  # low energy observables
    1    3.28419304E-04   # BR(b -> s gamma)
    2    1.58907172E-06   # BR(b -> s mu+ mu-)
    3    3.52477155E-05   # BR(b -> s nu nu)
    4    2.50158806E-15   # BR(Bd -> e+ e-)
    5    1.06865082E-10   # BR(Bd -> mu+ mu-)
    6    2.23758762E-08   # BR(Bd -> tau+ tau-)
    7    8.39459306E-14   # BR(Bs -> e+ e-)
    8    3.58617035E-09   # BR(Bs -> mu+ mu-)
    9    7.60828551E-07   # BR(Bs -> tau+ tau-)
   10    9.65845506E-05   # BR(B_u -> tau nu)
   11    9.97681430E-01   # BR(B_u -> tau nu)/BR(B_u -> tau nu)_SM
   12    5.42015492E-01   # |Delta(M_Bd)| [ps^-1] 
   13    1.93655556E+01   # |Delta(M_Bs)| [ps^-1] 
   14    0.00000000E+00   # neutron EDM according to the chiral quark model
   15    0.00000000E+00   # neutron EDM according to the relativistic quark-parton model
   16    2.15742269E-03   # epsilon_K
   17    2.28165937E-15   # Delta(M_K)
   18    2.47967924E-11   # BR(K^0 -> pi^0 nu nu)
   19    8.28970289E-11   # BR(K^+ -> pi^+ nu nu)
   20    1.70486366E-16   # Delta(g-2)_electron/2
   21    7.28885047E-12   # Delta(g-2)_muon/2
   22    2.06379337E-09   # Delta(g-2)_tau/2
   23    0.00000000E+00   # electric dipole moment of the electron
   24    0.00000000E+00   # electric dipole moment of the muon
   25    0.00000000E+00   # electric dipole moment of the tau
   26    0.00000000E+00   # Br(mu -> e gamma)
   27    0.00000000E+00   # Br(tau -> e gamma)
   28    0.00000000E+00   # Br(tau -> mu gamma)
   29    0.00000000E+00   # Br(mu -> 3 e)
   30    0.00000000E+00   # Br(tau -> 3 e)
   31    0.00000000E+00   # Br(tau -> 3 mu)
   39    5.37930346E-05   # Delta(rho_parameter)
   40    0.00000000E+00   # BR(Z -> e mu)
   41    0.00000000E+00   # BR(Z -> e tau)
   42    0.00000000E+00   # BR(Z -> mu tau)
Block FWCOEF Q=  1.60000000E+02  # Wilson coefficients at scale Q
#    id        order  M        value         comment
     0305 4422   00   0    -1.88819110E-01   # C7
     0305 4422   00   2    -1.97841100E-01   # C7
     0305 4322   00   2    -1.09638669E-04   # C7'
     0305 6421   00   0    -9.52278348E-02   # C8
     0305 6421   00   2    -1.03658334E-01   # C8
     0305 6321   00   2    -1.32029974E-04   # C8'
 03051111 4133   00   0     1.62456491E+00   # C9 e+e-
 03051111 4133   00   2     1.62479532E+00   # C9 e+e-
 03051111 4233   00   2     1.41066566E-04   # C9' e+e-
 03051111 4137   00   0    -4.44725701E+00   # C10 e+e-
 03051111 4137   00   2    -4.44513705E+00   # C10 e+e-
 03051111 4237   00   2    -1.04661717E-03   # C10' e+e-
 03051313 4133   00   0     1.62456491E+00   # C9 mu+mu-
 03051313 4133   00   2     1.62479528E+00   # C9 mu+mu-
 03051313 4233   00   2     1.41066539E-04   # C9' mu+mu-
 03051313 4137   00   0    -4.44725701E+00   # C10 mu+mu-
 03051313 4137   00   2    -4.44513710E+00   # C10 mu+mu-
 03051313 4237   00   2    -1.04661720E-03   # C10' mu+mu-
 03051212 4137   00   0     1.50535012E+00   # C11 nu_1 nu_1
 03051212 4137   00   2     1.50489328E+00   # C11 nu_1 nu_1
 03051212 4237   00   2     2.26425254E-04   # C11' nu_1 nu_1
 03051414 4137   00   0     1.50535012E+00   # C11 nu_2 nu_2
 03051414 4137   00   2     1.50489328E+00   # C11 nu_2 nu_2
 03051414 4237   00   2     2.26425257E-04   # C11' nu_2 nu_2
 03051616 4137   00   0     1.50535012E+00   # C11 nu_3 nu_3
 03051616 4137   00   2     1.50489328E+00   # C11 nu_3 nu_3
 03051616 4237   00   2     2.26426070E-04   # C11' nu_3 nu_3
Block IMFWCOEF Q=  1.60000000E+02  # Im(Wilson coefficients) at scale Q
#    id        order  M        value         comment
     0305 4422   00   0     3.85809238E-07   # C7
     0305 4422   00   2     7.89773567E-06   # C7
     0305 4322   00   2    -3.95392261E-07   # C7'
     0305 6421   00   0     3.30471127E-07   # C8
     0305 6421   00   2    -4.90613322E-06   # C8
     0305 6321   00   2    -3.09602689E-07   # C8'
 03051111 4133   00   2     5.48465609E-07   # C9 e+e-
 03051111 4233   00   2     2.67993063E-06   # C9' e+e-
 03051111 4137   00   2     1.38847047E-06   # C10 e+e-
 03051111 4237   00   2    -1.98845171E-05   # C10' e+e-
 03051313 4133   00   2     5.48464221E-07   # C9 mu+mu-
 03051313 4233   00   2     2.67993040E-06   # C9' mu+mu-
 03051313 4137   00   2     1.38847196E-06   # C10 mu+mu-
 03051313 4237   00   2    -1.98845178E-05   # C10' mu+mu-
 03051212 4137   00   2    -2.68333159E-07   # C11 nu_1 nu_1
 03051212 4237   00   2     4.30181925E-06   # C11' nu_1 nu_1
 03051414 4137   00   2    -2.68333086E-07   # C11 nu_2 nu_2
 03051414 4237   00   2     4.30181925E-06   # C11' nu_2 nu_2
 03051616 4137   00   2    -2.68312543E-07   # C11 nu_3 nu_3
 03051616 4237   00   2     4.30181924E-06   # C11' nu_3 nu_3
