# SUSY Les Houches Accord 2 - MSSM spectrum + Decays
# SPheno v4.0.5be
# W. Porod, Comput. Phys. Commun. 153 (2003) 275-315, hep-ph/0301101;
# W. Porod, F.~Staub, Comput. Phys. Commun. 183 (2012) 2458
#                     arXiv:1104.1573 [hep-ph] 
# in case of problems send email to porod@physik.uni-wuerzburg.de
# Created: 12.05.2022,  19:49
Block SPINFO         # Program information
     1   SPheno      # spectrum calculator
     2   v4.0.5be    # version number
#
Block SPhenoINFO     # SPheno specific information
    1      2         # using 2-loop RGEs
    2      2         # using pole masses for boundary conditions at mZ
Block MODSEL  # Model selection
    1    0    # general MSSM
Block MINPAR  # Input parameters
    3    1.76523051E+01  # tanb at m_Z    
    4   -1.00000000E+00  # Sign(mu)
Block EXTPAR  # non-universal input parameters
    0    3.63824885E+03  # scale for input parameters
    1    9.38095968E+01  # M_1
    2    1.42747195E+03  # M_2
    3    3.42441289E+03  # M_3
   11    5.21310938E+03  # A_t
   12    1.61888878E+03  # A_b
   13    1.03014992E+03  # A_tau
   23   -6.71551129E+02  # mu
   25    1.68403996E+01  # tan(beta)
   26    3.80083343E+03  # m_A, pole mass
   31    1.00000000E+04  # M_L11
   32    1.00000000E+04  # M_L22
   33    1.00000000E+04  # M_L33
   34    1.00000000E+04  # M_E11
   35    1.00000000E+04  # M_E22
   36    1.00000000E+04  # M_E33
   41    1.00000000E+04  # M_Q11
   42    1.00000000E+04  # M_Q22
   43    4.32041442E+03  # M_Q33
   44    1.00000000E+04  # M_U11
   45    1.00000000E+04  # M_U22
   46    2.97213537E+03  # M_U33
   47    1.00000000E+04  # M_D11
   48    1.00000000E+04  # M_D22
   49    2.29444460E+03  # M_D33
Block SMINPUTS  # SM parameters
         1     1.27908970E+02  # alpha_em^-1(MZ)^MSbar
         2     1.16637870E-05  # G_mu [GeV^-2]
         3     1.18400000E-01  # alpha_s(MZ)^MSbar
         4     9.11876000E+01  # m_Z(pole)
         5     4.18000000E+00  # m_b(m_b), MSbar
         6     1.73200000E+02  # m_t(pole)
         7     1.77700000E+00  # m_tau(pole)
         8     0.00000000E+00  # m_nu_3
        11     5.10998930E-04  # m_e(pole)
        12     0.00000000E+00  # m_nu_1
        13     1.05658372E-01  # m_muon(pole)
        14     0.00000000E+00  # m_nu_2
        21     5.00000000E-03  # m_d(2 GeV), MSbar
        22     2.50000000E-03  # m_u(2 GeV), MSbar
        23     9.50000000E-02  # m_s(2 GeV), MSbar
        24     1.27000000E+00  # m_c(m_c), MSbar
Block gauge Q=  3.63824885E+03  # (SUSY scale)
   1    3.55362975E-01  # g'(Q)^DRbar
   2    6.65198874E-01  # g(Q)^DRbar
   3    1.21977796E+00  # g3(Q)^DRbar
Block Yu Q=  3.63824885E+03  # (SUSY scale)
  1  1     8.39914121E-06   # Y_u(Q)^DRbar
  2  2     4.26676374E-03   # Y_c(Q)^DRbar
  3  3     1.01468372E+00   # Y_t(Q)^DRbar
Block Yd Q=  3.63824885E+03  # (SUSY scale)
  1  1     2.84228435E-04   # Y_d(Q)^DRbar
  2  2     5.40034026E-03   # Y_s(Q)^DRbar
  3  3     2.81865543E-01   # Y_b(Q)^DRbar
Block Ye Q=  3.63824885E+03  # (SUSY scale)
  1  1     4.95999403E-05   # Y_e(Q)^DRbar
  2  2     1.02556945E-02   # Y_mu(Q)^DRbar
  3  3     1.72483911E-01   # Y_tau(Q)^DRbar
Block Au Q=  3.63824885E+03  # (SUSY scale)
  1  1     0.00000000E+00   # A_u(Q)^DRbar
  2  2     0.00000000E+00   # A_c(Q)^DRbar
  3  3     5.21310938E+03   # A_t(Q)^DRbar
Block Ad Q=  3.63824885E+03  # (SUSY scale)
  1  1     0.00000000E+00   # A_d(Q)^DRbar
  2  2     0.00000000E+00   # A_s(Q)^DRbar
  3  3     1.61888876E+03   # A_b(Q)^DRbar
Block Ae Q=  3.63824885E+03  # (SUSY scale)
  1  1     0.00000000E+00   # A_e(Q)^DRbar
  2  2     0.00000000E+00   # A_mu(Q)^DRbar
  3  3     1.03014992E+03   # A_tau(Q)^DRbar
Block MSOFT Q=  3.63824885E+03  # soft SUSY breaking masses at Q
   1    9.38095968E+01  # M_1
   2    1.42747195E+03  # M_2
   3    3.42441289E+03  # M_3
  21    1.38914111E+07  # M^2_(H,d)
  22   -1.81890640E+05  # M^2_(H,u)
  31    1.00000000E+04  # M_(L,11)
  32    1.00000000E+04  # M_(L,22)
  33    1.00000000E+04  # M_(L,33)
  34    1.00000000E+04  # M_(E,11)
  35    1.00000000E+04  # M_(E,22)
  36    1.00000000E+04  # M_(E,33)
  41    1.00000000E+04  # M_(Q,11)
  42    1.00000000E+04  # M_(Q,22)
  43    4.32041442E+03  # M_(Q,33)
  44    1.00000000E+04  # M_(U,11)
  45    1.00000000E+04  # M_(U,22)
  46    2.97213537E+03  # M_(U,33)
  47    1.00000000E+04  # M_(D,11)
  48    1.00000000E+04  # M_(D,22)
  49    2.29444460E+03  # M_(D,33)
Block MASS  # Mass spectrum
#   PDG code      mass          particle
         6     1.73200000E+02  # m_t(pole)
        23     9.11876000E+01  # m_Z(pole)
        24     8.04299946E+01  # W+
        15     1.77700000E+00  # m_tau(pole)
        25     1.25996309E+02  # h0
        35     3.80045295E+03  # H0
        36     3.80083343E+03  # A0
        37     3.80247794E+03  # H+
   1000001     1.01028989E+04  # ~d_L
   2000001     1.00791717E+04  # ~d_R
   1000002     1.01025394E+04  # ~u_L
   2000002     1.00819583E+04  # ~u_R
   1000003     1.01029001E+04  # ~s_L
   2000003     1.00791729E+04  # ~s_R
   1000004     1.01025405E+04  # ~c_L
   2000004     1.00819592E+04  # ~c_R
   1000005     2.45159762E+03  # ~b_1
   2000005     4.37117285E+03  # ~b_2
   1000006     3.02313581E+03  # ~t_1
   2000006     4.37851804E+03  # ~t_2
   1000011     1.00202928E+04  # ~e_L-
   2000011     1.00092204E+04  # ~e_R-
   1000012     1.00195350E+04  # ~nu_eL
   1000013     1.00202964E+04  # ~mu_L-
   2000013     1.00092265E+04  # ~mu_R-
   1000014     1.00195383E+04  # ~nu_muL
   1000015     1.00109419E+04  # ~tau_1-
   2000015     1.00213498E+04  # ~tau_2-
   1000016     1.00204751E+04  # ~nu_tauL
   1000021     3.88762329E+03  # ~g
   1000022     9.45690858E+01  # ~chi_10
   1000023     6.81001103E+02  # ~chi_20
   1000025     6.85476696E+02  # ~chi_30
   1000035     1.53100585E+03  # ~chi_40
   1000024     6.80908846E+02  # ~chi_1+
   1000037     1.53097276E+03  # ~chi_2+
# Higgs mixing
Block alpha # Effective Higgs mixing angle
          -5.66742802E-02   # alpha
Block Hmix Q=  3.63824885E+03  # Higgs mixing parameters
   1   -6.71551129E+02  # mu
   2    1.68403996E+01  # tan[beta](Q)
   3    2.43033710E+02  # v(Q)
   4    1.44463348E+07  # m^2_A(Q)
Block stopmix # stop mixing matrix
   1  1    -6.97938006E-02   # Re[R_st(1,1)]
   1  2     9.97561439E-01   # Re[R_st(1,2)]
   2  1    -9.97561439E-01   # Re[R_st(2,1)]
   2  2    -6.97938006E-02   # Re[R_st(2,2)]
Block sbotmix # sbottom mixing matrix
   1  1    -2.22294883E-03   # Re[R_sb(1,1)]
   1  2     9.99997529E-01   # Re[R_sb(1,2)]
   2  1    -9.99997529E-01   # Re[R_sb(2,1)]
   2  2    -2.22294883E-03   # Re[R_sb(2,2)]
Block staumix # stau mixing matrix
   1  1    -1.06449997E-01   # Re[R_sta(1,1)]
   1  2     9.94318057E-01   # Re[R_sta(1,2)]
   2  1    -9.94318057E-01   # Re[R_sta(2,1)]
   2  2    -1.06449997E-01   # Re[R_sta(2,2)]
Block Nmix # neutralino mixing matrix
   1  1    -9.97779398E-01   # Re[N(1,1)]
   1  2     3.40320239E-05   # Re[N(1,2)]
   1  3     6.63828207E-02   # Re[N(1,3)]
   1  4     5.43986716E-03   # Re[N(1,4)]
   2  1    -5.07955236E-02   # Re[N(2,1)]
   2  2    -6.26086711E-02   # Re[N(2,2)]
   2  3    -7.05783210E-01   # Re[N(2,3)]
   2  4    -7.03825283E-01   # Re[N(2,4)]
   3  1     4.30365383E-02   # Re[N(3,1)]
   3  2    -2.70728979E-02   # Re[N(3,2)]
   3  3     7.04861713E-01   # Re[N(3,3)]
   3  4    -7.07520233E-01   # Re[N(3,4)]
   4  1     1.98578508E-03   # Re[N(4,1)]
   4  2    -9.97670893E-01   # Re[N(4,2)]
   4  3     2.51663740E-02   # Re[N(4,3)]
   4  4     6.33679646E-02   # Re[N(4,4)]
Block Umix # chargino mixing matrix
   1  1    -3.55841801E-02   # Re[U(1,1)]
   1  2    -9.99366683E-01   # Re[U(1,2)]
   2  1     9.99366683E-01   # Re[U(2,1)]
   2  2    -3.55841801E-02   # Re[U(2,2)]
Block Vmix # chargino mixing matrix
   1  1    -8.96391764E-02   # Re[V(1,1)]
   1  2     9.95974306E-01   # Re[V(1,2)]
   2  1     9.95974306E-01   # Re[V(2,1)]
   2  2     8.96391764E-02   # Re[V(2,2)]
DECAY        23     2.49520000E+00   # Z
DECAY        24     2.08500000E+00   # W
DECAY   2000011     5.02816589E+01   # ~e^-_R
#    BR                NDA      ID1      ID2
     9.95604093E-01    2     1000022        11   # BR(~e^-_R -> chi^0_1 e^-)
     2.55691766E-03    2     1000023        11   # BR(~e^-_R -> chi^0_2 e^-)
     1.83521761E-03    2     1000025        11   # BR(~e^-_R -> chi^0_3 e^-)
DECAY   1000011     1.38807740E+02   # ~e^-_L
#    BR                NDA      ID1      ID2
     9.02500541E-02    2     1000022        11   # BR(~e^-_L -> chi^0_1 e^-)
     2.53551693E-03    2     1000023        11   # BR(~e^-_L -> chi^0_2 e^-)
     3.01025172E-01    2     1000035        11   # BR(~e^-_L -> chi^0_4 e^-)
     7.97248516E-04    2    -1000024        12   # BR(~e^-_L -> chi^-_1 nu_e)
     6.05386762E-01    2    -1000037        12   # BR(~e^-_L -> chi^-_2 nu_e)
#    BR                NDA      ID1      ID2       ID3
DECAY   2000013     5.03231878E+01   # ~mu^-_R
#    BR                NDA      ID1      ID2
     9.94784918E-01    2     1000022        13   # BR(~mu^-_R -> chi^0_1 mu^-)
     2.76020453E-03    2     1000023        13   # BR(~mu^-_R -> chi^0_2 mu^-)
     2.03853880E-03    2     1000025        13   # BR(~mu^-_R -> chi^0_3 mu^-)
     4.11825655E-04    2    -1000024        14   # BR(~mu^-_R -> chi^-_1 nu_mu)
DECAY   1000013     1.38828567E+02   # ~mu^-_L
#    BR                NDA      ID1      ID2
     9.02372127E-02    2     1000022        13   # BR(~mu^-_L -> chi^0_1 mu^-)
     2.60967598E-03    2     1000023        13   # BR(~mu^-_L -> chi^0_2 mu^-)
     3.00980222E-01    2     1000035        13   # BR(~mu^-_L -> chi^0_4 mu^-)
     7.97129207E-04    2    -1000024        14   # BR(~mu^-_L -> chi^-_1 nu_mu)
     6.05296181E-01    2    -1000037        14   # BR(~mu^-_L -> chi^-_2 nu_mu)
#    BR                NDA      ID1      ID2       ID3
DECAY   1000015     6.29762929E+01   # ~tau^-_1
#    BR                NDA      ID1      ID2
     7.90627800E-01    2     1000022        15   # BR(~tau^-_1 -> chi^0_1 tau^-)
     4.98633209E-02    2     1000023        15   # BR(~tau^-_1 -> chi^0_2 tau^-)
     4.58576439E-02    2     1000025        15   # BR(~tau^-_1 -> chi^0_3 tau^-)
     6.26856756E-03    2     1000035        15   # BR(~tau^-_1 -> chi^0_4 tau^-)
     9.47707589E-02    2    -1000024        16   # BR(~tau^-_1 -> chi^-_1 nu_tau)
     1.26119084E-02    2    -1000037        16   # BR(~tau^-_1 -> chi^-_2 nu_tau)
DECAY   2000015     1.43753384E+02   # ~tau^-_2
#    BR                NDA      ID1      ID2
     8.94567727E-02    2     1000022        15   # BR(~tau^-_2 -> chi^0_1 tau^-)
     2.22040981E-02    2     1000023        15   # BR(~tau^-_2 -> chi^0_2 tau^-)
     2.11529745E-02    2     1000025        15   # BR(~tau^-_2 -> chi^0_3 tau^-)
     2.88003949E-01    2     1000035        15   # BR(~tau^-_2 -> chi^0_4 tau^-)
     5.79145238E-01    2    -1000037        16   # BR(~tau^-_2 -> chi^-_2 nu_tau)
#    BR                NDA      ID1      ID2       ID3
DECAY   1000012     1.38811503E+02   # ~nu_e
#    BR                NDA      ID1      ID2
     9.02638290E-02    2     1000022        12   # BR(~nu_e -> chi^0_1 nu_e)
     3.96087219E-04    2     1000023        12   # BR(~nu_e -> chi^0_2 nu_e)
     7.88859692E-04    2     1000025        12   # BR(~nu_e -> chi^0_3 nu_e)
     3.02275006E-01    2     1000035        12   # BR(~nu_e -> chi^0_4 nu_e)
     5.05860280E-03    2     1000024        11   # BR(~nu_e -> chi^+_1 e^-)
     6.01217615E-01    2     1000037        11   # BR(~nu_e -> chi^+_2 e^-)
#    BR                NDA      ID1      ID2       ID3
DECAY   1000014     1.38832323E+02   # ~nu_mu
#    BR                NDA      ID1      ID2
     9.02503218E-02    2     1000022        14   # BR(~nu_mu -> chi^0_1 nu_mu)
     3.96027951E-04    2     1000023        14   # BR(~nu_mu -> chi^0_2 nu_mu)
     7.88741651E-04    2     1000025        14   # BR(~nu_mu -> chi^0_3 nu_mu)
     3.02229783E-01    2     1000035        14   # BR(~nu_mu -> chi^0_4 nu_mu)
     5.20727784E-03    2     1000024        13   # BR(~nu_mu -> chi^+_1 mu^-)
     6.01127848E-01    2     1000037        13   # BR(~nu_mu -> chi^+_2 mu^-)
#    BR                NDA      ID1      ID2       ID3
DECAY   1000016     1.44701571E+02   # ~nu_tau
#    BR                NDA      ID1      ID2
     8.65977728E-02    2     1000022        16   # BR(~nu_tau -> chi^0_1 nu_tau)
     3.80000826E-04    2     1000023        16   # BR(~nu_tau -> chi^0_2 nu_tau)
     7.56821547E-04    2     1000025        16   # BR(~nu_tau -> chi^0_3 nu_tau)
     2.90000730E-01    2     1000035        16   # BR(~nu_tau -> chi^0_4 nu_tau)
     4.54114233E-02    2     1000024        15   # BR(~nu_tau -> chi^+_1 tau^-)
     5.76853252E-01    2     1000037        15   # BR(~nu_tau -> chi^+_2 tau^-)
#    BR                NDA      ID1      ID2       ID3
DECAY   2000001     5.82097623E+02   # ~d_R
#    BR                NDA      ID1      ID2
     9.62240441E-03    2     1000022         1   # BR(~d_R -> chi^0_1 d)
     9.90335049E-01    2     1000021         1   # BR(~d_R -> ~g d)
DECAY   1000001     7.07544805E+02   # ~d_L
#    BR                NDA      ID1      ID2
     1.98451042E-03    2     1000022         1   # BR(~d_L -> chi^0_1 d)
     1.78690880E-04    2     1000023         1   # BR(~d_L -> chi^0_2 d)
     5.97582816E-02    2     1000035         1   # BR(~d_L -> chi^0_4 d)
     1.57719258E-04    2    -1000024         2   # BR(~d_L -> chi^-_1 u)
     1.19838482E-01    2    -1000037         2   # BR(~d_L -> chi^-_2 u)
     8.18007166E-01    2     1000021         1   # BR(~d_L -> ~g d)
DECAY   2000003     5.82109296E+02   # ~s_R
#    BR                NDA      ID1      ID2
     9.62225674E-03    2     1000022         3   # BR(~s_R -> chi^0_1 s)
     9.90315389E-01    2     1000021         3   # BR(~s_R -> ~g s)
DECAY   1000003     7.07554354E+02   # ~s_L
#    BR                NDA      ID1      ID2
     1.98452028E-03    2     1000022         3   # BR(~s_L -> chi^0_1 s)
     1.82766597E-04    2     1000023         3   # BR(~s_L -> chi^0_2 s)
     5.97574876E-02    2     1000035         3   # BR(~s_L -> chi^0_4 s)
     1.62799465E-04    2    -1000024         4   # BR(~s_L -> chi^-_1 c)
     1.19836921E-01    2    -1000037         4   # BR(~s_L -> chi^-_2 c)
     8.17996290E-01    2     1000021         3   # BR(~s_L -> ~g s)
DECAY   1000005     7.91956153E+00   # ~b_1
#    BR                NDA      ID1      ID2
     1.73829361E-01    2     1000022         5   # BR(~b_1 -> chi^0_1 b)
     2.08004075E-01    2     1000023         5   # BR(~b_1 -> chi^0_2 b)
     2.06714937E-01    2     1000025         5   # BR(~b_1 -> chi^0_3 b)
     4.11205466E-01    2    -1000024         6   # BR(~b_1 -> chi^-_1 t)
     1.62083579E-04    2    -1000037         6   # BR(~b_1 -> chi^-_2 t)
DECAY   2000005     1.90822311E+02   # ~b_2
#    BR                NDA      ID1      ID2
     3.33126663E-03    2     1000022         5   # BR(~b_2 -> chi^0_1 b)
     1.74408287E-02    2     1000023         5   # BR(~b_2 -> chi^0_2 b)
     1.72382906E-02    2     1000025         5   # BR(~b_2 -> chi^0_3 b)
     7.73196151E-02    2     1000035         5   # BR(~b_2 -> chi^0_4 b)
     4.41628288E-01    2    -1000024         6   # BR(~b_2 -> chi^-_1 t)
     1.58623070E-01    2    -1000037         6   # BR(~b_2 -> chi^-_2 t)
     7.89859139E-02    2     1000021         5   # BR(~b_2 -> ~g b)
     2.04820531E-01    2     1000006       -24   # BR(~b_2 -> ~t_1 W^-)
     2.36091511E-04    2     1000005        23   # BR(~b_2 -> ~b_1 Z)
     3.76104360E-04    2     1000005        25   # BR(~b_2 -> ~b_1 h^0)
DECAY   2000002     5.99252340E+02   # ~u_R
#    BR                NDA      ID1      ID2
     3.73981203E-02    2     1000022         2   # BR(~u_R -> chi^0_1 u)
     9.62436734E-01    2     1000021         2   # BR(~u_R -> ~g u)
DECAY   1000002     7.07529034E+02   # ~u_L
#    BR                NDA      ID1      ID2
     1.98296408E-03    2     1000022         2   # BR(~u_L -> chi^0_1 u)
     3.19753006E-04    2     1000023         2   # BR(~u_L -> chi^0_2 u)
     5.96726254E-02    2     1000035         2   # BR(~u_L -> chi^0_4 u)
     1.00085293E-03    2     1000024         1   # BR(~u_L -> chi^+_1 d)
     1.19024292E-01    2     1000037         1   # BR(~u_L -> chi^+_2 d)
     8.17976054E-01    2     1000021         2   # BR(~u_L -> ~g u)
DECAY   2000004     5.99259632E+02   # ~c_R
#    BR                NDA      ID1      ID2
     3.73976672E-02    2     1000022         4   # BR(~c_R -> chi^0_1 c)
     9.62425116E-01    2     1000021         4   # BR(~c_R -> ~g c)
DECAY   1000004     7.07538542E+02   # ~c_L
#    BR                NDA      ID1      ID2
     1.98293773E-03    2     1000022         4   # BR(~c_L -> chi^0_1 c)
     3.22286172E-04    2     1000023         4   # BR(~c_L -> chi^0_2 c)
     5.96718511E-02    2     1000035         4   # BR(~c_L -> chi^0_4 c)
     1.00901619E-03    2     1000024         3   # BR(~c_L -> chi^+_1 s)
     1.19022717E-01    2     1000037         3   # BR(~c_L -> chi^+_2 s)
     8.17965169E-01    2     1000021         4   # BR(~c_L -> ~g c)
DECAY   1000006     1.17358705E+02   # ~t_1
#    BR                NDA      ID1      ID2
     5.64272517E-02    2     1000022         6   # BR(~t_1 -> chi^0_1 t)
     2.34367779E-01    2     1000023         6   # BR(~t_1 -> chi^0_2 t)
     2.35592663E-01    2     1000025         6   # BR(~t_1 -> chi^0_3 t)
     2.65699734E-03    2     1000035         6   # BR(~t_1 -> chi^0_4 t)
     4.65638831E-01    2     1000024         5   # BR(~t_1 -> chi^+_1 b)
     5.31561601E-03    2     1000037         5   # BR(~t_1 -> chi^+_2 b)
#    BR                NDA      ID1      ID2       ID3
DECAY   2000006     2.04795900E+02   # ~t_2
#    BR                NDA      ID1      ID2
     3.27182707E-03    2     1000022         6   # BR(~t_2 -> chi^0_1 t)
     2.06406742E-01    2     1000023         6   # BR(~t_2 -> chi^0_2 t)
     2.08464257E-01    2     1000025         6   # BR(~t_2 -> chi^0_3 t)
     7.20575643E-02    2     1000035         6   # BR(~t_2 -> chi^0_4 t)
     3.88361745E-02    2     1000024         5   # BR(~t_2 -> chi^+_1 b)
     1.40428121E-01    2     1000037         5   # BR(~t_2 -> chi^+_2 b)
     7.34644312E-02    2     1000021         6   # BR(~t_2 -> ~g t)
     4.42437410E-04    2     1000005        24   # BR(~t_2 -> ~b_1 W^+)
     9.61755870E-02    2     1000006        23   # BR(~t_2 -> ~t_1 Z)
     1.60452859E-01    2     1000006        25   # BR(~t_2 -> ~t_1 h^0)
DECAY   1000024     4.51244895E-01   # chi^+_1
#    BR                NDA      ID1      ID2
     9.92147228E-01    2     1000022        24   # BR(chi^+_1 -> chi^0_1 W^+)
#    BR                NDA      ID1      ID2       ID3
     7.85275196E-03    3     1000022        -5         6   # BR(chi^+_1 -> chi^0_1 b_bar t)
DECAY   1000037     1.18046679E+01   # chi^+_2
#    BR                NDA      ID1      ID2
     5.67009855E-04    2     1000022        24   # BR(chi^+_2 -> chi^0_1 W^+)
     2.46013732E-01    2     1000023        24   # BR(chi^+_2 -> chi^0_2 W^+)
     2.47825697E-01    2     1000025        24   # BR(chi^+_2 -> chi^0_3 W^+)
     2.44012737E-01    2     1000024        23   # BR(chi^+_2 -> chi^+_1 Z)
     2.43137172E-01    2     1000024        25   # BR(chi^+_2 -> chi^+_1 h^0)
#    BR                NDA      ID1      ID2       ID3
     5.82346175E-03    3     1000024         6        -6   # BR(chi^+_2 -> chi^+_1 t t_bar)
     5.60449536E-03    3     1000023        -5         6   # BR(chi^+_2 -> chi^0_2 b_bar t)
     6.99905292E-03    3     1000025        -5         6   # BR(chi^+_2 -> chi^0_3 b_bar t)
DECAY   1000022     0.00000000E+00   # chi^0_1
DECAY   1000023     4.14310045E-01   # chi^0_2
#    BR                NDA      ID1      ID2
     4.59214480E-01    2     1000022        23   # BR(chi^0_2 -> chi^0_1 Z)
     5.38972371E-01    2     1000022        25   # BR(chi^0_2 -> chi^0_1 h^0)
#    BR                NDA      ID1      ID2       ID3
     1.80947332E-03    3     1000022         6        -6   # BR(chi^0_2 -> chi^0_1 t t_bar)
DECAY   1000025     5.54786275E-01   # chi^0_3
#    BR                NDA      ID1      ID2
     4.84776061E-01    2     1000022        23   # BR(chi^0_3 -> chi^0_1 Z)
     5.13583253E-01    2     1000022        25   # BR(chi^0_3 -> chi^0_1 h^0)
#    BR                NDA      ID1      ID2       ID3
     1.61901619E-03    3     1000022         6        -6   # BR(chi^0_3 -> chi^0_1 t t_bar)
DECAY   1000035     1.44224297E+01   # chi^0_4
#    BR                NDA      ID1      ID2
     2.01280049E-01    2     1000024       -24   # BR(chi^0_4 -> chi^+_1 W^-)
     2.01280049E-01    2    -1000024        24   # BR(chi^0_4 -> chi^-_1 W^+)
     1.47308409E-04    2     1000022        23   # BR(chi^0_4 -> chi^0_1 Z)
     3.19265853E-02    2     1000023        23   # BR(chi^0_4 -> chi^0_2 Z)
     1.71894755E-01    2     1000025        23   # BR(chi^0_4 -> chi^0_3 Z)
     2.53688329E-04    2     1000022        25   # BR(chi^0_4 -> chi^0_1 h^0)
     1.67538202E-01    2     1000023        25   # BR(chi^0_4 -> chi^0_2 h^0)
     2.12257210E-01    2     1000025        25   # BR(chi^0_4 -> chi^0_3 h^0)
#    BR                NDA      ID1      ID2       ID3
     1.99868570E-03    3     1000023         6        -6   # BR(chi^0_4 -> chi^0_2 t t_bar)
     2.36236730E-03    3     1000025         6        -6   # BR(chi^0_4 -> chi^0_3 t t_bar)
     4.52156487E-03    3     1000024         5        -6   # BR(chi^0_4 -> chi^+_1 b t_bar)
     4.52156487E-03    3    -1000024        -5         6   # BR(chi^0_4 -> chi^-_1 b_bar t)
DECAY   1000021     6.02610888E+01   # ~g
#    BR                NDA      ID1      ID2
     1.51439762E-01    2     1000006        -6   # BR(~g -> ~t_1 t_bar)
     1.51439762E-01    2    -1000006         6   # BR(~g -> ~t^*_1 t)
     3.46397052E-01    2     1000005        -5   # BR(~g -> ~b_1 b_bar)
     3.46397052E-01    2    -1000005         5   # BR(~g -> ~b^*_1 b)
#    BR                NDA      ID1      ID2       ID3
     6.37856359E-04    3     1000023         6        -6   # BR(~g -> chi^0_2 t t_bar)
     6.45761414E-04    3     1000025         6        -6   # BR(~g -> chi^0_3 t t_bar)
     1.89066557E-04    3     1000035         6        -6   # BR(~g -> chi^0_4 t t_bar)
     2.10947954E-04    3     1000035         5        -5   # BR(~g -> chi^0_4 b b_bar)
     7.64831254E-04    3     1000024         5        -6   # BR(~g -> chi^+_1 b t_bar)
     7.64831254E-04    3    -1000024        -5         6   # BR(~g -> chi^-_1 b_bar t)
     4.00490710E-04    3     1000037         5        -6   # BR(~g -> chi^+_2 b t_bar)
     4.00490710E-04    3    -1000037        -5         6   # BR(~g -> chi^-_2 b_bar t)
DECAY        25     3.73222037E-03   # Gamma(h0)
     2.51775093E-03   2        22        22   # BR(h0 -> photon photon)
     1.69921076E-03   2        22        23   # BR(h0 -> photon Z)
     3.25260606E-02   2        23        23   # BR(h0 -> Z Z)
     2.63498198E-01   2       -24        24   # BR(h0 -> W W)
     7.72096266E-02   2        21        21   # BR(h0 -> gluon gluon)
     4.80358841E-09   2       -11        11   # BR(h0 -> Electron electron)
     2.13672724E-04   2       -13        13   # BR(h0 -> Muon muon)
     6.16108303E-02   2       -15        15   # BR(h0 -> Tau tau)
     1.36423126E-07   2        -2         2   # BR(h0 -> Up up)
     2.64768182E-02   2        -4         4   # BR(h0 -> Charm charm)
     5.55233836E-07   2        -1         1   # BR(h0 -> Down down)
     2.00815136E-04   2        -3         3   # BR(h0 -> Strange strange)
     5.34046320E-01   2        -5         5   # BR(h0 -> Bottom bottom)
DECAY        35     4.99960820E+01   # Gamma(HH)
     1.27307009E-08   2        22        22   # BR(HH -> photon photon)
     7.42452271E-08   2        22        23   # BR(HH -> photon Z)
     1.29490692E-06   2        23        23   # BR(HH -> Z Z)
     2.90491015E-07   2       -24        24   # BR(HH -> W W)
     6.34438307E-07   2        21        21   # BR(HH -> gluon gluon)
     3.31018369E-09   2       -11        11   # BR(HH -> Electron electron)
     1.47396213E-04   2       -13        13   # BR(HH -> Muon muon)
     4.25714014E-02   2       -15        15   # BR(HH -> Tau tau)
     5.81799384E-13   2        -2         2   # BR(HH -> Up up)
     1.12868959E-07   2        -4         4   # BR(HH -> Charm charm)
     8.79499438E-03   2        -6         6   # BR(HH -> Top top)
     2.39666289E-07   2        -1         1   # BR(HH -> Down down)
     8.66913965E-05   2        -3         3   # BR(HH -> Strange strange)
     2.45500889E-01   2        -5         5   # BR(HH -> Bottom bottom)
     5.18593812E-03   2  -1000024   1000024   # BR(HH -> Chargino1 chargino1)
     2.03796682E-01   2  -1000024   1000037   # BR(HH -> Chargino1 chargino2)
     2.03796682E-01   2  -1000037   1000024   # BR(HH -> Chargino2 chargino1)
     3.91326998E-04   2  -1000037   1000037   # BR(HH -> Chargino2 chargino2)
     7.44649795E-04   2   1000022   1000022   # BR(HH -> neutralino1 neutralino1)
     4.64476123E-02   2   1000022   1000023   # BR(HH -> neutralino1 neutralino2)
     3.63076791E-02   2   1000022   1000025   # BR(HH -> neutralino1 neutralino3)
     4.91009171E-04   2   1000022   1000035   # BR(HH -> neutralino1 neutralino4)
     5.38939918E-04   2   1000023   1000023   # BR(HH -> neutralino2 neutralino2)
     2.33453818E-05   2   1000023   1000025   # BR(HH -> neutralino2 neutralino3)
     9.69653285E-02   2   1000023   1000035   # BR(HH -> neutralino2 neutralino4)
     5.80689798E-04   2   1000025   1000025   # BR(HH -> neutralino3 neutralino3)
     1.07423433E-01   2   1000025   1000035   # BR(HH -> neutralino3 neutralino4)
     1.96212503E-04   2   1000035   1000035   # BR(HH -> neutralino4 neutralino4)
     6.43721031E-06   2        25        25   # BR(HH -> h0 h0)
DECAY        36     4.94311749E+01   # Gamma(A0)
     2.91333789E-09   2        22        22   # BR(A0 -> photon photon)
     4.46652692E-08   2        22        23   # BR(A0 -> photon Z)
     9.96853581E-06   2        21        21   # BR(A0 -> gluon gluon)
     3.22352515E-09   2       -11        11   # BR(A0 -> Electron electron)
     1.43537589E-04   2       -13        13   # BR(A0 -> Muon muon)
     4.14569837E-02   2       -15        15   # BR(A0 -> Tau tau)
     5.34372996E-13   2        -2         2   # BR(A0 -> Up up)
     1.03665678E-07   2        -4         4   # BR(A0 -> Charm charm)
     8.15738857E-03   2        -6         6   # BR(A0 -> Top top)
     2.33389744E-07   2        -1         1   # BR(A0 -> Down down)
     8.44206506E-05   2        -3         3   # BR(A0 -> Strange strange)
     2.39068764E-01   2        -5         5   # BR(A0 -> Bottom bottom)
     5.44297540E-03   2  -1000024   1000024   # BR(A0 -> Chargino1 chargino1)
     2.06005570E-01   2  -1000024   1000037   # BR(A0 -> Chargino1 chargino2)
     2.06005570E-01   2  -1000037   1000024   # BR(A0 -> Chargino2 chargino1)
     5.34360501E-04   2  -1000037   1000037   # BR(A0 -> Chargino2 chargino2)
     7.40901548E-04   2   1000022   1000022   # BR(A0 -> neutralino1 neutralino1)
     3.82130147E-02   2   1000022   1000023   # BR(A0 -> neutralino1 neutralino2)
     4.54018675E-02   2   1000022   1000025   # BR(A0 -> neutralino1 neutralino3)
     6.01733248E-04   2   1000022   1000035   # BR(A0 -> neutralino1 neutralino4)
     4.96406476E-04   2   1000023   1000023   # BR(A0 -> neutralino2 neutralino2)
     5.08948239E-07   2   1000023   1000025   # BR(A0 -> neutralino2 neutralino3)
     1.08238358E-01   2   1000023   1000035   # BR(A0 -> neutralino2 neutralino4)
     8.44181750E-04   2   1000025   1000025   # BR(A0 -> neutralino3 neutralino3)
     9.82820307E-02   2   1000025   1000035   # BR(A0 -> neutralino3 neutralino4)
     2.68452804E-04   2   1000035   1000035   # BR(A0 -> neutralino4 neutralino4)
     2.61665939E-06   2        23        25   # BR(A0 -> Z h0)
     4.06341797E-40   2        25        25   # BR(A0 -> h0 h0)
DECAY        37     5.17093734E+01   # Gamma(Hp)
     3.78931705E-09   2       -11        12   # BR(Hp -> Electron nu_e)
     1.62005139E-04   2       -13        14   # BR(Hp -> Muon nu_mu)
     4.58242778E-02   2       -15        16   # BR(Hp -> Tau nu_tau)
     2.36766741E-07   2        -1         2   # BR(Hp -> Down up)
     4.00735704E-06   2        -3         2   # BR(Hp -> Strange up)
     2.80562636E-06   2        -5         2   # BR(Hp -> Bottom up)
     1.64958076E-08   2        -1         4   # BR(Hp -> Down charm)
     8.54471685E-05   2        -3         4   # BR(Hp -> Strange charm)
     3.92888303E-04   2        -5         4   # BR(Hp -> Bottom charm)
     5.93301811E-07   2        -1         6   # BR(Hp -> Down top)
     1.30629418E-05   2        -3         6   # BR(Hp -> Strange top)
     2.73934522E-01   2        -5         6   # BR(Hp -> Bottom top)
     8.14988842E-02   2   1000022   1000024   # BR(Hp -> neutralino1 chargino1)
     1.05250511E-03   2   1000022   1000037   # BR(Hp -> neutralino1 chargino2)
     7.94013162E-04   2   1000023   1000024   # BR(Hp -> neutralino2 chargino1)
     2.00051902E-01   2   1000023   1000037   # BR(Hp -> neutralino2 chargino2)
     5.99689994E-04   2   1000024   1000025   # BR(Hp -> chargino1 neutralino3)
     1.97391458E-01   2   1000025   1000037   # BR(Hp -> neutralino3 chargino2)
     1.98189174E-01   2   1000024   1000035   # BR(Hp -> chargino1 neutralino4)
     8.95771527E-10   2   1000035   1000037   # BR(Hp -> neutralino4 chargino2)
     2.50560146E-06   2        24        25   # BR(Hp -> W h0)
     8.96478892E-13   2        24        35   # BR(Hp -> W HH)
     3.16681665E-13   2        24        36   # BR(Hp -> W A0)
DECAY         6     2.43000000E+00   # top
#    BR                NDA      ID1      ID2
     1.00000000E+00    2           5        24   # BR(t -> b W)
Block HiggsBoundsInputHiggsCouplingsFermions
# ScalarNormEffCoupSq PseudoSNormEffCoupSq NP IP1 IP2 IP2
    9.13146491E-01    0.00000000E+00        3  25   5   5  # h0-b-b eff. coupling^2, normalised to SM
    2.83685912E+02    0.00000000E+00        3  35   5   5  # H0-b-b eff. coupling^2, normalised to SM
    0.00000000E+00    2.83599059E+02        3  36   5   5  # A0-b-b eff. coupling^2, normalised to SM
#
    1.00030625E+00    0.00000000E+00        3  25   6   6  # h0-t-t eff. coupling^2, normalised to SM
    3.21985022E-03    0.00000000E+00        3  35   6   6  # H0-t-t eff. coupling^2, normalised to SM
    0.00000000E+00    3.52610479E-03        3  36   6   6  # A0-t-t eff. coupling^2, normalised to SM
#
    9.13146491E-01    0.00000000E+00        3  25  15  15  # h0-tau-tau eff. coupling^2, normalised to SM
    2.83685912E+02    0.00000000E+00        3  35  15  15  # H0-tau-tau eff. coupling^2, normalised to SM
    0.00000000E+00    2.83599059E+02        3  36  15  15  # A0-tau-tau eff. coupling^2, normalised to SM
#
Block HiggsBoundsInputHiggsCouplingsBosons
    9.99993046E-01        3  25  24  24  # h0-W-W eff. coupling^2, normalised to SM
    6.95420787E-06        3  35  24  24  # H0-W-W eff. coupling^2, normalised to SM
    0.00000000E+00        3  36  24  24  # A0-W-W eff. coupling^2, normalised to SM
#
    9.99993046E-01        3  25  23  23  # h0-Z-Z eff. coupling^2, normalised to SM
    6.95420787E-06        3  35  23  23  # H0-Z-Z eff. coupling^2, normalised to SM
    0.00000000E+00        3  36  23  23  # A0-Z-Z eff. coupling^2, normalised to SM
#
    1.26875119E+00        3  25  21  21  # h0-g-g eff. coupling^2, normalised to SM
    9.42986886E-04        3  35  21  21  # H0-g-g eff. coupling^2, normalised to SM
    9.63571330E-02        3  36  21  21  # A0-g-g eff. coupling^2, normalised to SM
#
    0.00000000E+00        3  25  25  23  # h0-h0-Z eff. coupling^2, normalised to SM
    0.00000000E+00        3  35  25  23  # H0-h0-Z eff. coupling^2, normalised to SM
    6.95420787E-06        3  36  25  23  # A0-h0-Z eff. coupling^2, normalised to SM
    0.00000000E+00        3  35  35  23  # H0-H0-Z eff. coupling^2, normalised to SM
    9.99993046E-01        3  36  35  23  # A0-H0-Z eff. coupling^2, normalised to SM
    0.00000000E+00        3  36  36  23  # A0-A0-Z eff. coupling^2, normalised to SM
#
    0.00000000E+00        4  25  21  21  23  # h0-g-g-Z eff. coupling^2, normalised to SM
    0.00000000E+00        4  35  21  21  23  # H0-g-g-Z eff. coupling^2, normalised to SM
    0.00000000E+00        4  36  21  21  23  # A0-g-g-Z eff. coupling^2, normalised to SM
Block SPhenoLowEnergy  # low energy observables
    1    3.21021166E-04   # BR(b -> s gamma)
    2    1.58977307E-06   # BR(b -> s mu+ mu-)
    3    3.52444128E-05   # BR(b -> s nu nu)
    4    2.63358048E-15   # BR(Bd -> e+ e-)
    5    1.12503508E-10   # BR(Bd -> mu+ mu-)
    6    2.35479654E-08   # BR(Bd -> tau+ tau-)
    7    8.91181385E-14   # BR(Bs -> e+ e-)
    8    3.80712193E-09   # BR(Bs -> mu+ mu-)
    9    8.07398411E-07   # BR(Bs -> tau+ tau-)
   10    9.66846142E-05   # BR(B_u -> tau nu)
   11    9.98715050E-01   # BR(B_u -> tau nu)/BR(B_u -> tau nu)_SM
   12    5.42114140E-01   # |Delta(M_Bd)| [ps^-1] 
   13    1.93695384E+01   # |Delta(M_Bs)| [ps^-1] 
   14    0.00000000E+00   # neutron EDM according to the chiral quark model
   15    0.00000000E+00   # neutron EDM according to the relativistic quark-parton model
   16    2.15778945E-03   # epsilon_K
   17    2.28166299E-15   # Delta(M_K)
   18    2.47953502E-11   # BR(K^0 -> pi^0 nu nu)
   19    8.28930102E-11   # BR(K^+ -> pi^+ nu nu)
   20   -1.91392990E-16   # Delta(g-2)_electron/2
   21   -8.18266114E-12   # Delta(g-2)_muon/2
   22   -2.31560014E-09   # Delta(g-2)_tau/2
   23    0.00000000E+00   # electric dipole moment of the electron
   24    0.00000000E+00   # electric dipole moment of the muon
   25    0.00000000E+00   # electric dipole moment of the tau
   26    0.00000000E+00   # Br(mu -> e gamma)
   27    0.00000000E+00   # Br(tau -> e gamma)
   28    0.00000000E+00   # Br(tau -> mu gamma)
   29    0.00000000E+00   # Br(mu -> 3 e)
   30    0.00000000E+00   # Br(tau -> 3 e)
   31    0.00000000E+00   # Br(tau -> 3 mu)
   39    3.45391962E-05   # Delta(rho_parameter)
   40    0.00000000E+00   # BR(Z -> e mu)
   41    0.00000000E+00   # BR(Z -> e tau)
   42    0.00000000E+00   # BR(Z -> mu tau)
Block FWCOEF Q=  1.60000000E+02  # Wilson coefficients at scale Q
#    id        order  M        value         comment
     0305 4422   00   0    -1.88819110E-01   # C7
     0305 4422   00   2    -1.89116674E-01   # C7
     0305 4322   00   2    -6.64829823E-05   # C7'
     0305 6421   00   0    -9.52278348E-02   # C8
     0305 6421   00   2    -9.88484468E-02   # C8
     0305 6321   00   2    -1.02381943E-04   # C8'
 03051111 4133   00   0     1.62301817E+00   # C9 e+e-
 03051111 4133   00   2     1.62327004E+00   # C9 e+e-
 03051111 4233   00   2     6.57335886E-05   # C9' e+e-
 03051111 4137   00   0    -4.44571027E+00   # C10 e+e-
 03051111 4137   00   2    -4.44324637E+00   # C10 e+e-
 03051111 4237   00   2    -4.88056940E-04   # C10' e+e-
 03051313 4133   00   0     1.62301817E+00   # C9 mu+mu-
 03051313 4133   00   2     1.62327000E+00   # C9 mu+mu-
 03051313 4233   00   2     6.57335801E-05   # C9' mu+mu-
 03051313 4137   00   0    -4.44571027E+00   # C10 mu+mu-
 03051313 4137   00   2    -4.44324640E+00   # C10 mu+mu-
 03051313 4237   00   2    -4.88056946E-04   # C10' mu+mu-
 03051212 4137   00   0     1.50535012E+00   # C11 nu_1 nu_1
 03051212 4137   00   2     1.50481795E+00   # C11 nu_1 nu_1
 03051212 4237   00   2     1.05622281E-04   # C11' nu_1 nu_1
 03051414 4137   00   0     1.50535012E+00   # C11 nu_2 nu_2
 03051414 4137   00   2     1.50481795E+00   # C11 nu_2 nu_2
 03051414 4237   00   2     1.05622282E-04   # C11' nu_2 nu_2
 03051616 4137   00   0     1.50535012E+00   # C11 nu_3 nu_3
 03051616 4137   00   2     1.50481795E+00   # C11 nu_3 nu_3
 03051616 4237   00   2     1.05622581E-04   # C11' nu_3 nu_3
Block IMFWCOEF Q=  1.60000000E+02  # Im(Wilson coefficients) at scale Q
#    id        order  M        value         comment
     0305 4422   00   0     3.85834628E-07   # C7
     0305 4422   00   2    -4.17481099E-06   # C7
     0305 4322   00   2     4.23120999E-07   # C7'
     0305 6421   00   0     3.30492876E-07   # C8
     0305 6421   00   2     3.77884588E-06   # C8
     0305 6321   00   2     2.84696510E-07   # C8'
 03051111 4133   00   2    -6.43365691E-08   # C9 e+e-
 03051111 4233   00   2     1.27120977E-06   # C9' e+e-
 03051111 4137   00   2     2.21693612E-06   # C10 e+e-
 03051111 4237   00   2    -9.44030950E-06   # C10' e+e-
 03051313 4133   00   2    -6.43369759E-08   # C9 mu+mu-
 03051313 4233   00   2     1.27120970E-06   # C9' mu+mu-
 03051313 4137   00   2     2.21693663E-06   # C10 mu+mu-
 03051313 4237   00   2    -9.44030968E-06   # C10' mu+mu-
 03051212 4137   00   2    -4.60779544E-07   # C11 nu_1 nu_1
 03051212 4237   00   2     2.04301543E-06   # C11' nu_1 nu_1
 03051414 4137   00   2    -4.60779524E-07   # C11 nu_2 nu_2
 03051414 4237   00   2     2.04301543E-06   # C11' nu_2 nu_2
 03051616 4137   00   2    -4.60773919E-07   # C11 nu_3 nu_3
 03051616 4237   00   2     2.04301542E-06   # C11' nu_3 nu_3
