# SUSY Les Houches Accord 2 - MSSM spectrum + Decays
# SPheno v4.0.5be
# W. Porod, Comput. Phys. Commun. 153 (2003) 275-315, hep-ph/0301101;
# W. Porod, F.~Staub, Comput. Phys. Commun. 183 (2012) 2458
#                     arXiv:1104.1573 [hep-ph] 
# in case of problems send email to porod@physik.uni-wuerzburg.de
# Created: 12.05.2022,  20:14
Block SPINFO         # Program information
     1   SPheno      # spectrum calculator
     2   v4.0.5be    # version number
#
Block SPhenoINFO     # SPheno specific information
    1      2         # using 2-loop RGEs
    2      2         # using pole masses for boundary conditions at mZ
Block MODSEL  # Model selection
    1    0    # general MSSM
Block MINPAR  # Input parameters
    3    4.84008439E+01  # tanb at m_Z    
    4    1.00000000E+00  # Sign(mu)
Block EXTPAR  # non-universal input parameters
    0    2.66267308E+03  # scale for input parameters
    1    5.60879157E+01  # M_1
    2   -6.39786411E+02  # M_2
    3    2.18650112E+03  # M_3
   11    7.07716552E+03  # A_t
   12    1.15552760E+03  # A_b
   13    1.41701541E+03  # A_tau
   23    5.53963111E+02  # mu
   25    4.72559891E+01  # tan(beta)
   26    2.91718601E+03  # m_A, pole mass
   31    1.00000000E+04  # M_L11
   32    1.00000000E+04  # M_L22
   33    1.00000000E+04  # M_L33
   34    1.00000000E+04  # M_E11
   35    1.00000000E+04  # M_E22
   36    1.00000000E+04  # M_E33
   41    1.00000000E+04  # M_Q11
   42    1.00000000E+04  # M_Q22
   43    2.64649412E+03  # M_Q33
   44    1.00000000E+04  # M_U11
   45    1.00000000E+04  # M_U22
   46    2.85801099E+03  # M_U33
   47    1.00000000E+04  # M_D11
   48    1.00000000E+04  # M_D22
   49    3.93198963E+03  # M_D33
Block SMINPUTS  # SM parameters
         1     1.27908970E+02  # alpha_em^-1(MZ)^MSbar
         2     1.16637870E-05  # G_mu [GeV^-2]
         3     1.18400000E-01  # alpha_s(MZ)^MSbar
         4     9.11876000E+01  # m_Z(pole)
         5     4.18000000E+00  # m_b(m_b), MSbar
         6     1.73200000E+02  # m_t(pole)
         7     1.77700000E+00  # m_tau(pole)
         8     0.00000000E+00  # m_nu_3
        11     5.10998930E-04  # m_e(pole)
        12     0.00000000E+00  # m_nu_1
        13     1.05658372E-01  # m_muon(pole)
        14     0.00000000E+00  # m_nu_2
        21     5.00000000E-03  # m_d(2 GeV), MSbar
        22     2.50000000E-03  # m_u(2 GeV), MSbar
        23     9.50000000E-02  # m_s(2 GeV), MSbar
        24     1.27000000E+00  # m_c(m_c), MSbar
Block gauge Q=  2.66267308E+03  # (SUSY scale)
   1    3.55362975E-01  # g'(Q)^DRbar
   2    6.65198874E-01  # g(Q)^DRbar
   3    1.21977796E+00  # g3(Q)^DRbar
Block Yu Q=  2.66267308E+03  # (SUSY scale)
  1  1     8.38624919E-06   # Y_u(Q)^DRbar
  2  2     4.26021459E-03   # Y_c(Q)^DRbar
  3  3     1.01312626E+00   # Y_t(Q)^DRbar
Block Yd Q=  2.66267308E+03  # (SUSY scale)
  1  1     7.96351621E-04   # Y_d(Q)^DRbar
  2  2     1.51306808E-02   # Y_s(Q)^DRbar
  3  3     7.89731267E-01   # Y_b(Q)^DRbar
Block Ye Q=  2.66267308E+03  # (SUSY scale)
  1  1     1.38969181E-04   # Y_e(Q)^DRbar
  2  2     2.87344192E-02   # Y_mu(Q)^DRbar
  3  3     4.83265660E-01   # Y_tau(Q)^DRbar
Block Au Q=  2.66267308E+03  # (SUSY scale)
  1  1     0.00000000E+00   # A_u(Q)^DRbar
  2  2     0.00000000E+00   # A_c(Q)^DRbar
  3  3     7.07716661E+03   # A_t(Q)^DRbar
Block Ad Q=  2.66267308E+03  # (SUSY scale)
  1  1     0.00000000E+00   # A_d(Q)^DRbar
  2  2     0.00000000E+00   # A_s(Q)^DRbar
  3  3     1.15552707E+03   # A_b(Q)^DRbar
Block Ae Q=  2.66267308E+03  # (SUSY scale)
  1  1     0.00000000E+00   # A_e(Q)^DRbar
  2  2     0.00000000E+00   # A_mu(Q)^DRbar
  3  3     1.41701537E+03   # A_tau(Q)^DRbar
Block MSOFT Q=  2.66267308E+03  # soft SUSY breaking masses at Q
   1    5.60879157E+01  # M_1
   2   -6.39786411E+02  # M_2
   3    2.18650112E+03  # M_3
  21    7.86652402E+06  # M^2_(H,d)
  22   -1.76615981E+05  # M^2_(H,u)
  31    1.00000000E+04  # M_(L,11)
  32    1.00000000E+04  # M_(L,22)
  33    1.00000000E+04  # M_(L,33)
  34    1.00000000E+04  # M_(E,11)
  35    1.00000000E+04  # M_(E,22)
  36    1.00000000E+04  # M_(E,33)
  41    1.00000000E+04  # M_(Q,11)
  42    1.00000000E+04  # M_(Q,22)
  43    2.64649412E+03  # M_(Q,33)
  44    1.00000000E+04  # M_(U,11)
  45    1.00000000E+04  # M_(U,22)
  46    2.85801099E+03  # M_(U,33)
  47    1.00000000E+04  # M_(D,11)
  48    1.00000000E+04  # M_(D,22)
  49    3.93198963E+03  # M_(D,33)
Block MASS  # Mass spectrum
#   PDG code      mass          particle
         6     1.73200000E+02  # m_t(pole)
        23     9.11876000E+01  # m_Z(pole)
        24     8.04299946E+01  # W+
        15     1.77700000E+00  # m_tau(pole)
        25     1.29128312E+02  # h0
        35     2.91628065E+03  # H0
        36     2.91718601E+03  # A0
        37     2.91906625E+03  # H+
   1000001     1.01115069E+04  # ~d_L
   2000001     1.00867235E+04  # ~d_R
   1000002     1.01111538E+04  # ~u_L
   2000002     1.00897952E+04  # ~u_R
   1000003     1.01115186E+04  # ~s_L
   2000003     1.00867444E+04  # ~s_R
   1000004     1.01111653E+04  # ~c_L
   2000004     1.00897970E+04  # ~c_R
   1000005     2.62716399E+03  # ~b_1
   2000005     3.96900962E+03  # ~b_2
   1000006     2.49824183E+03  # ~t_1
   2000006     2.83792700E+03  # ~t_2
   1000011     1.00210530E+04  # ~e_L-
   2000011     1.00089779E+04  # ~e_R-
   1000012     1.00202981E+04  # ~nu_eL
   1000013     1.00211099E+04  # ~mu_L-
   2000013     1.00090845E+04  # ~mu_R-
   1000014     1.00203535E+04  # ~nu_muL
   1000015     1.00357948E+04  # ~tau_1-
   2000015     1.00411110E+04  # ~tau_2-
   1000016     1.00362120E+04  # ~nu_tauL
   1000021     2.58382833E+03  # ~g
   1000022     5.61497213E+01  # ~chi_10
   1000023     5.44431343E+02  # ~chi_20
   1000025     5.67975122E+02  # ~chi_30
   1000035     7.17213417E+02  # ~chi_40
   1000024     5.45506921E+02  # ~chi_1+
   1000037     7.17349912E+02  # ~chi_2+
# Higgs mixing
Block alpha # Effective Higgs mixing angle
          -2.06964022E-02   # alpha
Block Hmix Q=  2.66267308E+03  # Higgs mixing parameters
   1    5.53963111E+02  # mu
   2    4.72559891E+01  # tan[beta](Q)
   3    2.43305513E+02  # v(Q)
   4    8.50997422E+06  # m^2_A(Q)
Block stopmix # stop mixing matrix
   1  1    -8.06997990E-01   # Re[R_st(1,1)]
   1  2     5.90554183E-01   # Re[R_st(1,2)]
   2  1    -5.90554183E-01   # Re[R_st(2,1)]
   2  2    -8.06997990E-01   # Re[R_st(2,2)]
Block sbotmix # sbottom mixing matrix
   1  1     9.99986938E-01   # Re[R_sb(1,1)]
   1  2     5.11116650E-03   # Re[R_sb(1,2)]
   2  1    -5.11116650E-03   # Re[R_sb(2,1)]
   2  2     9.99986938E-01   # Re[R_sb(2,2)]
Block staumix # stau mixing matrix
   1  1     8.87299505E-01   # Re[R_sta(1,1)]
   1  2     4.61193656E-01   # Re[R_sta(1,2)]
   2  1    -4.61193656E-01   # Re[R_sta(2,1)]
   2  2     8.87299505E-01   # Re[R_sta(2,2)]
Block Nmix # neutralino mixing matrix
   1  1    -9.96776661E-01   # Re[N(1,1)]
   1  2    -1.21661195E-03   # Re[N(1,2)]
   1  3    -7.96636231E-02   # Re[N(1,3)]
   1  4     9.40824729E-03   # Re[N(1,4)]
   2  1     4.72813713E-02   # Re[N(2,1)]
   2  2     3.49943650E-01   # Re[N(2,2)]
   2  3    -6.73621258E-01   # Re[N(2,3)]
   2  4    -6.49259821E-01   # Re[N(2,4)]
   3  1     6.28424926E-02   # Re[N(3,1)]
   3  2    -4.64395340E-02   # Re[N(3,2)]
   3  3    -7.01995499E-01   # Re[N(3,3)]
   3  4     7.07881707E-01   # Re[N(3,4)]
   4  1    -1.58613104E-02   # Re[N(4,1)]
   4  2     9.35618155E-01   # Re[N(4,2)]
   4  3     2.17003291E-01   # Re[N(4,3)]
   4  4     2.77986798E-01   # Re[N(4,4)]
Block Umix # chargino mixing matrix
   1  1    -3.07453628E-01   # Re[U(1,1)]
   1  2     9.51563065E-01   # Re[U(1,2)]
   2  1    -9.51563065E-01   # Re[U(2,1)]
   2  2    -3.07453628E-01   # Re[U(2,2)]
Block Vmix # chargino mixing matrix
   1  1     3.94364877E-01   # Re[V(1,1)]
   1  2     9.18953940E-01   # Re[V(1,2)]
   2  1     9.18953940E-01   # Re[V(2,1)]
   2  2    -3.94364877E-01   # Re[V(2,2)]
DECAY        23     2.49520000E+00   # Z
DECAY        24     2.08500000E+00   # W
DECAY   2000011     5.02862495E+01   # ~e^-_R
#    BR                NDA      ID1      ID2
     9.93604077E-01    2     1000022        11   # BR(~e^-_R -> chi^0_1 e^-)
     2.22258362E-03    2     1000023        11   # BR(~e^-_R -> chi^0_2 e^-)
     3.92422960E-03    2     1000025        11   # BR(~e^-_R -> chi^0_3 e^-)
     2.49033554E-04    2     1000035        11   # BR(~e^-_R -> chi^0_4 e^-)
DECAY   1000011     1.43621028E+02   # ~e^-_L
#    BR                NDA      ID1      ID2
     8.74763199E-02    2     1000022        11   # BR(~e^-_L -> chi^0_1 e^-)
     4.29795777E-02    2     1000023        11   # BR(~e^-_L -> chi^0_2 e^-)
     2.61296074E-01    2     1000035        11   # BR(~e^-_L -> chi^0_4 e^-)
     5.77178343E-02    2    -1000024        12   # BR(~e^-_L -> chi^-_1 nu_e)
     5.50479656E-01    2    -1000037        12   # BR(~e^-_L -> chi^-_2 nu_e)
#    BR                NDA      ID1      ID2       ID3
DECAY   2000013     5.06135154E+01   # ~mu^-_R
#    BR                NDA      ID1      ID2
     9.87210582E-01    2     1000022        13   # BR(~mu^-_R -> chi^0_1 mu^-)
     3.67348647E-03    2     1000023        13   # BR(~mu^-_R -> chi^0_2 mu^-)
     5.48935315E-03    2     1000025        13   # BR(~mu^-_R -> chi^0_3 mu^-)
     3.98822434E-04    2     1000035        13   # BR(~mu^-_R -> chi^0_4 mu^-)
     2.92384347E-03    2    -1000024        14   # BR(~mu^-_R -> chi^-_1 nu_mu)
     3.03912819E-04    2    -1000037        14   # BR(~mu^-_R -> chi^-_2 nu_mu)
DECAY   1000013     1.43785423E+02   # ~mu^-_L
#    BR                NDA      ID1      ID2
     8.73840664E-02    2     1000022        13   # BR(~mu^-_L -> chi^0_1 mu^-)
     4.34470779E-02    2     1000023        13   # BR(~mu^-_L -> chi^0_2 mu^-)
     6.11012666E-04    2     1000025        13   # BR(~mu^-_L -> chi^0_3 mu^-)
     2.61052207E-01    2     1000035        13   # BR(~mu^-_L -> chi^0_4 mu^-)
     5.76521748E-02    2    -1000024        14   # BR(~mu^-_L -> chi^-_1 nu_mu)
     5.49853461E-01    2    -1000037        14   # BR(~mu^-_L -> chi^-_2 nu_mu)
#    BR                NDA      ID1      ID2       ID3
DECAY   1000015     1.80265488E+02   # ~tau^-_1
#    BR                NDA      ID1      ID2
     1.24425394E-01    2     1000022        15   # BR(~tau^-_1 -> chi^0_1 tau^-)
     1.88613964E-01    2     1000023        15   # BR(~tau^-_1 -> chi^0_2 tau^-)
     1.15419192E-01    2     1000025        15   # BR(~tau^-_1 -> chi^0_3 tau^-)
     1.34435322E-01    2     1000035        15   # BR(~tau^-_1 -> chi^0_4 tau^-)
     1.70531069E-01    2    -1000024        16   # BR(~tau^-_1 -> chi^-_1 nu_tau)
     2.66575059E-01    2    -1000037        16   # BR(~tau^-_1 -> chi^-_2 nu_tau)
DECAY   2000015     1.53078571E+02   # ~tau^-_2
#    BR                NDA      ID1      ID2
     2.66949554E-01    2     1000022        15   # BR(~tau^-_2 -> chi^0_1 tau^-)
     9.38674114E-02    2     1000023        15   # BR(~tau^-_2 -> chi^0_2 tau^-)
     1.63809584E-01    2     1000025        15   # BR(~tau^-_2 -> chi^0_3 tau^-)
     1.15752928E-01    2     1000035        15   # BR(~tau^-_2 -> chi^0_4 tau^-)
     1.27668789E-01    2    -1000024        16   # BR(~tau^-_2 -> chi^-_1 nu_tau)
     2.31951734E-01    2    -1000037        16   # BR(~tau^-_2 -> chi^-_2 nu_tau)
#    BR                NDA      ID1      ID2       ID3
DECAY   1000012     1.43626321E+02   # ~nu_e
#    BR                NDA      ID1      ID2
     8.66707992E-02    2     1000022        12   # BR(~nu_e -> chi^0_1 nu_e)
     3.21814943E-02    2     1000023        12   # BR(~nu_e -> chi^0_2 nu_e)
     1.95324689E-03    2     1000025        12   # BR(~nu_e -> chi^0_3 nu_e)
     2.70904797E-01    2     1000035        12   # BR(~nu_e -> chi^0_4 nu_e)
     9.49507153E-02    2     1000024        11   # BR(~nu_e -> chi^+_1 e^-)
     5.13338948E-01    2     1000037        11   # BR(~nu_e -> chi^+_2 e^-)
#    BR                NDA      ID1      ID2       ID3
DECAY   1000014     1.43790680E+02   # ~nu_mu
#    BR                NDA      ID1      ID2
     8.65722096E-02    2     1000022        14   # BR(~nu_mu -> chi^0_1 nu_mu)
     3.21448893E-02    2     1000023        14   # BR(~nu_mu -> chi^0_2 nu_mu)
     1.95102518E-03    2     1000025        14   # BR(~nu_mu -> chi^0_3 nu_mu)
     2.70596668E-01    2     1000035        14   # BR(~nu_mu -> chi^0_4 nu_mu)
     9.58730610E-02    2     1000024        13   # BR(~nu_mu -> chi^+_1 mu^-)
     5.12862147E-01    2     1000037        13   # BR(~nu_mu -> chi^+_2 mu^-)
#    BR                NDA      ID1      ID2       ID3
DECAY   1000016     1.90195111E+02   # ~nu_tau
#    BR                NDA      ID1      ID2
     6.55536319E-02    2     1000022        16   # BR(~nu_tau -> chi^0_1 nu_tau)
     2.43409893E-02    2     1000023        16   # BR(~nu_tau -> chi^0_2 nu_tau)
     1.47737207E-03    2     1000025        16   # BR(~nu_tau -> chi^0_3 nu_tau)
     2.04906030E-01    2     1000035        16   # BR(~nu_tau -> chi^0_4 nu_tau)
     2.92509827E-01    2     1000024        15   # BR(~nu_tau -> chi^+_1 tau^-)
     4.11212150E-01    2     1000037        15   # BR(~nu_tau -> chi^+_2 tau^-)
#    BR                NDA      ID1      ID2       ID3
DECAY   2000001     7.00749626E+02   # ~d_R
#    BR                NDA      ID1      ID2
     7.98395525E-03    2     1000022         1   # BR(~d_R -> chi^0_1 d)
     9.91964288E-01    2     1000021         1   # BR(~d_R -> ~g d)
DECAY   1000001     8.30952721E+02   # ~d_L
#    BR                NDA      ID1      ID2
     1.66431988E-03    2     1000022         1   # BR(~d_L -> chi^0_1 d)
     6.21109991E-03    2     1000023         1   # BR(~d_L -> chi^0_2 d)
     1.76840432E-04    2     1000025         1   # BR(~d_L -> chi^0_3 d)
     4.66957383E-02    2     1000035         1   # BR(~d_L -> chi^0_4 d)
     1.00670041E-02    2    -1000024         2   # BR(~d_L -> chi^-_1 u)
     9.60207726E-02    2    -1000037         2   # BR(~d_L -> chi^-_2 u)
     8.39164225E-01    2     1000021         1   # BR(~d_L -> ~g d)
DECAY   2000003     7.00842538E+02   # ~s_R
#    BR                NDA      ID1      ID2
     7.98332815E-03    2     1000022         3   # BR(~s_R -> chi^0_1 s)
     9.91835413E-01    2     1000021         3   # BR(~s_R -> ~g s)
DECAY   1000003     8.31003180E+02   # ~s_L
#    BR                NDA      ID1      ID2
     1.66457145E-03    2     1000022         3   # BR(~s_L -> chi^0_1 s)
     6.23566063E-03    2     1000023         3   # BR(~s_L -> chi^0_2 s)
     2.03893496E-04    2     1000025         3   # BR(~s_L -> chi^0_3 s)
     4.66955367E-02    2     1000035         3   # BR(~s_L -> chi^0_4 s)
     1.00700871E-02    2    -1000024         4   # BR(~s_L -> chi^-_1 c)
     9.60157384E-02    2    -1000037         4   # BR(~s_L -> chi^-_2 c)
     8.39114512E-01    2     1000021         3   # BR(~s_L -> ~g s)
DECAY   1000005     1.11854074E+02   # ~b_1
#    BR                NDA      ID1      ID2
     5.13235834E-03    2     1000022         5   # BR(~b_1 -> chi^0_1 b)
     1.32469976E-01    2     1000023         5   # BR(~b_1 -> chi^0_2 b)
     1.30730837E-01    2     1000025         5   # BR(~b_1 -> chi^0_3 b)
     8.94780378E-02    2     1000035         5   # BR(~b_1 -> chi^0_4 b)
     3.80990981E-01    2    -1000024         6   # BR(~b_1 -> chi^-_1 t)
     2.29144194E-01    2    -1000037         6   # BR(~b_1 -> chi^-_2 t)
     1.97657247E-03    2     1000021         5   # BR(~b_1 -> ~g b)
     3.00770434E-02    2     1000006       -24   # BR(~b_1 -> ~t_1 W^-)
DECAY   2000005     2.01146000E+02   # ~b_2
#    BR                NDA      ID1      ID2
     1.24305028E-02    2     1000022         5   # BR(~b_2 -> chi^0_1 b)
     1.06663961E-01    2     1000023         5   # BR(~b_2 -> chi^0_2 b)
     1.15882981E-01    2     1000025         5   # BR(~b_2 -> chi^0_3 b)
     1.10787588E-02    2     1000035         5   # BR(~b_2 -> chi^0_4 b)
     2.11988163E-01    2    -1000024         6   # BR(~b_2 -> chi^-_1 t)
     2.21530138E-02    2    -1000037         6   # BR(~b_2 -> chi^-_2 t)
     5.17083477E-01    2     1000021         5   # BR(~b_2 -> ~g b)
     7.88376961E-04    2     1000006       -24   # BR(~b_2 -> ~t_1 W^-)
     2.23209967E-04    2     2000006       -24   # BR(~b_2 -> ~t_2 W^-)
     4.86465361E-04    2     1000005        23   # BR(~b_2 -> ~b_1 Z)
     1.22109090E-03    2     1000005        25   # BR(~b_2 -> ~b_1 h^0)
DECAY   2000002     7.17919681E+02   # ~u_R
#    BR                NDA      ID1      ID2
     3.11815206E-02    2     1000022         2   # BR(~u_R -> chi^0_1 u)
     1.23162518E-04    2     1000025         2   # BR(~u_R -> chi^0_3 u)
     9.68617745E-01    2     1000021         2   # BR(~u_R -> ~g u)
DECAY   1000002     8.30942033E+02   # ~u_L
#    BR                NDA      ID1      ID2
     1.71054326E-03    2     1000022         2   # BR(~u_L -> chi^0_1 u)
     6.83845636E-03    2     1000023         2   # BR(~u_L -> chi^0_2 u)
     4.61342025E-02    2     1000035         2   # BR(~u_L -> chi^0_4 u)
     1.65627075E-02    2     1000024         1   # BR(~u_L -> chi^+_1 d)
     8.95504378E-02    2     1000037         1   # BR(~u_L -> chi^+_2 d)
     8.39137525E-01    2     1000021         2   # BR(~u_L -> ~g u)
DECAY   2000004     7.17927052E+02   # ~c_R
#    BR                NDA      ID1      ID2
     3.11812052E-02    2     1000022         4   # BR(~c_R -> chi^0_1 c)
     1.25688554E-04    2     1000025         4   # BR(~c_R -> chi^0_3 c)
     9.68607980E-01    2     1000021         4   # BR(~c_R -> ~g c)
DECAY   1000004     8.30992436E+02   # ~c_L
#    BR                NDA      ID1      ID2
     1.71044178E-03    2     1000022         4   # BR(~c_L -> chi^0_1 c)
     6.83989380E-03    2     1000023         4   # BR(~c_L -> chi^0_2 c)
     4.61317872E-02    2     1000035         4   # BR(~c_L -> chi^0_4 c)
     1.66114760E-02    2     1000024         3   # BR(~c_L -> chi^+_1 s)
     8.95502773E-02    2     1000037         3   # BR(~c_L -> chi^+_2 s)
     8.39087813E-01    2     1000021         4   # BR(~c_L -> ~g c)
DECAY   1000006     1.02835244E+02   # ~t_1
#    BR                NDA      ID1      ID2
     8.54733376E-04    2     1000022         4   # BR(~t_1 -> chi^0_1 c)
     1.97158398E-02    2     1000022         6   # BR(~t_1 -> chi^0_1 t)
     3.12123335E-03    2     1000023         4   # BR(~t_1 -> chi^0_2 c)
     2.44896540E-01    2     1000023         6   # BR(~t_1 -> chi^0_2 t)
     2.39795027E-01    2     1000025         6   # BR(~t_1 -> chi^0_3 t)
     3.29133115E-02    2     1000035         6   # BR(~t_1 -> chi^0_4 t)
     4.15702715E-01    2     1000024         5   # BR(~t_1 -> chi^+_1 b)
     4.25271699E-02    2     1000037         5   # BR(~t_1 -> chi^+_2 b)
#    BR                NDA      ID1      ID2       ID3
     4.73430070E-04    3     1000022        24         5   # BR(~t_1 -> chi^0_1 W^+ b)
DECAY   2000006     1.53915629E+02   # ~t_2
#    BR                NDA      ID1      ID2
     2.81995446E-02    2     1000022         6   # BR(~t_2 -> chi^0_1 t)
     1.14286674E-01    2     1000023         6   # BR(~t_2 -> chi^0_2 t)
     1.59988423E-01    2     1000025         6   # BR(~t_2 -> chi^0_3 t)
     8.29274179E-02    2     1000035         6   # BR(~t_2 -> chi^0_4 t)
     1.87907184E-01    2     1000024         5   # BR(~t_2 -> chi^+_1 b)
     1.56691884E-01    2     1000037         5   # BR(~t_2 -> chi^+_2 b)
     4.97306964E-02    2     1000021         6   # BR(~t_2 -> ~g t)
     8.13753755E-02    2     1000005        24   # BR(~t_2 -> ~b_1 W^+)
     1.16874651E-01    2     1000006        23   # BR(~t_2 -> ~t_1 Z)
     2.20181486E-02    2     1000006        25   # BR(~t_2 -> ~t_1 h^0)
DECAY   1000024     3.07792248E-01   # chi^+_1
#    BR                NDA      ID1      ID2
     9.95106236E-01    2     1000022        24   # BR(chi^+_1 -> chi^0_1 W^+)
#    BR                NDA      ID1      ID2       ID3
     4.89356720E-03    3     1000022        -5         6   # BR(chi^+_1 -> chi^0_1 b_bar t)
DECAY   1000037     2.89584981E+00   # chi^+_2
#    BR                NDA      ID1      ID2
     2.92198578E-02    2     1000022        24   # BR(chi^+_2 -> chi^0_1 W^+)
     4.50653171E-01    2     1000023        24   # BR(chi^+_2 -> chi^0_2 W^+)
     1.72794509E-01    2     1000025        24   # BR(chi^+_2 -> chi^0_3 W^+)
     2.19274210E-01    2     1000024        23   # BR(chi^+_2 -> chi^+_1 Z)
     1.27780657E-01    2     1000024        25   # BR(chi^+_2 -> chi^+_1 h^0)
#    BR                NDA      ID1      ID2       ID3
     2.77493625E-04    3     1000022        -5         6   # BR(chi^+_2 -> chi^0_1 b_bar t)
DECAY   1000022     0.00000000E+00   # chi^0_1
DECAY   1000023     3.37370509E-01   # chi^0_2
#    BR                NDA      ID1      ID2
     5.71342325E-01    2     1000022        23   # BR(chi^0_2 -> chi^0_1 Z)
     4.28155693E-01    2     1000022        25   # BR(chi^0_2 -> chi^0_1 h^0)
#    BR                NDA      ID1      ID2       ID3
     4.69509113E-04    3     1000022         6        -6   # BR(chi^0_2 -> chi^0_1 t t_bar)
DECAY   1000025     3.47605715E-01   # chi^0_3
#    BR                NDA      ID1      ID2
     4.28118175E-01    2     1000022        23   # BR(chi^0_3 -> chi^0_1 Z)
     5.71063322E-01    2     1000022        25   # BR(chi^0_3 -> chi^0_1 h^0)
#    BR                NDA      ID1      ID2       ID3
     7.04037765E-04    3     1000022         6        -6   # BR(chi^0_3 -> chi^0_1 t t_bar)
DECAY   1000035     4.56858140E+00   # chi^0_4
#    BR                NDA      ID1      ID2
     2.86156979E-01    2     1000024       -24   # BR(chi^0_4 -> chi^+_1 W^-)
     2.86156979E-01    2    -1000024        24   # BR(chi^0_4 -> chi^-_1 W^+)
     1.07557444E-02    2     1000022        23   # BR(chi^0_4 -> chi^0_1 Z)
     3.22925297E-03    2     1000023        23   # BR(chi^0_4 -> chi^0_2 Z)
     2.38197099E-01    2     1000025        23   # BR(chi^0_4 -> chi^0_3 Z)
     9.09910770E-03    2     1000022        25   # BR(chi^0_4 -> chi^0_1 h^0)
     7.73389747E-02    2     1000023        25   # BR(chi^0_4 -> chi^0_2 h^0)
     8.89690725E-02    2     1000025        25   # BR(chi^0_4 -> chi^0_3 h^0)
#    BR                NDA      ID1      ID2       ID3
DECAY   1000021     1.41285618E+00   # ~g
#    BR                NDA      ID1      ID2
     2.87782835E-02    2     1000006        -4   # BR(~g -> ~t_1 c_bar)
     2.87782835E-02    2    -1000006         4   # BR(~g -> ~t^*_1 c)
     2.31737819E-03    2     1000023        21   # BR(~g -> chi^0_2 g)
     2.33251689E-03    2     1000025        21   # BR(~g -> chi^0_3 g)
     2.93686976E-04    2     1000035        21   # BR(~g -> chi^0_4 g)
#    BR                NDA      ID1      ID2       ID3
     1.39049043E-02    3     1000022         6        -6   # BR(~g -> chi^0_1 t t_bar)
     1.70762294E-03    3     1000022         5        -5   # BR(~g -> chi^0_1 b b_bar)
     1.68875824E-01    3     1000023         6        -6   # BR(~g -> chi^0_2 t t_bar)
     3.91065774E-02    3     1000023         5        -5   # BR(~g -> chi^0_2 b b_bar)
     1.70060610E-01    3     1000025         6        -6   # BR(~g -> chi^0_3 t t_bar)
     3.85902287E-02    3     1000025         5        -5   # BR(~g -> chi^0_3 b b_bar)
     2.14173817E-02    3     1000035         6        -6   # BR(~g -> chi^0_4 t t_bar)
     2.34891269E-02    3     1000035         5        -5   # BR(~g -> chi^0_4 b b_bar)
     1.94099581E-01    3     1000024         5        -6   # BR(~g -> chi^+_1 b t_bar)
     1.94099581E-01    3    -1000024        -5         6   # BR(~g -> chi^-_1 b_bar t)
     3.59587996E-02    3     1000037         5        -6   # BR(~g -> chi^+_2 b t_bar)
     3.59587996E-02    3    -1000037        -5         6   # BR(~g -> chi^-_2 b_bar t)
DECAY        25     4.02657757E-03   # Gamma(h0)
     2.59704951E-03   2        22        22   # BR(h0 -> photon photon)
     2.05156487E-03   2        22        23   # BR(h0 -> photon Z)
     4.38232146E-02   2        23        23   # BR(h0 -> Z Z)
     3.35390300E-01   2       -24        24   # BR(h0 -> W W)
     7.65970775E-02   2        21        21   # BR(h0 -> gluon gluon)
     4.17894589E-09   2       -11        11   # BR(h0 -> Electron electron)
     1.85888819E-04   2       -13        13   # BR(h0 -> Muon muon)
     5.36026318E-02   2       -15        15   # BR(h0 -> Tau tau)
     1.18103401E-07   2        -2         2   # BR(h0 -> Up up)
     2.29247925E-02   2        -4         4   # BR(h0 -> Charm charm)
     4.80865397E-07   2        -1         1   # BR(h0 -> Down down)
     1.73917429E-04   2        -3         3   # BR(h0 -> Strange strange)
     4.61457237E-01   2        -5         5   # BR(h0 -> Bottom bottom)
     1.19572236E-03   2   1000022   1000022   # BR(h0 -> neutralino1 neutralino1)
DECAY        35     8.69218938E+01   # Gamma(HH)
     5.36197523E-08   2        22        22   # BR(HH -> photon photon)
     1.26982710E-07   2        22        23   # BR(HH -> photon Z)
     8.65531681E-08   2        23        23   # BR(HH -> Z Z)
     2.71306379E-08   2       -24        24   # BR(HH -> W W)
     6.73097200E-06   2        21        21   # BR(HH -> gluon gluon)
     1.00455942E-08   2       -11        11   # BR(HH -> Electron electron)
     4.47272580E-04   2       -13        13   # BR(HH -> Muon muon)
     1.29177119E-01   2       -15        15   # BR(HH -> Tau tau)
     2.33831399E-14   2        -2         2   # BR(HH -> Up up)
     4.53572508E-09   2        -4         4   # BR(HH -> Charm charm)
     2.47910484E-04   2        -6         6   # BR(HH -> Top top)
     7.26341261E-07   2        -1         1   # BR(HH -> Down down)
     2.62641181E-04   2        -3         3   # BR(HH -> Strange strange)
     4.90843151E-01   2        -5         5   # BR(HH -> Bottom bottom)
     4.52675764E-02   2  -1000024   1000024   # BR(HH -> Chargino1 chargino1)
     7.93812875E-02   2  -1000024   1000037   # BR(HH -> Chargino1 chargino2)
     7.93812875E-02   2  -1000037   1000024   # BR(HH -> Chargino2 chargino1)
     2.44848686E-02   2  -1000037   1000037   # BR(HH -> Chargino2 chargino2)
     4.73008136E-04   2   1000022   1000022   # BR(HH -> neutralino1 neutralino1)
     1.92129738E-02   2   1000022   1000023   # BR(HH -> neutralino1 neutralino2)
     1.63439320E-02   2   1000022   1000025   # BR(HH -> neutralino1 neutralino3)
     8.19947658E-04   2   1000022   1000035   # BR(HH -> neutralino1 neutralino4)
     1.66990807E-02   2   1000023   1000023   # BR(HH -> neutralino2 neutralino2)
     6.72775053E-03   2   1000023   1000025   # BR(HH -> neutralino2 neutralino3)
     2.44297413E-02   2   1000023   1000035   # BR(HH -> neutralino2 neutralino4)
     6.79926232E-04   2   1000025   1000025   # BR(HH -> neutralino3 neutralino3)
     5.21453580E-02   2   1000025   1000035   # BR(HH -> neutralino3 neutralino4)
     1.29671142E-02   2   1000035   1000035   # BR(HH -> neutralino4 neutralino4)
     2.87799177E-07   2        25        25   # BR(HH -> h0 h0)
DECAY        36     8.38205429E+01   # Gamma(A0)
     3.18465804E-09   2        22        22   # BR(A0 -> photon photon)
     4.56859338E-08   2        22        23   # BR(A0 -> photon Z)
     1.24756181E-05   2        21        21   # BR(A0 -> gluon gluon)
     9.81609990E-09   2       -11        11   # BR(A0 -> Electron electron)
     4.37055617E-04   2       -13        13   # BR(A0 -> Muon muon)
     1.26226565E-01   2       -15        15   # BR(A0 -> Tau tau)
     2.41038428E-14   2        -2         2   # BR(A0 -> Up up)
     4.67511981E-09   2        -4         4   # BR(A0 -> Charm charm)
     2.62718119E-04   2        -6         6   # BR(A0 -> Top top)
     7.09716115E-07   2        -1         1   # BR(A0 -> Down down)
     2.56630809E-04   2        -3         3   # BR(A0 -> Strange strange)
     4.79599110E-01   2        -5         5   # BR(A0 -> Bottom bottom)
     5.06997584E-02   2  -1000024   1000024   # BR(A0 -> Chargino1 chargino1)
     7.87026373E-02   2  -1000024   1000037   # BR(A0 -> Chargino1 chargino2)
     7.87026373E-02   2  -1000037   1000024   # BR(A0 -> Chargino2 chargino1)
     2.89667254E-02   2  -1000037   1000037   # BR(A0 -> Chargino2 chargino2)
     4.96312000E-04   2   1000022   1000022   # BR(A0 -> neutralino1 neutralino1)
     1.82982411E-02   2   1000022   1000023   # BR(A0 -> neutralino1 neutralino2)
     1.87352740E-02   2   1000022   1000025   # BR(A0 -> neutralino1 neutralino3)
     6.81743853E-04   2   1000022   1000035   # BR(A0 -> neutralino1 neutralino4)
     1.84313374E-02   2   1000023   1000023   # BR(A0 -> neutralino2 neutralino2)
     6.77537597E-03   2   1000023   1000025   # BR(A0 -> neutralino2 neutralino3)
     2.82638488E-02   2   1000023   1000035   # BR(A0 -> neutralino2 neutralino4)
     8.98633224E-04   2   1000025   1000025   # BR(A0 -> neutralino3 neutralino3)
     4.81391806E-02   2   1000025   1000035   # BR(A0 -> neutralino3 neutralino4)
     1.54128233E-02   2   1000035   1000035   # BR(A0 -> neutralino4 neutralino4)
     1.43124394E-07   2        23        25   # BR(A0 -> Z h0)
     1.97519529E-37   2        25        25   # BR(A0 -> h0 h0)
DECAY        37     9.80632058E+01   # Gamma(Hp)
     1.15319937E-08   2       -11        12   # BR(Hp -> Electron nu_e)
     4.93028750E-04   2       -13        14   # BR(Hp -> Muon nu_mu)
     1.39456561E-01   2       -15        16   # BR(Hp -> Tau nu_tau)
     7.21561503E-07   2        -1         2   # BR(Hp -> Down up)
     1.21718923E-05   2        -3         2   # BR(Hp -> Strange up)
     5.53578394E-06   2        -5         2   # BR(Hp -> Bottom up)
     3.39868597E-08   2        -1         4   # BR(Hp -> Down charm)
     2.59960609E-04   2        -3         4   # BR(Hp -> Strange charm)
     7.75207805E-04   2        -5         4   # BR(Hp -> Bottom charm)
     3.28214098E-08   2        -1         6   # BR(Hp -> Down top)
     1.10024720E-06   2        -3         6   # BR(Hp -> Strange top)
     5.23108448E-01   2        -5         6   # BR(Hp -> Bottom top)
     3.26003822E-02   2   1000022   1000024   # BR(Hp -> neutralino1 chargino1)
     1.35234038E-03   2   1000022   1000037   # BR(Hp -> neutralino1 chargino2)
     3.50047169E-04   2   1000023   1000024   # BR(Hp -> neutralino2 chargino1)
     1.06754966E-01   2   1000023   1000037   # BR(Hp -> neutralino2 chargino2)
     1.74882188E-02   2   1000024   1000025   # BR(Hp -> chargino1 neutralino3)
     8.20433669E-02   2   1000025   1000037   # BR(Hp -> neutralino3 chargino2)
     9.52897816E-02   2   1000024   1000035   # BR(Hp -> chargino1 neutralino4)
     7.96086020E-06   2   1000035   1000037   # BR(Hp -> neutralino4 chargino2)
     1.22655719E-07   2        24        25   # BR(Hp -> W h0)
     2.32781842E-12   2        24        35   # BR(Hp -> W HH)
     3.26181678E-13   2        24        36   # BR(Hp -> W A0)
DECAY         6     2.43000000E+00   # top
#    BR                NDA      ID1      ID2
     1.00000000E+00    2           5        24   # BR(t -> b W)
Block HiggsBoundsInputHiggsCouplingsFermions
# ScalarNormEffCoupSq PseudoSNormEffCoupSq NP IP1 IP2 IP2
    9.56832353E-01    0.00000000E+00        3  25   5   5  # h0-b-b eff. coupling^2, normalised to SM
    2.23317167E+03    0.00000000E+00        3  35   5   5  # H0-b-b eff. coupling^2, normalised to SM
    0.00000000E+00    2.23312851E+03        3  36   5   5  # A0-b-b eff. coupling^2, normalised to SM
#
    1.00001933E+00    0.00000000E+00        3  25   6   6  # h0-t-t eff. coupling^2, normalised to SM
    4.28471694E-04    0.00000000E+00        3  35   6   6  # H0-t-t eff. coupling^2, normalised to SM
    0.00000000E+00    4.47802264E-04        3  36   6   6  # A0-t-t eff. coupling^2, normalised to SM
#
    9.56832353E-01    0.00000000E+00        3  25  15  15  # h0-tau-tau eff. coupling^2, normalised to SM
    2.23317167E+03    0.00000000E+00        3  35  15  15  # H0-tau-tau eff. coupling^2, normalised to SM
    0.00000000E+00    2.23312851E+03        3  36  15  15  # A0-tau-tau eff. coupling^2, normalised to SM
#
Block HiggsBoundsInputHiggsCouplingsBosons
    9.99999787E-01        3  25  24  24  # h0-W-W eff. coupling^2, normalised to SM
    2.13239683E-07        3  35  24  24  # H0-W-W eff. coupling^2, normalised to SM
    0.00000000E+00        3  36  24  24  # A0-W-W eff. coupling^2, normalised to SM
#
    9.99999787E-01        3  25  23  23  # h0-Z-Z eff. coupling^2, normalised to SM
    2.13239683E-07        3  35  23  23  # H0-Z-Z eff. coupling^2, normalised to SM
    0.00000000E+00        3  36  23  23  # A0-Z-Z eff. coupling^2, normalised to SM
#
    1.25373427E+00        3  25  21  21  # h0-g-g eff. coupling^2, normalised to SM
    1.11149645E-02        3  35  21  21  # H0-g-g eff. coupling^2, normalised to SM
    1.38096775E-01        3  36  21  21  # A0-g-g eff. coupling^2, normalised to SM
#
    0.00000000E+00        3  25  25  23  # h0-h0-Z eff. coupling^2, normalised to SM
    0.00000000E+00        3  35  25  23  # H0-h0-Z eff. coupling^2, normalised to SM
    2.13239683E-07        3  36  25  23  # A0-h0-Z eff. coupling^2, normalised to SM
    0.00000000E+00        3  35  35  23  # H0-H0-Z eff. coupling^2, normalised to SM
    9.99999787E-01        3  36  35  23  # A0-H0-Z eff. coupling^2, normalised to SM
    0.00000000E+00        3  36  36  23  # A0-A0-Z eff. coupling^2, normalised to SM
#
    0.00000000E+00        4  25  21  21  23  # h0-g-g-Z eff. coupling^2, normalised to SM
    0.00000000E+00        4  35  21  21  23  # H0-g-g-Z eff. coupling^2, normalised to SM
    0.00000000E+00        4  36  21  21  23  # A0-g-g-Z eff. coupling^2, normalised to SM
Block SPhenoLowEnergy  # low energy observables
    1    3.73851645E-04   # BR(b -> s gamma)
    2    1.58886488E-06   # BR(b -> s mu+ mu-)
    3    3.52794650E-05   # BR(b -> s nu nu)
    4    3.53228216E-15   # BR(Bd -> e+ e-)
    5    1.50894916E-10   # BR(Bd -> mu+ mu-)
    6    3.15786905E-08   # BR(Bd -> tau+ tau-)
    7    1.18802079E-13   # BR(Bs -> e+ e-)
    8    5.07521581E-09   # BR(Bs -> mu+ mu-)
    9    1.07619148E-06   # BR(Bs -> tau+ tau-)
   10    9.48295558E-05   # BR(B_u -> tau nu)
   11    9.79553006E-01   # BR(B_u -> tau nu)/BR(B_u -> tau nu)_SM
   12    5.42583821E-01   # |Delta(M_Bd)| [ps^-1] 
   13    1.93765830E+01   # |Delta(M_Bs)| [ps^-1] 
   14    0.00000000E+00   # neutron EDM according to the chiral quark model
   15    0.00000000E+00   # neutron EDM according to the relativistic quark-parton model
   16    2.16073317E-03   # epsilon_K
   17    2.28169461E-15   # Delta(M_K)
   18    2.48143519E-11   # BR(K^0 -> pi^0 nu nu)
   19    8.29398635E-11   # BR(K^+ -> pi^+ nu nu)
   20   -4.37395790E-16   # Delta(g-2)_electron/2
   21   -1.87002549E-11   # Delta(g-2)_muon/2
   22   -5.30686354E-09   # Delta(g-2)_tau/2
   23    0.00000000E+00   # electric dipole moment of the electron
   24    0.00000000E+00   # electric dipole moment of the muon
   25    0.00000000E+00   # electric dipole moment of the tau
   26    0.00000000E+00   # Br(mu -> e gamma)
   27    0.00000000E+00   # Br(tau -> e gamma)
   28    0.00000000E+00   # Br(tau -> mu gamma)
   29    0.00000000E+00   # Br(mu -> 3 e)
   30    0.00000000E+00   # Br(tau -> 3 e)
   31    0.00000000E+00   # Br(tau -> 3 mu)
   39    8.01313383E-05   # Delta(rho_parameter)
   40    0.00000000E+00   # BR(Z -> e mu)
   41    0.00000000E+00   # BR(Z -> e tau)
   42    0.00000000E+00   # BR(Z -> mu tau)
Block FWCOEF Q=  1.60000000E+02  # Wilson coefficients at scale Q
#    id        order  M        value         comment
     0305 4422   00   0    -1.88819110E-01   # C7
     0305 4422   00   2    -2.47641748E-01   # C7
     0305 4322   00   2    -3.43445218E-04   # C7'
     0305 6421   00   0    -9.52278348E-02   # C8
     0305 6421   00   2    -1.36665292E-01   # C8
     0305 6321   00   2    -3.00460146E-04   # C8'
 03051111 4133   00   0     1.61302157E+00   # C9 e+e-
 03051111 4133   00   2     1.61387557E+00   # C9 e+e-
 03051111 4233   00   2     6.33871320E-04   # C9' e+e-
 03051111 4137   00   0    -4.43571368E+00   # C10 e+e-
 03051111 4137   00   2    -4.43686908E+00   # C10 e+e-
 03051111 4237   00   2    -4.78485663E-03   # C10' e+e-
 03051313 4133   00   0     1.61302157E+00   # C9 mu+mu-
 03051313 4133   00   2     1.61387528E+00   # C9 mu+mu-
 03051313 4233   00   2     6.33870406E-04   # C9' mu+mu-
 03051313 4137   00   0    -4.43571368E+00   # C10 mu+mu-
 03051313 4137   00   2    -4.43686938E+00   # C10 mu+mu-
 03051313 4237   00   2    -4.78485674E-03   # C10' mu+mu-
 03051212 4137   00   0     1.50535012E+00   # C11 nu_1 nu_1
 03051212 4137   00   2     1.50560301E+00   # C11 nu_1 nu_1
 03051212 4237   00   2     1.03785347E-03   # C11' nu_1 nu_1
 03051414 4137   00   0     1.50535012E+00   # C11 nu_2 nu_2
 03051414 4137   00   2     1.50560301E+00   # C11 nu_2 nu_2
 03051414 4237   00   2     1.03785361E-03   # C11' nu_2 nu_2
 03051616 4137   00   0     1.50535012E+00   # C11 nu_3 nu_3
 03051616 4137   00   2     1.50560301E+00   # C11 nu_3 nu_3
 03051616 4237   00   2     1.03789389E-03   # C11' nu_3 nu_3
Block IMFWCOEF Q=  1.60000000E+02  # Im(Wilson coefficients) at scale Q
#    id        order  M        value         comment
     0305 4422   00   0     3.85729738E-07   # C7
     0305 4422   00   2    -1.48526150E-05   # C7
     0305 4322   00   2    -3.72899076E-06   # C7'
     0305 6421   00   0     3.30403031E-07   # C8
     0305 6421   00   2    -3.57157433E-05   # C8
     0305 6321   00   2    -2.25948628E-06   # C8'
 03051111 4133   00   2     5.83101335E-07   # C9 e+e-
 03051111 4233   00   2     1.23646809E-05   # C9' e+e-
 03051111 4137   00   2     5.18232490E-06   # C10 e+e-
 03051111 4237   00   2    -9.33415315E-05   # C10' e+e-
 03051313 4133   00   2     5.83093824E-07   # C9 mu+mu-
 03051313 4233   00   2     1.23646764E-05   # C9' mu+mu-
 03051313 4137   00   2     5.18233158E-06   # C10 mu+mu-
 03051313 4237   00   2    -9.33415452E-05   # C10' mu+mu-
 03051212 4137   00   2    -1.08374805E-06   # C11 nu_1 nu_1
 03051212 4237   00   2     2.02461317E-05   # C11' nu_1 nu_1
 03051414 4137   00   2    -1.08374771E-06   # C11 nu_2 nu_2
 03051414 4237   00   2     2.02461317E-05   # C11' nu_2 nu_2
 03051616 4137   00   2    -1.08365284E-06   # C11 nu_3 nu_3
 03051616 4237   00   2     2.02461317E-05   # C11' nu_3 nu_3
