# SUSY Les Houches Accord 2 - MSSM spectrum + Decays
# SPheno v4.0.5be
# W. Porod, Comput. Phys. Commun. 153 (2003) 275-315, hep-ph/0301101;
# W. Porod, F.~Staub, Comput. Phys. Commun. 183 (2012) 2458
#                     arXiv:1104.1573 [hep-ph] 
# in case of problems send email to porod@physik.uni-wuerzburg.de
# Created: 15.03.2021,  19:44
Block SPINFO         # Program information
     1   SPheno      # spectrum calculator
     2   v4.0.5be    # version number
#
Block SPhenoINFO     # SPheno specific information
    1      2         # using 2-loop RGEs
    2      2         # using pole masses for boundary conditions at mZ
Block MODSEL  # Model selection
    1    0    # general MSSM
Block MINPAR  # Input parameters
    3    1.35916042E+01  # tanb at m_Z    
    4   -1.00000000E+00  # Sign(mu)
Block EXTPAR  # non-universal input parameters
    0    3.04871729E+03  # scale for input parameters
    1   -8.18727507E+02  # M_1
    2   -1.50180738E+03  # M_2
    3    2.59281372E+03  # M_3
   11   -4.19677677E+03  # A_t
   12    9.62127737E+02  # A_b
   13    1.80845874E+03  # A_tau
   23   -1.50399196E+02  # mu
   25    1.29835705E+01  # tan(beta)
   26    2.52269323E+03  # m_A, pole mass
   31    1.00000000E+04  # M_L11
   32    1.00000000E+04  # M_L22
   33    1.00000000E+04  # M_L33
   34    1.00000000E+04  # M_E11
   35    1.00000000E+04  # M_E22
   36    1.00000000E+04  # M_E33
   41    1.00000000E+04  # M_Q11
   42    1.00000000E+04  # M_Q22
   43    2.23278020E+03  # M_Q33
   44    1.00000000E+04  # M_U11
   45    1.00000000E+04  # M_U22
   46    3.98800219E+03  # M_U33
   47    1.00000000E+04  # M_D11
   48    1.00000000E+04  # M_D22
   49    3.41971314E+03  # M_D33
Block SMINPUTS  # SM parameters
         1     1.27908970E+02  # alpha_em^-1(MZ)^MSbar
         2     1.16637870E-05  # G_mu [GeV^-2]
         3     1.18400000E-01  # alpha_s(MZ)^MSbar
         4     9.11876000E+01  # m_Z(pole)
         5     4.18000000E+00  # m_b(m_b), MSbar
         6     1.73200000E+02  # m_t(pole)
         7     1.77700000E+00  # m_tau(pole)
         8     0.00000000E+00  # m_nu_3
        11     5.10998930E-04  # m_e(pole)
        12     0.00000000E+00  # m_nu_1
        13     1.05658372E-01  # m_muon(pole)
        14     0.00000000E+00  # m_nu_2
        21     5.00000000E-03  # m_d(2 GeV), MSbar
        22     2.50000000E-03  # m_u(2 GeV), MSbar
        23     9.50000000E-02  # m_s(2 GeV), MSbar
        24     1.27000000E+00  # m_c(m_c), MSbar
Block gauge Q=  3.04871729E+03  # (SUSY scale)
   1    3.55362975E-01  # g'(Q)^DRbar
   2    6.65198874E-01  # g(Q)^DRbar
   3    1.21977796E+00  # g3(Q)^DRbar
Block Yu Q=  3.04871729E+03  # (SUSY scale)
  1  1     8.40920402E-06   # Y_u(Q)^DRbar
  2  2     4.27187564E-03   # Y_c(Q)^DRbar
  3  3     1.01589939E+00   # Y_t(Q)^DRbar
Block Yd Q=  3.04871729E+03  # (SUSY scale)
  1  1     2.19396289E-04   # Y_d(Q)^DRbar
  2  2     4.16852949E-03   # Y_s(Q)^DRbar
  3  3     2.17572370E-01   # Y_b(Q)^DRbar
Block Ye Q=  3.04871729E+03  # (SUSY scale)
  1  1     3.82862567E-05   # Y_e(Q)^DRbar
  2  2     7.91638362E-03   # Y_mu(Q)^DRbar
  3  3     1.33140549E-01   # Y_tau(Q)^DRbar
Block Au Q=  3.04871729E+03  # (SUSY scale)
  1  1     0.00000000E+00   # A_u(Q)^DRbar
  2  2     0.00000000E+00   # A_c(Q)^DRbar
  3  3    -4.19678123E+03   # A_t(Q)^DRbar
Block Ad Q=  3.04871729E+03  # (SUSY scale)
  1  1     0.00000000E+00   # A_d(Q)^DRbar
  2  2     0.00000000E+00   # A_s(Q)^DRbar
  3  3     9.62127519E+02   # A_b(Q)^DRbar
Block Ae Q=  3.04871729E+03  # (SUSY scale)
  1  1     0.00000000E+00   # A_e(Q)^DRbar
  2  2     0.00000000E+00   # A_mu(Q)^DRbar
  3  3     1.80845807E+03   # A_tau(Q)^DRbar
Block MSOFT Q=  3.04871729E+03  # soft SUSY breaking masses at Q
   1   -8.18727507E+02  # M_1
   2   -1.50180738E+03  # M_2
   3    2.59281372E+03  # M_3
  21    6.24793629E+06  # M^2_(H,d)
  22    1.23411369E+05  # M^2_(H,u)
  31    1.00000000E+04  # M_(L,11)
  32    1.00000000E+04  # M_(L,22)
  33    1.00000000E+04  # M_(L,33)
  34    1.00000000E+04  # M_(E,11)
  35    1.00000000E+04  # M_(E,22)
  36    1.00000000E+04  # M_(E,33)
  41    1.00000000E+04  # M_(Q,11)
  42    1.00000000E+04  # M_(Q,22)
  43    2.23278020E+03  # M_(Q,33)
  44    1.00000000E+04  # M_(U,11)
  45    1.00000000E+04  # M_(U,22)
  46    3.98800219E+03  # M_(U,33)
  47    1.00000000E+04  # M_(D,11)
  48    1.00000000E+04  # M_(D,22)
  49    3.41971314E+03  # M_(D,33)
Block MASS  # Mass spectrum
#   PDG code      mass          particle
         6     1.73200000E+02  # m_t(pole)
        23     9.11876000E+01  # m_Z(pole)
        24     8.04299946E+01  # W+
        15     1.77700000E+00  # m_tau(pole)
        25     1.24309273E+02  # h0
        35     2.52256593E+03  # H0
        36     2.52269323E+03  # A0
        37     2.52558676E+03  # H+
   1000001     1.01066145E+04  # ~d_L
   2000001     1.00829459E+04  # ~d_R
   1000002     1.01062518E+04  # ~u_L
   2000002     1.00861694E+04  # ~u_R
   1000003     1.01066159E+04  # ~s_L
   2000003     1.00829473E+04  # ~s_R
   1000004     1.01062533E+04  # ~c_L
   2000004     1.00861709E+04  # ~c_R
   1000005     2.33744906E+03  # ~b_1
   2000005     3.49521844E+03  # ~b_2
   1000006     2.33345228E+03  # ~t_1
   2000006     3.98323000E+03  # ~t_2
   1000011     1.00201598E+04  # ~e_L-
   2000011     1.00086246E+04  # ~e_R-
   1000012     1.00193981E+04  # ~nu_eL
   1000013     1.00201634E+04  # ~mu_L-
   2000013     1.00086316E+04  # ~mu_R-
   1000014     1.00194017E+04  # ~nu_muL
   1000015     1.00106479E+04  # ~tau_1-
   2000015     1.00212121E+04  # ~tau_2-
   1000016     1.00204389E+04  # ~nu_tauL
   1000021     3.00542537E+03  # ~g
   1000022     1.56772893E+02  # ~chi_10
   1000023     1.63137333E+02  # ~chi_20
   1000025     8.29654642E+02  # ~chi_30
   1000035     1.59875674E+03  # ~chi_40
   1000024     1.60022534E+02  # ~chi_1+
   1000037     1.59871694E+03  # ~chi_2+
# Higgs mixing
Block alpha # Effective Higgs mixing angle
          -7.37136420E-02   # alpha
Block Hmix Q=  3.04871729E+03  # Higgs mixing parameters
   1   -1.50399196E+02  # mu
   2    1.29835705E+01  # tan[beta](Q)
   3    2.43232723E+02  # v(Q)
   4    6.36398113E+06  # m^2_A(Q)
Block stopmix # stop mixing matrix
   1  1     9.98416187E-01   # Re[R_st(1,1)]
   1  2     5.62593853E-02   # Re[R_st(1,2)]
   2  1    -5.62593853E-02   # Re[R_st(2,1)]
   2  2     9.98416187E-01   # Re[R_st(2,2)]
Block sbotmix # sbottom mixing matrix
   1  1    -9.99999617E-01   # Re[R_sb(1,1)]
   1  2     8.75671924E-04   # Re[R_sb(1,2)]
   2  1    -8.75671924E-04   # Re[R_sb(2,1)]
   2  2    -9.99999617E-01   # Re[R_sb(2,2)]
Block staumix # stau mixing matrix
   1  1    -3.14937702E-02   # Re[R_sta(1,1)]
   1  2     9.99503948E-01   # Re[R_sta(1,2)]
   2  1    -9.99503948E-01   # Re[R_sta(2,1)]
   2  2    -3.14937702E-02   # Re[R_sta(2,2)]
Block Nmix # neutralino mixing matrix
   1  1    -4.92983723E-02   # Re[N(1,1)]
   1  2     4.20781848E-02   # Re[N(1,2)]
   1  3     7.13288280E-01   # Re[N(1,3)]
   1  4    -6.97867413E-01   # Re[N(1,4)]
   2  1     2.91776873E-02   # Re[N(2,1)]
   2  2    -3.03710827E-02   # Re[N(2,2)]
   2  3     7.00660525E-01   # Re[N(2,3)]
   2  4     7.12250721E-01   # Re[N(2,4)]
   3  1     9.98352839E-01   # Re[N(3,1)]
   3  2     6.11955117E-03   # Re[N(3,2)]
   3  3     1.47166756E-02   # Re[N(3,3)]
   3  4    -5.51142485E-02   # Re[N(3,4)]
   4  1    -3.15323508E-03   # Re[N(4,1)]
   4  2     9.98633854E-01   # Re[N(4,2)]
   4  3    -8.83618829E-03   # Re[N(4,3)]
   4  4     5.14043198E-02   # Re[N(4,4)]
Block Umix # chargino mixing matrix
   1  1    -1.24800712E-02   # Re[U(1,1)]
   1  2    -9.99922121E-01   # Re[U(1,2)]
   2  1    -9.99922121E-01   # Re[U(2,1)]
   2  2     1.24800712E-02   # Re[U(2,2)]
Block Vmix # chargino mixing matrix
   1  1     7.26551182E-02   # Re[V(1,1)]
   1  2     9.97357125E-01   # Re[V(1,2)]
   2  1     9.97357125E-01   # Re[V(2,1)]
   2  2    -7.26551182E-02   # Re[V(2,2)]
DECAY        23     2.49520000E+00   # Z
DECAY        24     2.08500000E+00   # W
DECAY   2000011     4.96030949E+01   # ~e^-_R
#    BR                NDA      ID1      ID2
     2.46276329E-03    2     1000022        11   # BR(~e^-_R -> chi^0_1 e^-)
     8.62665657E-04    2     1000023        11   # BR(~e^-_R -> chi^0_2 e^-)
     9.96664993E-01    2     1000025        11   # BR(~e^-_R -> chi^0_3 e^-)
DECAY   1000011     1.38086966E+02   # ~e^-_L
#    BR                NDA      ID1      ID2
     9.16787796E-02    2     1000025        11   # BR(~e^-_L -> chi^0_3 e^-)
     3.01489974E-01    2     1000035        11   # BR(~e^-_L -> chi^0_4 e^-)
     6.06582924E-01    2    -1000037        12   # BR(~e^-_L -> chi^-_2 nu_e)
#    BR                NDA      ID1      ID2       ID3
DECAY   2000013     4.96280737E+01   # ~mu^-_R
#    BR                NDA      ID1      ID2
     2.58938679E-03    2     1000022        13   # BR(~mu^-_R -> chi^0_1 mu^-)
     9.85600665E-04    2     1000023        13   # BR(~mu^-_R -> chi^0_2 mu^-)
     9.96164118E-01    2     1000025        13   # BR(~mu^-_R -> chi^0_3 mu^-)
     2.51270427E-04    2    -1000024        14   # BR(~mu^-_R -> chi^-_1 nu_mu)
DECAY   1000013     1.38099506E+02   # ~mu^-_L
#    BR                NDA      ID1      ID2
     1.25105584E-04    2     1000022        13   # BR(~mu^-_L -> chi^0_1 mu^-)
     1.14149559E-04    2     1000023        13   # BR(~mu^-_L -> chi^0_2 mu^-)
     9.16705078E-02    2     1000025        13   # BR(~mu^-_L -> chi^0_3 mu^-)
     3.01462722E-01    2     1000035        13   # BR(~mu^-_L -> chi^0_4 mu^-)
     6.06528082E-01    2    -1000037        14   # BR(~mu^-_L -> chi^-_2 nu_mu)
#    BR                NDA      ID1      ID2       ID3
DECAY   1000015     5.67555356E+01   # ~tau^-_1
#    BR                NDA      ID1      ID2
     3.44574371E-02    2     1000022        15   # BR(~tau^-_1 -> chi^0_1 tau^-)
     3.08285583E-02    2     1000023        15   # BR(~tau^-_1 -> chi^0_2 tau^-)
     8.70507542E-01    2     1000025        15   # BR(~tau^-_1 -> chi^0_3 tau^-)
     6.23646901E-04    2     1000035        15   # BR(~tau^-_1 -> chi^0_4 tau^-)
     6.23432129E-02    2    -1000024        16   # BR(~tau^-_1 -> chi^-_1 nu_tau)
     1.23960260E-03    2    -1000037        16   # BR(~tau^-_1 -> chi^-_2 nu_tau)
DECAY   2000015     1.41549798E+02   # ~tau^-_2
#    BR                NDA      ID1      ID2
     1.25034852E-02    2     1000022        15   # BR(~tau^-_2 -> chi^0_1 tau^-)
     1.24973104E-02    2     1000023        15   # BR(~tau^-_2 -> chi^0_2 tau^-)
     8.97519695E-02    2     1000025        15   # BR(~tau^-_2 -> chi^0_3 tau^-)
     2.93905136E-01    2     1000035        15   # BR(~tau^-_2 -> chi^0_4 tau^-)
     5.91318379E-01    2    -1000037        16   # BR(~tau^-_2 -> chi^-_2 nu_tau)
#    BR                NDA      ID1      ID2       ID3
DECAY   1000012     1.38090741E+02   # ~nu_e
#    BR                NDA      ID1      ID2
     1.49404099E-03    2     1000022        12   # BR(~nu_e -> chi^0_1 nu_e)
     6.74186175E-04    2     1000023        12   # BR(~nu_e -> chi^0_2 nu_e)
     8.75567776E-02    2     1000025        12   # BR(~nu_e -> chi^0_3 nu_e)
     3.03497319E-01    2     1000035        12   # BR(~nu_e -> chi^0_4 nu_e)
     3.36993356E-03    2     1000024        11   # BR(~nu_e -> chi^+_1 e^-)
     6.03407743E-01    2     1000037        11   # BR(~nu_e -> chi^+_2 e^-)
#    BR                NDA      ID1      ID2       ID3
DECAY   1000014     1.38103281E+02   # ~nu_mu
#    BR                NDA      ID1      ID2
     1.49390587E-03    2     1000022        14   # BR(~nu_mu -> chi^0_1 nu_mu)
     6.74125203E-04    2     1000023        14   # BR(~nu_mu -> chi^0_2 nu_mu)
     8.75488599E-02    2     1000025        14   # BR(~nu_mu -> chi^0_3 nu_mu)
     3.03469882E-01    2     1000035        14   # BR(~nu_mu -> chi^0_4 nu_mu)
     3.46001880E-03    2     1000024        13   # BR(~nu_mu -> chi^+_1 mu^-)
     6.03353208E-01    2     1000037        13   # BR(~nu_mu -> chi^+_2 mu^-)
#    BR                NDA      ID1      ID2       ID3
DECAY   1000016     1.41638418E+02   # ~nu_tau
#    BR                NDA      ID1      ID2
     1.45677058E-03    2     1000022        16   # BR(~nu_tau -> chi^0_1 nu_tau)
     6.57367902E-04    2     1000023        16   # BR(~nu_tau -> chi^0_2 nu_tau)
     8.53728184E-02    2     1000025        16   # BR(~nu_tau -> chi^0_3 nu_tau)
     2.95929443E-01    2     1000035        16   # BR(~nu_tau -> chi^0_4 nu_tau)
     2.82183463E-02    2     1000024        15   # BR(~nu_tau -> chi^+_1 tau^-)
     5.88365254E-01    2     1000037        15   # BR(~nu_tau -> chi^+_2 tau^-)
#    BR                NDA      ID1      ID2       ID3
DECAY   2000001     6.66295078E+02   # ~d_R
#    BR                NDA      ID1      ID2
     8.30711389E-03    2     1000025         1   # BR(~d_R -> chi^0_3 d)
     9.91665066E-01    2     1000021         1   # BR(~d_R -> ~g d)
DECAY   1000001     7.91152395E+02   # ~d_L
#    BR                NDA      ID1      ID2
     1.45364515E-04    2     1000022         1   # BR(~d_L -> chi^0_1 d)
     1.63462192E-03    2     1000025         1   # BR(~d_L -> chi^0_3 d)
     5.33626704E-02    2     1000035         1   # BR(~d_L -> chi^0_4 d)
     1.06880923E-01    2    -1000037         2   # BR(~d_L -> chi^-_2 u)
     8.37887817E-01    2     1000021         1   # BR(~d_L -> ~g d)
DECAY   2000003     6.66302155E+02   # ~s_R
#    BR                NDA      ID1      ID2
     8.30702793E-03    2     1000025         3   # BR(~s_R -> chi^0_3 s)
     9.91654725E-01    2     1000021         3   # BR(~s_R -> ~g s)
DECAY   1000003     7.91159690E+02   # ~s_L
#    BR                NDA      ID1      ID2
     1.47602735E-04    2     1000022         3   # BR(~s_L -> chi^0_1 s)
     1.63460801E-03    2     1000025         3   # BR(~s_L -> chi^0_3 s)
     5.33621868E-02    2     1000035         3   # BR(~s_L -> chi^0_4 s)
     1.06879977E-01    2    -1000037         4   # BR(~s_L -> chi^-_2 c)
     8.37880252E-01    2     1000021         3   # BR(~s_L -> ~g s)
DECAY   1000005     5.80335220E+01   # ~b_1
#    BR                NDA      ID1      ID2
     1.95882948E-02    2     1000022         5   # BR(~b_1 -> chi^0_1 b)
     1.86569268E-02    2     1000023         5   # BR(~b_1 -> chi^0_2 b)
     3.99563797E-03    2     1000025         5   # BR(~b_1 -> chi^0_3 b)
     5.01253958E-02    2     1000035         5   # BR(~b_1 -> chi^0_4 b)
     8.05815872E-01    2    -1000024         6   # BR(~b_1 -> chi^-_1 t)
     1.01817872E-01    2    -1000037         6   # BR(~b_1 -> chi^-_2 t)
DECAY   2000005     2.70264375E+01   # ~b_2
#    BR                NDA      ID1      ID2
     6.18697850E-02    2     1000022         5   # BR(~b_2 -> chi^0_1 b)
     5.96064839E-02    2     1000023         5   # BR(~b_2 -> chi^0_2 b)
     6.41079161E-02    2     1000025         5   # BR(~b_2 -> chi^0_3 b)
     1.20664358E-01    2    -1000024         6   # BR(~b_2 -> chi^-_1 t)
     6.93383262E-01    2     1000021         5   # BR(~b_2 -> ~g b)
     1.38890410E-04    2     1000006       -24   # BR(~b_2 -> ~t_1 W^-)
     1.33749356E-04    2     1000005        25   # BR(~b_2 -> ~b_1 h^0)
DECAY   2000002     6.83256491E+02   # ~u_R
#    BR                NDA      ID1      ID2
     3.24142218E-02    2     1000025         2   # BR(~u_R -> chi^0_3 u)
     9.67477337E-01    2     1000021         2   # BR(~u_R -> ~g u)
DECAY   1000002     7.91138977E+02   # ~u_L
#    BR                NDA      ID1      ID2
     1.87598537E-03    2     1000025         2   # BR(~u_L -> chi^0_3 u)
     5.32415832E-02    2     1000035         2   # BR(~u_L -> chi^0_4 u)
     5.93326937E-04    2     1000024         1   # BR(~u_L -> chi^+_1 d)
     1.06330881E-01    2     1000037         1   # BR(~u_L -> chi^+_2 d)
     8.37860290E-01    2     1000021         2   # BR(~u_L -> ~g u)
DECAY   2000004     6.83263917E+02   # ~c_R
#    BR                NDA      ID1      ID2
     3.24138882E-02    2     1000025         4   # BR(~c_R -> chi^0_3 c)
     9.67466977E-01    2     1000021         4   # BR(~c_R -> ~g c)
DECAY   1000004     7.91146249E+02   # ~c_L
#    BR                NDA      ID1      ID2
     1.87598247E-03    2     1000025         4   # BR(~c_L -> chi^0_3 c)
     5.32411097E-02    2     1000035         4   # BR(~c_L -> chi^0_4 c)
     5.97722375E-04    2     1000024         3   # BR(~c_L -> chi^+_1 s)
     1.06329921E-01    2     1000037         3   # BR(~c_L -> chi^+_2 s)
     8.37852721E-01    2     1000021         4   # BR(~c_L -> ~g c)
DECAY   1000006     5.78014037E+01   # ~t_1
#    BR                NDA      ID1      ID2
     3.93505543E-01    2     1000022         6   # BR(~t_1 -> chi^0_1 t)
     4.10147657E-01    2     1000023         6   # BR(~t_1 -> chi^0_2 t)
     8.01261607E-03    2     1000025         6   # BR(~t_1 -> chi^0_3 t)
     4.68387728E-02    2     1000035         6   # BR(~t_1 -> chi^0_4 t)
     3.75983864E-02    2     1000024         5   # BR(~t_1 -> chi^+_1 b)
     1.00459395E-01    2     1000037         5   # BR(~t_1 -> chi^+_2 b)
#    BR                NDA      ID1      ID2       ID3
     3.43760283E-03    3     1000022        24         5   # BR(~t_1 -> chi^0_1 W^+ b)
DECAY   2000006     3.13172693E+02   # ~t_2
#    BR                NDA      ID1      ID2
     1.27089588E-01    2     1000022         6   # BR(~t_2 -> chi^0_1 t)
     1.32065284E-01    2     1000023         6   # BR(~t_2 -> chi^0_2 t)
     2.59108657E-02    2     1000025         6   # BR(~t_2 -> chi^0_3 t)
     1.18578027E-04    2     1000035         6   # BR(~t_2 -> chi^0_4 t)
     2.59535892E-01    2     1000024         5   # BR(~t_2 -> chi^+_1 b)
     2.35541192E-04    2     1000037         5   # BR(~t_2 -> chi^+_2 b)
     1.79285002E-01    2     1000021         6   # BR(~t_2 -> ~g t)
     1.22014312E-01    2     1000005        24   # BR(~t_2 -> ~b_1 W^+)
     6.10765676E-02    2     1000006        23   # BR(~t_2 -> ~t_1 Z)
     9.26683660E-02    2     1000006        25   # BR(~t_2 -> ~t_1 h^0)
DECAY   1000024     1.10413145E-09   # chi^+_1
#    BR                NDA      ID1      ID2       ID3
     4.51060366E-01    3     1000022        -1         2   # BR(chi^+_1 -> chi^0_1 d_bar u)
     2.15330899E-01    3     1000022        -3         4   # BR(chi^+_1 -> chi^0_1 s_bar c)
     1.50354666E-01    3     1000022       -11        12   # BR(chi^+_1 -> chi^0_1 e^+ nu_e)
     1.49565474E-01    3     1000022       -13        14   # BR(chi^+_1 -> chi^0_1 mu^+ nu_mu)
     3.36885948E-02    3     1000022       -15        16   # BR(chi^+_1 -> chi^0_1 tau^+ nu_tau)
DECAY   1000037     1.48994008E+01   # chi^+_2
#    BR                NDA      ID1      ID2
     2.38957929E-01    2     1000022        24   # BR(chi^+_2 -> chi^0_1 W^+)
     2.48641715E-01    2     1000023        24   # BR(chi^+_2 -> chi^0_2 W^+)
     3.43219329E-03    2     1000025        24   # BR(chi^+_2 -> chi^0_3 W^+)
     2.44544122E-01    2     1000024        23   # BR(chi^+_2 -> chi^+_1 Z)
     2.38625147E-01    2     1000024        25   # BR(chi^+_2 -> chi^+_1 h^0)
#    BR                NDA      ID1      ID2       ID3
     1.03240798E-02    3     1000024         6        -6   # BR(chi^+_2 -> chi^+_1 t t_bar)
     7.26029552E-03    3     1000022        -5         6   # BR(chi^+_2 -> chi^0_1 b_bar t)
     8.12434828E-03    3     1000023        -5         6   # BR(chi^+_2 -> chi^0_2 b_bar t)
DECAY   1000022     0.00000000E+00   # chi^0_1
DECAY   1000023     5.23684485E-08   # chi^0_2
#    BR                NDA      ID1      ID2
     4.84551795E-01    2     1000022        22   # BR(chi^0_2 -> chi^0_1 photon)
#    BR                NDA      ID1      ID2       ID3
     7.73835762E-02    3     1000022         2        -2   # BR(chi^0_2 -> chi^0_1 u u_bar)
     4.49042812E-02    3     1000022         4        -4   # BR(chi^0_2 -> chi^0_1 c c_bar)
     9.92212136E-02    3     1000022         1        -1   # BR(chi^0_2 -> chi^0_1 d d_bar)
     9.89640489E-02    3     1000022         3        -3   # BR(chi^0_2 -> chi^0_1 s s_bar)
     2.23914104E-02    3     1000022        11       -11   # BR(chi^0_2 -> chi^0_1 e^- e^+)
     2.23001261E-02    3     1000022        13       -13   # BR(chi^0_2 -> chi^0_1 mu^- mu^+)
     6.43502994E-03    3     1000022        15       -15   # BR(chi^0_2 -> chi^0_1 tau^- tau^+)
     1.32687329E-01    3     1000022        12       -12   # BR(chi^0_2 -> chi^0_1 nu_e nu_bar_e)
     2.56579455E-03    3     1000024         1        -2   # BR(chi^0_2 -> chi^+_1 d u_bar)
     2.56579455E-03    3    -1000024        -1         2   # BR(chi^0_2 -> chi^-_1 d_bar u)
     1.14447693E-03    3     1000024         3        -4   # BR(chi^0_2 -> chi^+_1 s c_bar)
     1.14447693E-03    3    -1000024        -3         4   # BR(chi^0_2 -> chi^-_1 s_bar c)
     8.55265005E-04    3     1000024        11       -12   # BR(chi^0_2 -> chi^+_1 e^- nu_bar_e)
     8.55265005E-04    3    -1000024       -11        12   # BR(chi^0_2 -> chi^-_1 e^+ nu_e)
     8.50375607E-04    3     1000024        13       -14   # BR(chi^0_2 -> chi^+_1 mu^- nu_bar_mu)
     8.50375607E-04    3    -1000024       -13        14   # BR(chi^0_2 -> chi^-_1 mu^+ nu_mu)
     1.64682767E-04    3     1000024        15       -16   # BR(chi^0_2 -> chi^+_1 tau^- nu_bar_tau)
     1.64682767E-04    3    -1000024       -15        16   # BR(chi^0_2 -> chi^-_1 tau^+ nu_tau)
DECAY   1000025     2.39306418E+00   # chi^0_3
#    BR                NDA      ID1      ID2
     2.41203787E-01    2     1000024       -24   # BR(chi^0_3 -> chi^+_1 W^-)
     2.41203787E-01    2    -1000024        24   # BR(chi^0_3 -> chi^-_1 W^+)
     5.77282567E-02    2     1000022        23   # BR(chi^0_3 -> chi^0_1 Z)
     1.79810939E-01    2     1000023        23   # BR(chi^0_3 -> chi^0_2 Z)
     1.52399804E-01    2     1000022        25   # BR(chi^0_3 -> chi^0_1 h^0)
     1.19741661E-01    2     1000023        25   # BR(chi^0_3 -> chi^0_2 h^0)
#    BR                NDA      ID1      ID2       ID3
     8.23411789E-04    3     1000022         6        -6   # BR(chi^0_3 -> chi^0_1 t t_bar)
     7.96538286E-04    3     1000023         6        -6   # BR(chi^0_3 -> chi^0_2 t t_bar)
     3.14136268E-03    3     1000024         5        -6   # BR(chi^0_3 -> chi^+_1 b t_bar)
     3.14136268E-03    3    -1000024        -5         6   # BR(chi^0_3 -> chi^-_1 b_bar t)
DECAY   1000035     1.55011555E+01   # chi^0_4
#    BR                NDA      ID1      ID2
     2.36206605E-01    2     1000024       -24   # BR(chi^0_4 -> chi^+_1 W^-)
     2.36206605E-01    2    -1000024        24   # BR(chi^0_4 -> chi^-_1 W^+)
     7.63278113E-02    2     1000022        23   # BR(chi^0_4 -> chi^0_1 Z)
     1.59556920E-01    2     1000023        23   # BR(chi^0_4 -> chi^0_2 Z)
     2.60440048E-04    2     1000025        23   # BR(chi^0_4 -> chi^0_3 Z)
     1.48828738E-01    2     1000022        25   # BR(chi^0_4 -> chi^0_1 h^0)
     1.16272303E-01    2     1000023        25   # BR(chi^0_4 -> chi^0_2 h^0)
     2.61863367E-03    2     1000025        25   # BR(chi^0_4 -> chi^0_3 h^0)
#    BR                NDA      ID1      ID2       ID3
     4.19815694E-03    3     1000022         6        -6   # BR(chi^0_4 -> chi^0_1 t t_bar)
     4.27258234E-03    3     1000023         6        -6   # BR(chi^0_4 -> chi^0_2 t t_bar)
     7.57927138E-03    3     1000024         5        -6   # BR(chi^0_4 -> chi^+_1 b t_bar)
     7.57927138E-03    3    -1000024        -5         6   # BR(chi^0_4 -> chi^-_1 b_bar t)
DECAY   1000021     2.71824853E+01   # ~g
#    BR                NDA      ID1      ID2
     2.43246130E-01    2     1000006        -6   # BR(~g -> ~t_1 t_bar)
     2.43246130E-01    2    -1000006         6   # BR(~g -> ~t^*_1 t)
     2.55461589E-01    2     1000005        -5   # BR(~g -> ~b_1 b_bar)
     2.55461589E-01    2    -1000005         5   # BR(~g -> ~b^*_1 b)
#    BR                NDA      ID1      ID2       ID3
     4.94454932E-04    3     1000022         6        -6   # BR(~g -> chi^0_1 t t_bar)
     5.11887975E-04    3     1000023         6        -6   # BR(~g -> chi^0_2 t t_bar)
     5.52376376E-04    3     1000024         5        -6   # BR(~g -> chi^+_1 b t_bar)
     5.52376376E-04    3    -1000024        -5         6   # BR(~g -> chi^-_1 b_bar t)
DECAY        25     3.31110497E-03   # Gamma(h0)
     2.69297512E-03   2        22        22   # BR(h0 -> photon photon)
     1.65032891E-03   2        22        23   # BR(h0 -> photon Z)
     2.97075283E-02   2        23        23   # BR(h0 -> Z Z)
     2.48809394E-01   2       -24        24   # BR(h0 -> W W)
     8.36833434E-02   2        21        21   # BR(h0 -> gluon gluon)
     4.88319426E-09   2       -11        11   # BR(h0 -> Electron electron)
     2.17212855E-04   2       -13        13   # BR(h0 -> Muon muon)
     6.26294604E-02   2       -15        15   # BR(h0 -> Tau tau)
     1.38442742E-07   2        -2         2   # BR(h0 -> Up up)
     2.68699839E-02   2        -4         4   # BR(h0 -> Charm charm)
     5.65755470E-07   2        -1         1   # BR(h0 -> Down down)
     2.04620062E-04   2        -3         3   # BR(h0 -> Strange strange)
     5.43534443E-01   2        -5         5   # BR(h0 -> Bottom bottom)
DECAY        35     2.08141010E+01   # Gamma(HH)
     9.49711066E-08   2        22        22   # BR(HH -> photon photon)
     8.22270271E-08   2        22        23   # BR(HH -> photon Z)
     1.25700588E-05   2        23        23   # BR(HH -> Z Z)
     4.79830361E-06   2       -24        24   # BR(HH -> W W)
     2.90796904E-06   2        21        21   # BR(HH -> gluon gluon)
     2.89836797E-09   2       -11        11   # BR(HH -> Electron electron)
     1.29042506E-04   2       -13        13   # BR(HH -> Muon muon)
     3.72680168E-02   2       -15        15   # BR(HH -> Tau tau)
     1.39515901E-12   2        -2         2   # BR(HH -> Up up)
     2.70638316E-07   2        -4         4   # BR(HH -> Charm charm)
     2.04391773E-02   2        -6         6   # BR(HH -> Top top)
     2.18077745E-07   2        -1         1   # BR(HH -> Down down)
     7.88790327E-05   2        -3         3   # BR(HH -> Strange strange)
     2.09287896E-01   2        -5         5   # BR(HH -> Bottom bottom)
     5.52097563E-03   2  -1000024   1000024   # BR(HH -> Chargino1 chargino1)
     2.04031681E-01   2  -1000024   1000037   # BR(HH -> Chargino1 chargino2)
     2.04031681E-01   2  -1000037   1000024   # BR(HH -> Chargino2 chargino1)
     2.07728102E-03   2   1000022   1000022   # BR(HH -> neutralino1 neutralino1)
     2.15584427E-04   2   1000022   1000023   # BR(HH -> neutralino1 neutralino2)
     4.57261803E-02   2   1000022   1000025   # BR(HH -> neutralino1 neutralino3)
     7.87068511E-02   2   1000022   1000035   # BR(HH -> neutralino1 neutralino4)
     1.24347268E-03   2   1000023   1000023   # BR(HH -> neutralino2 neutralino2)
     6.45795907E-02   2   1000023   1000025   # BR(HH -> neutralino2 neutralino3)
     1.26559327E-01   2   1000023   1000035   # BR(HH -> neutralino2 neutralino4)
     1.13451183E-05   2   1000025   1000025   # BR(HH -> neutralino3 neutralino3)
     4.27453935E-06   2   1000025   1000035   # BR(HH -> neutralino3 neutralino4)
     6.77993431E-05   2        25        25   # BR(HH -> h0 h0)
DECAY        36     2.06684917E+01   # Gamma(A0)
     2.12832852E-07   2        22        22   # BR(A0 -> photon photon)
     2.02390513E-07   2        22        23   # BR(A0 -> photon Z)
     2.82975542E-05   2        21        21   # BR(A0 -> gluon gluon)
     2.84412374E-09   2       -11        11   # BR(A0 -> Electron electron)
     1.26626806E-04   2       -13        13   # BR(A0 -> Muon muon)
     3.65704326E-02   2       -15        15   # BR(A0 -> Tau tau)
     1.33807337E-12   2        -2         2   # BR(A0 -> Up up)
     2.59551176E-07   2        -4         4   # BR(A0 -> Charm charm)
     1.99961416E-02   2        -6         6   # BR(A0 -> Top top)
     2.13992853E-07   2        -1         1   # BR(A0 -> Down down)
     7.74018985E-05   2        -3         3   # BR(A0 -> Strange strange)
     2.05369804E-01   2        -5         5   # BR(A0 -> Bottom bottom)
     5.93189230E-03   2  -1000024   1000024   # BR(A0 -> Chargino1 chargino1)
     2.05280455E-01   2  -1000024   1000037   # BR(A0 -> Chargino1 chargino2)
     2.05280455E-01   2  -1000037   1000024   # BR(A0 -> Chargino2 chargino1)
     2.82875440E-03   2   1000022   1000022   # BR(A0 -> neutralino1 neutralino1)
     3.70293434E-05   2   1000022   1000023   # BR(A0 -> neutralino1 neutralino2)
     6.67158463E-02   2   1000022   1000025   # BR(A0 -> neutralino1 neutralino3)
     1.31207108E-01   2   1000022   1000035   # BR(A0 -> neutralino1 neutralino4)
     9.40587398E-04   2   1000023   1000023   # BR(A0 -> neutralino2 neutralino2)
     4.41620449E-02   2   1000023   1000025   # BR(A0 -> neutralino2 neutralino3)
     7.52575033E-02   2   1000023   1000035   # BR(A0 -> neutralino2 neutralino4)
     6.57871689E-05   2   1000025   1000025   # BR(A0 -> neutralino3 neutralino3)
     1.04410684E-04   2   1000025   1000035   # BR(A0 -> neutralino3 neutralino4)
     1.85298871E-05   2        23        25   # BR(A0 -> Z h0)
     1.93760024E-37   2        25        25   # BR(A0 -> h0 h0)
DECAY        37     2.19335498E+01   # Gamma(Hp)
     3.51767305E-09   2       -11        12   # BR(Hp -> Electron nu_e)
     1.50391509E-04   2       -13        14   # BR(Hp -> Muon nu_mu)
     4.25392586E-02   2       -15        16   # BR(Hp -> Tau nu_tau)
     2.30030523E-07   2        -1         2   # BR(Hp -> Down up)
     3.87509192E-06   2        -3         2   # BR(Hp -> Strange up)
     2.50596735E-06   2        -5         2   # BR(Hp -> Bottom up)
     2.56570098E-08   2        -1         4   # BR(Hp -> Down charm)
     8.32190371E-05   2        -3         4   # BR(Hp -> Strange charm)
     3.50925531E-04   2        -5         4   # BR(Hp -> Bottom charm)
     1.62955382E-06   2        -1         6   # BR(Hp -> Down top)
     3.56518166E-05   2        -3         6   # BR(Hp -> Strange top)
     2.61469528E-01   2        -5         6   # BR(Hp -> Bottom top)
     2.13658650E-05   2   1000022   1000024   # BR(Hp -> neutralino1 chargino1)
     1.99440832E-01   2   1000022   1000037   # BR(Hp -> neutralino1 chargino2)
     4.10192398E-04   2   1000023   1000024   # BR(Hp -> neutralino2 chargino1)
     1.91221769E-01   2   1000023   1000037   # BR(Hp -> neutralino2 chargino2)
     1.09968585E-01   2   1000024   1000025   # BR(Hp -> chargino1 neutralino3)
     1.04547079E-04   2   1000025   1000037   # BR(Hp -> neutralino3 chargino2)
     1.94177927E-01   2   1000024   1000035   # BR(Hp -> chargino1 neutralino4)
     1.75371575E-05   2        24        25   # BR(Hp -> W h0)
     1.56054713E-11   2        24        35   # BR(Hp -> W HH)
     1.25832535E-11   2        24        36   # BR(Hp -> W A0)
DECAY         6     2.43000000E+00   # top
#    BR                NDA      ID1      ID2
     1.00000000E+00    2           5        24   # BR(t -> b W)
Block HiggsBoundsInputHiggsCouplingsFermions
# ScalarNormEffCoupSq PseudoSNormEffCoupSq NP IP1 IP2 IP2
    9.19741862E-01    0.00000000E+00        3  25   5   5  # h0-b-b eff. coupling^2, normalised to SM
    1.68653361E+02    0.00000000E+00        3  35   5   5  # H0-b-b eff. coupling^2, normalised to SM
    0.00000000E+00    1.68573103E+02        3  36   5   5  # A0-b-b eff. coupling^2, normalised to SM
#
    1.00047610E+00    0.00000000E+00        3  25   6   6  # h0-t-t eff. coupling^2, normalised to SM
    5.45604160E-03    0.00000000E+00        3  35   6   6  # H0-t-t eff. coupling^2, normalised to SM
    0.00000000E+00    5.93214447E-03        3  36   6   6  # A0-t-t eff. coupling^2, normalised to SM
#
    9.19741862E-01    0.00000000E+00        3  25  15  15  # h0-tau-tau eff. coupling^2, normalised to SM
    1.68653361E+02    0.00000000E+00        3  35  15  15  # H0-tau-tau eff. coupling^2, normalised to SM
    0.00000000E+00    1.68573103E+02        3  36  15  15  # A0-tau-tau eff. coupling^2, normalised to SM
#
Block HiggsBoundsInputHiggsCouplingsBosons
    9.99990046E-01        3  25  24  24  # h0-W-W eff. coupling^2, normalised to SM
    9.95408638E-06        3  35  24  24  # H0-W-W eff. coupling^2, normalised to SM
    0.00000000E+00        3  36  24  24  # A0-W-W eff. coupling^2, normalised to SM
#
    9.99990046E-01        3  25  23  23  # h0-Z-Z eff. coupling^2, normalised to SM
    9.95408638E-06        3  35  23  23  # H0-Z-Z eff. coupling^2, normalised to SM
    0.00000000E+00        3  36  23  23  # A0-Z-Z eff. coupling^2, normalised to SM
#
    1.26563352E+00        3  25  21  21  # h0-g-g eff. coupling^2, normalised to SM
    2.57041486E-03        3  35  21  21  # H0-g-g eff. coupling^2, normalised to SM
    1.07035162E-01        3  36  21  21  # A0-g-g eff. coupling^2, normalised to SM
#
    0.00000000E+00        3  25  25  23  # h0-h0-Z eff. coupling^2, normalised to SM
    0.00000000E+00        3  35  25  23  # H0-h0-Z eff. coupling^2, normalised to SM
    9.95408638E-06        3  36  25  23  # A0-h0-Z eff. coupling^2, normalised to SM
    0.00000000E+00        3  35  35  23  # H0-H0-Z eff. coupling^2, normalised to SM
    9.99990046E-01        3  36  35  23  # A0-H0-Z eff. coupling^2, normalised to SM
    0.00000000E+00        3  36  36  23  # A0-A0-Z eff. coupling^2, normalised to SM
#
    0.00000000E+00        4  25  21  21  23  # h0-g-g-Z eff. coupling^2, normalised to SM
    0.00000000E+00        4  35  21  21  23  # H0-g-g-Z eff. coupling^2, normalised to SM
    0.00000000E+00        4  36  21  21  23  # A0-g-g-Z eff. coupling^2, normalised to SM
Block SPhenoLowEnergy  # low energy observables
    1    3.35285934E-04   # BR(b -> s gamma)
    2    1.58865588E-06   # BR(b -> s mu+ mu-)
    3    3.52522117E-05   # BR(b -> s nu nu)
    4    2.32997631E-15   # BR(Bd -> e+ e-)
    5    9.95339769E-11   # BR(Bd -> mu+ mu-)
    6    2.08384563E-08   # BR(Bd -> tau+ tau-)
    7    7.87525052E-14   # BR(Bs -> e+ e-)
    8    3.36430562E-09   # BR(Bs -> mu+ mu-)
    9    7.13664341E-07   # BR(Bs -> tau+ tau-)
   10    9.66311728E-05   # BR(B_u -> tau nu)
   11    9.98163020E-01   # BR(B_u -> tau nu)/BR(B_u -> tau nu)_SM
   12    5.42119184E-01   # |Delta(M_Bd)| [ps^-1] 
   13    1.93694787E+01   # |Delta(M_Bs)| [ps^-1] 
   14    0.00000000E+00   # neutron EDM according to the chiral quark model
   15    0.00000000E+00   # neutron EDM according to the relativistic quark-parton model
   16    2.15788430E-03   # epsilon_K
   17    2.28166406E-15   # Delta(M_K)
   18    2.48039980E-11   # BR(K^0 -> pi^0 nu nu)
   19    8.29132539E-11   # BR(K^+ -> pi^+ nu nu)
   20    1.28859204E-16   # Delta(g-2)_electron/2
   21    5.50913581E-12   # Delta(g-2)_muon/2
   22    1.55880662E-09   # Delta(g-2)_tau/2
   23    0.00000000E+00   # electric dipole moment of the electron
   24    0.00000000E+00   # electric dipole moment of the muon
   25    0.00000000E+00   # electric dipole moment of the tau
   26    0.00000000E+00   # Br(mu -> e gamma)
   27    0.00000000E+00   # Br(tau -> e gamma)
   28    0.00000000E+00   # Br(tau -> mu gamma)
   29    0.00000000E+00   # Br(mu -> 3 e)
   30    0.00000000E+00   # Br(tau -> 3 e)
   31    0.00000000E+00   # Br(tau -> 3 mu)
   39    1.67066432E-05   # Delta(rho_parameter)
   40    0.00000000E+00   # BR(Z -> e mu)
   41    0.00000000E+00   # BR(Z -> e tau)
   42    0.00000000E+00   # BR(Z -> mu tau)
Block FWCOEF Q=  1.60000000E+02  # Wilson coefficients at scale Q
#    id        order  M        value         comment
     0305 4422   00   0    -1.88819110E-01   # C7
     0305 4422   00   2    -2.05256668E-01   # C7
     0305 4322   00   2    -1.99098408E-04   # C7'
     0305 6421   00   0    -9.52278348E-02   # C8
     0305 6421   00   2    -1.09934798E-01   # C8
     0305 6321   00   2    -2.23266940E-04   # C8'
 03051111 4133   00   0     1.61677343E+00   # C9 e+e-
 03051111 4133   00   2     1.61715814E+00   # C9 e+e-
 03051111 4233   00   2     5.61940777E-05   # C9' e+e-
 03051111 4137   00   0    -4.43946554E+00   # C10 e+e-
 03051111 4137   00   2    -4.43776847E+00   # C10 e+e-
 03051111 4237   00   2    -4.21092045E-04   # C10' e+e-
 03051313 4133   00   0     1.61677343E+00   # C9 mu+mu-
 03051313 4133   00   2     1.61715812E+00   # C9 mu+mu-
 03051313 4233   00   2     5.61940682E-05   # C9' mu+mu-
 03051313 4137   00   0    -4.43946554E+00   # C10 mu+mu-
 03051313 4137   00   2    -4.43776849E+00   # C10 mu+mu-
 03051313 4237   00   2    -4.21092044E-04   # C10' mu+mu-
 03051212 4137   00   0     1.50535012E+00   # C11 nu_1 nu_1
 03051212 4137   00   2     1.50498386E+00   # C11 nu_1 nu_1
 03051212 4237   00   2     9.12586781E-05   # C11' nu_1 nu_1
 03051414 4137   00   0     1.50535012E+00   # C11 nu_2 nu_2
 03051414 4137   00   2     1.50498386E+00   # C11 nu_2 nu_2
 03051414 4237   00   2     9.12586797E-05   # C11' nu_2 nu_2
 03051616 4137   00   0     1.50535012E+00   # C11 nu_3 nu_3
 03051616 4137   00   2     1.50498386E+00   # C11 nu_3 nu_3
 03051616 4237   00   2     9.12591382E-05   # C11' nu_3 nu_3
Block IMFWCOEF Q=  1.60000000E+02  # Im(Wilson coefficients) at scale Q
#    id        order  M        value         comment
     0305 4422   00   0     3.85819655E-07   # C7
     0305 4422   00   2     4.29050626E-06   # C7
     0305 4322   00   2    -4.48829512E-07   # C7'
     0305 6421   00   0     3.30480050E-07   # C8
     0305 6421   00   2     1.02886027E-05   # C8
     0305 6321   00   2    -2.60079575E-08   # C8'
 03051111 4133   00   2     1.13190266E-07   # C9 e+e-
 03051111 4233   00   2     1.11356356E-06   # C9' e+e-
 03051111 4137   00   2     3.49888858E-06   # C10 e+e-
 03051111 4237   00   2    -8.34655717E-06   # C10' e+e-
 03051313 4133   00   2     1.13189897E-07   # C9 mu+mu-
 03051313 4233   00   2     1.11356352E-06   # C9' mu+mu-
 03051313 4137   00   2     3.49888900E-06   # C10 mu+mu-
 03051313 4237   00   2    -8.34655728E-06   # C10' mu+mu-
 03051212 4137   00   2    -7.30768948E-07   # C11 nu_1 nu_1
 03051212 4237   00   2     1.80885942E-06   # C11' nu_1 nu_1
 03051414 4137   00   2    -7.30768935E-07   # C11 nu_2 nu_2
 03051414 4237   00   2     1.80885942E-06   # C11' nu_2 nu_2
 03051616 4137   00   2    -7.30765190E-07   # C11 nu_3 nu_3
 03051616 4237   00   2     1.80885942E-06   # C11' nu_3 nu_3
