# SUSY Les Houches Accord 2 - MSSM spectrum + Decays
# SPheno v4.0.5be
# W. Porod, Comput. Phys. Commun. 153 (2003) 275-315, hep-ph/0301101;
# W. Porod, F.~Staub, Comput. Phys. Commun. 183 (2012) 2458
#                     arXiv:1104.1573 [hep-ph] 
# in case of problems send email to porod@physik.uni-wuerzburg.de
# Created: 18.08.2022,  11:15
Block SPINFO         # Program information
     1   SPheno      # spectrum calculator
     2   v4.0.5be    # version number
#
Block SPhenoINFO     # SPheno specific information
    1      2         # using 2-loop RGEs
    2      2         # using pole masses for boundary conditions at mZ
Block MODSEL  # Model selection
    1    0    # general MSSM
Block MINPAR  # Input parameters
    3    2.79534321E+01  # tanb at m_Z    
    4    1.00000000E+00  # Sign(mu)
Block EXTPAR  # non-universal input parameters
    0    1.68822691E+03  # scale for input parameters
    1   -1.08274806E+03  # M_1
    2    7.08128005E+01  # M_2
    3    2.63403179E+03  # M_3
   11    2.83275848E+03  # A_t
   12    1.89972841E+03  # A_b
   13    3.56679846E+03  # A_tau
   23    1.22877532E+02  # mu
   25    2.70182191E+01  # tan(beta)
   26    1.03720670E+03  # m_A, pole mass
   31    3.21784721E+02  # M_L11
   32    3.21784721E+02  # M_L22
   33    1.99160997E+03  # M_L33
   34    5.82519713E+02  # M_E11
   35    5.82519713E+02  # M_E22
   36    1.11153725E+03  # M_E33
   41    3.15374540E+03  # M_Q11
   42    3.15374540E+03  # M_Q22
   43    3.23379006E+03  # M_Q33
   44    2.82439015E+03  # M_U11
   45    2.82439015E+03  # M_U22
   46    7.99479770E+02  # M_U33
   47    3.18531738E+03  # M_D11
   48    3.18531738E+03  # M_D22
   49    3.29029772E+03  # M_D33
Block SMINPUTS  # SM parameters
         1     1.27908970E+02  # alpha_em^-1(MZ)^MSbar
         2     1.16637870E-05  # G_mu [GeV^-2]
         3     1.18400000E-01  # alpha_s(MZ)^MSbar
         4     9.11876000E+01  # m_Z(pole)
         5     4.18000000E+00  # m_b(m_b), MSbar
         6     1.73200000E+02  # m_t(pole)
         7     1.77700000E+00  # m_tau(pole)
         8     0.00000000E+00  # m_nu_3
        11     5.10998930E-04  # m_e(pole)
        12     0.00000000E+00  # m_nu_1
        13     1.05658372E-01  # m_muon(pole)
        14     0.00000000E+00  # m_nu_2
        21     5.00000000E-03  # m_d(2 GeV), MSbar
        22     2.50000000E-03  # m_u(2 GeV), MSbar
        23     9.50000000E-02  # m_s(2 GeV), MSbar
        24     1.27000000E+00  # m_c(m_c), MSbar
Block gauge Q=  1.68822691E+03  # (SUSY scale)
   1    3.55362975E-01  # g'(Q)^DRbar
   2    6.65198874E-01  # g(Q)^DRbar
   3    1.21977796E+00  # g3(Q)^DRbar
Block Yu Q=  1.68822691E+03  # (SUSY scale)
  1  1     8.39011301E-06   # Y_u(Q)^DRbar
  2  2     4.26217741E-03   # Y_c(Q)^DRbar
  3  3     1.01359304E+00   # Y_t(Q)^DRbar
Block Yd Q=  1.68822691E+03  # (SUSY scale)
  1  1     4.55517197E-04   # Y_d(Q)^DRbar
  2  2     8.65482674E-03   # Y_s(Q)^DRbar
  3  3     4.51730321E-01   # Y_b(Q)^DRbar
Block Ye Q=  1.68822691E+03  # (SUSY scale)
  1  1     7.94910819E-05   # Y_e(Q)^DRbar
  2  2     1.64362346E-02   # Y_mu(Q)^DRbar
  3  3     2.76430427E-01   # Y_tau(Q)^DRbar
Block Au Q=  1.68822691E+03  # (SUSY scale)
  1  1     0.00000000E+00   # A_u(Q)^DRbar
  2  2     0.00000000E+00   # A_c(Q)^DRbar
  3  3     2.83275848E+03   # A_t(Q)^DRbar
Block Ad Q=  1.68822691E+03  # (SUSY scale)
  1  1     0.00000000E+00   # A_d(Q)^DRbar
  2  2     0.00000000E+00   # A_s(Q)^DRbar
  3  3     1.89972842E+03   # A_b(Q)^DRbar
Block Ae Q=  1.68822691E+03  # (SUSY scale)
  1  1     0.00000000E+00   # A_e(Q)^DRbar
  2  2     0.00000000E+00   # A_mu(Q)^DRbar
  3  3     3.56679845E+03   # A_tau(Q)^DRbar
Block MSOFT Q=  1.68822691E+03  # soft SUSY breaking masses at Q
   1   -1.08274806E+03  # M_1
   2    7.08128005E+01  # M_2
   3    2.63403179E+03  # M_3
  21    1.04613175E+06  # M^2_(H,d)
  22   -1.27505607E+05  # M^2_(H,u)
  31    3.21784721E+02  # M_(L,11)
  32    3.21784721E+02  # M_(L,22)
  33    1.99160997E+03  # M_(L,33)
  34    5.82519713E+02  # M_(E,11)
  35    5.82519713E+02  # M_(E,22)
  36    1.11153725E+03  # M_(E,33)
  41    3.15374540E+03  # M_(Q,11)
  42    3.15374540E+03  # M_(Q,22)
  43    3.23379006E+03  # M_(Q,33)
  44    2.82439015E+03  # M_(U,11)
  45    2.82439015E+03  # M_(U,22)
  46    7.99479770E+02  # M_(U,33)
  47    3.18531738E+03  # M_(D,11)
  48    3.18531738E+03  # M_(D,22)
  49    3.29029772E+03  # M_(D,33)
Block MASS  # Mass spectrum
#   PDG code      mass          particle
         6     1.73200000E+02  # m_t(pole)
        23     9.11876000E+01  # m_Z(pole)
        24     8.04299946E+01  # W+
        15     1.77700000E+00  # m_tau(pole)
        25     1.24127674E+02  # h0
        35     1.03703100E+03  # H0
        36     1.03720670E+03  # A0
        37     1.04105787E+03  # H+
   1000001     3.20311519E+03  # ~d_L
   2000001     3.22719807E+03  # ~d_R
   1000002     3.20227934E+03  # ~u_L
   2000002     2.87179229E+03  # ~u_R
   1000003     3.20311479E+03  # ~s_L
   2000003     3.22719749E+03  # ~s_R
   1000004     3.20227902E+03  # ~c_L
   2000004     2.87179225E+03  # ~c_R
   1000005     3.26910007E+03  # ~b_1
   2000005     3.32902735E+03  # ~b_2
   1000006     8.70450815E+02  # ~t_1
   2000006     3.27429196E+03  # ~t_2
   1000011     3.13540990E+02  # ~e_L-
   2000011     6.07998991E+02  # ~e_R-
   1000012     3.02800119E+02  # ~nu_eL
   1000013     3.13531945E+02  # ~mu_L-
   2000013     6.07988578E+02  # ~mu_R-
   1000014     3.02792676E+02  # ~nu_muL
   1000015     1.12169710E+03  # ~tau_1-
   2000015     1.98959655E+03  # ~tau_2-
   1000016     1.98770431E+03  # ~nu_tauL
   1000021     2.80772538E+03  # ~g
   1000022     5.17138549E+01  # ~chi_10
   1000023     1.44566126E+02  # ~chi_20
   1000025     1.72326847E+02  # ~chi_30
   1000035     1.07099539E+03  # ~chi_40
   1000024     5.38856725E+01  # ~chi_1+
   1000037     1.81749253E+02  # ~chi_2+
# Higgs mixing
Block alpha # Effective Higgs mixing angle
          -3.65884138E-02   # alpha
Block Hmix Q=  1.68822691E+03  # Higgs mixing parameters
   1    1.22877532E+02  # mu
   2    2.70182191E+01  # tan[beta](Q)
   3    2.43894249E+02  # v(Q)
   4    1.07579774E+06  # m^2_A(Q)
Block stopmix # stop mixing matrix
   1  1    -4.21771068E-02   # Re[R_st(1,1)]
   1  2     9.99110150E-01   # Re[R_st(1,2)]
   2  1    -9.99110150E-01   # Re[R_st(2,1)]
   2  2    -4.21771068E-02   # Re[R_st(2,2)]
Block sbotmix # sbottom mixing matrix
   1  1     9.99998518E-01   # Re[R_sb(1,1)]
   1  2     1.72190470E-03   # Re[R_sb(1,2)]
   2  1    -1.72190470E-03   # Re[R_sb(2,1)]
   2  2     9.99998518E-01   # Re[R_sb(2,2)]
Block staumix # stau mixing matrix
   1  1    -5.72348608E-05   # Re[R_sta(1,1)]
   1  2     9.99999998E-01   # Re[R_sta(1,2)]
   2  1    -9.99999998E-01   # Re[R_sta(2,1)]
   2  2    -5.72348608E-05   # Re[R_sta(2,2)]
Block Nmix # neutralino mixing matrix
   1  1    -1.02623120E-02   # Re[N(1,1)]
   1  2    -7.94113335E-01   # Re[N(1,2)]
   1  3     5.60525161E-01   # Re[N(1,3)]
   1  4    -2.34713102E-01   # Re[N(1,4)]
   2  1    -3.40736364E-02   # Re[N(2,1)]
   2  2    -2.47254087E-01   # Re[N(2,2)]
   2  3    -6.51070410E-01   # Re[N(2,3)]
   2  4    -7.16806616E-01   # Re[N(2,4)]
   3  1     2.46574990E-02   # Re[N(3,1)]
   3  2    -5.55194642E-01   # Re[N(3,2)]
   3  3    -5.11765862E-01   # Re[N(3,3)]
   3  4     6.55169153E-01   # Re[N(3,4)]
   4  1     9.99062400E-01   # Re[N(4,1)]
   4  2    -2.88728048E-03   # Re[N(4,2)]
   4  3    -3.81676470E-03   # Re[N(4,3)]
   4  4    -4.30280830E-02   # Re[N(4,4)]
Block Umix # chargino mixing matrix
   1  1    -6.97968323E-01   # Re[U(1,1)]
   1  2     7.16128634E-01   # Re[U(1,2)]
   2  1     7.16128634E-01   # Re[U(2,1)]
   2  2     6.97968323E-01   # Re[U(2,2)]
Block Vmix # chargino mixing matrix
   1  1    -9.48345437E-01   # Re[V(1,1)]
   1  2     3.17239551E-01   # Re[V(1,2)]
   2  1     3.17239551E-01   # Re[V(2,1)]
   2  2     9.48345437E-01   # Re[V(2,2)]
DECAY        23     2.49520000E+00   # Z
DECAY        24     2.08500000E+00   # W
DECAY   1000011     2.98320204E+00   # ~e^-_L
#    BR                NDA      ID1      ID2
     2.79897921E-01    2     1000022        11   # BR(~e^-_L -> chi^0_1 e^-)
     2.02117540E-02    2     1000023        11   # BR(~e^-_L -> chi^0_2 e^-)
     6.62009472E-02    2     1000025        11   # BR(~e^-_L -> chi^0_3 e^-)
     4.24497088E-01    2    -1000024        12   # BR(~e^-_L -> chi^-_1 nu_e)
     2.09192206E-01    2    -1000037        12   # BR(~e^-_L -> chi^-_2 nu_e)
#    BR                NDA      ID1      ID2       ID3
DECAY   2000011     5.04534401E-03   # ~e^-_R
#    BR                NDA      ID1      ID2
     6.28539785E-02    2     1000022        11   # BR(~e^-_R -> chi^0_1 e^-)
     6.25760143E-01    2     1000023        11   # BR(~e^-_R -> chi^0_2 e^-)
     3.11371907E-01    2     1000025        11   # BR(~e^-_R -> chi^0_3 e^-)
DECAY   1000013     2.98422546E+00   # ~mu^-_L
#    BR                NDA      ID1      ID2
     2.79959207E-01    2     1000022        13   # BR(~mu^-_L -> chi^0_1 mu^-)
     2.03533642E-02    2     1000023        13   # BR(~mu^-_L -> chi^0_2 mu^-)
     6.62473461E-02    2     1000025        13   # BR(~mu^-_L -> chi^0_3 mu^-)
     4.24337778E-01    2    -1000024        14   # BR(~mu^-_L -> chi^-_1 nu_mu)
     2.09102221E-01    2    -1000037        14   # BR(~mu^-_L -> chi^-_2 nu_mu)
#    BR                NDA      ID1      ID2       ID3
DECAY   2000013     1.10271495E-02   # ~mu^-_R
#    BR                NDA      ID1      ID2
     1.20517857E-01    2     1000022        13   # BR(~mu^-_R -> chi^0_1 mu^-)
     3.98076854E-01    2     1000023        13   # BR(~mu^-_R -> chi^0_2 mu^-)
     2.08120249E-01    2     1000025        13   # BR(~mu^-_R -> chi^0_3 mu^-)
     1.49588838E-01    2    -1000024        14   # BR(~mu^-_R -> chi^-_1 nu_mu)
     1.19709778E-01    2    -1000037        14   # BR(~mu^-_R -> chi^-_2 nu_mu)
     3.98642324E-03    2     1000013        25   # BR(~mu^-_R -> ~mu^-_L h^0)
DECAY   1000015     3.37043807E+00   # ~tau^-_1
#    BR                NDA      ID1      ID2
     1.58415325E-01    2     1000022        15   # BR(~tau^-_1 -> chi^0_1 tau^-)
     2.09269195E-01    2     1000023        15   # BR(~tau^-_1 -> chi^0_2 tau^-)
     1.27331352E-01    2     1000025        15   # BR(~tau^-_1 -> chi^0_3 tau^-)
     1.30245127E-02    2     1000035        15   # BR(~tau^-_1 -> chi^0_4 tau^-)
     2.58196124E-01    2    -1000024        16   # BR(~tau^-_1 -> chi^-_1 nu_tau)
     2.33763492E-01    2    -1000037        16   # BR(~tau^-_1 -> chi^-_2 nu_tau)
DECAY   2000015     3.03322187E+01   # ~tau^-_2
#    BR                NDA      ID1      ID2
     2.15627583E-01    2     1000022        15   # BR(~tau^-_2 -> chi^0_1 tau^-)
     6.19586103E-02    2     1000023        15   # BR(~tau^-_2 -> chi^0_2 tau^-)
     1.09286341E-01    2     1000025        15   # BR(~tau^-_2 -> chi^0_3 tau^-)
     4.10378959E-02    2     1000035        15   # BR(~tau^-_2 -> chi^0_4 tau^-)
     2.80898389E-01    2    -1000024        16   # BR(~tau^-_2 -> chi^-_1 nu_tau)
     2.91190590E-01    2    -1000037        16   # BR(~tau^-_2 -> chi^-_2 nu_tau)
#    BR                NDA      ID1      ID2       ID3
DECAY   1000012     3.37740410E+00   # ~nu_e
#    BR                NDA      ID1      ID2
     2.31319540E-01    2     1000022        12   # BR(~nu_e -> chi^0_1 nu_e)
     1.23408004E-02    2     1000023        12   # BR(~nu_e -> chi^0_2 nu_e)
     5.82736835E-02    2     1000025        12   # BR(~nu_e -> chi^0_3 nu_e)
     6.65559599E-01    2     1000024        11   # BR(~nu_e -> chi^+_1 e^-)
     3.25063764E-02    2     1000037        11   # BR(~nu_e -> chi^+_2 e^-)
DECAY   1000014     3.37839834E+00   # ~nu_mu
#    BR                NDA      ID1      ID2
     2.31245097E-01    2     1000022        14   # BR(~nu_mu -> chi^0_1 nu_mu)
     1.23365072E-02    2     1000023        14   # BR(~nu_mu -> chi^0_2 nu_mu)
     5.82523581E-02    2     1000025        14   # BR(~nu_mu -> chi^0_3 nu_mu)
     6.65573504E-01    2     1000024        13   # BR(~nu_mu -> chi^+_1 mu^-)
     3.25925331E-02    2     1000037        13   # BR(~nu_mu -> chi^+_2 mu^-)
DECAY   1000016     3.03812089E+01   # ~nu_tau
#    BR                NDA      ID1      ID2
     1.78858443E-01    2     1000022        16   # BR(~nu_tau -> chi^0_1 nu_tau)
     1.49488731E-02    2     1000023        16   # BR(~nu_tau -> chi^0_2 nu_tau)
     9.16335846E-02    2     1000025        16   # BR(~nu_tau -> chi^0_3 nu_tau)
     4.17630403E-02    2     1000035        16   # BR(~nu_tau -> chi^0_4 nu_tau)
     5.68134440E-01    2     1000024        15   # BR(~nu_tau -> chi^+_1 tau^-)
     1.04661439E-01    2     1000037        15   # BR(~nu_tau -> chi^+_2 tau^-)
DECAY   1000001     5.60777509E+01   # ~d_L
#    BR                NDA      ID1      ID2
     1.57733064E-01    2     1000022         1   # BR(~d_L -> chi^0_1 d)
     1.45654160E-02    2     1000023         1   # BR(~d_L -> chi^0_2 d)
     7.82709600E-02    2     1000025         1   # BR(~d_L -> chi^0_3 d)
     6.48301479E-03    2     1000035         1   # BR(~d_L -> chi^0_4 d)
     2.44816506E-01    2    -1000024         2   # BR(~d_L -> chi^-_1 u)
     2.56210069E-01    2    -1000037         2   # BR(~d_L -> chi^-_2 u)
     2.41920970E-01    2     1000021         1   # BR(~d_L -> ~g d)
DECAY   2000001     1.64773558E+01   # ~d_R
#    BR                NDA      ID1      ID2
     1.26783566E-04    2     1000023         1   # BR(~d_R -> chi^0_2 d)
     8.64239100E-02    2     1000035         1   # BR(~d_R -> chi^0_4 d)
     9.13370424E-01    2     1000021         1   # BR(~d_R -> ~g d)
DECAY   1000003     5.60836156E+01   # ~s_L
#    BR                NDA      ID1      ID2
     1.57743192E-01    2     1000022         3   # BR(~s_L -> chi^0_1 s)
     1.45997316E-02    2     1000023         3   # BR(~s_L -> chi^0_2 s)
     7.82848854E-02    2     1000025         3   # BR(~s_L -> chi^0_3 s)
     6.48233682E-03    2     1000035         3   # BR(~s_L -> chi^0_4 s)
     2.44792836E-01    2    -1000024         4   # BR(~s_L -> chi^-_1 c)
     2.56201807E-01    2    -1000037         4   # BR(~s_L -> chi^-_2 c)
     2.41895211E-01    2     1000021         3   # BR(~s_L -> ~g s)
DECAY   2000003     1.64868768E+01   # ~s_R
#    BR                NDA      ID1      ID2
     1.03104503E-04    2     1000022         3   # BR(~s_R -> chi^0_1 s)
     2.49520665E-04    2     1000023         3   # BR(~s_R -> chi^0_2 s)
     1.42027436E-04    2     1000025         3   # BR(~s_R -> chi^0_3 s)
     8.63739821E-02    2     1000035         3   # BR(~s_R -> chi^0_4 s)
     1.49511213E-04    2    -1000024         4   # BR(~s_R -> chi^-_1 c)
     1.41203680E-04    2    -1000037         4   # BR(~s_R -> chi^-_2 c)
     9.12840650E-01    2     1000021         3   # BR(~s_R -> ~g s)
DECAY   1000005     1.74705357E+02   # ~b_1
#    BR                NDA      ID1      ID2
     7.56461622E-02    2     1000022         5   # BR(~b_1 -> chi^0_1 b)
     3.68095827E-02    2     1000023         5   # BR(~b_1 -> chi^0_2 b)
     4.53595338E-02    2     1000025         5   # BR(~b_1 -> chi^0_3 b)
     2.14575201E-03    2     1000035         5   # BR(~b_1 -> chi^0_4 b)
     1.18003094E-01    2    -1000024         6   # BR(~b_1 -> chi^-_1 t)
     4.25194559E-01    2    -1000037         6   # BR(~b_1 -> chi^-_2 t)
     1.01653313E-01    2     1000021         5   # BR(~b_1 -> ~g b)
     1.93691063E-01    2     1000006       -24   # BR(~b_1 -> ~t_1 W^-)
     1.49694086E-03    2     1000006       -37   # BR(~b_1 -> ~t_1 H^-)
DECAY   2000005     5.02686477E+01   # ~b_2
#    BR                NDA      ID1      ID2
     8.40068150E-02    2     1000022         5   # BR(~b_2 -> chi^0_1 b)
     1.13719001E-01    2     1000023         5   # BR(~b_2 -> chi^0_2 b)
     7.03375928E-02    2     1000025         5   # BR(~b_2 -> chi^0_3 b)
     2.96649433E-02    2     1000035         5   # BR(~b_2 -> chi^0_4 b)
     1.36382047E-01    2    -1000024         6   # BR(~b_2 -> chi^-_1 t)
     1.30169280E-01    2    -1000037         6   # BR(~b_2 -> chi^-_2 t)
     4.35550221E-01    2     1000021         5   # BR(~b_2 -> ~g b)
     1.67975668E-04    2     1000006       -37   # BR(~b_2 -> ~t_1 H^-)
DECAY   2000002     5.19764401E+00   # ~u_R
#    BR                NDA      ID1      ID2
     1.29860580E-04    2     1000022         2   # BR(~u_R -> chi^0_1 u)
     1.42528482E-03    2     1000023         2   # BR(~u_R -> chi^0_2 u)
     7.44789331E-04    2     1000025         2   # BR(~u_R -> chi^0_3 u)
     9.12804656E-01    2     1000035         2   # BR(~u_R -> chi^0_4 u)
     8.48954088E-02    2     1000021         2   # BR(~u_R -> ~g u)
DECAY   1000002     5.60907486E+01   # ~u_L
#    BR                NDA      ID1      ID2
     1.59113159E-01    2     1000022         2   # BR(~u_L -> chi^0_1 u)
     1.60599390E-02    2     1000023         2   # BR(~u_L -> chi^0_2 u)
     7.57959434E-02    2     1000025         2   # BR(~u_L -> chi^0_3 u)
     6.07170222E-03    2     1000035         2   # BR(~u_L -> chi^0_4 u)
     4.51739828E-01    2     1000024         1   # BR(~u_L -> chi^+_1 d)
     5.02544244E-02    2     1000037         1   # BR(~u_L -> chi^+_2 d)
     2.40965004E-01    2     1000021         2   # BR(~u_L -> ~g u)
DECAY   2000004     5.19959204E+00   # ~c_R
#    BR                NDA      ID1      ID2
     1.40802448E-04    2     1000022         4   # BR(~c_R -> chi^0_1 c)
     1.52682902E-03    2     1000023         4   # BR(~c_R -> chi^0_2 c)
     8.29604247E-04    2     1000025         4   # BR(~c_R -> chi^0_3 c)
     9.12461913E-01    2     1000035         4   # BR(~c_R -> chi^0_4 c)
     1.78083660E-04    2     1000037         3   # BR(~c_R -> chi^+_2 s)
     8.48426927E-02    2     1000021         4   # BR(~c_R -> ~g c)
DECAY   1000004     5.60965188E+01   # ~c_L
#    BR                NDA      ID1      ID2
     1.59097839E-01    2     1000022         4   # BR(~c_L -> chi^0_1 c)
     1.60688036E-02    2     1000023         4   # BR(~c_L -> chi^0_2 c)
     7.57969921E-02    2     1000025         4   # BR(~c_L -> chi^0_3 c)
     6.07111291E-03    2     1000035         4   # BR(~c_L -> chi^0_4 c)
     4.51736773E-01    2     1000024         3   # BR(~c_L -> chi^+_1 s)
     5.02903344E-02    2     1000037         3   # BR(~c_L -> chi^+_2 s)
     2.40938145E-01    2     1000021         4   # BR(~c_L -> ~g c)
DECAY   1000006     3.18103815E+01   # ~t_1
#    BR                NDA      ID1      ID2
     1.30149206E-04    2     1000022         4   # BR(~t_1 -> chi^0_1 c)
     2.46969067E-02    2     1000022         6   # BR(~t_1 -> chi^0_1 t)
     2.48379779E-01    2     1000023         6   # BR(~t_1 -> chi^0_2 t)
     2.11856037E-01    2     1000025         6   # BR(~t_1 -> chi^0_3 t)
     4.70048267E-02    2     1000024         5   # BR(~t_1 -> chi^+_1 b)
     4.67919739E-01    2     1000037         5   # BR(~t_1 -> chi^+_2 b)
#    BR                NDA      ID1      ID2       ID3
DECAY   2000006     1.80323272E+02   # ~t_2
#    BR                NDA      ID1      ID2
     7.31157611E-02    2     1000022         6   # BR(~t_2 -> chi^0_1 t)
     1.95946167E-01    2     1000023         6   # BR(~t_2 -> chi^0_2 t)
     1.76734933E-01    2     1000025         6   # BR(~t_2 -> chi^0_3 t)
     2.90493617E-03    2     1000035         6   # BR(~t_2 -> chi^0_4 t)
     1.87372257E-01    2     1000024         5   # BR(~t_2 -> chi^+_1 b)
     4.60438469E-02    2     1000037         5   # BR(~t_2 -> chi^+_2 b)
     9.48928792E-02    2     1000021         6   # BR(~t_2 -> ~g t)
     9.41174088E-02    2     1000006        23   # BR(~t_2 -> ~t_1 Z)
     7.27565000E-04    2     1000006        36   # BR(~t_2 -> ~t_1 A^0)
     1.27428709E-01    2     1000006        25   # BR(~t_2 -> ~t_1 h^0)
     7.15536911E-04    2     1000006        35   # BR(~t_2 -> ~t_1 H^0)
DECAY   1000024     1.08800419E-10   # chi^+_1
#    BR                NDA      ID1      ID2       ID3
     5.33566777E-01    3     1000022        -1         2   # BR(chi^+_1 -> chi^0_1 d_bar u)
     9.06706860E-02    3     1000022        -3         4   # BR(chi^+_1 -> chi^0_1 s_bar c)
     1.87778600E-01    3     1000022       -11        12   # BR(chi^+_1 -> chi^0_1 e^+ nu_e)
     1.85597075E-01    3     1000022       -13        14   # BR(chi^+_1 -> chi^0_1 mu^+ nu_mu)
     2.38686229E-03    3     1000022       -15        16   # BR(chi^+_1 -> chi^0_1 tau^+ nu_tau)
DECAY   1000037     3.34223814E-01   # chi^+_2
#    BR                NDA      ID1      ID2
     6.11892317E-01    2     1000022        24   # BR(chi^+_2 -> chi^0_1 W^+)
     3.57654046E-01    2     1000024        23   # BR(chi^+_2 -> chi^+_1 Z)
     2.97430458E-02    2     1000024        25   # BR(chi^+_2 -> chi^+_1 h^0)
#    BR                NDA      ID1      ID2       ID3
     2.20030277E-04    3     1000023        -1         2   # BR(chi^+_2 -> chi^0_2 d_bar u)
     2.18888035E-04    3     1000023        -3         4   # BR(chi^+_2 -> chi^0_2 s_bar c)
DECAY   1000022     0.00000000E+00   # chi^0_1
DECAY   1000023     4.46900151E-01   # chi^0_2
#    BR                NDA      ID1      ID2
     4.16818695E-01    2     1000024       -24   # BR(chi^0_2 -> chi^+_1 W^-)
     4.16818695E-01    2    -1000024        24   # BR(chi^0_2 -> chi^-_1 W^+)
     1.66240802E-01    2     1000022        23   # BR(chi^0_2 -> chi^0_1 Z)
     1.19594811E-04    2     1000022        22   # BR(chi^0_2 -> chi^0_1 photon)
#    BR                NDA      ID1      ID2       ID3
DECAY   1000025     5.16377735E-01   # chi^0_3
#    BR                NDA      ID1      ID2
     4.75870168E-01    2     1000024       -24   # BR(chi^0_3 -> chi^+_1 W^-)
     4.75870168E-01    2    -1000024        24   # BR(chi^0_3 -> chi^-_1 W^+)
     4.80959131E-02    2     1000022        23   # BR(chi^0_3 -> chi^0_1 Z)
#    BR                NDA      ID1      ID2       ID3
DECAY   1000035     1.31158896E+01   # chi^0_4
#    BR                NDA      ID1      ID2
     4.23301024E-02    2     1000011       -11   # BR(chi^0_4 -> ~e^-_L e^+)
     4.23301024E-02    2    -1000011        11   # BR(chi^0_4 -> ~e^+_L e^-)
     9.40487185E-02    2     2000011       -11   # BR(chi^0_4 -> ~e^-_R e^+)
     9.40487185E-02    2    -2000011        11   # BR(chi^0_4 -> ~e^+_R e^-)
     4.23305675E-02    2     1000013       -13   # BR(chi^0_4 -> ~mu^-_L mu^+)
     4.23305675E-02    2    -1000013        13   # BR(chi^0_4 -> ~mu^+_L mu^-)
     9.40517757E-02    2     2000013       -13   # BR(chi^0_4 -> ~mu^-_R mu^+)
     9.40517757E-02    2    -2000013        13   # BR(chi^0_4 -> ~mu^+_R mu^-)
     4.38039013E-02    2     1000012       -12   # BR(chi^0_4 -> ~nu_e nu_bar_e)
     4.38039013E-02    2    -1000012        12   # BR(chi^0_4 -> ~nu^*_e nu_e)
     4.38042754E-02    2     1000014       -14   # BR(chi^0_4 -> ~nu_mu nu_bar_mu)
     4.38042754E-02    2    -1000014        14   # BR(chi^0_4 -> ~nu^*_mu nu_mu)
     2.13336177E-02    2     1000006        -6   # BR(chi^0_4 -> ~t_1 t_bar)
     2.13336177E-02    2    -1000006         6   # BR(chi^0_4 -> ~t^*_1 t)
     9.70869276E-03    2     1000024       -24   # BR(chi^0_4 -> chi^+_1 W^-)
     9.70869276E-03    2    -1000024        24   # BR(chi^0_4 -> chi^-_1 W^+)
     4.65511536E-02    2     1000037       -24   # BR(chi^0_4 -> chi^+_2 W^-)
     4.65511536E-02    2    -1000037        24   # BR(chi^0_4 -> chi^-_2 W^+)
     4.74862474E-03    2     1000022        23   # BR(chi^0_4 -> chi^0_1 Z)
     2.43912719E-02    2     1000023        23   # BR(chi^0_4 -> chi^0_2 Z)
     2.69536902E-02    2     1000025        23   # BR(chi^0_4 -> chi^0_3 Z)
     5.59183008E-03    2     1000022        25   # BR(chi^0_4 -> chi^0_1 h^0)
     3.22557705E-02    2     1000023        25   # BR(chi^0_4 -> chi^0_2 h^0)
     2.61434355E-02    2     1000025        25   # BR(chi^0_4 -> chi^0_3 h^0)
#    BR                NDA      ID1      ID2       ID3
     5.22024531E-04    3     1000023         6        -6   # BR(chi^0_4 -> chi^0_2 t t_bar)
     3.61731380E-04    3     1000025         6        -6   # BR(chi^0_4 -> chi^0_3 t t_bar)
     2.84104477E-04    3     1000024         5        -6   # BR(chi^0_4 -> chi^+_1 b t_bar)
     2.84104477E-04    3    -1000024        -5         6   # BR(chi^0_4 -> chi^-_1 b_bar t)
     1.03799811E-03    3     1000037         5        -6   # BR(chi^0_4 -> chi^+_2 b t_bar)
     1.03799811E-03    3    -1000037        -5         6   # BR(chi^0_4 -> chi^-_2 b_bar t)
DECAY   1000021     6.92045952E+01   # ~g
#    BR                NDA      ID1      ID2
     8.42723818E-04    2     1000006        -4   # BR(~g -> ~t_1 c_bar)
     8.42723818E-04    2    -1000006         4   # BR(~g -> ~t^*_1 c)
     4.95743255E-01    2     1000006        -6   # BR(~g -> ~t_1 t_bar)
     4.95743255E-01    2    -1000006         6   # BR(~g -> ~t^*_1 t)
#    BR                NDA      ID1      ID2       ID3
     1.35122440E-04    3     1000022         2        -2   # BR(~g -> chi^0_1 u u_bar)
     1.35127230E-04    3     1000022         4        -4   # BR(~g -> chi^0_1 c c_bar)
     1.36756173E-04    3     1000022         6        -6   # BR(~g -> chi^0_1 t t_bar)
     1.33609762E-04    3     1000022         1        -1   # BR(~g -> chi^0_1 d d_bar)
     1.33672088E-04    3     1000022         3        -3   # BR(~g -> chi^0_1 s s_bar)
     2.57945994E-04    3     1000022         5        -5   # BR(~g -> chi^0_1 b b_bar)
     3.72798449E-04    3     1000023         6        -6   # BR(~g -> chi^0_2 t t_bar)
     2.02621136E-04    3     1000023         5        -5   # BR(~g -> chi^0_2 b b_bar)
     3.72386367E-04    3     1000025         6        -6   # BR(~g -> chi^0_3 t t_bar)
     1.78101680E-04    3     1000025         5        -5   # BR(~g -> chi^0_3 b b_bar)
     1.84837677E-04    3     1000035         2        -2   # BR(~g -> chi^0_4 u u_bar)
     1.84837794E-04    3     1000035         4        -4   # BR(~g -> chi^0_4 c c_bar)
     2.88163179E-04    3     1000035         6        -6   # BR(~g -> chi^0_4 t t_bar)
     2.95381021E-04    3     1000024         1        -2   # BR(~g -> chi^+_1 d u_bar)
     2.95381021E-04    3    -1000024        -1         2   # BR(~g -> chi^-_1 d_bar u)
     2.95436341E-04    3     1000024         3        -4   # BR(~g -> chi^+_1 s c_bar)
     2.95436341E-04    3    -1000024        -3         4   # BR(~g -> chi^-_1 s_bar c)
     3.79785493E-04    3     1000024         5        -6   # BR(~g -> chi^+_1 b t_bar)
     3.79785493E-04    3    -1000024        -5         6   # BR(~g -> chi^-_1 b_bar t)
     1.32302565E-04    3     1000037         1        -2   # BR(~g -> chi^+_2 d u_bar)
     1.32302565E-04    3    -1000037        -1         2   # BR(~g -> chi^-_2 d_bar u)
     1.32387495E-04    3     1000037         3        -4   # BR(~g -> chi^+_2 s c_bar)
     1.32387495E-04    3    -1000037        -3         4   # BR(~g -> chi^-_2 s_bar c)
     5.85814291E-04    3     1000037         5        -6   # BR(~g -> chi^+_2 b t_bar)
     5.85814291E-04    3    -1000037        -5         6   # BR(~g -> chi^-_2 b_bar t)
DECAY        25     3.27302324E-02   # Gamma(h0)
     3.16466528E-04   2        22        22   # BR(h0 -> photon photon)
     1.86691241E-04   2        22        23   # BR(h0 -> photon Z)
     2.93688017E-03   2        23        23   # BR(h0 -> Z Z)
     2.46870652E-02   2       -24        24   # BR(h0 -> W W)
     8.47647253E-03   2        21        21   # BR(h0 -> gluon gluon)
     6.34125294E-10   2       -11        11   # BR(h0 -> Electron electron)
     2.82069644E-05   2       -13        13   # BR(h0 -> Muon muon)
     8.04259668E-03   2       -15        15   # BR(h0 -> Tau tau)
     1.70781410E-08   2        -2         2   # BR(h0 -> Up up)
     3.31402267E-03   2        -4         4   # BR(h0 -> Charm charm)
     7.26427946E-08   2        -1         1   # BR(h0 -> Down down)
     2.62732194E-05   2        -3         3   # BR(h0 -> Strange strange)
     6.99186715E-02   2        -5         5   # BR(h0 -> Bottom bottom)
     4.87595724E-01   2  -1000024   1000024   # BR(h0 -> Chargino1 chargino1)
     3.94470839E-01   2   1000022   1000022   # BR(h0 -> neutralino1 neutralino1)
DECAY        35     2.40761647E+01   # Gamma(HH)
     1.79731745E-07   2        22        22   # BR(HH -> photon photon)
     1.05205311E-06   2        22        23   # BR(HH -> photon Z)
     6.80889652E-06   2        23        23   # BR(HH -> Z Z)
     8.77121344E-06   2       -24        24   # BR(HH -> W W)
     2.07009531E-05   2        21        21   # BR(HH -> gluon gluon)
     5.57998677E-09   2       -11        11   # BR(HH -> Electron electron)
     2.48366149E-04   2       -13        13   # BR(HH -> Muon muon)
     6.98672539E-02   2       -15        15   # BR(HH -> Tau tau)
     1.68889572E-13   2        -2         2   # BR(HH -> Up up)
     3.27530244E-08   2        -4         4   # BR(HH -> Charm charm)
     2.09877795E-03   2        -6         6   # BR(HH -> Top top)
     4.49087166E-07   2        -1         1   # BR(HH -> Down down)
     1.62430206E-04   2        -3         3   # BR(HH -> Strange strange)
     4.20289734E-01   2        -5         5   # BR(HH -> Bottom bottom)
     1.68290801E-01   2  -1000024   1000024   # BR(HH -> Chargino1 chargino1)
     8.07428311E-02   2  -1000024   1000037   # BR(HH -> Chargino1 chargino2)
     8.07428311E-02   2  -1000037   1000024   # BR(HH -> Chargino2 chargino1)
     1.00754242E-02   2  -1000037   1000037   # BR(HH -> Chargino2 chargino2)
     6.92494565E-02   2   1000022   1000022   # BR(HH -> neutralino1 neutralino1)
     2.30013508E-02   2   1000022   1000023   # BR(HH -> neutralino1 neutralino2)
     1.07808736E-04   2   1000022   1000025   # BR(HH -> neutralino1 neutralino3)
     8.88657102E-03   2   1000023   1000023   # BR(HH -> neutralino2 neutralino2)
     4.33372588E-02   2   1000023   1000025   # BR(HH -> neutralino2 neutralino3)
     2.28006493E-02   2   1000025   1000025   # BR(HH -> neutralino3 neutralino3)
     5.09912883E-05   2        25        25   # BR(HH -> h0 h0)
     1.09579828E-06   2  -1000011   1000011   # BR(HH -> Selectron1 selectron1)
     2.47310656E-14   2  -2000011   1000011   # BR(HH -> Selectron2 selectron1)
     2.47310656E-14   2  -1000011   2000011   # BR(HH -> Selectron1 selectron2)
     1.09142783E-06   2  -1000013   1000013   # BR(HH -> Smuon1 smuon1)
     1.05732125E-09   2  -2000013   1000013   # BR(HH -> Smuon2 smuon1)
     1.05732125E-09   2  -1000013   2000013   # BR(HH -> Smuon1 smuon2)
DECAY        36     2.36606390E+01   # Gamma(A0)
     4.33839330E-07   2        22        22   # BR(A0 -> photon photon)
     1.34428005E-06   2        22        23   # BR(A0 -> photon Z)
     4.47590934E-05   2        21        21   # BR(A0 -> gluon gluon)
     5.47640340E-09   2       -11        11   # BR(A0 -> Electron electron)
     2.43755763E-04   2       -13        13   # BR(A0 -> Muon muon)
     6.85710919E-02   2       -15        15   # BR(A0 -> Tau tau)
     1.58716541E-13   2        -2         2   # BR(A0 -> Up up)
     3.07697437E-08   2        -4         4   # BR(A0 -> Charm charm)
     2.23401082E-03   2        -6         6   # BR(A0 -> Top top)
     4.40740738E-07   2        -1         1   # BR(A0 -> Down down)
     1.59411380E-04   2        -3         3   # BR(A0 -> Strange strange)
     4.12492350E-01   2        -5         5   # BR(A0 -> Bottom bottom)
     1.80369607E-01   2  -1000024   1000024   # BR(A0 -> Chargino1 chargino1)
     7.33572396E-02   2  -1000024   1000037   # BR(A0 -> Chargino1 chargino2)
     7.33572396E-02   2  -1000037   1000024   # BR(A0 -> Chargino2 chargino1)
     1.88204850E-02   2  -1000037   1000037   # BR(A0 -> Chargino2 chargino2)
     7.51768387E-02   2   1000022   1000022   # BR(A0 -> neutralino1 neutralino1)
     1.76730737E-02   2   1000022   1000023   # BR(A0 -> neutralino1 neutralino2)
     4.69360591E-04   2   1000022   1000025   # BR(A0 -> neutralino1 neutralino3)
     8.26306612E-03   2   1000023   1000023   # BR(A0 -> neutralino2 neutralino2)
     3.74994451E-02   2   1000023   1000025   # BR(A0 -> neutralino2 neutralino3)
     3.12560470E-02   2   1000025   1000025   # BR(A0 -> neutralino3 neutralino3)
     9.96165157E-06   2        23        25   # BR(A0 -> Z h0)
     9.85285612E-39   2        25        25   # BR(A0 -> h0 h0)
     2.36872738E-14   2  -2000011   1000011   # BR(A0 -> Selectron2 selectron1)
     2.36872738E-14   2  -1000011   2000011   # BR(A0 -> Selectron1 selectron2)
     1.01270590E-09   2  -2000013   1000013   # BR(A0 -> Smuon2 smuon1)
     1.01270590E-09   2  -1000013   2000013   # BR(A0 -> Smuon1 smuon2)
DECAY        37     2.29526257E+01   # Gamma(Hp)
     5.86102278E-09   2       -11        12   # BR(Hp -> Electron nu_e)
     2.50577025E-04   2       -13        14   # BR(Hp -> Muon nu_mu)
     7.08770695E-02   2       -15        16   # BR(Hp -> Tau nu_tau)
     4.21343239E-07   2        -1         2   # BR(Hp -> Down up)
     7.01814921E-06   2        -3         2   # BR(Hp -> Strange up)
     4.38035179E-06   2        -5         2   # BR(Hp -> Bottom up)
     2.09588361E-08   2        -1         4   # BR(Hp -> Down charm)
     1.51874497E-04   2        -3         4   # BR(Hp -> Strange charm)
     6.13404413E-04   2        -5         4   # BR(Hp -> Bottom charm)
     1.60500059E-07   2        -1         6   # BR(Hp -> Down top)
     3.71053266E-06   2        -3         6   # BR(Hp -> Strange top)
     4.01270757E-01   2        -5         6   # BR(Hp -> Bottom top)
     7.60115566E-05   2   1000022   1000024   # BR(Hp -> neutralino1 chargino1)
     2.26785522E-01   2   1000022   1000037   # BR(Hp -> neutralino1 chargino2)
     1.19834456E-01   2   1000023   1000024   # BR(Hp -> neutralino2 chargino1)
     3.86924025E-02   2   1000023   1000037   # BR(Hp -> neutralino2 chargino2)
     1.37961583E-01   2   1000024   1000025   # BR(Hp -> chargino1 neutralino3)
     3.45127544E-03   2   1000025   1000037   # BR(Hp -> neutralino3 chargino2)
     1.04452443E-05   2        24        25   # BR(Hp -> W h0)
     6.25589170E-11   2        24        35   # BR(Hp -> W HH)
     5.00579092E-11   2        24        36   # BR(Hp -> W A0)
     4.45389172E-06   2  -1000011   1000012   # BR(Hp -> Selectron1 snu_e1)
     5.65740882E-14   2  -2000011   1000012   # BR(Hp -> Selectron2 snu_e1)
     4.44748057E-06   2  -1000013   1000014   # BR(Hp -> Smuon1 snu_mu1)
     2.41853846E-09   2  -2000013   1000014   # BR(Hp -> Smuon2 snu_mu1)
DECAY         6     2.43000000E+00   # top
#    BR                NDA      ID1      ID2
     1.00000000E+00    2           5        24   # BR(t -> b W)
Block HiggsBoundsInputHiggsCouplingsFermions
# ScalarNormEffCoupSq PseudoSNormEffCoupSq NP IP1 IP2 IP2
    9.78140689E-01    0.00000000E+00        3  25   5   5  # h0-b-b eff. coupling^2, normalised to SM
    7.30006023E+02    0.00000000E+00        3  35   5   5  # H0-b-b eff. coupling^2, normalised to SM
    0.00000000E+00    7.29984163E+02        3  36   5   5  # A0-b-b eff. coupling^2, normalised to SM
#
    1.00002994E+00    0.00000000E+00        3  25   6   6  # h0-t-t eff. coupling^2, normalised to SM
    1.33994782E-03    0.00000000E+00        3  35   6   6  # H0-t-t eff. coupling^2, normalised to SM
    0.00000000E+00    1.36989273E-03        3  36   6   6  # A0-t-t eff. coupling^2, normalised to SM
#
    9.78140689E-01    0.00000000E+00        3  25  15  15  # h0-tau-tau eff. coupling^2, normalised to SM
    7.30006023E+02    0.00000000E+00        3  35  15  15  # H0-tau-tau eff. coupling^2, normalised to SM
    0.00000000E+00    7.29984163E+02        3  36  15  15  # A0-tau-tau eff. coupling^2, normalised to SM
#
Block HiggsBoundsInputHiggsCouplingsBosons
    9.99999835E-01        3  25  24  24  # h0-W-W eff. coupling^2, normalised to SM
    1.65454672E-07        3  35  24  24  # H0-W-W eff. coupling^2, normalised to SM
    0.00000000E+00        3  36  24  24  # A0-W-W eff. coupling^2, normalised to SM
#
    9.99999835E-01        3  25  23  23  # h0-Z-Z eff. coupling^2, normalised to SM
    1.65454672E-07        3  35  23  23  # H0-Z-Z eff. coupling^2, normalised to SM
    0.00000000E+00        3  36  23  23  # A0-Z-Z eff. coupling^2, normalised to SM
#
    1.26895957E+00        3  25  21  21  # h0-g-g eff. coupling^2, normalised to SM
    8.24935503E-03        3  35  21  21  # H0-g-g eff. coupling^2, normalised to SM
    1.19294597E-01        3  36  21  21  # A0-g-g eff. coupling^2, normalised to SM
#
    0.00000000E+00        3  25  25  23  # h0-h0-Z eff. coupling^2, normalised to SM
    0.00000000E+00        3  35  25  23  # H0-h0-Z eff. coupling^2, normalised to SM
    1.65454672E-07        3  36  25  23  # A0-h0-Z eff. coupling^2, normalised to SM
    0.00000000E+00        3  35  35  23  # H0-H0-Z eff. coupling^2, normalised to SM
    9.99999835E-01        3  36  35  23  # A0-H0-Z eff. coupling^2, normalised to SM
    0.00000000E+00        3  36  36  23  # A0-A0-Z eff. coupling^2, normalised to SM
#
    0.00000000E+00        4  25  21  21  23  # h0-g-g-Z eff. coupling^2, normalised to SM
    0.00000000E+00        4  35  21  21  23  # H0-g-g-Z eff. coupling^2, normalised to SM
    0.00000000E+00        4  36  21  21  23  # A0-g-g-Z eff. coupling^2, normalised to SM
Block SPhenoLowEnergy  # low energy observables
    1    3.66355520E-04   # BR(b -> s gamma)
    2    1.58298184E-06   # BR(b -> s mu+ mu-)
    3    3.51609207E-05   # BR(b -> s nu nu)
    4    2.20711834E-15   # BR(Bd -> e+ e-)
    5    9.42856361E-11   # BR(Bd -> mu+ mu-)
    6    1.97302285E-08   # BR(Bd -> tau+ tau-)
    7    7.39306854E-14   # BR(Bs -> e+ e-)
    8    3.15831719E-09   # BR(Bs -> mu+ mu-)
    9    6.69606369E-07   # BR(Bs -> tau+ tau-)
   10    9.26235930E-05   # BR(B_u -> tau nu)
   11    9.56766255E-01   # BR(B_u -> tau nu)/BR(B_u -> tau nu)_SM
   12    5.43698301E-01   # |Delta(M_Bd)| [ps^-1] 
   13    1.94089947E+01   # |Delta(M_Bs)| [ps^-1] 
   14    0.00000000E+00   # neutron EDM according to the chiral quark model
   15    0.00000000E+00   # neutron EDM according to the relativistic quark-parton model
   16    2.16486108E-03   # epsilon_K
   17    2.28173998E-15   # Delta(M_K)
   18    2.47367938E-11   # BR(K^0 -> pi^0 nu nu)
   19    8.27496833E-11   # BR(K^+ -> pi^+ nu nu)
   20    1.75571417E-14   # Delta(g-2)_electron/2
   21    7.50571855E-10   # Delta(g-2)_muon/2
   22    2.35257288E-08   # Delta(g-2)_tau/2
   23    0.00000000E+00   # electric dipole moment of the electron
   24    0.00000000E+00   # electric dipole moment of the muon
   25    0.00000000E+00   # electric dipole moment of the tau
   26    0.00000000E+00   # Br(mu -> e gamma)
   27    0.00000000E+00   # Br(tau -> e gamma)
   28    0.00000000E+00   # Br(tau -> mu gamma)
   29    0.00000000E+00   # Br(mu -> 3 e)
   30    0.00000000E+00   # Br(tau -> 3 e)
   31    0.00000000E+00   # Br(tau -> 3 mu)
   39    9.43452106E-05   # Delta(rho_parameter)
   40    0.00000000E+00   # BR(Z -> e mu)
   41    0.00000000E+00   # BR(Z -> e tau)
   42    0.00000000E+00   # BR(Z -> mu tau)
Block FWCOEF Q=  1.60000000E+02  # Wilson coefficients at scale Q
#    id        order  M        value         comment
     0305 4422   00   0    -1.88819110E-01   # C7
     0305 4422   00   2    -2.36673018E-01   # C7
     0305 4322   00   2    -9.65102245E-04   # C7'
     0305 6421   00   0    -9.52278348E-02   # C8
     0305 6421   00   2    -1.41015330E-01   # C8
     0305 6321   00   2    -9.12693816E-04   # C8'
 03051111 4133   00   0     1.59618642E+00   # C9 e+e-
 03051111 4133   00   2     1.59666738E+00   # C9 e+e-
 03051111 4233   00   2    -2.98155920E-05   # C9' e+e-
 03051111 4137   00   0    -4.41887852E+00   # C10 e+e-
 03051111 4137   00   2    -4.40809664E+00   # C10 e+e-
 03051111 4237   00   2     2.31698986E-04   # C10' e+e-
 03051313 4133   00   0     1.59618642E+00   # C9 mu+mu-
 03051313 4133   00   2     1.59666192E+00   # C9 mu+mu-
 03051313 4233   00   2    -2.98185397E-05   # C9' mu+mu-
 03051313 4137   00   0    -4.41887852E+00   # C10 mu+mu-
 03051313 4137   00   2    -4.40810209E+00   # C10 mu+mu-
 03051313 4237   00   2     2.31701384E-04   # C10' mu+mu-
 03051212 4137   00   0     1.50535012E+00   # C11 nu_1 nu_1
 03051212 4137   00   2     1.50302938E+00   # C11 nu_1 nu_1
 03051212 4237   00   2    -5.04481581E-05   # C11' nu_1 nu_1
 03051414 4137   00   0     1.50535012E+00   # C11 nu_2 nu_2
 03051414 4137   00   2     1.50302938E+00   # C11 nu_2 nu_2
 03051414 4237   00   2    -5.04475467E-05   # C11' nu_2 nu_2
 03051616 4137   00   0     1.50535012E+00   # C11 nu_3 nu_3
 03051616 4137   00   2     1.50302598E+00   # C11 nu_3 nu_3
 03051616 4237   00   2    -5.02750683E-05   # C11' nu_3 nu_3
Block IMFWCOEF Q=  1.60000000E+02  # Im(Wilson coefficients) at scale Q
#    id        order  M        value         comment
     0305 4422   00   0     3.85813064E-07   # C7
     0305 4422   00   2     4.30985535E-06   # C7
     0305 4322   00   2    -6.06058899E-06   # C7'
     0305 6421   00   0     3.30474404E-07   # C8
     0305 6421   00   2    -2.35737392E-06   # C8
     0305 6321   00   2    -3.02544389E-06   # C8'
 03051111 4133   00   2    -1.09824592E-06   # C9 e+e-
 03051111 4233   00   2     1.11726527E-06   # C9' e+e-
 03051111 4137   00   2     8.67181671E-06   # C10 e+e-
 03051111 4237   00   2    -8.64207999E-06   # C10' e+e-
 03051313 4133   00   2    -1.09827615E-06   # C9 mu+mu-
 03051313 4233   00   2     1.11726295E-06   # C9' mu+mu-
 03051313 4137   00   2     8.67188685E-06   # C10 mu+mu-
 03051313 4237   00   2    -8.64208750E-06   # C10' mu+mu-
 03051212 4137   00   2    -1.38111418E-06   # C11 nu_1 nu_1
 03051212 4237   00   2     1.88163779E-06   # C11' nu_1 nu_1
 03051414 4137   00   2    -1.38111302E-06   # C11 nu_2 nu_2
 03051414 4237   00   2     1.88163779E-06   # C11' nu_2 nu_2
 03051616 4137   00   2    -1.44181599E-06   # C11 nu_3 nu_3
 03051616 4237   00   2     1.88164105E-06   # C11' nu_3 nu_3
