# SUSY Les Houches Accord 2 - MSSM spectrum + Decays
# SPheno v4.0.5be
# W. Porod, Comput. Phys. Commun. 153 (2003) 275-315, hep-ph/0301101;
# W. Porod, F.~Staub, Comput. Phys. Commun. 183 (2012) 2458
#                     arXiv:1104.1573 [hep-ph] 
# in case of problems send email to porod@physik.uni-wuerzburg.de
# Created: 07.09.2021,  18:39
Block SPINFO         # Program information
     1   SPheno      # spectrum calculator
     2   v4.0.5be    # version number
#
Block SPhenoINFO     # SPheno specific information
    1      2         # using 2-loop RGEs
    2      2         # using pole masses for boundary conditions at mZ
Block MODSEL  # Model selection
    1    0    # general MSSM
Block MINPAR  # Input parameters
    3    3.34099535E+01  # tanb at m_Z    
    4   -1.00000000E+00  # Sign(mu)
Block EXTPAR  # non-universal input parameters
    0    3.21216643E+03  # scale for input parameters
    1    1.79518962E+02  # M_1
    2   -1.43560632E+03  # M_2
    3    2.83074175E+03  # M_3
   11   -6.11130817E+03  # A_t
   12   -1.14060606E+03  # A_b
   13   -3.01837548E+02  # A_tau
   23   -1.85002722E+02  # mu
   25    3.23515284E+01  # tan(beta)
   26    1.58425692E+03  # m_A, pole mass
   31    1.00000000E+04  # M_L11
   32    1.00000000E+04  # M_L22
   33    1.00000000E+04  # M_L33
   34    1.00000000E+04  # M_E11
   35    1.00000000E+04  # M_E22
   36    1.00000000E+04  # M_E33
   41    1.00000000E+04  # M_Q11
   42    1.00000000E+04  # M_Q22
   43    4.42403691E+03  # M_Q33
   44    1.00000000E+04  # M_U11
   45    1.00000000E+04  # M_U22
   46    2.26463218E+03  # M_U33
   47    1.00000000E+04  # M_D11
   48    1.00000000E+04  # M_D22
   49    3.52367705E+03  # M_D33
Block SMINPUTS  # SM parameters
         1     1.27908970E+02  # alpha_em^-1(MZ)^MSbar
         2     1.16637870E-05  # G_mu [GeV^-2]
         3     1.18400000E-01  # alpha_s(MZ)^MSbar
         4     9.11876000E+01  # m_Z(pole)
         5     4.18000000E+00  # m_b(m_b), MSbar
         6     1.73200000E+02  # m_t(pole)
         7     1.77700000E+00  # m_tau(pole)
         8     0.00000000E+00  # m_nu_3
        11     5.10998930E-04  # m_e(pole)
        12     0.00000000E+00  # m_nu_1
        13     1.05658372E-01  # m_muon(pole)
        14     0.00000000E+00  # m_nu_2
        21     5.00000000E-03  # m_d(2 GeV), MSbar
        22     2.50000000E-03  # m_u(2 GeV), MSbar
        23     9.50000000E-02  # m_s(2 GeV), MSbar
        24     1.27000000E+00  # m_c(m_c), MSbar
Block gauge Q=  3.21216643E+03  # (SUSY scale)
   1    3.55362975E-01  # g'(Q)^DRbar
   2    6.65198874E-01  # g(Q)^DRbar
   3    1.21977796E+00  # g3(Q)^DRbar
Block Yu Q=  3.21216643E+03  # (SUSY scale)
  1  1     8.38837662E-06   # Y_u(Q)^DRbar
  2  2     4.26129533E-03   # Y_c(Q)^DRbar
  3  3     1.01338327E+00   # Y_t(Q)^DRbar
Block Yd Q=  3.21216643E+03  # (SUSY scale)
  1  1     5.45321941E-04   # Y_d(Q)^DRbar
  2  2     1.03611169E-02   # Y_s(Q)^DRbar
  3  3     5.40788486E-01   # Y_b(Q)^DRbar
Block Ye Q=  3.21216643E+03  # (SUSY scale)
  1  1     9.51626664E-05   # Y_e(Q)^DRbar
  2  2     1.96766213E-02   # Y_mu(Q)^DRbar
  3  3     3.30928400E-01   # Y_tau(Q)^DRbar
Block Au Q=  3.21216643E+03  # (SUSY scale)
  1  1     0.00000000E+00   # A_u(Q)^DRbar
  2  2     0.00000000E+00   # A_c(Q)^DRbar
  3  3    -6.11130806E+03   # A_t(Q)^DRbar
Block Ad Q=  3.21216643E+03  # (SUSY scale)
  1  1     0.00000000E+00   # A_d(Q)^DRbar
  2  2     0.00000000E+00   # A_s(Q)^DRbar
  3  3    -1.14060606E+03   # A_b(Q)^DRbar
Block Ae Q=  3.21216643E+03  # (SUSY scale)
  1  1     0.00000000E+00   # A_e(Q)^DRbar
  2  2     0.00000000E+00   # A_mu(Q)^DRbar
  3  3    -3.01837549E+02   # A_tau(Q)^DRbar
Block MSOFT Q=  3.21216643E+03  # soft SUSY breaking masses at Q
   1    1.79518962E+02  # M_1
   2   -1.43560632E+03  # M_2
   3    2.83074175E+03  # M_3
  21    2.33315877E+06  # M^2_(H,d)
  22    3.68977278E+04  # M^2_(H,u)
  31    1.00000000E+04  # M_(L,11)
  32    1.00000000E+04  # M_(L,22)
  33    1.00000000E+04  # M_(L,33)
  34    1.00000000E+04  # M_(E,11)
  35    1.00000000E+04  # M_(E,22)
  36    1.00000000E+04  # M_(E,33)
  41    1.00000000E+04  # M_(Q,11)
  42    1.00000000E+04  # M_(Q,22)
  43    4.42403691E+03  # M_(Q,33)
  44    1.00000000E+04  # M_(U,11)
  45    1.00000000E+04  # M_(U,22)
  46    2.26463218E+03  # M_(U,33)
  47    1.00000000E+04  # M_(D,11)
  48    1.00000000E+04  # M_(D,22)
  49    3.52367705E+03  # M_(D,33)
Block MASS  # Mass spectrum
#   PDG code      mass          particle
         6     1.73200000E+02  # m_t(pole)
        23     9.11876000E+01  # m_Z(pole)
        24     8.04299946E+01  # W+
        15     1.77700000E+00  # m_tau(pole)
        25     1.27299736E+02  # h0
        35     1.58425969E+03  # H0
        36     1.58425692E+03  # A0
        37     1.58809916E+03  # H+
   1000001     1.01051143E+04  # ~d_L
   2000001     1.00813431E+04  # ~d_R
   1000002     1.01047543E+04  # ~u_L
   2000002     1.00845550E+04  # ~u_R
   1000003     1.01051188E+04  # ~s_L
   2000003     1.00813506E+04  # ~s_R
   1000004     1.01047588E+04  # ~c_L
   2000004     1.00845564E+04  # ~c_R
   1000005     3.59982895E+03  # ~b_1
   2000005     4.44314413E+03  # ~b_2
   1000006     2.31824366E+03  # ~t_1
   2000006     4.45078891E+03  # ~t_2
   1000011     1.00203466E+04  # ~e_L-
   2000011     1.00088426E+04  # ~e_R-
   1000012     1.00195869E+04  # ~nu_eL
   1000013     1.00203663E+04  # ~mu_L-
   2000013     1.00088807E+04  # ~mu_R-
   1000014     1.00196065E+04  # ~nu_muL
   1000015     1.00196507E+04  # ~tau_1-
   2000015     1.00259494E+04  # ~tau_2-
   1000016     1.00251439E+04  # ~nu_tauL
   1000021     3.27722461E+03  # ~g
   1000022     1.57201755E+02  # ~chi_10
   1000023     1.92207272E+02  # ~chi_20
   1000025     2.19770764E+02  # ~chi_30
   1000035     1.53630955E+03  # ~chi_40
   1000024     1.91154043E+02  # ~chi_1+
   1000037     1.53627460E+03  # ~chi_2+
# Higgs mixing
Block alpha # Effective Higgs mixing angle
          -3.02203676E-02   # alpha
Block Hmix Q=  3.21216643E+03  # Higgs mixing parameters
   1   -1.85002722E+02  # mu
   2    3.23515284E+01  # tan[beta](Q)
   3    2.43158720E+02  # v(Q)
   4    2.50986999E+06  # m^2_A(Q)
Block stopmix # stop mixing matrix
   1  1     5.93843687E-02   # Re[R_st(1,1)]
   1  2     9.98235191E-01   # Re[R_st(1,2)]
   2  1    -9.98235191E-01   # Re[R_st(2,1)]
   2  2     5.93843687E-02   # Re[R_st(2,2)]
Block sbotmix # sbottom mixing matrix
   1  1    -1.49567179E-03   # Re[R_sb(1,1)]
   1  2     9.99998881E-01   # Re[R_sb(1,2)]
   2  1    -9.99998881E-01   # Re[R_sb(2,1)]
   2  2    -1.49567179E-03   # Re[R_sb(2,2)]
Block staumix # stau mixing matrix
   1  1    -8.11307228E-02   # Re[R_sta(1,1)]
   1  2     9.96703469E-01   # Re[R_sta(1,2)]
   2  1    -9.96703469E-01   # Re[R_sta(2,1)]
   2  2    -8.11307228E-02   # Re[R_sta(2,2)]
Block Nmix # neutralino mixing matrix
   1  1     7.54729072E-01   # Re[N(1,1)]
   1  2     1.88588727E-02   # Re[N(1,2)]
   1  3    -5.09331014E-01   # Re[N(1,3)]
   1  4    -4.13049984E-01   # Re[N(1,4)]
   2  1     8.75272964E-02   # Re[N(2,1)]
   2  2     4.31560021E-02   # Re[N(2,2)]
   2  3     7.02774064E-01   # Re[N(2,3)]
   2  4    -7.04687979E-01   # Re[N(2,4)]
   3  1     6.50169890E-01   # Re[N(3,1)]
   3  2    -2.54677938E-02   # Re[N(3,2)]
   3  3     4.96613659E-01   # Re[N(3,3)]
   3  4     5.74460947E-01   # Re[N(3,4)]
   4  1     1.45436108E-03   # Re[N(4,1)]
   4  2    -9.98565618E-01   # Re[N(4,2)]
   4  3     8.08745643E-03   # Re[N(4,3)]
   4  4    -5.29073152E-02   # Re[N(4,4)]
Block Umix # chargino mixing matrix
   1  1    -1.14341416E-02   # Re[U(1,1)]
   1  2    -9.99934628E-01   # Re[U(1,2)]
   2  1    -9.99934628E-01   # Re[U(2,1)]
   2  2     1.14341416E-02   # Re[U(2,2)]
Block Vmix # chargino mixing matrix
   1  1     7.48322245E-02   # Re[V(1,1)]
   1  2     9.97196138E-01   # Re[V(1,2)]
   2  1     9.97196138E-01   # Re[V(2,1)]
   2  2    -7.48322245E-02   # Re[V(2,2)]
DECAY        23     2.49520000E+00   # Z
DECAY        24     2.08500000E+00   # W
DECAY   2000011     5.02558663E+01   # ~e^-_R
#    BR                NDA      ID1      ID2
     5.69730487E-01    2     1000022        11   # BR(~e^-_R -> chi^0_1 e^-)
     7.66071387E-03    2     1000023        11   # BR(~e^-_R -> chi^0_2 e^-)
     4.22606745E-01    2     1000025        11   # BR(~e^-_R -> chi^0_3 e^-)
DECAY   1000011     1.38755359E+02   # ~e^-_L
#    BR                NDA      ID1      ID2
     5.65915601E-02    2     1000022        11   # BR(~e^-_L -> chi^0_1 e^-)
     2.56791607E-03    2     1000023        11   # BR(~e^-_L -> chi^0_2 e^-)
     3.28980012E-02    2     1000025        11   # BR(~e^-_L -> chi^0_3 e^-)
     3.01753136E-01    2     1000035        11   # BR(~e^-_L -> chi^0_4 e^-)
     6.06106333E-01    2    -1000037        12   # BR(~e^-_L -> chi^-_2 nu_e)
#    BR                NDA      ID1      ID2       ID3
DECAY   2000013     5.04101275E+01   # ~mu^-_R
#    BR                NDA      ID1      ID2
     5.68385745E-01    2     1000022        13   # BR(~mu^-_R -> chi^0_1 mu^-)
     8.39204259E-03    2     1000023        13   # BR(~mu^-_R -> chi^0_2 mu^-)
     4.21691908E-01    2     1000025        13   # BR(~mu^-_R -> chi^0_3 mu^-)
     1.52800669E-03    2    -1000024        14   # BR(~mu^-_R -> chi^-_1 nu_mu)
DECAY   1000013     1.38832780E+02   # ~mu^-_L
#    BR                NDA      ID1      ID2
     5.67042560E-02    2     1000022        13   # BR(~mu^-_L -> chi^0_1 mu^-)
     2.84085210E-03    2     1000023        13   # BR(~mu^-_L -> chi^0_2 mu^-)
     3.30166944E-02    2     1000025        13   # BR(~mu^-_L -> chi^0_3 mu^-)
     3.01585547E-01    2     1000035        13   # BR(~mu^-_L -> chi^0_4 mu^-)
     6.05769643E-01    2    -1000037        14   # BR(~mu^-_L -> chi^-_2 nu_mu)
#    BR                NDA      ID1      ID2       ID3
DECAY   1000015     9.43823953E+01   # ~tau^-_1
#    BR                NDA      ID1      ID2
     3.72616907E-01    2     1000022        15   # BR(~tau^-_1 -> chi^0_1 tau^-)
     1.18095638E-01    2     1000023        15   # BR(~tau^-_1 -> chi^0_2 tau^-)
     2.71256546E-01    2     1000025        15   # BR(~tau^-_1 -> chi^0_3 tau^-)
     2.52552737E-03    2     1000035        15   # BR(~tau^-_1 -> chi^0_4 tau^-)
     2.30431774E-01    2    -1000024        16   # BR(~tau^-_1 -> chi^-_1 nu_tau)
     5.07360717E-03    2    -1000037        16   # BR(~tau^-_1 -> chi^-_2 nu_tau)
DECAY   2000015     1.60222502E+02   # ~tau^-_2
#    BR                NDA      ID1      ID2
     7.91098924E-02    2     1000022        15   # BR(~tau^-_2 -> chi^0_1 tau^-)
     6.95897661E-02    2     1000023        15   # BR(~tau^-_2 -> chi^0_2 tau^-)
     6.85802963E-02    2     1000025        15   # BR(~tau^-_2 -> chi^0_3 tau^-)
     2.60012150E-01    2     1000035        15   # BR(~tau^-_2 -> chi^0_4 tau^-)
     4.61732514E-04    2    -1000024        16   # BR(~tau^-_2 -> chi^-_1 nu_tau)
     5.22246163E-01    2    -1000037        16   # BR(~tau^-_2 -> chi^-_2 nu_tau)
#    BR                NDA      ID1      ID2       ID3
DECAY   1000012     1.38759044E+02   # ~nu_e
#    BR                NDA      ID1      ID2
     4.69237978E-02    2     1000022        12   # BR(~nu_e -> chi^0_1 nu_e)
     4.41296116E-02    2     1000025        12   # BR(~nu_e -> chi^0_3 nu_e)
     3.02660540E-01    2     1000035        12   # BR(~nu_e -> chi^0_4 nu_e)
     3.55700416E-03    2     1000024        11   # BR(~nu_e -> chi^+_1 e^-)
     6.02724924E-01    2     1000037        11   # BR(~nu_e -> chi^+_2 e^-)
#    BR                NDA      ID1      ID2       ID3
DECAY   1000014     1.38836456E+02   # ~nu_mu
#    BR                NDA      ID1      ID2
     4.68977258E-02    2     1000022        14   # BR(~nu_mu -> chi^0_1 nu_mu)
     4.41050921E-02    2     1000025        14   # BR(~nu_mu -> chi^0_3 nu_mu)
     3.02492430E-01    2     1000035        14   # BR(~nu_mu -> chi^0_4 nu_mu)
     4.11041302E-03    2     1000024        13   # BR(~nu_mu -> chi^+_1 mu^-)
     6.02390218E-01    2     1000037        13   # BR(~nu_mu -> chi^+_2 mu^-)
#    BR                NDA      ID1      ID2       ID3
DECAY   1000016     1.60668531E+02   # ~nu_tau
#    BR                NDA      ID1      ID2
     4.05475544E-02    2     1000022        16   # BR(~nu_tau -> chi^0_1 nu_tau)
     3.81330762E-02    2     1000025        16   # BR(~nu_tau -> chi^0_3 nu_tau)
     2.61547307E-01    2     1000035        16   # BR(~nu_tau -> chi^0_4 nu_tau)
     1.38900138E-01    2     1000024        15   # BR(~nu_tau -> chi^+_1 tau^-)
     5.20868362E-01    2     1000037        15   # BR(~nu_tau -> chi^+_2 tau^-)
#    BR                NDA      ID1      ID2       ID3
DECAY   2000001     6.42081195E+02   # ~d_R
#    BR                NDA      ID1      ID2
     4.99072294E-03    2     1000022         1   # BR(~d_R -> chi^0_1 d)
     3.70197893E-03    2     1000025         1   # BR(~d_R -> chi^0_3 d)
     9.91240036E-01    2     1000021         1   # BR(~d_R -> ~g d)
DECAY   1000001     7.67417438E+02   # ~d_L
#    BR                NDA      ID1      ID2
     7.73333160E-04    2     1000022         1   # BR(~d_L -> chi^0_1 d)
     1.15520863E-03    2     1000025         1   # BR(~d_L -> chi^0_3 d)
     5.51796529E-02    2     1000035         1   # BR(~d_L -> chi^0_4 d)
     1.10604972E-01    2    -1000037         2   # BR(~d_L -> chi^-_2 u)
     8.32227629E-01    2     1000021         1   # BR(~d_L -> ~g d)
DECAY   2000003     6.42124807E+02   # ~s_R
#    BR                NDA      ID1      ID2
     4.99905814E-03    2     1000022         3   # BR(~s_R -> chi^0_1 s)
     3.70996868E-03    2     1000025         3   # BR(~s_R -> chi^0_3 s)
     9.91173797E-01    2     1000021         3   # BR(~s_R -> ~g s)
DECAY   1000003     7.67443071E+02   # ~s_L
#    BR                NDA      ID1      ID2
     7.80579277E-04    2     1000022         3   # BR(~s_L -> chi^0_1 s)
     1.16208010E-03    2     1000025         3   # BR(~s_L -> chi^0_3 s)
     5.51778383E-02    2     1000035         3   # BR(~s_L -> chi^0_4 s)
     1.10601357E-01    2    -1000037         4   # BR(~s_L -> chi^-_2 c)
     8.32200376E-01    2     1000021         3   # BR(~s_L -> ~g s)
DECAY   1000005     5.18804380E+01   # ~b_1
#    BR                NDA      ID1      ID2
     1.26525485E-01    2     1000022         5   # BR(~b_1 -> chi^0_1 b)
     1.98540771E-01    2     1000023         5   # BR(~b_1 -> chi^0_2 b)
     1.14871326E-01    2     1000025         5   # BR(~b_1 -> chi^0_3 b)
     3.99516138E-01    2    -1000024         6   # BR(~b_1 -> chi^-_1 t)
     1.60508182E-01    2     1000021         5   # BR(~b_1 -> ~g b)
DECAY   2000005     3.16157771E+02   # ~b_2
#    BR                NDA      ID1      ID2
     2.19411181E-02    2     1000022         5   # BR(~b_2 -> chi^0_1 b)
     4.02799315E-02    2     1000023         5   # BR(~b_2 -> chi^0_2 b)
     2.13331791E-02    2     1000025         5   # BR(~b_2 -> chi^0_3 b)
     4.78422649E-02    2     1000035         5   # BR(~b_2 -> chi^0_4 b)
     2.83587591E-01    2    -1000024         6   # BR(~b_2 -> chi^-_1 t)
     9.74254999E-02    2    -1000037         6   # BR(~b_2 -> chi^-_2 t)
     2.30620945E-01    2     1000021         5   # BR(~b_2 -> ~g b)
     2.55995576E-01    2     1000006       -24   # BR(~b_2 -> ~t_1 W^-)
     9.49582384E-04    2     1000006       -37   # BR(~b_2 -> ~t_1 H^-)
DECAY   2000002     6.59260324E+02   # ~u_R
#    BR                NDA      ID1      ID2
     1.94488015E-02    2     1000022         2   # BR(~u_R -> chi^0_1 u)
     2.61512971E-04    2     1000023         2   # BR(~u_R -> chi^0_2 u)
     1.44265627E-02    2     1000025         2   # BR(~u_R -> chi^0_3 u)
     9.65863054E-01    2     1000021         2   # BR(~u_R -> ~g u)
DECAY   1000002     7.67403147E+02   # ~u_L
#    BR                NDA      ID1      ID2
     1.36060156E-03    2     1000022         2   # BR(~u_L -> chi^0_1 u)
     1.99844825E-04    2     1000023         2   # BR(~u_L -> chi^0_2 u)
     4.72246374E-04    2     1000025         2   # BR(~u_L -> chi^0_3 u)
     5.51213149E-02    2     1000035         2   # BR(~u_L -> chi^0_4 u)
     6.48714886E-04    2     1000024         1   # BR(~u_L -> chi^+_1 d)
     1.09997740E-01    2     1000037         1   # BR(~u_L -> chi^+_2 d)
     8.32199538E-01    2     1000021         2   # BR(~u_L -> ~g u)
DECAY   2000004     6.59267706E+02   # ~c_R
#    BR                NDA      ID1      ID2
     1.94495269E-02    2     1000022         4   # BR(~c_R -> chi^0_1 c)
     2.64251893E-04    2     1000023         4   # BR(~c_R -> chi^0_2 c)
     1.44282265E-02    2     1000025         4   # BR(~c_R -> chi^0_3 c)
     9.65852390E-01    2     1000021         4   # BR(~c_R -> ~g c)
DECAY   1000004     7.67428746E+02   # ~c_L
#    BR                NDA      ID1      ID2
     1.36136815E-03    2     1000022         4   # BR(~c_L -> chi^0_1 c)
     2.02198835E-04    2     1000023         4   # BR(~c_L -> chi^0_2 c)
     4.73798713E-04    2     1000025         4   # BR(~c_L -> chi^0_3 c)
     5.51195113E-02    2     1000035         4   # BR(~c_L -> chi^0_4 c)
     6.76712704E-04    2     1000024         3   # BR(~c_L -> chi^+_1 s)
     1.09994128E-01    2     1000037         3   # BR(~c_L -> chi^+_2 s)
     8.32172283E-01    2     1000021         4   # BR(~c_L -> ~g c)
DECAY   1000006     9.72627312E+01   # ~t_1
#    BR                NDA      ID1      ID2
     1.14073817E-01    2     1000022         6   # BR(~t_1 -> chi^0_1 t)
     2.35677787E-01    2     1000023         6   # BR(~t_1 -> chi^0_2 t)
     1.73645425E-01    2     1000025         6   # BR(~t_1 -> chi^0_3 t)
     9.39772941E-04    2     1000035         6   # BR(~t_1 -> chi^0_4 t)
     4.73685773E-01    2     1000024         5   # BR(~t_1 -> chi^+_1 b)
     1.97569407E-03    2     1000037         5   # BR(~t_1 -> chi^+_2 b)
#    BR                NDA      ID1      ID2       ID3
DECAY   2000006     3.36255938E+02   # ~t_2
#    BR                NDA      ID1      ID2
     4.50042342E-02    2     1000022         6   # BR(~t_2 -> chi^0_1 t)
     1.33630993E-01    2     1000023         6   # BR(~t_2 -> chi^0_2 t)
     9.22019836E-02    2     1000025         6   # BR(~t_2 -> chi^0_3 t)
     4.43837800E-02    2     1000035         6   # BR(~t_2 -> chi^0_4 t)
     7.96009971E-02    2     1000024         5   # BR(~t_2 -> chi^+_1 b)
     8.83802522E-02    2     1000037         5   # BR(~t_2 -> chi^+_2 b)
     2.12602452E-01    2     1000021         6   # BR(~t_2 -> ~g t)
     1.20928961E-01    2     1000006        23   # BR(~t_2 -> ~t_1 Z)
     4.52126152E-04    2     1000006        36   # BR(~t_2 -> ~t_1 A^0)
     1.82361904E-01    2     1000006        25   # BR(~t_2 -> ~t_1 h^0)
     4.36090202E-04    2     1000006        35   # BR(~t_2 -> ~t_1 H^0)
DECAY   1000024     2.37386491E-05   # chi^+_1
#    BR                NDA      ID1      ID2       ID3
     3.34546081E-01    3     1000022        -1         2   # BR(chi^+_1 -> chi^0_1 d_bar u)
     3.32380578E-01    3     1000022        -3         4   # BR(chi^+_1 -> chi^0_1 s_bar c)
     1.11515003E-01    3     1000022       -11        12   # BR(chi^+_1 -> chi^0_1 e^+ nu_e)
     1.11514374E-01    3     1000022       -13        14   # BR(chi^+_1 -> chi^0_1 mu^+ nu_mu)
     1.10043965E-01    3     1000022       -15        16   # BR(chi^+_1 -> chi^0_1 tau^+ nu_tau)
DECAY   1000037     1.38087949E+01   # chi^+_2
#    BR                NDA      ID1      ID2
     9.29444498E-02    2     1000022        24   # BR(chi^+_2 -> chi^0_1 W^+)
     2.45029469E-01    2     1000023        24   # BR(chi^+_2 -> chi^0_2 W^+)
     1.50013856E-01    2     1000025        24   # BR(chi^+_2 -> chi^0_3 W^+)
     2.42703323E-01    2     1000024        23   # BR(chi^+_2 -> chi^+_1 Z)
     2.43446400E-01    2     1000024        25   # BR(chi^+_2 -> chi^+_1 h^0)
#    BR                NDA      ID1      ID2       ID3
     9.63053565E-03    3     1000024         6        -6   # BR(chi^+_2 -> chi^+_1 t t_bar)
     5.47083430E-04    3     1000024         5        -5   # BR(chi^+_2 -> chi^+_1 b b_bar)
     3.04550204E-03    3     1000022        -5         6   # BR(chi^+_2 -> chi^0_1 b_bar t)
     7.68149517E-03    3     1000023        -5         6   # BR(chi^+_2 -> chi^0_2 b_bar t)
     4.82937873E-03    3     1000025        -5         6   # BR(chi^+_2 -> chi^0_3 b_bar t)
DECAY   1000022     0.00000000E+00   # chi^0_1
DECAY   1000023     6.66762041E-05   # chi^0_2
#    BR                NDA      ID1      ID2
     2.41754309E-02    2     1000022        22   # BR(chi^0_2 -> chi^0_1 photon)
#    BR                NDA      ID1      ID2       ID3
     1.18710960E-01    3     1000022         2        -2   # BR(chi^0_2 -> chi^0_1 u u_bar)
     1.16755182E-01    3     1000022         4        -4   # BR(chi^0_2 -> chi^0_1 c c_bar)
     1.52210531E-01    3     1000022         1        -1   # BR(chi^0_2 -> chi^0_1 d d_bar)
     1.52198394E-01    3     1000022         3        -3   # BR(chi^0_2 -> chi^0_1 s s_bar)
     1.30558354E-01    3     1000022         5        -5   # BR(chi^0_2 -> chi^0_1 b b_bar)
     3.43488984E-02    3     1000022        11       -11   # BR(chi^0_2 -> chi^0_1 e^- e^+)
     3.43445541E-02    3     1000022        13       -13   # BR(chi^0_2 -> chi^0_1 mu^- mu^+)
     3.31484600E-02    3     1000022        15       -15   # BR(chi^0_2 -> chi^0_1 tau^- tau^+)
     2.03549146E-01    3     1000022        12       -12   # BR(chi^0_2 -> chi^0_1 nu_e nu_bar_e)
DECAY   1000025     5.74341504E-05   # chi^0_3
#    BR                NDA      ID1      ID2
     2.26913615E-03    2     1000022        22   # BR(chi^0_3 -> chi^0_1 photon)
     2.40633008E-02    2     1000023        22   # BR(chi^0_3 -> chi^0_2 photon)
#    BR                NDA      ID1      ID2       ID3
     1.87677063E-03    3     1000022         2        -2   # BR(chi^0_3 -> chi^0_1 u u_bar)
     1.86858394E-03    3     1000022         4        -4   # BR(chi^0_3 -> chi^0_1 c c_bar)
     2.40389290E-03    3     1000022         1        -1   # BR(chi^0_3 -> chi^0_1 d d_bar)
     2.40384615E-03    3     1000022         3        -3   # BR(chi^0_3 -> chi^0_1 s s_bar)
     2.35781911E-03    3     1000022         5        -5   # BR(chi^0_3 -> chi^0_1 b b_bar)
     5.40484058E-04    3     1000022        11       -11   # BR(chi^0_3 -> chi^0_1 e^- e^+)
     5.40469500E-04    3     1000022        13       -13   # BR(chi^0_3 -> chi^0_1 mu^- mu^+)
     5.36385194E-04    3     1000022        15       -15   # BR(chi^0_3 -> chi^0_1 tau^- tau^+)
     3.21807973E-03    3     1000022        12       -12   # BR(chi^0_3 -> chi^0_1 nu_e nu_bar_e)
     5.83637679E-02    3     1000023         2        -2   # BR(chi^0_3 -> chi^0_2 u u_bar)
     5.67789964E-02    3     1000023         4        -4   # BR(chi^0_3 -> chi^0_2 c c_bar)
     7.48342673E-02    3     1000023         1        -1   # BR(chi^0_3 -> chi^0_2 d d_bar)
     7.48243376E-02    3     1000023         3        -3   # BR(chi^0_3 -> chi^0_2 s s_bar)
     5.78633297E-02    3     1000023         5        -5   # BR(chi^0_3 -> chi^0_2 b b_bar)
     1.68882219E-02    3     1000023        11       -11   # BR(chi^0_3 -> chi^0_2 e^- e^+)
     1.68846710E-02    3     1000023        13       -13   # BR(chi^0_3 -> chi^0_2 mu^- mu^+)
     1.59206227E-02    3     1000023        15       -15   # BR(chi^0_3 -> chi^0_2 tau^- tau^+)
     1.00074920E-01    3     1000023        12       -12   # BR(chi^0_3 -> chi^0_2 nu_e nu_bar_e)
     8.13368990E-02    3     1000024         1        -2   # BR(chi^0_3 -> chi^+_1 d u_bar)
     8.13368990E-02    3    -1000024        -1         2   # BR(chi^0_3 -> chi^-_1 d_bar u)
     8.05787407E-02    3     1000024         3        -4   # BR(chi^0_3 -> chi^+_1 s c_bar)
     8.05787407E-02    3    -1000024        -3         4   # BR(chi^0_3 -> chi^-_1 s_bar c)
     2.71124010E-02    3     1000024        11       -12   # BR(chi^0_3 -> chi^+_1 e^- nu_bar_e)
     2.71124010E-02    3    -1000024       -11        12   # BR(chi^0_3 -> chi^-_1 e^+ nu_e)
     2.71122230E-02    3     1000024        13       -14   # BR(chi^0_3 -> chi^+_1 mu^- nu_bar_mu)
     2.71122230E-02    3    -1000024       -13        14   # BR(chi^0_3 -> chi^-_1 mu^+ nu_mu)
     2.66037847E-02    3     1000024        15       -16   # BR(chi^0_3 -> chi^+_1 tau^- nu_bar_tau)
     2.66037847E-02    3    -1000024       -15        16   # BR(chi^0_3 -> chi^-_1 tau^+ nu_tau)
DECAY   1000035     1.46204171E+01   # chi^0_4
#    BR                NDA      ID1      ID2
     2.30841529E-01    2     1000024       -24   # BR(chi^0_4 -> chi^+_1 W^-)
     2.30841529E-01    2    -1000024        24   # BR(chi^0_4 -> chi^-_1 W^+)
     5.52672086E-02    2     1000022        23   # BR(chi^0_4 -> chi^0_1 Z)
     8.05714914E-02    2     1000023        23   # BR(chi^0_4 -> chi^0_2 Z)
     9.41838815E-02    2     1000025        23   # BR(chi^0_4 -> chi^0_3 Z)
     4.78819010E-02    2     1000022        25   # BR(chi^0_4 -> chi^0_1 h^0)
     1.49687210E-01    2     1000023        25   # BR(chi^0_4 -> chi^0_2 h^0)
     8.49142795E-02    2     1000025        25   # BR(chi^0_4 -> chi^0_3 h^0)
#    BR                NDA      ID1      ID2       ID3
     1.63675144E-03    3     1000022         6        -6   # BR(chi^0_4 -> chi^0_1 t t_bar)
     1.53414744E-04    3     1000022         5        -5   # BR(chi^0_4 -> chi^0_1 b b_bar)
     4.35830240E-03    3     1000023         6        -6   # BR(chi^0_4 -> chi^0_2 t t_bar)
     2.52890338E-04    3     1000023         5        -5   # BR(chi^0_4 -> chi^0_2 b b_bar)
     2.60634336E-03    3     1000025         6        -6   # BR(chi^0_4 -> chi^0_3 t t_bar)
     1.25000420E-04    3     1000025         5        -5   # BR(chi^0_4 -> chi^0_3 b b_bar)
     8.25643895E-03    3     1000024         5        -6   # BR(chi^0_4 -> chi^+_1 b t_bar)
     8.25643895E-03    3    -1000024        -5         6   # BR(chi^0_4 -> chi^-_1 b_bar t)
DECAY   1000021     2.35182618E+01   # ~g
#    BR                NDA      ID1      ID2
     1.98210308E-04    2     1000006        -4   # BR(~g -> ~t_1 c_bar)
     1.98210308E-04    2    -1000006         4   # BR(~g -> ~t^*_1 c)
     4.96217787E-01    2     1000006        -6   # BR(~g -> ~t_1 t_bar)
     4.96217787E-01    2    -1000006         6   # BR(~g -> ~t^*_1 t)
     1.12562568E-04    2     1000025        21   # BR(~g -> chi^0_3 g)
#    BR                NDA      ID1      ID2       ID3
     1.95167880E-04    3     1000022         6        -6   # BR(~g -> chi^0_1 t t_bar)
     6.34788753E-04    3     1000022         5        -5   # BR(~g -> chi^0_1 b b_bar)
     5.56110298E-04    3     1000023         6        -6   # BR(~g -> chi^0_2 t t_bar)
     1.05410351E-03    3     1000023         5        -5   # BR(~g -> chi^0_2 b b_bar)
     3.70085993E-04    3     1000025         6        -6   # BR(~g -> chi^0_3 t t_bar)
     5.78979077E-04    3     1000025         5        -5   # BR(~g -> chi^0_3 b b_bar)
     1.61830565E-03    3     1000024         5        -6   # BR(~g -> chi^+_1 b t_bar)
     1.61830565E-03    3    -1000024        -5         6   # BR(~g -> chi^-_1 b_bar t)
DECAY        25     3.96750312E-03   # Gamma(h0)
     2.48017388E-03   2        22        22   # BR(h0 -> photon photon)
     1.78941907E-03   2        22        23   # BR(h0 -> photon Z)
     3.58409977E-02   2        23        23   # BR(h0 -> Z Z)
     2.83284153E-01   2       -24        24   # BR(h0 -> W W)
     7.47184204E-02   2        21        21   # BR(h0 -> gluon gluon)
     4.65395191E-09   2       -11        11   # BR(h0 -> Electron electron)
     2.07017252E-04   2       -13        13   # BR(h0 -> Muon muon)
     5.96931583E-02   2       -15        15   # BR(h0 -> Tau tau)
     1.29735182E-07   2        -2         2   # BR(h0 -> Up up)
     2.51795121E-02   2        -4         4   # BR(h0 -> Charm charm)
     5.36978268E-07   2        -1         1   # BR(h0 -> Down down)
     1.94212628E-04   2        -3         3   # BR(h0 -> Strange strange)
     5.16612265E-01   2        -5         5   # BR(h0 -> Bottom bottom)
DECAY        35     2.44076864E+01   # Gamma(HH)
     2.70977254E-08   2        22        22   # BR(HH -> photon photon)
     3.57037671E-08   2        22        23   # BR(HH -> photon Z)
     3.48998128E-06   2        23        23   # BR(HH -> Z Z)
     2.58255792E-06   2       -24        24   # BR(HH -> W W)
     2.31826463E-05   2        21        21   # BR(HH -> gluon gluon)
     1.03821422E-08   2       -11        11   # BR(HH -> Electron electron)
     4.62171463E-04   2       -13        13   # BR(HH -> Muon muon)
     1.33467011E-01   2       -15        15   # BR(HH -> Tau tau)
     1.35240518E-13   2        -2         2   # BR(HH -> Up up)
     2.62310852E-08   2        -4         4   # BR(HH -> Charm charm)
     1.94158430E-03   2        -6         6   # BR(HH -> Top top)
     8.30986054E-07   2        -1         1   # BR(HH -> Down down)
     3.00559304E-04   2        -3         3   # BR(HH -> Strange strange)
     7.88339266E-01   2        -5         5   # BR(HH -> Bottom bottom)
     3.13580698E-03   2  -1000024   1000024   # BR(HH -> Chargino1 chargino1)
     1.99059717E-02   2   1000022   1000022   # BR(HH -> neutralino1 neutralino1)
     1.66361802E-02   2   1000022   1000023   # BR(HH -> neutralino1 neutralino2)
     1.57372679E-04   2   1000022   1000025   # BR(HH -> neutralino1 neutralino3)
     1.22831146E-07   2   1000023   1000023   # BR(HH -> neutralino2 neutralino2)
     1.80216749E-02   2   1000023   1000025   # BR(HH -> neutralino2 neutralino3)
     1.75795149E-02   2   1000025   1000025   # BR(HH -> neutralino3 neutralino3)
     2.25778839E-05   2        25        25   # BR(HH -> h0 h0)
DECAY        36     2.38686949E+01   # Gamma(A0)
     1.52797081E-07   2        22        22   # BR(A0 -> photon photon)
     6.54861188E-08   2        22        23   # BR(A0 -> photon Z)
     4.84085336E-05   2        21        21   # BR(A0 -> gluon gluon)
     1.03587817E-08   2       -11        11   # BR(A0 -> Electron electron)
     4.61130598E-04   2       -13        13   # BR(A0 -> Muon muon)
     1.33167145E-01   2       -15        15   # BR(A0 -> Tau tau)
     1.31800329E-13   2        -2         2   # BR(A0 -> Up up)
     2.55630505E-08   2        -4         4   # BR(A0 -> Charm charm)
     1.99435275E-03   2        -6         6   # BR(A0 -> Top top)
     8.29115923E-07   2        -1         1   # BR(A0 -> Down down)
     2.99882485E-04   2        -3         3   # BR(A0 -> Strange strange)
     7.86572624E-01   2        -5         5   # BR(A0 -> Bottom bottom)
     3.45458359E-03   2  -1000024   1000024   # BR(A0 -> Chargino1 chargino1)
     1.91578201E-02   2   1000022   1000022   # BR(A0 -> neutralino1 neutralino1)
     1.83055170E-02   2   1000022   1000023   # BR(A0 -> neutralino1 neutralino2)
     2.02235390E-04   2   1000022   1000025   # BR(A0 -> neutralino1 neutralino3)
     1.49840219E-07   2   1000023   1000023   # BR(A0 -> neutralino2 neutralino2)
     1.94795399E-02   2   1000023   1000025   # BR(A0 -> neutralino2 neutralino3)
     1.68508111E-02   2   1000025   1000025   # BR(A0 -> neutralino3 neutralino3)
     4.71641080E-06   2        23        25   # BR(A0 -> Z h0)
     4.94809375E-38   2        25        25   # BR(A0 -> h0 h0)
DECAY        37     2.57402171E+01   # Gamma(Hp)
     1.13887961E-08   2       -11        12   # BR(Hp -> Electron nu_e)
     4.86906600E-04   2       -13        14   # BR(Hp -> Muon nu_mu)
     1.37724627E-01   2       -15        16   # BR(Hp -> Tau nu_tau)
     7.93423257E-07   2        -1         2   # BR(Hp -> Down up)
     1.32899287E-05   2        -3         2   # BR(Hp -> Strange up)
     8.43007136E-06   2        -5         2   # BR(Hp -> Bottom up)
     3.81664499E-08   2        -1         4   # BR(Hp -> Down charm)
     2.85957983E-04   2        -3         4   # BR(Hp -> Strange charm)
     1.18051056E-03   2        -5         4   # BR(Hp -> Bottom charm)
     1.50154527E-07   2        -1         6   # BR(Hp -> Down top)
     3.68677345E-06   2        -3         6   # BR(Hp -> Strange top)
     7.90581827E-01   2        -5         6   # BR(Hp -> Bottom top)
     4.29309291E-02   2   1000022   1000024   # BR(Hp -> neutralino1 chargino1)
     1.51837973E-03   2   1000023   1000024   # BR(Hp -> neutralino2 chargino1)
     2.52600464E-02   2   1000024   1000025   # BR(Hp -> chargino1 neutralino3)
     4.41596784E-06   2        24        25   # BR(Hp -> W h0)
     4.40469545E-11   2        24        35   # BR(Hp -> W HH)
     4.42061053E-11   2        24        36   # BR(Hp -> W A0)
DECAY         6     2.43000000E+00   # top
#    BR                NDA      ID1      ID2
     1.00000000E+00    2           5        24   # BR(t -> b W)
Block HiggsBoundsInputHiggsCouplingsFermions
# ScalarNormEffCoupSq PseudoSNormEffCoupSq NP IP1 IP2 IP2
    9.56470609E-01    0.00000000E+00        3  25   5   5  # h0-b-b eff. coupling^2, normalised to SM
    1.04666492E+03    0.00000000E+00        3  35   5   5  # H0-b-b eff. coupling^2, normalised to SM
    0.00000000E+00    1.04662139E+03        3  36   5   5  # A0-b-b eff. coupling^2, normalised to SM
#
    1.00004159E+00    0.00000000E+00        3  25   6   6  # h0-t-t eff. coupling^2, normalised to SM
    9.13864954E-04    0.00000000E+00        3  35   6   6  # H0-t-t eff. coupling^2, normalised to SM
    0.00000000E+00    9.55455344E-04        3  36   6   6  # A0-t-t eff. coupling^2, normalised to SM
#
    9.56470609E-01    0.00000000E+00        3  25  15  15  # h0-tau-tau eff. coupling^2, normalised to SM
    1.04666492E+03    0.00000000E+00        3  35  15  15  # H0-tau-tau eff. coupling^2, normalised to SM
    0.00000000E+00    1.04662139E+03        3  36  15  15  # A0-tau-tau eff. coupling^2, normalised to SM
#
Block HiggsBoundsInputHiggsCouplingsBosons
    9.99999537E-01        3  25  24  24  # h0-W-W eff. coupling^2, normalised to SM
    4.62718522E-07        3  35  24  24  # H0-W-W eff. coupling^2, normalised to SM
    0.00000000E+00        3  36  24  24  # A0-W-W eff. coupling^2, normalised to SM
#
    9.99999537E-01        3  25  23  23  # h0-Z-Z eff. coupling^2, normalised to SM
    4.62718522E-07        3  35  23  23  # H0-Z-Z eff. coupling^2, normalised to SM
    0.00000000E+00        3  36  23  23  # A0-Z-Z eff. coupling^2, normalised to SM
#
    1.26074395E+00        3  25  21  21  # h0-g-g eff. coupling^2, normalised to SM
    7.46403151E-03        3  35  21  21  # H0-g-g eff. coupling^2, normalised to SM
    1.21935215E-01        3  36  21  21  # A0-g-g eff. coupling^2, normalised to SM
#
    0.00000000E+00        3  25  25  23  # h0-h0-Z eff. coupling^2, normalised to SM
    0.00000000E+00        3  35  25  23  # H0-h0-Z eff. coupling^2, normalised to SM
    4.62718522E-07        3  36  25  23  # A0-h0-Z eff. coupling^2, normalised to SM
    0.00000000E+00        3  35  35  23  # H0-H0-Z eff. coupling^2, normalised to SM
    9.99999537E-01        3  36  35  23  # A0-H0-Z eff. coupling^2, normalised to SM
    0.00000000E+00        3  36  36  23  # A0-A0-Z eff. coupling^2, normalised to SM
#
    0.00000000E+00        4  25  21  21  23  # h0-g-g-Z eff. coupling^2, normalised to SM
    0.00000000E+00        4  35  21  21  23  # H0-g-g-Z eff. coupling^2, normalised to SM
    0.00000000E+00        4  36  21  21  23  # A0-g-g-Z eff. coupling^2, normalised to SM
Block SPhenoLowEnergy  # low energy observables
    1    3.57362134E-04   # BR(b -> s gamma)
    2    1.58725971E-06   # BR(b -> s mu+ mu-)
    3    3.52491124E-05   # BR(b -> s nu nu)
    4    1.39154485E-15   # BR(Bd -> e+ e-)
    5    5.94438238E-11   # BR(Bd -> mu+ mu-)
    6    1.23630549E-08   # BR(Bd -> tau+ tau-)
    7    4.70849780E-14   # BR(Bs -> e+ e-)
    8    2.01142411E-09   # BR(Bs -> mu+ mu-)
    9    4.24011554E-07   # BR(Bs -> tau+ tau-)
   10    9.41476469E-05   # BR(B_u -> tau nu)
   11    9.72509148E-01   # BR(B_u -> tau nu)/BR(B_u -> tau nu)_SM
   12    5.42368835E-01   # |Delta(M_Bd)| [ps^-1] 
   13    1.93626148E+01   # |Delta(M_Bs)| [ps^-1] 
   14    0.00000000E+00   # neutron EDM according to the chiral quark model
   15    0.00000000E+00   # neutron EDM according to the relativistic quark-parton model
   16    2.15928439E-03   # epsilon_K
   17    2.28168108E-15   # Delta(M_K)
   18    2.48034079E-11   # BR(K^0 -> pi^0 nu nu)
   19    8.29100049E-11   # BR(K^+ -> pi^+ nu nu)
   20    3.08924097E-16   # Delta(g-2)_electron/2
   21    1.32074964E-11   # Delta(g-2)_muon/2
   22    3.73774366E-09   # Delta(g-2)_tau/2
   23    0.00000000E+00   # electric dipole moment of the electron
   24    0.00000000E+00   # electric dipole moment of the muon
   25    0.00000000E+00   # electric dipole moment of the tau
   26    0.00000000E+00   # Br(mu -> e gamma)
   27    0.00000000E+00   # Br(tau -> e gamma)
   28    0.00000000E+00   # Br(tau -> mu gamma)
   29    0.00000000E+00   # Br(mu -> 3 e)
   30    0.00000000E+00   # Br(tau -> 3 e)
   31    0.00000000E+00   # Br(tau -> 3 mu)
   39    6.53126193E-05   # Delta(rho_parameter)
   40    0.00000000E+00   # BR(Z -> e mu)
   41    0.00000000E+00   # BR(Z -> e tau)
   42    0.00000000E+00   # BR(Z -> mu tau)
Block FWCOEF Q=  1.60000000E+02  # Wilson coefficients at scale Q
#    id        order  M        value         comment
     0305 4422   00   0    -1.88819110E-01   # C7
     0305 4422   00   2    -2.28553535E-01   # C7
     0305 4322   00   2    -4.98247156E-04   # C7'
     0305 6421   00   0    -9.52278348E-02   # C8
     0305 6421   00   2    -1.29562970E-01   # C8
     0305 6321   00   2    -5.02099895E-04   # C8'
 03051111 4133   00   0     1.61907178E+00   # C9 e+e-
 03051111 4133   00   2     1.61931506E+00   # C9 e+e-
 03051111 4233   00   2     1.79311293E-04   # C9' e+e-
 03051111 4137   00   0    -4.44176388E+00   # C10 e+e-
 03051111 4137   00   2    -4.43979911E+00   # C10 e+e-
 03051111 4237   00   2    -1.34108623E-03   # C10' e+e-
 03051313 4133   00   0     1.61907178E+00   # C9 mu+mu-
 03051313 4133   00   2     1.61931487E+00   # C9 mu+mu-
 03051313 4233   00   2     1.79309865E-04   # C9' mu+mu-
 03051313 4137   00   0    -4.44176388E+00   # C10 mu+mu-
 03051313 4137   00   2    -4.43979930E+00   # C10 mu+mu-
 03051313 4237   00   2    -1.34108497E-03   # C10' mu+mu-
 03051212 4137   00   0     1.50535012E+00   # C11 nu_1 nu_1
 03051212 4137   00   2     1.50492565E+00   # C11 nu_1 nu_1
 03051212 4237   00   2     2.90489830E-04   # C11' nu_1 nu_1
 03051414 4137   00   0     1.50535012E+00   # C11 nu_2 nu_2
 03051414 4137   00   2     1.50492565E+00   # C11 nu_2 nu_2
 03051414 4237   00   2     2.90490130E-04   # C11' nu_2 nu_2
 03051616 4137   00   0     1.50535012E+00   # C11 nu_3 nu_3
 03051616 4137   00   2     1.50492565E+00   # C11 nu_3 nu_3
 03051616 4237   00   2     2.90574658E-04   # C11' nu_3 nu_3
Block IMFWCOEF Q=  1.60000000E+02  # Im(Wilson coefficients) at scale Q
#    id        order  M        value         comment
     0305 4422   00   0     3.85809662E-07   # C7
     0305 4422   00   2     3.55986380E-06   # C7
     0305 4322   00   2    -2.52231819E-06   # C7'
     0305 6421   00   0     3.30471491E-07   # C8
     0305 6421   00   2     1.25183900E-05   # C8
     0305 6321   00   2    -1.11935301E-06   # C8'
 03051111 4133   00   2    -9.21804058E-07   # C9 e+e-
 03051111 4233   00   2     4.55301457E-06   # C9' e+e-
 03051111 4137   00   2     8.81693630E-06   # C10 e+e-
 03051111 4237   00   2    -3.40629577E-05   # C10' e+e-
 03051313 4133   00   2    -9.21805175E-07   # C9 mu+mu-
 03051313 4233   00   2     4.55301381E-06   # C9' mu+mu-
 03051313 4137   00   2     8.81693833E-06   # C10 mu+mu-
 03051313 4237   00   2    -3.40629600E-05   # C10' mu+mu-
 03051212 4137   00   2    -1.88977450E-06   # C11 nu_1 nu_1
 03051212 4237   00   2     7.37831081E-06   # C11' nu_1 nu_1
 03051414 4137   00   2    -1.88977443E-06   # C11 nu_2 nu_2
 03051414 4237   00   2     7.37831081E-06   # C11' nu_2 nu_2
 03051616 4137   00   2    -1.88975527E-06   # C11 nu_3 nu_3
 03051616 4237   00   2     7.37831079E-06   # C11' nu_3 nu_3
