# SUSY Les Houches Accord 2 - MSSM spectrum + Decays
# SPheno v4.0.5be
# W. Porod, Comput. Phys. Commun. 153 (2003) 275-315, hep-ph/0301101;
# W. Porod, F.~Staub, Comput. Phys. Commun. 183 (2012) 2458
#                     arXiv:1104.1573 [hep-ph] 
# in case of problems send email to porod@physik.uni-wuerzburg.de
# Created: 12.05.2022,  17:01
Block SPINFO         # Program information
     1   SPheno      # spectrum calculator
     2   v4.0.5be    # version number
#
Block SPhenoINFO     # SPheno specific information
    1      2         # using 2-loop RGEs
    2      2         # using pole masses for boundary conditions at mZ
Block MODSEL  # Model selection
    1    0    # general MSSM
Block MINPAR  # Input parameters
    3    4.08051639E+00  # tanb at m_Z    
    4   -1.00000000E+00  # Sign(mu)
Block EXTPAR  # non-universal input parameters
    0    4.16948199E+03  # scale for input parameters
    1   -3.56381130E+02  # M_1
    2    6.47797466E+02  # M_2
    3    3.74987411E+03  # M_3
   11    2.80851357E+03  # A_t
   12   -6.90373714E+02  # A_b
   13   -1.77116689E+03  # A_tau
   23   -2.80207091E+02  # mu
   25    3.85937621E+00  # tan(beta)
   26    2.22365479E+03  # m_A, pole mass
   31    1.00000000E+04  # M_L11
   32    1.00000000E+04  # M_L22
   33    1.00000000E+04  # M_L33
   34    1.00000000E+04  # M_E11
   35    1.00000000E+04  # M_E22
   36    1.00000000E+04  # M_E33
   41    1.00000000E+04  # M_Q11
   42    1.00000000E+04  # M_Q22
   43    4.96254112E+03  # M_Q33
   44    1.00000000E+04  # M_U11
   45    1.00000000E+04  # M_U22
   46    3.35463346E+03  # M_U33
   47    1.00000000E+04  # M_D11
   48    1.00000000E+04  # M_D22
   49    3.89984435E+03  # M_D33
Block SMINPUTS  # SM parameters
         1     1.27908970E+02  # alpha_em^-1(MZ)^MSbar
         2     1.16637870E-05  # G_mu [GeV^-2]
         3     1.18400000E-01  # alpha_s(MZ)^MSbar
         4     9.11876000E+01  # m_Z(pole)
         5     4.18000000E+00  # m_b(m_b), MSbar
         6     1.73200000E+02  # m_t(pole)
         7     1.77700000E+00  # m_tau(pole)
         8     0.00000000E+00  # m_nu_3
        11     5.10998930E-04  # m_e(pole)
        12     0.00000000E+00  # m_nu_1
        13     1.05658372E-01  # m_muon(pole)
        14     0.00000000E+00  # m_nu_2
        21     5.00000000E-03  # m_d(2 GeV), MSbar
        22     2.50000000E-03  # m_u(2 GeV), MSbar
        23     9.50000000E-02  # m_s(2 GeV), MSbar
        24     1.27000000E+00  # m_c(m_c), MSbar
Block gauge Q=  4.16948199E+03  # (SUSY scale)
   1    3.55362975E-01  # g'(Q)^DRbar
   2    6.65198874E-01  # g(Q)^DRbar
   3    1.21977796E+00  # g3(Q)^DRbar
Block Yu Q=  4.16948199E+03  # (SUSY scale)
  1  1     8.66125362E-06   # Y_u(Q)^DRbar
  2  2     4.39991684E-03   # Y_c(Q)^DRbar
  3  3     1.04634901E+00   # Y_t(Q)^DRbar
Block Yd Q=  4.16948199E+03  # (SUSY scale)
  1  1     6.71704285E-05   # Y_d(Q)^DRbar
  2  2     1.27623814E-03   # Y_s(Q)^DRbar
  3  3     6.66120169E-02   # Y_b(Q)^DRbar
Block Ye Q=  4.16948199E+03  # (SUSY scale)
  1  1     1.17217310E-05   # Y_e(Q)^DRbar
  2  2     2.42368220E-03   # Y_mu(Q)^DRbar
  3  3     4.07623474E-02   # Y_tau(Q)^DRbar
Block Au Q=  4.16948199E+03  # (SUSY scale)
  1  1     0.00000000E+00   # A_u(Q)^DRbar
  2  2     0.00000000E+00   # A_c(Q)^DRbar
  3  3     2.80851340E+03   # A_t(Q)^DRbar
Block Ad Q=  4.16948199E+03  # (SUSY scale)
  1  1     0.00000000E+00   # A_d(Q)^DRbar
  2  2     0.00000000E+00   # A_s(Q)^DRbar
  3  3    -6.90373691E+02   # A_b(Q)^DRbar
Block Ae Q=  4.16948199E+03  # (SUSY scale)
  1  1     0.00000000E+00   # A_e(Q)^DRbar
  2  2     0.00000000E+00   # A_mu(Q)^DRbar
  3  3    -1.77116688E+03   # A_tau(Q)^DRbar
Block MSOFT Q=  4.16948199E+03  # soft SUSY breaking masses at Q
   1   -3.56381130E+02  # M_1
   2    6.47797466E+02  # M_2
   3    3.74987411E+03  # M_3
  21    4.55615398E+06  # M^2_(H,d)
  22    6.13260018E+05  # M^2_(H,u)
  31    1.00000000E+04  # M_(L,11)
  32    1.00000000E+04  # M_(L,22)
  33    1.00000000E+04  # M_(L,33)
  34    1.00000000E+04  # M_(E,11)
  35    1.00000000E+04  # M_(E,22)
  36    1.00000000E+04  # M_(E,33)
  41    1.00000000E+04  # M_(Q,11)
  42    1.00000000E+04  # M_(Q,22)
  43    4.96254112E+03  # M_(Q,33)
  44    1.00000000E+04  # M_(U,11)
  45    1.00000000E+04  # M_(U,22)
  46    3.35463346E+03  # M_(U,33)
  47    1.00000000E+04  # M_(D,11)
  48    1.00000000E+04  # M_(D,22)
  49    3.89984435E+03  # M_(D,33)
Block MASS  # Mass spectrum
#   PDG code      mass          particle
         6     1.73200000E+02  # m_t(pole)
        23     9.11876000E+01  # m_Z(pole)
        24     8.04299946E+01  # W+
        15     1.77700000E+00  # m_tau(pole)
        25     1.18153528E+02  # h0
        35     2.22378900E+03  # H0
        36     2.22365479E+03  # A0
        37     2.22544690E+03  # H+
   1000001     1.01067658E+04  # ~d_L
   2000001     1.00820344E+04  # ~d_R
   1000002     1.01064395E+04  # ~u_L
   2000002     1.00850878E+04  # ~u_R
   1000003     1.01067660E+04  # ~s_L
   2000003     1.00820344E+04  # ~s_R
   1000004     1.01064398E+04  # ~c_L
   2000004     1.00850883E+04  # ~c_R
   1000005     4.03657321E+03  # ~b_1
   2000005     5.04324028E+03  # ~b_2
   1000006     3.44544904E+03  # ~t_1
   2000006     5.04566454E+03  # ~t_2
   1000011     1.00212560E+04  # ~e_L-
   2000011     1.00090050E+04  # ~e_R-
   1000012     1.00205260E+04  # ~nu_eL
   1000013     1.00212561E+04  # ~mu_L-
   2000013     1.00090052E+04  # ~mu_R-
   1000014     1.00205261E+04  # ~nu_muL
   1000015     1.00090555E+04  # ~tau_1-
   2000015     1.00212825E+04  # ~tau_2-
   1000016     1.00205519E+04  # ~nu_tauL
   1000021     4.25640229E+03  # ~g
   1000022     2.84794890E+02  # ~chi_10
   1000023     2.97130192E+02  # ~chi_20
   1000025     3.78233777E+02  # ~chi_30
   1000035     7.15139875E+02  # ~chi_40
   1000024     3.01126502E+02  # ~chi_1+
   1000037     7.15283529E+02  # ~chi_2+
# Higgs mixing
Block alpha # Effective Higgs mixing angle
          -2.41326343E-01   # alpha
Block Hmix Q=  4.16948199E+03  # Higgs mixing parameters
   1   -2.80207091E+02  # mu
   2    3.85937621E+00  # tan[beta](Q)
   3    2.42929052E+02  # v(Q)
   4    4.94464063E+06  # m^2_A(Q)
Block stopmix # stop mixing matrix
   1  1    -2.66615205E-02   # Re[R_st(1,1)]
   1  2     9.99644518E-01   # Re[R_st(1,2)]
   2  1    -9.99644518E-01   # Re[R_st(2,1)]
   2  2    -2.66615205E-02   # Re[R_st(2,2)]
Block sbotmix # sbottom mixing matrix
   1  1     3.91240896E-06   # Re[R_sb(1,1)]
   1  2     1.00000000E+00   # Re[R_sb(1,2)]
   2  1    -1.00000000E+00   # Re[R_sb(2,1)]
   2  2     3.91240896E-06   # Re[R_sb(2,2)]
Block staumix # stau mixing matrix
   1  1     5.22586331E-03   # Re[R_sta(1,1)]
   1  2     9.99986345E-01   # Re[R_sta(1,2)]
   2  1    -9.99986345E-01   # Re[R_sta(2,1)]
   2  2     5.22586331E-03   # Re[R_sta(2,2)]
Block Nmix # neutralino mixing matrix
   1  1     4.62876747E-01   # Re[N(1,1)]
   1  2     6.13121686E-02   # Re[N(1,2)]
   1  3    -6.35118653E-01   # Re[N(1,3)]
   1  4     6.15313117E-01   # Re[N(1,4)]
   2  1    -3.42118211E-02   # Re[N(2,1)]
   2  2    -9.69006620E-02   # Re[N(2,2)]
   2  3    -7.09610809E-01   # Re[N(2,3)]
   2  4    -6.97059762E-01   # Re[N(2,4)]
   3  1    -8.85750534E-01   # Re[N(3,1)]
   3  2     3.06879936E-02   # Re[N(3,2)]
   3  3    -3.04386862E-01   # Re[N(3,3)]
   3  4     3.49074315E-01   # Re[N(3,4)]
   4  1     4.54535580E-03   # Re[N(4,1)]
   4  2    -9.92929669E-01   # Re[N(4,2)]
   4  3     2.06260663E-02   # Re[N(4,3)]
   4  4     1.16810010E-01   # Re[N(4,4)]
Block Umix # chargino mixing matrix
   1  1    -2.99444730E-02   # Re[U(1,1)]
   1  2    -9.99551564E-01   # Re[U(1,2)]
   2  1     9.99551564E-01   # Re[U(2,1)]
   2  2    -2.99444730E-02   # Re[U(2,2)]
Block Vmix # chargino mixing matrix
   1  1    -1.66097859E-01   # Re[V(1,1)]
   1  2     9.86109275E-01   # Re[V(1,2)]
   2  1     9.86109275E-01   # Re[V(2,1)]
   2  2     1.66097859E-01   # Re[V(2,2)]
DECAY        23     2.49520000E+00   # Z
DECAY        24     2.08500000E+00   # W
DECAY   2000011     5.01614292E+01   # ~e^-_R
#    BR                NDA      ID1      ID2
     2.14463167E-01    2     1000022        11   # BR(~e^-_R -> chi^0_1 e^-)
     1.17141878E-03    2     1000023        11   # BR(~e^-_R -> chi^0_2 e^-)
     7.84344911E-01    2     1000025        11   # BR(~e^-_R -> chi^0_3 e^-)
DECAY   1000011     1.43546752E+02   # ~e^-_L
#    BR                NDA      ID1      ID2
     2.92142821E-02    2     1000022        11   # BR(~e^-_L -> chi^0_1 e^-)
     4.06913398E-03    2     1000023        11   # BR(~e^-_L -> chi^0_2 e^-)
     5.99952410E-02    2     1000025        11   # BR(~e^-_L -> chi^0_3 e^-)
     2.98405977E-01    2     1000035        11   # BR(~e^-_L -> chi^0_4 e^-)
     5.50060758E-04    2    -1000024        12   # BR(~e^-_L -> chi^-_1 nu_e)
     6.07765306E-01    2    -1000037        12   # BR(~e^-_L -> chi^-_2 nu_e)
#    BR                NDA      ID1      ID2       ID3
DECAY   2000013     5.01637653E+01   # ~mu^-_R
#    BR                NDA      ID1      ID2
     2.14462576E-01    2     1000022        13   # BR(~mu^-_R -> chi^0_1 mu^-)
     1.18308462E-03    2     1000023        13   # BR(~mu^-_R -> chi^0_2 mu^-)
     7.84310553E-01    2     1000025        13   # BR(~mu^-_R -> chi^0_3 mu^-)
DECAY   1000013     1.43547922E+02   # ~mu^-_L
#    BR                NDA      ID1      ID2
     2.92173293E-02    2     1000022        13   # BR(~mu^-_L -> chi^0_1 mu^-)
     4.07320184E-03    2     1000023        13   # BR(~mu^-_L -> chi^0_2 mu^-)
     5.99955065E-02    2     1000025        13   # BR(~mu^-_L -> chi^0_3 mu^-)
     2.98403550E-01    2     1000035        13   # BR(~mu^-_L -> chi^0_4 mu^-)
     5.50056279E-04    2    -1000024        14   # BR(~mu^-_L -> chi^-_1 nu_mu)
     6.07760356E-01    2    -1000037        14   # BR(~mu^-_L -> chi^-_2 nu_mu)
#    BR                NDA      ID1      ID2       ID3
DECAY   1000015     5.08247006E+01   # ~tau^-_1
#    BR                NDA      ID1      ID2
     2.14191463E-01    2     1000022        15   # BR(~tau^-_1 -> chi^0_1 tau^-)
     4.38486417E-03    2     1000023        15   # BR(~tau^-_1 -> chi^0_2 tau^-)
     7.74817390E-01    2     1000025        15   # BR(~tau^-_1 -> chi^0_3 tau^-)
     6.45887413E-03    2    -1000024        16   # BR(~tau^-_1 -> chi^-_1 nu_tau)
DECAY   2000015     1.43875286E+02   # ~tau^-_2
#    BR                NDA      ID1      ID2
     3.01087734E-02    2     1000022        15   # BR(~tau^-_2 -> chi^0_1 tau^-)
     5.23260686E-03    2     1000023        15   # BR(~tau^-_2 -> chi^0_2 tau^-)
     6.00345678E-02    2     1000025        15   # BR(~tau^-_2 -> chi^0_3 tau^-)
     2.97712530E-01    2     1000035        15   # BR(~tau^-_2 -> chi^0_4 tau^-)
     5.60586572E-04    2    -1000024        16   # BR(~tau^-_2 -> chi^-_1 nu_tau)
     6.06350935E-01    2    -1000037        16   # BR(~tau^-_2 -> chi^-_2 nu_tau)
#    BR                NDA      ID1      ID2       ID3
DECAY   1000012     1.43549030E+02   # ~nu_e
#    BR                NDA      ID1      ID2
     1.06086302E-02    2     1000022        12   # BR(~nu_e -> chi^0_1 nu_e)
     1.89600575E-03    2     1000023        12   # BR(~nu_e -> chi^0_2 nu_e)
     7.77856144E-02    2     1000025        12   # BR(~nu_e -> chi^0_3 nu_e)
     3.01312146E-01    2     1000035        12   # BR(~nu_e -> chi^0_4 nu_e)
     1.69225865E-02    2     1000024        11   # BR(~nu_e -> chi^+_1 e^-)
     5.91475018E-01    2     1000037        11   # BR(~nu_e -> chi^+_2 e^-)
#    BR                NDA      ID1      ID2       ID3
DECAY   1000014     1.43550201E+02   # ~nu_mu
#    BR                NDA      ID1      ID2
     1.06085438E-02    2     1000022        14   # BR(~nu_mu -> chi^0_1 nu_mu)
     1.89599031E-03    2     1000023        14   # BR(~nu_mu -> chi^0_2 nu_mu)
     7.77849810E-02    2     1000025        14   # BR(~nu_mu -> chi^0_3 nu_mu)
     3.01309692E-01    2     1000035        14   # BR(~nu_mu -> chi^0_4 nu_mu)
     1.69305846E-02    2     1000024        13   # BR(~nu_mu -> chi^+_1 mu^-)
     5.91470208E-01    2     1000037        13   # BR(~nu_mu -> chi^+_2 mu^-)
#    BR                NDA      ID1      ID2       ID3
DECAY   1000016     1.43880051E+02   # ~nu_tau
#    BR                NDA      ID1      ID2
     1.05842507E-02    2     1000022        16   # BR(~nu_tau -> chi^0_1 nu_tau)
     1.89164856E-03    2     1000023        16   # BR(~nu_tau -> chi^0_2 nu_tau)
     7.76068568E-02    2     1000025        16   # BR(~nu_tau -> chi^0_3 nu_tau)
     3.00619718E-01    2     1000035        16   # BR(~nu_tau -> chi^0_4 nu_tau)
     1.91797933E-02    2     1000024        15   # BR(~nu_tau -> chi^+_1 tau^-)
     5.90117733E-01    2     1000037        15   # BR(~nu_tau -> chi^+_2 tau^-)
#    BR                NDA      ID1      ID2       ID3
DECAY   2000001     5.43024236E+02   # ~d_R
#    BR                NDA      ID1      ID2
     2.21732040E-03    2     1000022         1   # BR(~d_R -> chi^0_1 d)
     8.10943260E-03    2     1000025         1   # BR(~d_R -> chi^0_3 d)
     9.89660921E-01    2     1000021         1   # BR(~d_R -> ~g d)
DECAY   1000001     6.73404954E+02   # ~d_L
#    BR                NDA      ID1      ID2
     5.43802234E-04    2     1000023         1   # BR(~d_L -> chi^0_2 d)
     2.33862550E-03    2     1000025         1   # BR(~d_L -> chi^0_3 d)
     6.45838666E-02    2     1000035         1   # BR(~d_L -> chi^0_4 d)
     1.18258149E-04    2    -1000024         2   # BR(~d_L -> chi^-_1 u)
     1.30682656E-01    2    -1000037         2   # BR(~d_L -> chi^-_2 u)
     8.01703388E-01    2     1000021         1   # BR(~d_L -> ~g d)
DECAY   2000003     5.43024886E+02   # ~s_R
#    BR                NDA      ID1      ID2
     2.21755942E-03    2     1000022         3   # BR(~s_R -> chi^0_1 s)
     8.10947824E-03    2     1000025         3   # BR(~s_R -> chi^0_3 s)
     9.89659736E-01    2     1000021         3   # BR(~s_R -> ~g s)
DECAY   1000003     6.73409187E+02   # ~s_L
#    BR                NDA      ID1      ID2
     5.44042644E-04    2     1000023         3   # BR(~s_L -> chi^0_2 s)
     2.33865562E-03    2     1000025         3   # BR(~s_L -> chi^0_3 s)
     6.45834621E-02    2     1000035         3   # BR(~s_L -> chi^0_4 s)
     1.23867832E-04    2    -1000024         4   # BR(~s_L -> chi^-_1 c)
     1.30681996E-01    2    -1000037         4   # BR(~s_L -> chi^-_2 c)
     8.01698378E-01    2     1000021         3   # BR(~s_L -> ~g s)
DECAY   1000005     2.92123851E+00   # ~b_1
#    BR                NDA      ID1      ID2
     2.12385611E-01    2     1000022         5   # BR(~b_1 -> chi^0_1 b)
     6.16481926E-02    2     1000023         5   # BR(~b_1 -> chi^0_2 b)
     6.05733330E-01    2     1000025         5   # BR(~b_1 -> chi^0_3 b)
     1.20066640E-01    2    -1000024         6   # BR(~b_1 -> chi^-_1 t)
     1.02478095E-04    2    -1000037         6   # BR(~b_1 -> chi^-_2 t)
DECAY   2000005     2.16216104E+02   # ~b_2
#    BR                NDA      ID1      ID2
     8.70789368E-04    2     1000022         5   # BR(~b_2 -> chi^0_1 b)
     1.87054321E-03    2     1000023         5   # BR(~b_2 -> chi^0_2 b)
     3.79222405E-03    2     1000025         5   # BR(~b_2 -> chi^0_3 b)
     9.73483607E-02    2     1000035         5   # BR(~b_2 -> chi^0_4 b)
     4.89453466E-01    2    -1000024         6   # BR(~b_2 -> chi^-_1 t)
     2.10940458E-01    2    -1000037         6   # BR(~b_2 -> chi^-_2 t)
     1.52383822E-01    2     1000021         5   # BR(~b_2 -> ~g b)
     4.33401710E-02    2     1000006       -24   # BR(~b_2 -> ~t_1 W^-)
DECAY   2000002     5.60178124E+02   # ~u_R
#    BR                NDA      ID1      ID2
     8.60029423E-03    2     1000022         2   # BR(~u_R -> chi^0_1 u)
     3.14539919E-02    2     1000025         2   # BR(~u_R -> chi^0_3 u)
     9.59897916E-01    2     1000021         2   # BR(~u_R -> ~g u)
DECAY   1000002     6.73389842E+02   # ~u_L
#    BR                NDA      ID1      ID2
     1.36266665E-03    2     1000022         2   # BR(~u_L -> chi^0_1 u)
     6.99516736E-04    2     1000023         2   # BR(~u_L -> chi^0_2 u)
     1.06317178E-03    2     1000025         2   # BR(~u_L -> chi^0_3 u)
     6.43729464E-02    2     1000035         2   # BR(~u_L -> chi^0_4 u)
     3.63849308E-03    2     1000024         1   # BR(~u_L -> chi^+_1 d)
     1.27190032E-01    2     1000037         1   # BR(~u_L -> chi^+_2 d)
     8.01673173E-01    2     1000021         2   # BR(~u_L -> ~g u)
DECAY   2000004     5.60185896E+02   # ~c_R
#    BR                NDA      ID1      ID2
     8.60279836E-03    2     1000022         4   # BR(~c_R -> chi^0_1 c)
     3.14543949E-02    2     1000025         4   # BR(~c_R -> chi^0_3 c)
     9.59884632E-01    2     1000021         4   # BR(~c_R -> ~g c)
DECAY   1000004     6.73394055E+02   # ~c_L
#    BR                NDA      ID1      ID2
     1.36484223E-03    2     1000022         4   # BR(~c_L -> chi^0_1 c)
     7.02315349E-04    2     1000023         4   # BR(~c_L -> chi^0_2 c)
     1.06386806E-03    2     1000025         4   # BR(~c_L -> chi^0_3 c)
     6.43726239E-02    2     1000035         4   # BR(~c_L -> chi^0_4 c)
     3.63895421E-03    2     1000024         3   # BR(~c_L -> chi^+_1 s)
     1.27189240E-01    2     1000037         3   # BR(~c_L -> chi^+_2 s)
     8.01668156E-01    2     1000021         4   # BR(~c_L -> ~g c)
DECAY   1000006     1.54611381E+02   # ~t_1
#    BR                NDA      ID1      ID2
     1.92911206E-01    2     1000022         6   # BR(~t_1 -> chi^0_1 t)
     2.30762549E-01    2     1000023         6   # BR(~t_1 -> chi^0_2 t)
     9.23128788E-02    2     1000025         6   # BR(~t_1 -> chi^0_3 t)
     7.33729678E-03    2     1000035         6   # BR(~t_1 -> chi^0_4 t)
     4.61832105E-01    2     1000024         5   # BR(~t_1 -> chi^+_1 b)
     1.48439425E-02    2     1000037         5   # BR(~t_1 -> chi^+_2 b)
#    BR                NDA      ID1      ID2       ID3
DECAY   2000006     2.20184697E+02   # ~t_2
#    BR                NDA      ID1      ID2
     1.87852671E-01    2     1000022         6   # BR(~t_2 -> chi^0_1 t)
     2.41799662E-01    2     1000023         6   # BR(~t_2 -> chi^0_2 t)
     6.37903545E-02    2     1000025         6   # BR(~t_2 -> chi^0_3 t)
     1.00712966E-01    2     1000035         6   # BR(~t_2 -> chi^0_4 t)
     1.06211740E-02    2     1000024         5   # BR(~t_2 -> chi^+_1 b)
     1.85573261E-01    2     1000037         5   # BR(~t_2 -> chi^+_2 b)
     1.47698250E-01    2     1000021         6   # BR(~t_2 -> ~g t)
     2.13251081E-02    2     1000006        23   # BR(~t_2 -> ~t_1 Z)
     4.06265533E-02    2     1000006        25   # BR(~t_2 -> ~t_1 h^0)
DECAY   1000024     3.65278784E-06   # chi^+_1
#    BR                NDA      ID1      ID2       ID3
     3.38580648E-01    3     1000022        -1         2   # BR(chi^+_1 -> chi^0_1 d_bar u)
     3.28777103E-01    3     1000022        -3         4   # BR(chi^+_1 -> chi^0_1 s_bar c)
     1.12859700E-01    3     1000022       -11        12   # BR(chi^+_1 -> chi^0_1 e^+ nu_e)
     1.12843685E-01    3     1000022       -13        14   # BR(chi^+_1 -> chi^0_1 mu^+ nu_mu)
     1.06623646E-01    3     1000022       -15        16   # BR(chi^+_1 -> chi^0_1 tau^+ nu_tau)
     1.30877998E-04    3     1000023        -1         2   # BR(chi^+_1 -> chi^0_2 d_bar u)
DECAY   1000037     3.82230055E+00   # chi^+_2
#    BR                NDA      ID1      ID2
     2.24834007E-01    2     1000022        24   # BR(chi^+_2 -> chi^0_1 W^+)
     2.50058888E-01    2     1000023        24   # BR(chi^+_2 -> chi^0_2 W^+)
     3.77464776E-02    2     1000025        24   # BR(chi^+_2 -> chi^0_3 W^+)
     2.45788384E-01    2     1000024        23   # BR(chi^+_2 -> chi^+_1 Z)
     2.36938847E-01    2     1000024        25   # BR(chi^+_2 -> chi^+_1 h^0)
#    BR                NDA      ID1      ID2       ID3
     1.61581692E-04    3     1000024         6        -6   # BR(chi^+_2 -> chi^+_1 t t_bar)
     2.90484682E-03    3     1000022        -5         6   # BR(chi^+_2 -> chi^0_1 b_bar t)
     1.25092354E-03    3     1000023        -5         6   # BR(chi^+_2 -> chi^0_2 b_bar t)
     3.15972100E-04    3     1000025        -5         6   # BR(chi^+_2 -> chi^0_3 b_bar t)
DECAY   1000022     0.00000000E+00   # chi^0_1
DECAY   1000023     8.20715901E-07   # chi^0_2
#    BR                NDA      ID1      ID2
     2.35071342E-01    2     1000022        22   # BR(chi^0_2 -> chi^0_1 photon)
#    BR                NDA      ID1      ID2       ID3
     1.06104425E-01    3     1000022         2        -2   # BR(chi^0_2 -> chi^0_1 u u_bar)
     9.21370118E-02    3     1000022         4        -4   # BR(chi^0_2 -> chi^0_1 c c_bar)
     1.36046749E-01    3     1000022         1        -1   # BR(chi^0_2 -> chi^0_1 d d_bar)
     1.35953352E-01    3     1000022         3        -3   # BR(chi^0_2 -> chi^0_1 s s_bar)
     2.87313771E-02    3     1000022         5        -5   # BR(chi^0_2 -> chi^0_1 b b_bar)
     3.07016340E-02    3     1000022        11       -11   # BR(chi^0_2 -> chi^0_1 e^- e^+)
     3.06684150E-02    3     1000022        13       -13   # BR(chi^0_2 -> chi^0_1 mu^- mu^+)
     2.26525758E-02    3     1000022        15       -15   # BR(chi^0_2 -> chi^0_1 tau^- tau^+)
     1.81933118E-01    3     1000022        12       -12   # BR(chi^0_2 -> chi^0_1 nu_e nu_bar_e)
DECAY   1000025     3.66929774E-02   # chi^0_3
#    BR                NDA      ID1      ID2
     1.15652363E-02    2     1000022        23   # BR(chi^0_3 -> chi^0_1 Z)
     1.58344778E-03    2     1000023        22   # BR(chi^0_3 -> chi^0_2 photon)
#    BR                NDA      ID1      ID2       ID3
     2.32136965E-02    3     1000023         2        -2   # BR(chi^0_3 -> chi^0_2 u u_bar)
     2.31677172E-02    3     1000023         4        -4   # BR(chi^0_3 -> chi^0_2 c c_bar)
     2.97646308E-02    3     1000023         1        -1   # BR(chi^0_3 -> chi^0_2 d d_bar)
     2.97643792E-02    3     1000023         3        -3   # BR(chi^0_3 -> chi^0_2 s s_bar)
     2.92482185E-02    3     1000023         5        -5   # BR(chi^0_3 -> chi^0_2 b b_bar)
     6.71712345E-03    3     1000023        11       -11   # BR(chi^0_3 -> chi^0_2 e^- e^+)
     6.71702556E-03    3     1000023        13       -13   # BR(chi^0_3 -> chi^0_2 mu^- mu^+)
     6.68812697E-03    3     1000023        15       -15   # BR(chi^0_3 -> chi^0_2 tau^- tau^+)
     3.98041554E-02    3     1000023        12       -12   # BR(chi^0_3 -> chi^0_2 nu_e nu_bar_e)
     1.31997982E-01    3     1000024         1        -2   # BR(chi^0_3 -> chi^+_1 d u_bar)
     1.31997982E-01    3    -1000024        -1         2   # BR(chi^0_3 -> chi^-_1 d_bar u)
     1.31924366E-01    3     1000024         3        -4   # BR(chi^0_3 -> chi^+_1 s c_bar)
     1.31924366E-01    3    -1000024        -3         4   # BR(chi^0_3 -> chi^-_1 s_bar c)
     4.39995472E-02    3     1000024        11       -12   # BR(chi^0_3 -> chi^+_1 e^- nu_bar_e)
     4.39995472E-02    3    -1000024       -11        12   # BR(chi^0_3 -> chi^-_1 e^+ nu_e)
     4.39994063E-02    3     1000024        13       -14   # BR(chi^0_3 -> chi^+_1 mu^- nu_bar_mu)
     4.39994063E-02    3    -1000024       -13        14   # BR(chi^0_3 -> chi^-_1 mu^+ nu_mu)
     4.39548420E-02    3     1000024        15       -16   # BR(chi^0_3 -> chi^+_1 tau^- nu_bar_tau)
     4.39548420E-02    3    -1000024       -15        16   # BR(chi^0_3 -> chi^-_1 tau^+ nu_tau)
DECAY   1000035     5.31937805E+00   # chi^0_4
#    BR                NDA      ID1      ID2
     1.84246854E-01    2     1000024       -24   # BR(chi^0_4 -> chi^+_1 W^-)
     1.84246854E-01    2    -1000024        24   # BR(chi^0_4 -> chi^-_1 W^+)
     1.05822644E-01    2     1000022        23   # BR(chi^0_4 -> chi^0_1 Z)
     6.23914222E-02    2     1000023        23   # BR(chi^0_4 -> chi^0_2 Z)
     2.11366064E-02    2     1000025        23   # BR(chi^0_4 -> chi^0_3 Z)
     2.68852798E-01    2     1000022        25   # BR(chi^0_4 -> chi^0_1 h^0)
     1.13562270E-01    2     1000023        25   # BR(chi^0_4 -> chi^0_2 h^0)
     5.78051485E-02    2     1000025        25   # BR(chi^0_4 -> chi^0_3 h^0)
#    BR                NDA      ID1      ID2       ID3
     9.03338247E-04    3     1000024         5        -6   # BR(chi^0_4 -> chi^+_1 b t_bar)
     9.03338247E-04    3    -1000024        -5         6   # BR(chi^0_4 -> chi^-_1 b_bar t)
DECAY   1000021     1.64281059E+01   # ~g
#    BR                NDA      ID1      ID2
     4.52862077E-01    2     1000006        -6   # BR(~g -> ~t_1 t_bar)
     4.52862077E-01    2    -1000006         6   # BR(~g -> ~t^*_1 t)
     3.88206481E-02    2     1000005        -5   # BR(~g -> ~b_1 b_bar)
     3.88206481E-02    2    -1000005         5   # BR(~g -> ~b^*_1 b)
     2.05643246E-04    2     1000022        21   # BR(~g -> chi^0_1 g)
     2.08746248E-04    2     1000023        21   # BR(~g -> chi^0_2 g)
#    BR                NDA      ID1      ID2       ID3
     1.74932289E-03    3     1000022         6        -6   # BR(~g -> chi^0_1 t t_bar)
     2.25816972E-03    3     1000023         6        -6   # BR(~g -> chi^0_2 t t_bar)
     6.08264504E-04    3     1000025         6        -6   # BR(~g -> chi^0_3 t t_bar)
     1.05612936E-03    3     1000035         6        -6   # BR(~g -> chi^0_4 t t_bar)
     1.03115793E-03    3     1000035         5        -5   # BR(~g -> chi^0_4 b b_bar)
     2.39128566E-03    3     1000024         5        -6   # BR(~g -> chi^+_1 b t_bar)
     2.39128566E-03    3    -1000024        -5         6   # BR(~g -> chi^-_1 b_bar t)
     2.09134854E-03    3     1000037         5        -6   # BR(~g -> chi^+_2 b t_bar)
     2.09134854E-03    3    -1000037        -5         6   # BR(~g -> chi^-_2 b_bar t)
DECAY        25     2.96256648E-03   # Gamma(h0)
     2.40785002E-03   2        22        22   # BR(h0 -> photon photon)
     9.90199460E-04   2        22        23   # BR(h0 -> photon Z)
     1.45291970E-02   2        23        23   # BR(h0 -> Z Z)
     1.37494702E-01   2       -24        24   # BR(h0 -> W W)
     8.05905848E-02   2        21        21   # BR(h0 -> gluon gluon)
     5.83406874E-09   2       -11        11   # BR(h0 -> Electron electron)
     2.59505383E-04   2       -13        13   # BR(h0 -> Muon muon)
     7.48137870E-02   2       -15        15   # BR(h0 -> Tau tau)
     1.66627011E-07   2        -2         2   # BR(h0 -> Up up)
     3.23328402E-02   2        -4         4   # BR(h0 -> Charm charm)
     6.82168502E-07   2        -1         1   # BR(h0 -> Down down)
     2.46723894E-04   2        -3         3   # BR(h0 -> Strange strange)
     6.56333755E-01   2        -5         5   # BR(h0 -> Bottom bottom)
DECAY        35     2.87444254E+01   # Gamma(HH)
     9.91676190E-08   2        22        22   # BR(HH -> photon photon)
     2.58052765E-08   2        22        23   # BR(HH -> photon Z)
     8.83575267E-05   2        23        23   # BR(HH -> Z Z)
     4.02581919E-05   2       -24        24   # BR(HH -> W W)
     6.87160333E-05   2        21        21   # BR(HH -> gluon gluon)
     1.92401068E-10   2       -11        11   # BR(HH -> Electron electron)
     8.56579634E-06   2       -13        13   # BR(HH -> Muon muon)
     2.47378950E-03   2       -15        15   # BR(HH -> Tau tau)
     1.14389365E-11   2        -2         2   # BR(HH -> Up up)
     2.21886890E-06   2        -4         4   # BR(HH -> Charm charm)
     1.63346437E-01   2        -6         6   # BR(HH -> Top top)
     1.47032494E-08   2        -1         1   # BR(HH -> Down down)
     5.31821664E-06   2        -3         3   # BR(HH -> Strange strange)
     1.40083545E-02   2        -5         5   # BR(HH -> Bottom bottom)
     2.01536676E-02   2  -1000024   1000024   # BR(HH -> Chargino1 chargino1)
     2.33954175E-01   2  -1000024   1000037   # BR(HH -> Chargino1 chargino2)
     2.33954175E-01   2  -1000037   1000024   # BR(HH -> Chargino2 chargino1)
     2.13363317E-03   2  -1000037   1000037   # BR(HH -> Chargino2 chargino2)
     2.64056554E-03   2   1000022   1000022   # BR(HH -> neutralino1 neutralino1)
     8.19405440E-03   2   1000022   1000023   # BR(HH -> neutralino1 neutralino2)
     1.44829352E-02   2   1000022   1000025   # BR(HH -> neutralino1 neutralino3)
     6.17323722E-02   2   1000022   1000035   # BR(HH -> neutralino1 neutralino4)
     3.48724206E-03   2   1000023   1000023   # BR(HH -> neutralino2 neutralino2)
     5.58159832E-02   2   1000023   1000025   # BR(HH -> neutralino2 neutralino3)
     1.66661252E-01   2   1000023   1000035   # BR(HH -> neutralino2 neutralino4)
     4.24498767E-03   2   1000025   1000025   # BR(HH -> neutralino3 neutralino3)
     1.09694753E-02   2   1000025   1000035   # BR(HH -> neutralino3 neutralino4)
     1.03771779E-03   2   1000035   1000035   # BR(HH -> neutralino4 neutralino4)
     4.95609107E-04   2        25        25   # BR(HH -> h0 h0)
DECAY        36     2.85468773E+01   # Gamma(A0)
     9.34107187E-08   2        22        22   # BR(A0 -> photon photon)
     1.53506970E-07   2        22        23   # BR(A0 -> photon Z)
     9.78821173E-05   2        21        21   # BR(A0 -> gluon gluon)
     1.87433848E-10   2       -11        11   # BR(A0 -> Electron electron)
     8.34464914E-06   2       -13        13   # BR(A0 -> Muon muon)
     2.40992897E-03   2       -15        15   # BR(A0 -> Tau tau)
     1.07751901E-11   2        -2         2   # BR(A0 -> Up up)
     2.08999511E-06   2        -4         4   # BR(A0 -> Charm charm)
     1.57866493E-01   2        -6         6   # BR(A0 -> Top top)
     1.43237132E-08   2        -1         1   # BR(A0 -> Down down)
     5.18093171E-06   2        -3         3   # BR(A0 -> Strange strange)
     1.36473536E-02   2        -5         5   # BR(A0 -> Bottom bottom)
     1.77615229E-02   2  -1000024   1000024   # BR(A0 -> Chargino1 chargino1)
     2.38249512E-01   2  -1000024   1000037   # BR(A0 -> Chargino1 chargino2)
     2.38249512E-01   2  -1000037   1000024   # BR(A0 -> Chargino2 chargino1)
     2.91290078E-05   2  -1000037   1000037   # BR(A0 -> Chargino2 chargino2)
     7.52827556E-03   2   1000022   1000022   # BR(A0 -> neutralino1 neutralino1)
     6.11609702E-03   2   1000022   1000023   # BR(A0 -> neutralino1 neutralino2)
     4.12673547E-02   2   1000022   1000025   # BR(A0 -> neutralino1 neutralino3)
     1.46109330E-01   2   1000022   1000035   # BR(A0 -> neutralino1 neutralino4)
     1.40665003E-03   2   1000023   1000023   # BR(A0 -> neutralino2 neutralino2)
     1.66753909E-02   2   1000023   1000025   # BR(A0 -> neutralino2 neutralino3)
     7.53700656E-02   2   1000023   1000035   # BR(A0 -> neutralino2 neutralino4)
     1.60361719E-02   2   1000025   1000025   # BR(A0 -> neutralino3 neutralino3)
     2.10251393E-02   2   1000025   1000035   # BR(A0 -> neutralino3 neutralino4)
     1.46578808E-05   2   1000035   1000035   # BR(A0 -> neutralino4 neutralino4)
     1.23656119E-04   2        23        25   # BR(A0 -> Z h0)
     3.25207030E-38   2        25        25   # BR(A0 -> h0 h0)
DECAY        37     2.94902184E+01   # Gamma(Hp)
     2.07792643E-10   2       -11        12   # BR(Hp -> Electron nu_e)
     8.88378444E-06   2       -13        14   # BR(Hp -> Muon nu_mu)
     2.51283797E-03   2       -15        16   # BR(Hp -> Tau nu_tau)
     1.37897776E-08   2        -1         2   # BR(Hp -> Down up)
     2.31749248E-07   2        -3         2   # BR(Hp -> Strange up)
     1.49309189E-07   2        -5         2   # BR(Hp -> Bottom up)
     1.10780469E-07   2        -1         4   # BR(Hp -> Down charm)
     7.32784235E-06   2        -3         4   # BR(Hp -> Strange charm)
     2.09122756E-05   2        -5         4   # BR(Hp -> Bottom charm)
     1.19838513E-05   2        -1         6   # BR(Hp -> Down top)
     2.61294947E-04   2        -3         6   # BR(Hp -> Strange top)
     1.98840238E-01   2        -5         6   # BR(Hp -> Bottom top)
     2.68221170E-02   2   1000022   1000024   # BR(Hp -> neutralino1 chargino1)
     2.02152702E-01   2   1000022   1000037   # BR(Hp -> neutralino1 chargino2)
     2.26396476E-03   2   1000023   1000024   # BR(Hp -> neutralino2 chargino1)
     2.42231346E-01   2   1000023   1000037   # BR(Hp -> neutralino2 chargino2)
     6.03366574E-02   2   1000024   1000025   # BR(Hp -> chargino1 neutralino3)
     3.11866902E-02   2   1000025   1000037   # BR(Hp -> neutralino3 chargino2)
     2.33222305E-01   2   1000024   1000035   # BR(Hp -> chargino1 neutralino4)
     1.04043594E-07   2   1000035   1000037   # BR(Hp -> neutralino4 chargino2)
     1.20128996E-04   2        24        25   # BR(Hp -> W h0)
     5.77981550E-13   2        24        35   # BR(Hp -> W HH)
     8.52953705E-13   2        24        36   # BR(Hp -> W A0)
DECAY         6     2.43000000E+00   # top
#    BR                NDA      ID1      ID2
     1.00000000E+00    2           5        24   # BR(t -> b W)
Block HiggsBoundsInputHiggsCouplingsFermions
# ScalarNormEffCoupSq PseudoSNormEffCoupSq NP IP1 IP2 IP2
    9.07855678E-01    0.00000000E+00        3  25   5   5  # h0-b-b eff. coupling^2, normalised to SM
    1.49869291E+01    0.00000000E+00        3  35   5   5  # H0-b-b eff. coupling^2, normalised to SM
    0.00000000E+00    1.48947847E+01        3  36   5   5  # A0-b-b eff. coupling^2, normalised to SM
#
    1.00618635E+00    0.00000000E+00        3  25   6   6  # h0-t-t eff. coupling^2, normalised to SM
    6.09512453E-02    0.00000000E+00        3  35   6   6  # H0-t-t eff. coupling^2, normalised to SM
    0.00000000E+00    6.71375933E-02        3  36   6   6  # A0-t-t eff. coupling^2, normalised to SM
#
    9.07855678E-01    0.00000000E+00        3  25  15  15  # h0-tau-tau eff. coupling^2, normalised to SM
    1.49869291E+01    0.00000000E+00        3  35  15  15  # H0-tau-tau eff. coupling^2, normalised to SM
    0.00000000E+00    1.48947847E+01        3  36  15  15  # A0-tau-tau eff. coupling^2, normalised to SM
#
Block HiggsBoundsInputHiggsCouplingsBosons
    9.99850992E-01        3  25  24  24  # h0-W-W eff. coupling^2, normalised to SM
    1.49007558E-04        3  35  24  24  # H0-W-W eff. coupling^2, normalised to SM
    0.00000000E+00        3  36  24  24  # A0-W-W eff. coupling^2, normalised to SM
#
    9.99850992E-01        3  25  23  23  # h0-Z-Z eff. coupling^2, normalised to SM
    1.49007558E-04        3  35  23  23  # H0-Z-Z eff. coupling^2, normalised to SM
    0.00000000E+00        3  36  23  23  # A0-Z-Z eff. coupling^2, normalised to SM
#
    1.28134895E+00        3  25  21  21  # h0-g-g eff. coupling^2, normalised to SM
    5.65690119E-02        3  35  21  21  # H0-g-g eff. coupling^2, normalised to SM
    2.67177663E-01        3  36  21  21  # A0-g-g eff. coupling^2, normalised to SM
#
    0.00000000E+00        3  25  25  23  # h0-h0-Z eff. coupling^2, normalised to SM
    0.00000000E+00        3  35  25  23  # H0-h0-Z eff. coupling^2, normalised to SM
    1.49007558E-04        3  36  25  23  # A0-h0-Z eff. coupling^2, normalised to SM
    0.00000000E+00        3  35  35  23  # H0-H0-Z eff. coupling^2, normalised to SM
    9.99850992E-01        3  36  35  23  # A0-H0-Z eff. coupling^2, normalised to SM
    0.00000000E+00        3  36  36  23  # A0-A0-Z eff. coupling^2, normalised to SM
#
    0.00000000E+00        4  25  21  21  23  # h0-g-g-Z eff. coupling^2, normalised to SM
    0.00000000E+00        4  35  21  21  23  # H0-g-g-Z eff. coupling^2, normalised to SM
    0.00000000E+00        4  36  21  21  23  # A0-g-g-Z eff. coupling^2, normalised to SM
Block SPhenoLowEnergy  # low energy observables
    1    3.30866622E-04   # BR(b -> s gamma)
    2    1.59013437E-06   # BR(b -> s mu+ mu-)
    3    3.52757592E-05   # BR(b -> s nu nu)
    4    2.56149689E-15   # BR(Bd -> e+ e-)
    5    1.09424240E-10   # BR(Bd -> mu+ mu-)
    6    2.29068948E-08   # BR(Bd -> tau+ tau-)
    7    8.63772242E-14   # BR(Bs -> e+ e-)
    8    3.69003226E-09   # BR(Bs -> mu+ mu-)
    9    7.82687814E-07   # BR(Bs -> tau+ tau-)
   10    9.67880103E-05   # BR(B_u -> tau nu)
   11    9.99783091E-01   # BR(B_u -> tau nu)/BR(B_u -> tau nu)_SM
   12    5.43247980E-01   # |Delta(M_Bd)| [ps^-1] 
   13    1.94105648E+01   # |Delta(M_Bs)| [ps^-1] 
   14    0.00000000E+00   # neutron EDM according to the chiral quark model
   15    0.00000000E+00   # neutron EDM according to the relativistic quark-parton model
   16    2.16244075E-03   # epsilon_K
   17    2.28171126E-15   # Delta(M_K)
   18    2.48156445E-11   # BR(K^0 -> pi^0 nu nu)
   19    8.29421010E-11   # BR(K^+ -> pi^+ nu nu)
   20   -4.98822865E-17   # Delta(g-2)_electron/2
   21   -2.13262382E-12   # Delta(g-2)_muon/2
   22   -6.03382415E-10   # Delta(g-2)_tau/2
   23    0.00000000E+00   # electric dipole moment of the electron
   24    0.00000000E+00   # electric dipole moment of the muon
   25    0.00000000E+00   # electric dipole moment of the tau
   26    0.00000000E+00   # Br(mu -> e gamma)
   27    0.00000000E+00   # Br(tau -> e gamma)
   28    0.00000000E+00   # Br(tau -> mu gamma)
   29    0.00000000E+00   # Br(mu -> 3 e)
   30    0.00000000E+00   # Br(tau -> 3 e)
   31    0.00000000E+00   # Br(tau -> 3 mu)
   39   -5.37840737E-04   # Delta(rho_parameter)
   40    0.00000000E+00   # BR(Z -> e mu)
   41    0.00000000E+00   # BR(Z -> e tau)
   42    0.00000000E+00   # BR(Z -> mu tau)
Block FWCOEF Q=  1.60000000E+02  # Wilson coefficients at scale Q
#    id        order  M        value         comment
     0305 4422   00   0    -1.88819110E-01   # C7
     0305 4422   00   2    -1.99526571E-01   # C7
     0305 4322   00   2    -2.16268552E-04   # C7'
     0305 6421   00   0    -9.52278348E-02   # C8
     0305 6421   00   2    -1.09019539E-01   # C8
     0305 6321   00   2    -2.73424628E-04   # C8'
 03051111 4133   00   0     1.62769179E+00   # C9 e+e-
 03051111 4133   00   2     1.62807616E+00   # C9 e+e-
 03051111 4233   00   2     3.18532923E-06   # C9' e+e-
 03051111 4137   00   0    -4.45038389E+00   # C10 e+e-
 03051111 4137   00   2    -4.45099284E+00   # C10 e+e-
 03051111 4237   00   2    -2.30438521E-05   # C10' e+e-
 03051313 4133   00   0     1.62769179E+00   # C9 mu+mu-
 03051313 4133   00   2     1.62807616E+00   # C9 mu+mu-
 03051313 4233   00   2     3.18532912E-06   # C9' mu+mu-
 03051313 4137   00   0    -4.45038389E+00   # C10 mu+mu-
 03051313 4137   00   2    -4.45099284E+00   # C10 mu+mu-
 03051313 4237   00   2    -2.30438521E-05   # C10' mu+mu-
 03051212 4137   00   0     1.50535012E+00   # C11 nu_1 nu_1
 03051212 4137   00   2     1.50548297E+00   # C11 nu_1 nu_1
 03051212 4237   00   2     4.98110184E-06   # C11' nu_1 nu_1
 03051414 4137   00   0     1.50535012E+00   # C11 nu_2 nu_2
 03051414 4137   00   2     1.50548297E+00   # C11 nu_2 nu_2
 03051414 4237   00   2     4.98110186E-06   # C11' nu_2 nu_2
 03051616 4137   00   0     1.50535012E+00   # C11 nu_3 nu_3
 03051616 4137   00   2     1.50548297E+00   # C11 nu_3 nu_3
 03051616 4237   00   2     4.98110781E-06   # C11' nu_3 nu_3
Block IMFWCOEF Q=  1.60000000E+02  # Im(Wilson coefficients) at scale Q
#    id        order  M        value         comment
     0305 4422   00   0     3.85823003E-07   # C7
     0305 4422   00   2    -4.02366328E-07   # C7
     0305 4322   00   2     1.56565361E-08   # C7'
     0305 6421   00   0     3.30482918E-07   # C8
     0305 6421   00   2     6.77491961E-07   # C8
     0305 6321   00   2     1.99642714E-08   # C8'
 03051111 4133   00   2     2.79982748E-07   # C9 e+e-
 03051111 4233   00   2     6.93504887E-08   # C9' e+e-
 03051111 4137   00   2     5.69808957E-07   # C10 e+e-
 03051111 4237   00   2    -5.03702652E-07   # C10' e+e-
 03051313 4133   00   2     2.79982720E-07   # C9 mu+mu-
 03051313 4233   00   2     6.93504884E-08   # C9' mu+mu-
 03051313 4137   00   2     5.69808987E-07   # C10 mu+mu-
 03051313 4237   00   2    -5.03702653E-07   # C10' mu+mu-
 03051212 4137   00   2    -1.01660664E-07   # C11 nu_1 nu_1
 03051212 4237   00   2     1.08882018E-07   # C11' nu_1 nu_1
 03051414 4137   00   2    -1.01660663E-07   # C11 nu_2 nu_2
 03051414 4237   00   2     1.08882018E-07   # C11' nu_2 nu_2
 03051616 4137   00   2    -1.01660232E-07   # C11 nu_3 nu_3
 03051616 4237   00   2     1.08882018E-07   # C11' nu_3 nu_3
