# SUSY Les Houches Accord 2 - MSSM spectrum + Decays
# SPheno v4.0.5be
# W. Porod, Comput. Phys. Commun. 153 (2003) 275-315, hep-ph/0301101;
# W. Porod, F.~Staub, Comput. Phys. Commun. 183 (2012) 2458
#                     arXiv:1104.1573 [hep-ph] 
# in case of problems send email to porod@physik.uni-wuerzburg.de
# Created: 10.04.2021,  07:26
Block SPINFO         # Program information
     1   SPheno      # spectrum calculator
     2   v4.0.5be    # version number
#
Block SPhenoINFO     # SPheno specific information
    1      2         # using 2-loop RGEs
    2      2         # using pole masses for boundary conditions at mZ
Block MODSEL  # Model selection
    1    0    # general MSSM
Block MINPAR  # Input parameters
    3    5.84172768E+01  # tanb at m_Z    
    4    1.00000000E+00  # Sign(mu)
Block EXTPAR  # non-universal input parameters
    0    1.51703369E+03  # scale for input parameters
    1    9.44249398E+02  # M_1
    2    2.57914561E+02  # M_2
    3    3.01609786E+03  # M_3
   11    4.15308766E+03  # A_t
   12   -2.48802532E+02  # A_b
   13   -1.73619717E+03  # A_tau
   23    1.26877366E+03  # mu
   25    5.68558175E+01  # tan(beta)
   26    1.34974049E+03  # m_A, pole mass
   31    5.72179249E+02  # M_L11
   32    5.72179249E+02  # M_L22
   33    1.61926509E+03  # M_L33
   34    4.59262235E+02  # M_E11
   35    4.59262235E+02  # M_E22
   36    1.32844697E+03  # M_E33
   41    2.49462154E+03  # M_Q11
   42    2.49462154E+03  # M_Q22
   43    1.34141578E+03  # M_Q33
   44    3.80353477E+03  # M_U11
   45    3.80353477E+03  # M_U22
   46    1.87835679E+03  # M_U33
   47    3.32613797E+03  # M_D11
   48    3.32613797E+03  # M_D22
   49    1.49505975E+03  # M_D33
Block SMINPUTS  # SM parameters
         1     1.27908970E+02  # alpha_em^-1(MZ)^MSbar
         2     1.16637870E-05  # G_mu [GeV^-2]
         3     1.18400000E-01  # alpha_s(MZ)^MSbar
         4     9.11876000E+01  # m_Z(pole)
         5     4.18000000E+00  # m_b(m_b), MSbar
         6     1.73200000E+02  # m_t(pole)
         7     1.77700000E+00  # m_tau(pole)
         8     0.00000000E+00  # m_nu_3
        11     5.10998930E-04  # m_e(pole)
        12     0.00000000E+00  # m_nu_1
        13     1.05658372E-01  # m_muon(pole)
        14     0.00000000E+00  # m_nu_2
        21     5.00000000E-03  # m_d(2 GeV), MSbar
        22     2.50000000E-03  # m_u(2 GeV), MSbar
        23     9.50000000E-02  # m_s(2 GeV), MSbar
        24     1.27000000E+00  # m_c(m_c), MSbar
Block gauge Q=  1.51703369E+03  # (SUSY scale)
   1    3.55362975E-01  # g'(Q)^DRbar
   2    6.65198874E-01  # g(Q)^DRbar
   3    1.21977796E+00  # g3(Q)^DRbar
Block Yu Q=  1.51703369E+03  # (SUSY scale)
  1  1     8.38566889E-06   # Y_u(Q)^DRbar
  2  2     4.25991979E-03   # Y_c(Q)^DRbar
  3  3     1.01305616E+00   # Y_t(Q)^DRbar
Block Yd Q=  1.51703369E+03  # (SUSY scale)
  1  1     9.58060348E-04   # Y_d(Q)^DRbar
  2  2     1.82031466E-02   # Y_s(Q)^DRbar
  3  3     9.50095652E-01   # Y_b(Q)^DRbar
Block Ye Q=  1.51703369E+03  # (SUSY scale)
  1  1     1.67188537E-04   # Y_e(Q)^DRbar
  2  2     3.45692868E-02   # Y_mu(Q)^DRbar
  3  3     5.81398535E-01   # Y_tau(Q)^DRbar
Block Au Q=  1.51703369E+03  # (SUSY scale)
  1  1     0.00000000E+00   # A_u(Q)^DRbar
  2  2     0.00000000E+00   # A_c(Q)^DRbar
  3  3     4.15308771E+03   # A_t(Q)^DRbar
Block Ad Q=  1.51703369E+03  # (SUSY scale)
  1  1     0.00000000E+00   # A_d(Q)^DRbar
  2  2     0.00000000E+00   # A_s(Q)^DRbar
  3  3    -2.48802515E+02   # A_b(Q)^DRbar
Block Ae Q=  1.51703369E+03  # (SUSY scale)
  1  1     0.00000000E+00   # A_e(Q)^DRbar
  2  2     0.00000000E+00   # A_mu(Q)^DRbar
  3  3    -1.73619716E+03   # A_tau(Q)^DRbar
Block MSOFT Q=  1.51703369E+03  # soft SUSY breaking masses at Q
   1    9.44249398E+02  # M_1
   2    2.57914561E+02  # M_2
   3    3.01609786E+03  # M_3
  21    2.23055407E+05  # M^2_(H,d)
  22   -1.53827172E+06  # M^2_(H,u)
  31    5.72179249E+02  # M_(L,11)
  32    5.72179249E+02  # M_(L,22)
  33    1.61926509E+03  # M_(L,33)
  34    4.59262235E+02  # M_(E,11)
  35    4.59262235E+02  # M_(E,22)
  36    1.32844697E+03  # M_(E,33)
  41    2.49462154E+03  # M_(Q,11)
  42    2.49462154E+03  # M_(Q,22)
  43    1.34141578E+03  # M_(Q,33)
  44    3.80353477E+03  # M_(U,11)
  45    3.80353477E+03  # M_(U,22)
  46    1.87835679E+03  # M_(U,33)
  47    3.32613797E+03  # M_(D,11)
  48    3.32613797E+03  # M_(D,22)
  49    1.49505975E+03  # M_(D,33)
Block MASS  # Mass spectrum
#   PDG code      mass          particle
         6     1.73200000E+02  # m_t(pole)
        23     9.11876000E+01  # m_Z(pole)
        24     8.04299946E+01  # W+
        15     1.77700000E+00  # m_tau(pole)
        25     1.24628627E+02  # h0
        35     1.34934710E+03  # H0
        36     1.34974049E+03  # A0
        37     1.35224686E+03  # H+
   1000001     2.54559102E+03  # ~d_L
   2000001     3.36275067E+03  # ~d_R
   1000002     2.54449908E+03  # ~u_L
   2000002     3.83654847E+03  # ~u_R
   1000003     2.54559023E+03  # ~s_L
   2000003     3.36274727E+03  # ~s_R
   1000004     2.54449868E+03  # ~c_L
   2000004     3.83654833E+03  # ~c_R
   1000005     1.31519987E+03  # ~b_1
   2000005     1.51474660E+03  # ~b_2
   1000006     1.24153356E+03  # ~t_1
   2000006     1.85366814E+03  # ~t_2
   1000011     5.88847539E+02  # ~e_L-
   2000011     4.40709117E+02  # ~e_R-
   1000012     5.83244645E+02  # ~nu_eL
   1000013     5.89062342E+02  # ~mu_L-
   2000013     4.40331551E+02  # ~mu_R-
   1000014     5.83212050E+02  # ~nu_muL
   1000015     1.30610705E+03  # ~tau_1-
   2000015     1.62534969E+03  # ~tau_2-
   1000016     1.61748923E+03  # ~nu_tauL
   1000021     3.06495586E+03  # ~g
   1000022     2.73134300E+02  # ~chi_10
   1000023     9.33512518E+02  # ~chi_20
   1000025     1.27065968E+03  # ~chi_30
   1000035     1.27585606E+03  # ~chi_40
   1000024     2.73345500E+02  # ~chi_1+
   1000037     1.27474988E+03  # ~chi_2+
# Higgs mixing
Block alpha # Effective Higgs mixing angle
          -1.69111874E-02   # alpha
Block Hmix Q=  1.51703369E+03  # Higgs mixing parameters
   1    1.26877366E+03  # mu
   2    5.68558175E+01  # tan[beta](Q)
   3    2.43956884E+02  # v(Q)
   4    1.82179939E+06  # m^2_A(Q)
Block stopmix # stop mixing matrix
   1  1    -9.43215331E-01   # Re[R_st(1,1)]
   1  2     3.32181938E-01   # Re[R_st(1,2)]
   2  1    -3.32181938E-01   # Re[R_st(2,1)]
   2  2    -9.43215331E-01   # Re[R_st(2,2)]
Block sbotmix # sbottom mixing matrix
   1  1     9.85480023E-01   # Re[R_sb(1,1)]
   1  2     1.69791415E-01   # Re[R_sb(1,2)]
   2  1    -1.69791415E-01   # Re[R_sb(2,1)]
   2  2     9.85480023E-01   # Re[R_sb(2,2)]
Block staumix # stau mixing matrix
   1  1     1.38104240E-01   # Re[R_sta(1,1)]
   1  2     9.90417699E-01   # Re[R_sta(1,2)]
   2  1    -9.90417699E-01   # Re[R_sta(2,1)]
   2  2     1.38104240E-01   # Re[R_sta(2,2)]
Block Nmix # neutralino mixing matrix
   1  1    -9.02696306E-04   # Re[N(1,1)]
   1  2     9.97766801E-01   # Re[N(1,2)]
   1  3    -6.52230977E-02   # Re[N(1,3)]
   1  4     1.43716481E-02   # Re[N(1,4)]
   2  1    -9.95472054E-01   # Re[N(2,1)]
   2  2    -6.68565233E-03   # Re[N(2,2)]
   2  3    -7.60067534E-02   # Re[N(2,3)]
   2  4     5.66891898E-02   # Re[N(2,4)]
   3  1    -1.38792911E-02   # Re[N(3,1)]
   3  2     3.59544404E-02   # Re[N(3,2)]
   3  3     7.06028374E-01   # Re[N(3,3)]
   3  4     7.07134060E-01   # Re[N(3,4)]
   4  1    -9.40315860E-02   # Re[N(4,1)]
   4  2     5.58926817E-02   # Re[N(4,2)]
   4  3     7.01065515E-01   # Re[N(4,3)]
   4  4    -7.04656805E-01   # Re[N(4,4)]
Block Umix # chargino mixing matrix
   1  1    -9.95758724E-01   # Re[U(1,1)]
   1  2     9.20030630E-02   # Re[U(1,2)]
   2  1     9.20030630E-02   # Re[U(2,1)]
   2  2     9.95758724E-01   # Re[U(2,2)]
Block Vmix # chargino mixing matrix
   1  1    -9.99794734E-01   # Re[V(1,1)]
   1  2     2.02605567E-02   # Re[V(1,2)]
   2  1     2.02605567E-02   # Re[V(2,1)]
   2  2     9.99794734E-01   # Re[V(2,2)]
DECAY        23     2.49520000E+00   # Z
DECAY        24     2.08500000E+00   # W
DECAY   2000011     6.85651915E-07   # ~e^-_R
#    BR                NDA      ID1      ID2
     9.98854559E-01    2     1000022        11   # BR(~e^-_R -> chi^0_1 e^-)
     1.14544141E-03    2    -1000024        12   # BR(~e^-_R -> chi^-_1 nu_e)
DECAY   1000011     4.75121100E+00   # ~e^-_L
#    BR                NDA      ID1      ID2
     3.34202936E-01    2     1000022        11   # BR(~e^-_L -> chi^0_1 e^-)
     6.65797024E-01    2    -1000024        12   # BR(~e^-_L -> chi^-_1 nu_e)
#    BR                NDA      ID1      ID2       ID3
DECAY   2000013     5.10125831E-05   # ~mu^-_R
#    BR                NDA      ID1      ID2
     3.43760028E-01    2     1000022        13   # BR(~mu^-_R -> chi^0_1 mu^-)
     6.56239972E-01    2    -1000024        14   # BR(~mu^-_R -> chi^-_1 nu_mu)
DECAY   1000013     4.76264280E+00   # ~mu^-_L
#    BR                NDA      ID1      ID2
     3.33662709E-01    2     1000022        13   # BR(~mu^-_L -> chi^0_1 mu^-)
     6.64707379E-01    2    -1000024        14   # BR(~mu^-_L -> chi^-_1 nu_mu)
     1.62990931E-03    2     2000013        25   # BR(~mu^-_L -> ~mu^-_R h^0)
#    BR                NDA      ID1      ID2       ID3
DECAY   1000015     2.34961558E+00   # ~tau^-_1
#    BR                NDA      ID1      ID2
     1.06236793E-01    2     1000022        15   # BR(~tau^-_1 -> chi^0_1 tau^-)
     6.65865800E-01    2     1000023        15   # BR(~tau^-_1 -> chi^0_2 tau^-)
     5.20115200E-03    2     1000025        15   # BR(~tau^-_1 -> chi^0_3 tau^-)
     3.75639838E-03    2     1000035        15   # BR(~tau^-_1 -> chi^0_4 tau^-)
     2.10996708E-01    2    -1000024        16   # BR(~tau^-_1 -> chi^-_1 nu_tau)
     7.94314851E-03    2    -1000037        16   # BR(~tau^-_1 -> chi^-_2 nu_tau)
DECAY   2000015     2.41664743E+01   # ~tau^-_2
#    BR                NDA      ID1      ID2
     2.68373530E-01    2     1000022        15   # BR(~tau^-_2 -> chi^0_1 tau^-)
     4.00454703E-02    2     1000023        15   # BR(~tau^-_2 -> chi^0_2 tau^-)
     3.46347582E-02    2     1000025        15   # BR(~tau^-_2 -> chi^0_3 tau^-)
     3.38963843E-02    2     1000035        15   # BR(~tau^-_2 -> chi^0_4 tau^-)
     5.31563016E-01    2    -1000024        16   # BR(~tau^-_2 -> chi^-_1 nu_tau)
     3.91644490E-03    2    -1000037        16   # BR(~tau^-_2 -> chi^-_2 nu_tau)
     4.41847617E-02    2     1000015        23   # BR(~tau^-_2 -> ~tau^-_1 Z)
     4.33856325E-02    2     1000015        25   # BR(~tau^-_2 -> ~tau^-_1 h^0)
#    BR                NDA      ID1      ID2       ID3
DECAY   1000012     4.68445272E+00   # ~nu_e
#    BR                NDA      ID1      ID2
     3.32839065E-01    2     1000022        12   # BR(~nu_e -> chi^0_1 nu_e)
     6.67160935E-01    2     1000024        11   # BR(~nu_e -> chi^+_1 e^-)
DECAY   1000014     4.68396099E+00   # ~nu_mu
#    BR                NDA      ID1      ID2
     3.32834500E-01    2     1000022        14   # BR(~nu_mu -> chi^0_1 nu_mu)
     6.67165500E-01    2     1000024        13   # BR(~nu_mu -> chi^+_1 mu^-)
DECAY   1000016     2.47329838E+01   # ~nu_tau
#    BR                NDA      ID1      ID2
     2.70718704E-01    2     1000022        16   # BR(~nu_tau -> chi^0_1 nu_tau)
     3.53034562E-02    2     1000023        16   # BR(~nu_tau -> chi^0_2 nu_tau)
     4.62774123E-04    2     1000035        16   # BR(~nu_tau -> chi^0_4 nu_tau)
     5.46544341E-01    2     1000024        15   # BR(~nu_tau -> chi^+_1 tau^-)
     6.26472801E-02    2     1000037        15   # BR(~nu_tau -> chi^+_2 tau^-)
     8.42440788E-02    2     1000015        24   # BR(~nu_tau -> ~tau^-_1 W^+)
DECAY   1000001     3.30057013E+01   # ~d_L
#    BR                NDA      ID1      ID2
     3.30326248E-01    2     1000022         1   # BR(~d_L -> chi^0_1 d)
     7.39980063E-03    2     1000023         1   # BR(~d_L -> chi^0_2 d)
     2.82980022E-04    2     1000025         1   # BR(~d_L -> chi^0_3 d)
     1.00465672E-03    2     1000035         1   # BR(~d_L -> chi^0_4 d)
     6.57760275E-01    2    -1000024         2   # BR(~d_L -> chi^-_1 u)
     3.22603928E-03    2    -1000037         2   # BR(~d_L -> chi^-_2 u)
DECAY   2000001     9.20267574E+00   # ~d_R
#    BR                NDA      ID1      ID2
     1.72204312E-01    2     1000023         1   # BR(~d_R -> chi^0_2 d)
     1.32427391E-03    2     1000035         1   # BR(~d_R -> chi^0_4 d)
     8.26434793E-01    2     1000021         1   # BR(~d_R -> ~g d)
DECAY   1000003     3.30156621E+01   # ~s_L
#    BR                NDA      ID1      ID2
     3.30228552E-01    2     1000022         3   # BR(~s_L -> chi^0_1 s)
     7.39973850E-03    2     1000023         3   # BR(~s_L -> chi^0_2 s)
     4.25379485E-04    2     1000025         3   # BR(~s_L -> chi^0_3 s)
     1.14412157E-03    2     1000035         3   # BR(~s_L -> chi^0_4 s)
     6.57561197E-01    2    -1000024         4   # BR(~s_L -> chi^-_1 c)
     3.24101144E-03    2    -1000037         4   # BR(~s_L -> chi^-_2 c)
DECAY   2000003     9.23569489E+00   # ~s_R
#    BR                NDA      ID1      ID2
     1.71600083E-01    2     1000023         3   # BR(~s_R -> chi^0_2 s)
     9.07969731E-04    2     1000025         3   # BR(~s_R -> chi^0_3 s)
     2.18176460E-03    2     1000035         3   # BR(~s_R -> chi^0_4 s)
     1.74504271E-03    2    -1000037         4   # BR(~s_R -> chi^-_2 c)
     8.23462799E-01    2     1000021         3   # BR(~s_R -> ~g s)
DECAY   1000005     1.59013070E+01   # ~b_1
#    BR                NDA      ID1      ID2
     3.42699185E-01    2     1000022         5   # BR(~b_1 -> chi^0_1 b)
     7.31903576E-03    2     1000023         5   # BR(~b_1 -> chi^0_2 b)
     3.14776089E-03    2     1000025         5   # BR(~b_1 -> chi^0_3 b)
     2.39929582E-03    2     1000035         5   # BR(~b_1 -> chi^0_4 b)
     6.44434723E-01    2    -1000024         6   # BR(~b_1 -> chi^-_1 t)
DECAY   2000005     8.51325903E+00   # ~b_2
#    BR                NDA      ID1      ID2
     1.50511213E-03    2     1000022         5   # BR(~b_2 -> chi^0_1 b)
     3.58611686E-02    2     1000023         5   # BR(~b_2 -> chi^0_2 b)
     1.42025031E-01    2     1000025         5   # BR(~b_2 -> chi^0_3 b)
     1.36796917E-01    2     1000035         5   # BR(~b_2 -> chi^0_4 b)
     2.24537782E-03    2    -1000024         6   # BR(~b_2 -> chi^-_1 t)
     2.26975318E-01    2    -1000037         6   # BR(~b_2 -> chi^-_2 t)
     2.19568726E-01    2     1000006       -24   # BR(~b_2 -> ~t_1 W^-)
     4.07332492E-02    2     1000005        23   # BR(~b_2 -> ~b_1 Z)
     1.94289100E-01    2     1000005        25   # BR(~b_2 -> ~b_1 h^0)
DECAY   1000002     3.30727981E+01   # ~u_L
#    BR                NDA      ID1      ID2
     3.29295820E-01    2     1000022         2   # BR(~u_L -> chi^0_1 u)
     8.58192004E-03    2     1000023         2   # BR(~u_L -> chi^0_2 u)
     2.13907604E-04    2     1000025         2   # BR(~u_L -> chi^0_3 u)
     2.90826562E-04    2     1000035         2   # BR(~u_L -> chi^0_4 u)
     6.61460770E-01    2     1000024         1   # BR(~u_L -> chi^+_1 d)
     1.56756370E-04    2     1000037         1   # BR(~u_L -> chi^+_2 d)
DECAY   2000002     4.72130381E+01   # ~u_R
#    BR                NDA      ID1      ID2
     1.59165448E-01    2     1000023         2   # BR(~u_R -> chi^0_2 u)
     1.26926046E-03    2     1000035         2   # BR(~u_R -> chi^0_4 u)
     8.39537436E-01    2     1000021         2   # BR(~u_R -> ~g u)
DECAY   1000004     3.30827457E+01   # ~c_L
#    BR                NDA      ID1      ID2
     3.29196541E-01    2     1000022         4   # BR(~c_L -> chi^0_1 c)
     8.57941974E-03    2     1000023         4   # BR(~c_L -> chi^0_2 c)
     2.21605800E-04    2     1000025         4   # BR(~c_L -> chi^0_3 c)
     2.98535208E-04    2     1000035         4   # BR(~c_L -> chi^0_4 c)
     6.61265878E-01    2     1000024         3   # BR(~c_L -> chi^+_1 s)
     4.38020517E-04    2     1000037         3   # BR(~c_L -> chi^+_2 s)
DECAY   2000004     4.72151370E+01   # ~c_R
#    BR                NDA      ID1      ID2
     1.59158357E-01    2     1000023         4   # BR(~c_R -> chi^0_2 c)
     1.28079254E-03    2     1000035         4   # BR(~c_R -> chi^0_4 c)
     8.39498155E-01    2     1000021         4   # BR(~c_R -> ~g c)
DECAY   1000006     1.29800827E+01   # ~t_1
#    BR                NDA      ID1      ID2
     3.15140432E-01    2     1000022         6   # BR(~t_1 -> chi^0_1 t)
     2.14391027E-03    2     1000023         6   # BR(~t_1 -> chi^0_2 t)
     6.74704656E-01    2     1000024         5   # BR(~t_1 -> chi^+_1 b)
#    BR                NDA      ID1      ID2       ID3
     8.00347572E-03    3     1000022        24         5   # BR(~t_1 -> chi^0_1 W^+ b)
DECAY   2000006     1.44285292E+02   # ~t_2
#    BR                NDA      ID1      ID2
     6.90289775E-03    2     1000022         6   # BR(~t_2 -> chi^0_1 t)
     1.51460103E-02    2     1000023         6   # BR(~t_2 -> chi^0_2 t)
     2.97131395E-02    2     1000025         6   # BR(~t_2 -> chi^0_3 t)
     2.78024414E-02    2     1000035         6   # BR(~t_2 -> chi^0_4 t)
     1.43252654E-02    2     1000024         5   # BR(~t_2 -> chi^+_1 b)
     7.09507082E-02    2     1000037         5   # BR(~t_2 -> chi^+_2 b)
     3.80689541E-01    2     1000005        24   # BR(~t_2 -> ~b_1 W^+)
     3.20977487E-03    2     2000005        24   # BR(~t_2 -> ~b_2 W^+)
     2.38679851E-01    2     1000006        23   # BR(~t_2 -> ~t_1 Z)
     2.12580370E-01    2     1000006        25   # BR(~t_2 -> ~t_1 h^0)
DECAY   1000024     2.09141692E-14   # chi^+_1
#    BR                NDA      ID1      ID2
     9.83375594E-01    2     1000022       211   # BR(chi^+_1 -> chi^0_1 pi^+)
#    BR                NDA      ID1      ID2       ID3
     1.28656731E-02    3     1000022       -11        12   # BR(chi^+_1 -> chi^0_1 e^+ nu_e)
     3.75873303E-03    3     1000022       -13        14   # BR(chi^+_1 -> chi^0_1 mu^+ nu_mu)
DECAY   1000037     9.05199026E+00   # chi^+_2
#    BR                NDA      ID1      ID2
     3.24651554E-03    2    -1000011        12   # BR(chi^+_2 -> ~e^+_L nu_e)
     1.28738182E-03    2    -2000013        14   # BR(chi^+_2 -> ~mu^+_R nu_mu)
     3.24523042E-03    2    -1000013        14   # BR(chi^+_2 -> ~mu^+_L nu_mu)
     1.59086361E-04    2     1000012       -11   # BR(chi^+_2 -> ~nu_e e^+)
     1.19661047E-03    2     1000014       -13   # BR(chi^+_2 -> ~nu_mu mu^+)
     9.25302749E-03    2     1000006        -5   # BR(chi^+_2 -> ~t_1 b_bar)
     2.97527995E-01    2     1000022        24   # BR(chi^+_2 -> chi^0_1 W^+)
     6.51688524E-02    2     1000023        24   # BR(chi^+_2 -> chi^0_2 W^+)
     2.96614323E-01    2     1000024        23   # BR(chi^+_2 -> chi^+_1 Z)
     3.04084442E-01    2     1000024        25   # BR(chi^+_2 -> chi^+_1 h^0)
#    BR                NDA      ID1      ID2       ID3
     9.79172670E-03    3     1000024         6        -6   # BR(chi^+_2 -> chi^+_1 t t_bar)
     1.13119651E-03    3     1000024         5        -5   # BR(chi^+_2 -> chi^+_1 b b_bar)
     2.35321041E-04    3     1000024        15       -15   # BR(chi^+_2 -> chi^+_1 tau^- tau^+)
     6.70349272E-03    3     1000022        -5         6   # BR(chi^+_2 -> chi^0_1 b_bar t)
     2.34434005E-04    3     1000023        -5         6   # BR(chi^+_2 -> chi^0_2 b_bar t)
DECAY   1000022     0.00000000E+00   # chi^0_1
DECAY   1000023     7.37207161E+00   # chi^0_2
#    BR                NDA      ID1      ID2
     1.90389773E-01    2     2000011       -11   # BR(chi^0_2 -> ~e^-_R e^+)
     1.90389773E-01    2    -2000011        11   # BR(chi^0_2 -> ~e^+_R e^-)
     2.92956621E-02    2     1000011       -11   # BR(chi^0_2 -> ~e^-_L e^+)
     2.92956621E-02    2    -1000011        11   # BR(chi^0_2 -> ~e^+_L e^-)
     1.90582696E-01    2     2000013       -13   # BR(chi^0_2 -> ~mu^-_R mu^+)
     1.90582696E-01    2    -2000013        13   # BR(chi^0_2 -> ~mu^+_R mu^-)
     2.92703358E-02    2     1000013       -13   # BR(chi^0_2 -> ~mu^-_L mu^+)
     2.92703358E-02    2    -1000013        13   # BR(chi^0_2 -> ~mu^+_L mu^-)
     2.85605475E-02    2     1000012       -12   # BR(chi^0_2 -> ~nu_e nu_bar_e)
     2.85605475E-02    2    -1000012        12   # BR(chi^0_2 -> ~nu^*_e nu_e)
     2.85646355E-02    2     1000014       -14   # BR(chi^0_2 -> ~nu_mu nu_bar_mu)
     2.85646355E-02    2    -1000014        14   # BR(chi^0_2 -> ~nu^*_mu nu_mu)
     2.12845889E-03    2     1000024       -24   # BR(chi^0_2 -> chi^+_1 W^-)
     2.12845889E-03    2    -1000024        24   # BR(chi^0_2 -> chi^-_1 W^+)
     5.02123461E-04    2     1000022        23   # BR(chi^0_2 -> chi^0_1 Z)
     1.79162775E-03    2     1000022        25   # BR(chi^0_2 -> chi^0_1 h^0)
#    BR                NDA      ID1      ID2       ID3
DECAY   1000025     1.06043451E+01   # chi^0_3
#    BR                NDA      ID1      ID2
     1.32453456E-04    2     1000011       -11   # BR(chi^0_3 -> ~e^-_L e^+)
     1.32453456E-04    2    -1000011        11   # BR(chi^0_3 -> ~e^+_L e^-)
     5.94568340E-04    2     2000013       -13   # BR(chi^0_3 -> ~mu^-_R mu^+)
     5.94568340E-04    2    -2000013        13   # BR(chi^0_3 -> ~mu^+_R mu^-)
     5.69916824E-04    2     1000013       -13   # BR(chi^0_3 -> ~mu^-_L mu^+)
     5.69916824E-04    2    -1000013        13   # BR(chi^0_3 -> ~mu^+_L mu^-)
     3.09011014E-04    2     1000012       -12   # BR(chi^0_3 -> ~nu_e nu_bar_e)
     3.09011014E-04    2    -1000012        12   # BR(chi^0_3 -> ~nu^*_e nu_e)
     3.09029452E-04    2     1000014       -14   # BR(chi^0_3 -> ~nu_mu nu_bar_mu)
     3.09029452E-04    2    -1000014        14   # BR(chi^0_3 -> ~nu^*_mu nu_mu)
     2.54753930E-01    2     1000024       -24   # BR(chi^0_3 -> chi^+_1 W^-)
     2.54753930E-01    2    -1000024        24   # BR(chi^0_3 -> chi^-_1 W^+)
     1.81745390E-01    2     1000022        23   # BR(chi^0_3 -> chi^0_1 Z)
     6.20854481E-02    2     1000023        23   # BR(chi^0_3 -> chi^0_2 Z)
     1.75963249E-01    2     1000022        25   # BR(chi^0_3 -> chi^0_1 h^0)
     4.56168537E-02    2     1000023        25   # BR(chi^0_3 -> chi^0_2 h^0)
#    BR                NDA      ID1      ID2       ID3
     2.50764877E-03    3     1000022         6        -6   # BR(chi^0_3 -> chi^0_1 t t_bar)
     2.10730704E-03    3     1000022         5        -5   # BR(chi^0_3 -> chi^0_1 b b_bar)
     1.23931762E-04    3     1000022        15       -15   # BR(chi^0_3 -> chi^0_1 tau^- tau^+)
     8.06154746E-03    3     1000024         5        -6   # BR(chi^0_3 -> chi^+_1 b t_bar)
     8.06154746E-03    3    -1000024        -5         6   # BR(chi^0_3 -> chi^-_1 b_bar t)
     1.23002025E-04    3     1000024        15       -16   # BR(chi^0_3 -> chi^+_1 tau^- nu_bar_tau)
     1.23002025E-04    3    -1000024       -15        16   # BR(chi^0_3 -> chi^-_1 tau^+ nu_tau)
DECAY   1000035     9.04639565E+00   # chi^0_4
#    BR                NDA      ID1      ID2
     2.42991152E-03    2     2000011       -11   # BR(chi^0_4 -> ~e^-_R e^+)
     2.42991152E-03    2    -2000011        11   # BR(chi^0_4 -> ~e^+_R e^-)
     3.06994503E-03    2     2000013       -13   # BR(chi^0_4 -> ~mu^-_R mu^+)
     3.06994503E-03    2    -2000013        13   # BR(chi^0_4 -> ~mu^+_R mu^-)
     5.16270952E-04    2     1000013       -13   # BR(chi^0_4 -> ~mu^-_L mu^+)
     5.16270952E-04    2    -1000013        13   # BR(chi^0_4 -> ~mu^+_L mu^-)
     2.18737722E-03    2     1000012       -12   # BR(chi^0_4 -> ~nu_e nu_bar_e)
     2.18737722E-03    2    -1000012        12   # BR(chi^0_4 -> ~nu^*_e nu_e)
     2.18750640E-03    2     1000014       -14   # BR(chi^0_4 -> ~nu_mu nu_bar_mu)
     2.18750640E-03    2    -1000014        14   # BR(chi^0_4 -> ~nu^*_mu nu_mu)
     2.97389455E-01    2     1000024       -24   # BR(chi^0_4 -> chi^+_1 W^-)
     2.97389455E-01    2    -1000024        24   # BR(chi^0_4 -> chi^-_1 W^+)
     8.65902762E-02    2     1000022        23   # BR(chi^0_4 -> chi^0_1 Z)
     1.53055653E-03    2     1000023        23   # BR(chi^0_4 -> chi^0_2 Z)
     2.18380422E-01    2     1000022        25   # BR(chi^0_4 -> chi^0_1 h^0)
     5.48940230E-02    2     1000023        25   # BR(chi^0_4 -> chi^0_2 h^0)
#    BR                NDA      ID1      ID2       ID3
     2.90165987E-03    3     1000022         6        -6   # BR(chi^0_4 -> chi^0_1 t t_bar)
     2.48414957E-03    3     1000022         5        -5   # BR(chi^0_4 -> chi^0_1 b b_bar)
     1.40554870E-04    3     1000022        15       -15   # BR(chi^0_4 -> chi^0_1 tau^- tau^+)
     8.59235092E-03    3     1000024         5        -6   # BR(chi^0_4 -> chi^+_1 b t_bar)
     8.59235092E-03    3    -1000024        -5         6   # BR(chi^0_4 -> chi^-_1 b_bar t)
     1.40604305E-04    3     1000024        15       -16   # BR(chi^0_4 -> chi^+_1 tau^- nu_bar_tau)
     1.40604305E-04    3    -1000024       -15        16   # BR(chi^0_4 -> chi^-_1 tau^+ nu_tau)
DECAY   1000021     2.48890781E+02   # ~g
#    BR                NDA      ID1      ID2
     1.76031707E-02    2     1000002        -2   # BR(~g -> ~u_L u_bar)
     1.76031707E-02    2    -1000002         2   # BR(~g -> ~u^*_L u)
     1.76031521E-02    2     1000004        -4   # BR(~g -> ~c_L c_bar)
     1.76031521E-02    2    -1000004         4   # BR(~g -> ~c^*_L c)
     1.37888527E-01    2     1000006        -6   # BR(~g -> ~t_1 t_bar)
     1.37888527E-01    2    -1000006         6   # BR(~g -> ~t^*_1 t)
     6.47794086E-02    2     2000006        -6   # BR(~g -> ~t_2 t_bar)
     6.47794086E-02    2    -2000006         6   # BR(~g -> ~t^*_2 t)
     1.75362090E-02    2     1000001        -1   # BR(~g -> ~d_L d_bar)
     1.75362090E-02    2    -1000001         1   # BR(~g -> ~d^*_L d)
     1.75362572E-02    2     1000003        -3   # BR(~g -> ~s_L s_bar)
     1.75362572E-02    2    -1000003         3   # BR(~g -> ~s^*_L s)
     1.21179094E-01    2     1000005        -5   # BR(~g -> ~b_1 b_bar)
     1.21179094E-01    2    -1000005         5   # BR(~g -> ~b^*_1 b)
     1.04221890E-01    2     2000005        -5   # BR(~g -> ~b_2 b_bar)
     1.04221890E-01    2    -2000005         5   # BR(~g -> ~b^*_2 b)
#    BR                NDA      ID1      ID2       ID3
     5.88029028E-04    3     1000025         6        -6   # BR(~g -> chi^0_3 t t_bar)
     6.19187923E-04    3     1000035         6        -6   # BR(~g -> chi^0_4 t t_bar)
     1.00965178E-03    3     1000037         5        -6   # BR(~g -> chi^+_2 b t_bar)
     1.00965178E-03    3    -1000037        -5         6   # BR(~g -> chi^-_2 b_bar t)
DECAY        25     3.78534701E-03   # Gamma(h0)
     2.38261698E-03   2        22        22   # BR(h0 -> photon photon)
     1.48868072E-03   2        22        23   # BR(h0 -> photon Z)
     2.70548540E-02   2        23        23   # BR(h0 -> Z Z)
     2.25149896E-01   2       -24        24   # BR(h0 -> W W)
     7.19650331E-02   2        21        21   # BR(h0 -> gluon gluon)
     5.08886522E-09   2       -11        11   # BR(h0 -> Electron electron)
     2.26362535E-04   2       -13        13   # BR(h0 -> Muon muon)
     6.52486690E-02   2       -15        15   # BR(h0 -> Tau tau)
     1.49409452E-07   2        -2         2   # BR(h0 -> Up up)
     2.89935786E-02   2        -4         4   # BR(h0 -> Charm charm)
     5.91964287E-07   2        -1         1   # BR(h0 -> Down down)
     2.14102876E-04   2        -3         3   # BR(h0 -> Strange strange)
     5.77275460E-01   2        -5         5   # BR(h0 -> Bottom bottom)
DECAY        35     2.94752295E+01   # Gamma(HH)
     3.57351792E-08   2        22        22   # BR(HH -> photon photon)
     1.61380387E-07   2        22        23   # BR(HH -> photon Z)
     8.24144618E-07   2        23        23   # BR(HH -> Z Z)
     7.61834159E-07   2       -24        24   # BR(HH -> W W)
     1.65935402E-05   2        21        21   # BR(HH -> gluon gluon)
     2.67903769E-08   2       -11        11   # BR(HH -> Electron electron)
     1.19253860E-03   2       -13        13   # BR(HH -> Muon muon)
     3.39217232E-01   2       -15        15   # BR(HH -> Tau tau)
     4.39185072E-15   2        -2         2   # BR(HH -> Up up)
     8.52234959E-10   2        -4         4   # BR(HH -> Charm charm)
     2.63805029E-06   2        -6         6   # BR(HH -> Top top)
     1.39301323E-06   2        -1         1   # BR(HH -> Down down)
     5.03544920E-04   2        -3         3   # BR(HH -> Strange strange)
     6.55031033E-01   2        -5         5   # BR(HH -> Bottom bottom)
     2.56041410E-03   2  -1000024   1000024   # BR(HH -> Chargino1 chargino1)
     1.28278396E-03   2   1000022   1000022   # BR(HH -> neutralino1 neutralino1)
     1.85440263E-04   2   1000022   1000023   # BR(HH -> neutralino1 neutralino2)
     3.33477750E-06   2        25        25   # BR(HH -> h0 h0)
     9.24058772E-08   2  -1000011   1000011   # BR(HH -> Selectron1 selectron1)
     2.02311206E-12   2  -2000011   1000011   # BR(HH -> Selectron2 selectron1)
     2.02311206E-12   2  -1000011   2000011   # BR(HH -> Selectron1 selectron2)
     1.02756795E-07   2  -2000011   2000011   # BR(HH -> Selectron2 selectron2)
     6.70382275E-08   2  -1000013   1000013   # BR(HH -> Smuon1 smuon1)
     8.49772642E-08   2  -2000013   1000013   # BR(HH -> Smuon2 smuon1)
     8.49772642E-08   2  -1000013   2000013   # BR(HH -> Smuon1 smuon2)
     1.24750073E-07   2  -2000013   2000013   # BR(HH -> Smuon2 smuon2)
DECAY        36     2.87715501E+01   # Gamma(A0)
     1.44233663E-07   2        22        22   # BR(A0 -> photon photon)
     3.51621899E-07   2        22        23   # BR(A0 -> photon Z)
     3.14059005E-05   2        21        21   # BR(A0 -> gluon gluon)
     2.67542771E-08   2       -11        11   # BR(A0 -> Electron electron)
     1.19093094E-03   2       -13        13   # BR(A0 -> Muon muon)
     3.38758550E-01   2       -15        15   # BR(A0 -> Tau tau)
     8.73355611E-15   2        -2         2   # BR(A0 -> Up up)
     1.69350970E-09   2        -4         4   # BR(A0 -> Charm charm)
     2.32309071E-05   2        -6         6   # BR(A0 -> Top top)
     1.39100429E-06   2        -1         1   # BR(A0 -> Down down)
     5.02818880E-04   2        -3         3   # BR(A0 -> Strange strange)
     6.54120289E-01   2        -5         5   # BR(A0 -> Bottom bottom)
     3.11371962E-03   2  -1000024   1000024   # BR(A0 -> Chargino1 chargino1)
     1.56007672E-03   2   1000022   1000022   # BR(A0 -> neutralino1 neutralino1)
     6.95739085E-04   2   1000022   1000023   # BR(A0 -> neutralino1 neutralino2)
     1.13671308E-06   2        23        25   # BR(A0 -> Z h0)
     1.62759729E-36   2        25        25   # BR(A0 -> h0 h0)
     2.19093660E-12   2  -2000011   1000011   # BR(A0 -> Selectron2 selectron1)
     2.19093660E-12   2  -1000011   2000011   # BR(A0 -> Selectron1 selectron2)
     9.36778518E-08   2  -2000013   1000013   # BR(A0 -> Smuon2 smuon1)
     9.36778518E-08   2  -1000013   2000013   # BR(A0 -> Smuon1 smuon2)
DECAY        37     2.35773439E+01   # Gamma(Hp)
     3.23671444E-08   2       -11        12   # BR(Hp -> Electron nu_e)
     1.38379650E-03   2       -13        14   # BR(Hp -> Muon nu_mu)
     3.91415266E-01   2       -15        16   # BR(Hp -> Tau nu_tau)
     1.58587974E-06   2        -1         2   # BR(Hp -> Down up)
     2.64856315E-05   2        -3         2   # BR(Hp -> Strange up)
     6.50375373E-06   2        -5         2   # BR(Hp -> Bottom up)
     7.37759692E-08   2        -1         4   # BR(Hp -> Down charm)
     5.71025070E-04   2        -3         4   # BR(Hp -> Strange charm)
     9.10756947E-04   2        -5         4   # BR(Hp -> Bottom charm)
     4.61869761E-08   2        -1         6   # BR(Hp -> Down top)
     1.82244516E-06   2        -3         6   # BR(Hp -> Strange top)
     6.04571640E-01   2        -5         6   # BR(Hp -> Bottom top)
     1.86917059E-09   2   1000022   1000024   # BR(Hp -> neutralino1 chargino1)
     1.10830673E-03   2   1000023   1000024   # BR(Hp -> neutralino2 chargino1)
     1.39946389E-06   2        24        25   # BR(Hp -> W h0)
     1.18148086E-11   2        24        35   # BR(Hp -> W HH)
     5.70095980E-12   2        24        36   # BR(Hp -> W A0)
     4.26814023E-12   2  -1000011   1000012   # BR(Hp -> Selectron1 snu_e1)
     5.19495141E-07   2  -2000011   1000012   # BR(Hp -> Selectron2 snu_e1)
     1.82133914E-07   2  -1000013   1000014   # BR(Hp -> Smuon1 snu_mu1)
     5.56125607E-07   2  -2000013   1000014   # BR(Hp -> Smuon2 snu_mu1)
DECAY         6     2.43000000E+00   # top
#    BR                NDA      ID1      ID2
     1.00000000E+00    2           5        24   # BR(t -> b W)
Block HiggsBoundsInputHiggsCouplingsFermions
# ScalarNormEffCoupSq PseudoSNormEffCoupSq NP IP1 IP2 IP2
    9.24678901E-01    0.00000000E+00        3  25   5   5  # h0-b-b eff. coupling^2, normalised to SM
    3.23265930E+03    0.00000000E+00        3  35   5   5  # H0-b-b eff. coupling^2, normalised to SM
    0.00000000E+00    3.23258398E+03        3  36   5   5  # A0-b-b eff. coupling^2, normalised to SM
#
    1.00002330E+00    0.00000000E+00        3  25   6   6  # h0-t-t eff. coupling^2, normalised to SM
    2.86049459E-04    0.00000000E+00        3  35   6   6  # H0-t-t eff. coupling^2, normalised to SM
    0.00000000E+00    3.09350045E-04        3  36   6   6  # A0-t-t eff. coupling^2, normalised to SM
#
    9.24678901E-01    0.00000000E+00        3  25  15  15  # h0-tau-tau eff. coupling^2, normalised to SM
    3.23265930E+03    0.00000000E+00        3  35  15  15  # H0-tau-tau eff. coupling^2, normalised to SM
    0.00000000E+00    3.23258398E+03        3  36  15  15  # A0-tau-tau eff. coupling^2, normalised to SM
#
Block HiggsBoundsInputHiggsCouplingsBosons
    9.99999544E-01        3  25  24  24  # h0-W-W eff. coupling^2, normalised to SM
    4.56096165E-07        3  35  24  24  # H0-W-W eff. coupling^2, normalised to SM
    0.00000000E+00        3  36  24  24  # A0-W-W eff. coupling^2, normalised to SM
#
    9.99999544E-01        3  25  23  23  # h0-Z-Z eff. coupling^2, normalised to SM
    4.56096165E-07        3  35  23  23  # H0-Z-Z eff. coupling^2, normalised to SM
    0.00000000E+00        3  36  23  23  # A0-Z-Z eff. coupling^2, normalised to SM
#
    1.23371151E+00        3  25  21  21  # h0-g-g eff. coupling^2, normalised to SM
    2.93217017E-02        3  35  21  21  # H0-g-g eff. coupling^2, normalised to SM
    1.92096712E-01        3  36  21  21  # A0-g-g eff. coupling^2, normalised to SM
#
    0.00000000E+00        3  25  25  23  # h0-h0-Z eff. coupling^2, normalised to SM
    0.00000000E+00        3  35  25  23  # H0-h0-Z eff. coupling^2, normalised to SM
    4.56096165E-07        3  36  25  23  # A0-h0-Z eff. coupling^2, normalised to SM
    0.00000000E+00        3  35  35  23  # H0-H0-Z eff. coupling^2, normalised to SM
    9.99999544E-01        3  36  35  23  # A0-H0-Z eff. coupling^2, normalised to SM
    0.00000000E+00        3  36  36  23  # A0-A0-Z eff. coupling^2, normalised to SM
#
    0.00000000E+00        4  25  21  21  23  # h0-g-g-Z eff. coupling^2, normalised to SM
    0.00000000E+00        4  35  21  21  23  # H0-g-g-Z eff. coupling^2, normalised to SM
    0.00000000E+00        4  36  21  21  23  # A0-g-g-Z eff. coupling^2, normalised to SM
Block SPhenoLowEnergy  # low energy observables
    1    3.86334612E-04   # BR(b -> s gamma)
    2    1.58610686E-06   # BR(b -> s mu+ mu-)
    3    3.52201995E-05   # BR(b -> s nu nu)
    4    9.03434563E-15   # BR(Bd -> e+ e-)
    5    3.85932969E-10   # BR(Bd -> mu+ mu-)
    6    8.05225887E-08   # BR(Bd -> tau+ tau-)
    7    3.05025464E-13   # BR(Bs -> e+ e-)
    8    1.30305481E-08   # BR(Bs -> mu+ mu-)
    9    2.75510577E-06   # BR(Bs -> tau+ tau-)
   10    7.05748944E-05   # BR(B_u -> tau nu)
   11    7.29011640E-01   # BR(B_u -> tau nu)/BR(B_u -> tau nu)_SM
   12    5.44653683E-01   # |Delta(M_Bd)| [ps^-1] 
   13    1.93286207E+01   # |Delta(M_Bs)| [ps^-1] 
   14    0.00000000E+00   # neutron EDM according to the chiral quark model
   15    0.00000000E+00   # neutron EDM according to the relativistic quark-parton model
   16    2.18855984E-03   # epsilon_K
   17    2.28198928E-15   # Delta(M_K)
   18    2.47853517E-11   # BR(K^0 -> pi^0 nu nu)
   19    8.28605739E-11   # BR(K^+ -> pi^+ nu nu)
   20    4.15103496E-14   # Delta(g-2)_electron/2
   21    1.77458927E-09   # Delta(g-2)_muon/2
   22    1.11407126E-07   # Delta(g-2)_tau/2
   23    0.00000000E+00   # electric dipole moment of the electron
   24    0.00000000E+00   # electric dipole moment of the muon
   25    0.00000000E+00   # electric dipole moment of the tau
   26    0.00000000E+00   # Br(mu -> e gamma)
   27    0.00000000E+00   # Br(tau -> e gamma)
   28    0.00000000E+00   # Br(tau -> mu gamma)
   29    0.00000000E+00   # Br(mu -> 3 e)
   30    0.00000000E+00   # Br(tau -> 3 e)
   31    0.00000000E+00   # Br(tau -> 3 mu)
   39    9.74124073E-05   # Delta(rho_parameter)
   40    0.00000000E+00   # BR(Z -> e mu)
   41    0.00000000E+00   # BR(Z -> e tau)
   42    0.00000000E+00   # BR(Z -> mu tau)
Block FWCOEF Q=  1.60000000E+02  # Wilson coefficients at scale Q
#    id        order  M        value         comment
     0305 4422   00   0    -1.88819110E-01   # C7
     0305 4422   00   2    -2.59200943E-01   # C7
     0305 4322   00   2    -1.07902536E-03   # C7'
     0305 6421   00   0    -9.52278346E-02   # C8
     0305 6421   00   2    -1.50229023E-01   # C8
     0305 6321   00   2    -8.82818047E-04   # C8'
 03051111 4133   00   0     1.59330589E+00   # C9 e+e-
 03051111 4133   00   2     1.59362993E+00   # C9 e+e-
 03051111 4233   00   2     2.61044596E-04   # C9' e+e-
 03051111 4137   00   0    -4.41599799E+00   # C10 e+e-
 03051111 4137   00   2    -4.41094154E+00   # C10 e+e-
 03051111 4237   00   2    -2.02623961E-03   # C10' e+e-
 03051313 4133   00   0     1.59330589E+00   # C9 mu+mu-
 03051313 4133   00   2     1.59362094E+00   # C9 mu+mu-
 03051313 4233   00   2     2.61020900E-04   # C9' mu+mu-
 03051313 4137   00   0    -4.41599799E+00   # C10 mu+mu-
 03051313 4137   00   2    -4.41095051E+00   # C10 mu+mu-
 03051313 4237   00   2    -2.02623332E-03   # C10' mu+mu-
 03051212 4137   00   0     1.50535012E+00   # C11 nu_1 nu_1
 03051212 4137   00   2     1.50431597E+00   # C11 nu_1 nu_1
 03051212 4237   00   2     4.41462458E-04   # C11' nu_1 nu_1
 03051414 4137   00   0     1.50535012E+00   # C11 nu_2 nu_2
 03051414 4137   00   2     1.50431597E+00   # C11 nu_2 nu_2
 03051414 4237   00   2     4.41466666E-04   # C11' nu_2 nu_2
 03051616 4137   00   0     1.50535012E+00   # C11 nu_3 nu_3
 03051616 4137   00   2     1.50431107E+00   # C11 nu_3 nu_3
 03051616 4237   00   2     4.42652760E-04   # C11' nu_3 nu_3
Block IMFWCOEF Q=  1.60000000E+02  # Im(Wilson coefficients) at scale Q
#    id        order  M        value         comment
     0305 4422   00   0     3.85298568E-07   # C7
     0305 4422   00   2     5.61969386E-05   # C7
     0305 4322   00   2    -1.16873877E-05   # C7'
     0305 6421   00   0     3.30033705E-07   # C8
     0305 6421   00   2    -1.18506521E-05   # C8
     0305 6321   00   2    -6.56980611E-06   # C8'
 03051111 4133   00   2    -3.61506188E-06   # C9 e+e-
 03051111 4233   00   2     9.25969583E-06   # C9' e+e-
 03051111 4137   00   2     2.37791503E-05   # C10 e+e-
 03051111 4237   00   2    -7.19602941E-05   # C10' e+e-
 03051313 4133   00   2    -3.61504596E-06   # C9 mu+mu-
 03051313 4233   00   2     9.25962240E-06   # C9' mu+mu-
 03051313 4137   00   2     2.37794145E-05   # C10 mu+mu-
 03051313 4237   00   2    -7.19605297E-05   # C10' mu+mu-
 03051212 4137   00   2    -3.91946019E-06   # C11 nu_1 nu_1
 03051212 4237   00   2     1.56781745E-05   # C11' nu_1 nu_1
 03051414 4137   00   2    -3.91945910E-06   # C11 nu_2 nu_2
 03051414 4237   00   2     1.56781745E-05   # C11' nu_2 nu_2
 03051616 4137   00   2    -4.00665302E-06   # C11 nu_3 nu_3
 03051616 4237   00   2     1.56781784E-05   # C11' nu_3 nu_3
