# SUSY Les Houches Accord 2 - MSSM spectrum + Decays
# SPheno v4.0.5be
# W. Porod, Comput. Phys. Commun. 153 (2003) 275-315, hep-ph/0301101;
# W. Porod, F.~Staub, Comput. Phys. Commun. 183 (2012) 2458
#                     arXiv:1104.1573 [hep-ph] 
# in case of problems send email to porod@physik.uni-wuerzburg.de
# Created: 20.12.2022,  20:30
Block SPINFO         # Program information
     1   SPheno      # spectrum calculator
     2   v4.0.5be    # version number
#
Block SPhenoINFO     # SPheno specific information
    1      2         # using 2-loop RGEs
    2      2         # using pole masses for boundary conditions at mZ
Block MODSEL  # Model selection
    1    0    # general MSSM
Block MINPAR  # Input parameters
    3    7.41674414E+00  # tanb at m_Z    
    4    1.00000000E+00  # Sign(mu)
Block EXTPAR  # non-universal input parameters
    0    4.19150269E+03  # scale for input parameters
    1   -1.03487080E+03  # M_1
    2    9.43494159E+02  # M_2
    3    4.24550135E+03  # M_3
   11   -2.87093490E+03  # A_t
   12   -5.08059398E+02  # A_b
   13   -3.21451961E+01  # A_tau
   23    2.61312979E+02  # mu
   25    7.04173401E+00  # tan(beta)
   26    7.71240753E+02  # m_A, pole mass
   31    1.00000000E+04  # M_L11
   32    1.00000000E+04  # M_L22
   33    1.00000000E+04  # M_L33
   34    1.00000000E+04  # M_E11
   35    1.00000000E+04  # M_E22
   36    1.00000000E+04  # M_E33
   41    1.00000000E+04  # M_Q11
   42    1.00000000E+04  # M_Q22
   43    3.75911020E+03  # M_Q33
   44    1.00000000E+04  # M_U11
   45    1.00000000E+04  # M_U22
   46    4.43953615E+03  # M_U33
   47    1.00000000E+04  # M_D11
   48    1.00000000E+04  # M_D22
   49    4.52403471E+03  # M_D33
Block SMINPUTS  # SM parameters
         1     1.27908970E+02  # alpha_em^-1(MZ)^MSbar
         2     1.16637870E-05  # G_mu [GeV^-2]
         3     1.18400000E-01  # alpha_s(MZ)^MSbar
         4     9.11876000E+01  # m_Z(pole)
         5     4.18000000E+00  # m_b(m_b), MSbar
         6     1.73200000E+02  # m_t(pole)
         7     1.77700000E+00  # m_tau(pole)
         8     0.00000000E+00  # m_nu_3
        11     5.10998930E-04  # m_e(pole)
        12     0.00000000E+00  # m_nu_1
        13     1.05658372E-01  # m_muon(pole)
        14     0.00000000E+00  # m_nu_2
        21     5.00000000E-03  # m_d(2 GeV), MSbar
        22     2.50000000E-03  # m_u(2 GeV), MSbar
        23     9.50000000E-02  # m_s(2 GeV), MSbar
        24     1.27000000E+00  # m_c(m_c), MSbar
Block gauge Q=  4.19150269E+03  # (SUSY scale)
   1    3.55362975E-01  # g'(Q)^DRbar
   2    6.65198874E-01  # g(Q)^DRbar
   3    1.21977796E+00  # g3(Q)^DRbar
Block Yu Q=  4.19150269E+03  # (SUSY scale)
  1  1     8.46849384E-06   # Y_u(Q)^DRbar
  2  2     4.30199487E-03   # Y_c(Q)^DRbar
  3  3     1.02306208E+00   # Y_t(Q)^DRbar
Block Yd Q=  4.19150269E+03  # (SUSY scale)
  1  1     1.19830133E-04   # Y_d(Q)^DRbar
  2  2     2.27677252E-03   # Y_s(Q)^DRbar
  3  3     1.18833942E-01   # Y_b(Q)^DRbar
Block Ye Q=  4.19150269E+03  # (SUSY scale)
  1  1     2.09112344E-05   # Y_e(Q)^DRbar
  2  2     4.32378006E-03   # Y_mu(Q)^DRbar
  3  3     7.27188676E-02   # Y_tau(Q)^DRbar
Block Au Q=  4.19150269E+03  # (SUSY scale)
  1  1     0.00000000E+00   # A_u(Q)^DRbar
  2  2     0.00000000E+00   # A_c(Q)^DRbar
  3  3    -2.87093585E+03   # A_t(Q)^DRbar
Block Ad Q=  4.19150269E+03  # (SUSY scale)
  1  1     0.00000000E+00   # A_d(Q)^DRbar
  2  2     0.00000000E+00   # A_s(Q)^DRbar
  3  3    -5.08059323E+02   # A_b(Q)^DRbar
Block Ae Q=  4.19150269E+03  # (SUSY scale)
  1  1     0.00000000E+00   # A_e(Q)^DRbar
  2  2     0.00000000E+00   # A_mu(Q)^DRbar
  3  3    -3.21451928E+01   # A_tau(Q)^DRbar
Block MSOFT Q=  4.19150269E+03  # soft SUSY breaking masses at Q
   1   -1.03487080E+03  # M_1
   2    9.43494159E+02  # M_2
   3    4.24550135E+03  # M_3
  21    4.80420232E+05  # M^2_(H,d)
  22    3.23631682E+05  # M^2_(H,u)
  31    1.00000000E+04  # M_(L,11)
  32    1.00000000E+04  # M_(L,22)
  33    1.00000000E+04  # M_(L,33)
  34    1.00000000E+04  # M_(E,11)
  35    1.00000000E+04  # M_(E,22)
  36    1.00000000E+04  # M_(E,33)
  41    1.00000000E+04  # M_(Q,11)
  42    1.00000000E+04  # M_(Q,22)
  43    3.75911020E+03  # M_(Q,33)
  44    1.00000000E+04  # M_(U,11)
  45    1.00000000E+04  # M_(U,22)
  46    4.43953615E+03  # M_(U,33)
  47    1.00000000E+04  # M_(D,11)
  48    1.00000000E+04  # M_(D,22)
  49    4.52403471E+03  # M_(D,33)
Block MASS  # Mass spectrum
#   PDG code      mass          particle
         6     1.73200000E+02  # m_t(pole)
        23     9.11876000E+01  # m_Z(pole)
        24     8.04299946E+01  # W+
        15     1.77700000E+00  # m_tau(pole)
        25     1.21361772E+02  # h0
        35     7.71659112E+02  # H0
        36     7.71240753E+02  # A0
        37     7.75852708E+02  # H+
   1000001     1.01035996E+04  # ~d_L
   2000001     1.00790713E+04  # ~d_R
   1000002     1.01032455E+04  # ~u_L
   2000002     1.00822972E+04  # ~u_R
   1000003     1.01035999E+04  # ~s_L
   2000003     1.00790714E+04  # ~s_R
   1000004     1.01032459E+04  # ~c_L
   2000004     1.00822976E+04  # ~c_R
   1000005     3.89573813E+03  # ~b_1
   2000005     4.65725812E+03  # ~b_2
   1000006     3.89311414E+03  # ~t_1
   2000006     4.51276130E+03  # ~t_2
   1000011     1.00211936E+04  # ~e_L-
   2000011     1.00086672E+04  # ~e_R-
   1000012     1.00204361E+04  # ~nu_eL
   1000013     1.00211939E+04  # ~mu_L-
   2000013     1.00086678E+04  # ~mu_R-
   1000014     1.00204364E+04  # ~nu_muL
   1000015     1.00088431E+04  # ~tau_1-
   2000015     1.00212872E+04  # ~tau_2-
   1000016     1.00205274E+04  # ~nu_tauL
   1000021     4.74019740E+03  # ~g
   1000022     2.74773024E+02  # ~chi_10
   1000023     2.80200369E+02  # ~chi_20
   1000025     1.01919343E+03  # ~chi_30
   1000035     1.04186596E+03  # ~chi_40
   1000024     2.75782849E+02  # ~chi_1+
   1000037     1.01904877E+03  # ~chi_2+
# Higgs mixing
Block alpha # Effective Higgs mixing angle
          -1.39180390E-01   # alpha
Block Hmix Q=  4.19150269E+03  # Higgs mixing parameters
   1    2.61312979E+02  # mu
   2    7.04173401E+00  # tan[beta](Q)
   3    2.42915000E+02  # v(Q)
   4    5.94812299E+05  # m^2_A(Q)
Block stopmix # stop mixing matrix
   1  1     9.96698679E-01   # Re[R_st(1,1)]
   1  2     8.11895458E-02   # Re[R_st(1,2)]
   2  1    -8.11895458E-02   # Re[R_st(2,1)]
   2  2     9.96698679E-01   # Re[R_st(2,2)]
Block sbotmix # sbottom mixing matrix
   1  1     9.99999672E-01   # Re[R_sb(1,1)]
   1  2     8.10199696E-04   # Re[R_sb(1,2)]
   2  1    -8.10199696E-04   # Re[R_sb(2,1)]
   2  2     9.99999672E-01   # Re[R_sb(2,2)]
Block staumix # stau mixing matrix
   1  1     1.31508148E-02   # Re[R_sta(1,1)]
   1  2     9.99913524E-01   # Re[R_sta(1,2)]
   2  1    -9.99913524E-01   # Re[R_sta(2,1)]
   2  2     1.31508148E-02   # Re[R_sta(2,2)]
Block Nmix # neutralino mixing matrix
   1  1    -2.66063940E-02   # Re[N(1,1)]
   1  2    -8.60352266E-02   # Re[N(1,2)]
   1  3     7.08622159E-01   # Re[N(1,3)]
   1  4    -6.99817602E-01   # Re[N(1,4)]
   2  1     3.49748276E-02   # Re[N(2,1)]
   2  2     3.76743104E-02   # Re[N(2,2)]
   2  3     7.04717953E-01   # Re[N(2,3)]
   2  4     7.07622792E-01   # Re[N(2,4)]
   3  1     1.97324035E-03   # Re[N(3,1)]
   3  2    -9.95578166E-01   # Re[N(3,2)]
   3  3    -3.45601036E-02   # Re[N(3,3)]
   3  4     8.73259501E-02   # Re[N(3,4)]
   4  1     9.99032015E-01   # Re[N(4,1)]
   4  2    -1.64381583E-03   # Re[N(4,2)]
   4  3    -5.73086057E-03   # Re[N(4,3)]
   4  4    -4.35831109E-02   # Re[N(4,4)]
Block Umix # chargino mixing matrix
   1  1    -4.88883014E-02   # Re[U(1,1)]
   1  2     9.98804252E-01   # Re[U(1,2)]
   2  1     9.98804252E-01   # Re[U(2,1)]
   2  2     4.88883014E-02   # Re[U(2,2)]
Block Vmix # chargino mixing matrix
   1  1    -1.23747341E-01   # Re[V(1,1)]
   1  2     9.92313759E-01   # Re[V(1,2)]
   2  1     9.92313759E-01   # Re[V(2,1)]
   2  2     1.23747341E-01   # Re[V(2,2)]
DECAY        23     2.49520000E+00   # Z
DECAY        24     2.08500000E+00   # W
DECAY   2000011     4.92078572E+01   # ~e^-_R
#    BR                NDA      ID1      ID2
     7.22377086E-04    2     1000022        11   # BR(~e^-_R -> chi^0_1 e^-)
     1.24817858E-03    2     1000023        11   # BR(~e^-_R -> chi^0_2 e^-)
     9.98025545E-01    2     1000035        11   # BR(~e^-_R -> chi^0_4 e^-)
DECAY   1000011     1.41935588E+02   # ~e^-_L
#    BR                NDA      ID1      ID2
     3.11844023E-03    2     1000022        11   # BR(~e^-_L -> chi^0_1 e^-)
     9.85535519E-04    2     1000023        11   # BR(~e^-_L -> chi^0_2 e^-)
     3.01044491E-01    2     1000025        11   # BR(~e^-_L -> chi^0_3 e^-)
     8.60820095E-02    2     1000035        11   # BR(~e^-_L -> chi^0_4 e^-)
     1.48324580E-03    2    -1000024        12   # BR(~e^-_L -> chi^-_1 nu_e)
     6.07286278E-01    2    -1000037        12   # BR(~e^-_L -> chi^-_2 nu_e)
#    BR                NDA      ID1      ID2       ID3
DECAY   2000013     4.92152935E+01   # ~mu^-_R
#    BR                NDA      ID1      ID2
     7.60190757E-04    2     1000022        13   # BR(~mu^-_R -> chi^0_1 mu^-)
     1.28549341E-03    2     1000023        13   # BR(~mu^-_R -> chi^0_2 mu^-)
     9.97874812E-01    2     1000035        13   # BR(~mu^-_R -> chi^0_4 mu^-)
DECAY   1000013     1.41939314E+02   # ~mu^-_L
#    BR                NDA      ID1      ID2
     3.13152382E-03    2     1000022        13   # BR(~mu^-_L -> chi^0_1 mu^-)
     9.98529942E-04    2     1000023        13   # BR(~mu^-_L -> chi^0_2 mu^-)
     3.01036629E-01    2     1000025        13   # BR(~mu^-_L -> chi^0_3 mu^-)
     8.60797535E-02    2     1000035        13   # BR(~mu^-_L -> chi^0_4 mu^-)
     1.48320692E-03    2    -1000024        14   # BR(~mu^-_L -> chi^-_1 nu_mu)
     6.07270356E-01    2    -1000037        14   # BR(~mu^-_L -> chi^-_2 nu_mu)
#    BR                NDA      ID1      ID2       ID3
DECAY   1000015     5.13275844E+01   # ~tau^-_1
#    BR                NDA      ID1      ID2
     1.11569707E-02    2     1000022        15   # BR(~tau^-_1 -> chi^0_1 tau^-)
     1.13222314E-02    2     1000023        15   # BR(~tau^-_1 -> chi^0_2 tau^-)
     9.56692914E-01    2     1000035        15   # BR(~tau^-_1 -> chi^0_4 tau^-)
     2.06720345E-02    2    -1000024        16   # BR(~tau^-_1 -> chi^-_1 nu_tau)
     1.02050786E-04    2    -1000037        16   # BR(~tau^-_1 -> chi^-_2 nu_tau)
DECAY   2000015     1.42973364E+02   # ~tau^-_2
#    BR                NDA      ID1      ID2
     6.72869708E-03    2     1000022        15   # BR(~tau^-_2 -> chi^0_1 tau^-)
     4.65141366E-03    2     1000023        15   # BR(~tau^-_2 -> chi^0_2 tau^-)
     2.98861615E-01    2     1000025        15   # BR(~tau^-_2 -> chi^0_3 tau^-)
     8.55065369E-02    2     1000035        15   # BR(~tau^-_2 -> chi^0_4 tau^-)
     1.38701833E-03    2    -1000024        16   # BR(~tau^-_2 -> chi^-_1 nu_tau)
     6.02864719E-01    2    -1000037        16   # BR(~tau^-_2 -> chi^-_2 nu_tau)
#    BR                NDA      ID1      ID2       ID3
DECAY   1000012     1.41939522E+02   # ~nu_e
#    BR                NDA      ID1      ID2
     1.60045154E-03    2     1000022        12   # BR(~nu_e -> chi^0_1 nu_e)
     1.11881569E-04    2     1000023        12   # BR(~nu_e -> chi^0_2 nu_e)
     3.02290026E-01    2     1000025        12   # BR(~nu_e -> chi^0_3 nu_e)
     8.71398182E-02    2     1000035        12   # BR(~nu_e -> chi^0_4 nu_e)
     9.50232863E-03    2     1000024        11   # BR(~nu_e -> chi^+_1 e^-)
     5.99355494E-01    2     1000037        11   # BR(~nu_e -> chi^+_2 e^-)
#    BR                NDA      ID1      ID2       ID3
DECAY   1000014     1.41943248E+02   # ~nu_mu
#    BR                NDA      ID1      ID2
     1.60040958E-03    2     1000022        14   # BR(~nu_mu -> chi^0_1 nu_mu)
     1.11878636E-04    2     1000023        14   # BR(~nu_mu -> chi^0_2 nu_mu)
     3.02282102E-01    2     1000025        14   # BR(~nu_mu -> chi^0_3 nu_mu)
     8.71375338E-02    2     1000035        14   # BR(~nu_mu -> chi^0_4 nu_mu)
     9.52823194E-03    2     1000024        13   # BR(~nu_mu -> chi^+_1 mu^-)
     5.99339844E-01    2     1000037        13   # BR(~nu_mu -> chi^+_2 mu^-)
#    BR                NDA      ID1      ID2       ID3
DECAY   1000016     1.42993410E+02   # ~nu_tau
#    BR                NDA      ID1      ID2
     1.58867044E-03    2     1000022        16   # BR(~nu_tau -> chi^0_1 nu_tau)
     1.11057997E-04    2     1000023        16   # BR(~nu_tau -> chi^0_2 nu_tau)
     3.00064942E-01    2     1000025        16   # BR(~nu_tau -> chi^0_3 nu_tau)
     8.64984044E-02    2     1000035        16   # BR(~nu_tau -> chi^0_4 nu_tau)
     1.67756900E-02    2     1000024        15   # BR(~nu_tau -> chi^+_1 tau^-)
     5.94961235E-01    2     1000037        15   # BR(~nu_tau -> chi^+_2 tau^-)
#    BR                NDA      ID1      ID2       ID3
DECAY   2000001     4.88068174E+02   # ~d_R
#    BR                NDA      ID1      ID2
     1.12623712E-02    2     1000035         1   # BR(~d_R -> chi^0_4 d)
     9.88715342E-01    2     1000021         1   # BR(~d_R -> ~g d)
DECAY   1000001     6.17171793E+02   # ~d_L
#    BR                NDA      ID1      ID2
     4.75538075E-04    2     1000022         1   # BR(~d_L -> chi^0_1 d)
     7.00239724E-02    2     1000025         1   # BR(~d_L -> chi^0_3 d)
     2.27370608E-03    2     1000035         1   # BR(~d_L -> chi^0_4 d)
     3.43926595E-04    2    -1000024         2   # BR(~d_L -> chi^-_1 u)
     1.40858417E-01    2    -1000037         2   # BR(~d_L -> chi^-_2 u)
     7.85953293E-01    2     1000021         1   # BR(~d_L -> ~g d)
DECAY   2000003     4.88070254E+02   # ~s_R
#    BR                NDA      ID1      ID2
     1.12623234E-02    2     1000035         3   # BR(~s_R -> chi^0_4 s)
     9.88711149E-01    2     1000021         3   # BR(~s_R -> ~g s)
DECAY   1000003     6.17176578E+02   # ~s_L
#    BR                NDA      ID1      ID2
     4.76378500E-04    2     1000022         3   # BR(~s_L -> chi^0_1 s)
     7.00234337E-02    2     1000025         3   # BR(~s_L -> chi^0_3 s)
     2.27368857E-03    2     1000035         3   # BR(~s_L -> chi^0_4 s)
     3.49849564E-04    2    -1000024         4   # BR(~s_L -> chi^-_1 c)
     1.40857421E-01    2    -1000037         4   # BR(~s_L -> chi^-_2 c)
     7.85947248E-01    2     1000021         3   # BR(~s_L -> ~g s)
DECAY   1000005     1.26169897E+02   # ~b_1
#    BR                NDA      ID1      ID2
     5.20412944E-03    2     1000022         5   # BR(~b_1 -> chi^0_1 b)
     4.39604231E-03    2     1000023         5   # BR(~b_1 -> chi^0_2 b)
     1.16988457E-01    2     1000025         5   # BR(~b_1 -> chi^0_3 b)
     3.77694622E-03    2     1000035         5   # BR(~b_1 -> chi^0_4 b)
     6.24646833E-01    2    -1000024         6   # BR(~b_1 -> chi^-_1 t)
     2.44987592E-01    2    -1000037         6   # BR(~b_1 -> chi^-_2 t)
DECAY   2000005     4.94404847E+00   # ~b_2
#    BR                NDA      ID1      ID2
     1.32250481E-01    2     1000022         5   # BR(~b_2 -> chi^0_1 b)
     1.31137674E-01    2     1000023         5   # BR(~b_2 -> chi^0_2 b)
     3.43860625E-04    2     1000025         5   # BR(~b_2 -> chi^0_3 b)
     4.73681430E-01    2     1000035         5   # BR(~b_2 -> chi^0_4 b)
     2.61342646E-01    2    -1000024         6   # BR(~b_2 -> chi^-_1 t)
     6.83041817E-04    2    -1000037         6   # BR(~b_2 -> chi^-_2 t)
     2.43652580E-04    2     1000006       -24   # BR(~b_2 -> ~t_1 W^-)
     1.20882546E-04    2     1000005        23   # BR(~b_2 -> ~b_1 Z)
     1.96323107E-04    2     1000005        25   # BR(~b_2 -> ~b_1 h^0)
DECAY   2000002     5.04928441E+02   # ~u_R
#    BR                NDA      ID1      ID2
     4.35597586E-02    2     1000035         2   # BR(~u_R -> chi^0_4 u)
     9.56354090E-01    2     1000021         2   # BR(~u_R -> ~g u)
DECAY   1000002     6.17154525E+02   # ~u_L
#    BR                NDA      ID1      ID2
     5.92846156E-04    2     1000022         2   # BR(~u_L -> chi^0_1 u)
     1.38668690E-04    2     1000023         2   # BR(~u_L -> chi^0_2 u)
     6.99245893E-02    2     1000025         2   # BR(~u_L -> chi^0_3 u)
     2.19118239E-03    2     1000035         2   # BR(~u_L -> chi^0_4 u)
     2.20356258E-03    2     1000024         1   # BR(~u_L -> chi^+_1 d)
     1.39032512E-01    2     1000037         1   # BR(~u_L -> chi^+_2 d)
     7.85916639E-01    2     1000021         2   # BR(~u_L -> ~g u)
DECAY   2000004     5.04935862E+02   # ~c_R
#    BR                NDA      ID1      ID2
     4.35591307E-02    2     1000035         4   # BR(~c_R -> chi^0_4 c)
     9.56340055E-01    2     1000021         4   # BR(~c_R -> ~g c)
DECAY   1000004     6.17159292E+02   # ~c_L
#    BR                NDA      ID1      ID2
     5.95788478E-04    2     1000022         4   # BR(~c_L -> chi^0_1 c)
     1.41680774E-04    2     1000023         4   # BR(~c_L -> chi^0_2 c)
     6.99240976E-02    2     1000025         4   # BR(~c_L -> chi^0_3 c)
     2.19117697E-03    2     1000035         4   # BR(~c_L -> chi^0_4 c)
     2.20522253E-03    2     1000024         3   # BR(~c_L -> chi^+_1 s)
     1.39031448E-01    2     1000037         3   # BR(~c_L -> chi^+_2 s)
     7.85910585E-01    2     1000021         4   # BR(~c_L -> ~g c)
DECAY   1000006     1.26808797E+02   # ~t_1
#    BR                NDA      ID1      ID2
     3.11627291E-01    2     1000022         6   # BR(~t_1 -> chi^0_1 t)
     3.15965362E-01    2     1000023         6   # BR(~t_1 -> chi^0_2 t)
     1.16549686E-01    2     1000025         6   # BR(~t_1 -> chi^0_3 t)
     6.11133612E-03    2     1000035         6   # BR(~t_1 -> chi^0_4 t)
     2.48141559E-02    2     1000024         5   # BR(~t_1 -> chi^+_1 b)
     2.22288970E-01    2     1000037         5   # BR(~t_1 -> chi^+_2 b)
#    BR                NDA      ID1      ID2       ID3
     2.64319942E-03    3     1000022        24         5   # BR(~t_1 -> chi^0_1 W^+ b)
DECAY   2000006     2.09234577E+02   # ~t_2
#    BR                NDA      ID1      ID2
     2.16234399E-01    2     1000022         6   # BR(~t_2 -> chi^0_1 t)
     2.22305500E-01    2     1000023         6   # BR(~t_2 -> chi^0_2 t)
     6.25557438E-03    2     1000025         6   # BR(~t_2 -> chi^0_3 t)
     4.24989106E-02    2     1000035         6   # BR(~t_2 -> chi^0_4 t)
     4.30331267E-01    2     1000024         5   # BR(~t_2 -> chi^+_1 b)
     1.24894080E-02    2     1000037         5   # BR(~t_2 -> chi^+_2 b)
     3.17426120E-02    2     1000005        24   # BR(~t_2 -> ~b_1 W^+)
     1.58397142E-02    2     1000006        23   # BR(~t_2 -> ~t_1 Z)
     2.23026146E-02    2     1000006        25   # BR(~t_2 -> ~t_1 h^0)
DECAY   1000024     1.07683678E-12   # chi^+_1
#    BR                NDA      ID1      ID2
     6.99259529E-01    2     1000022       211   # BR(chi^+_1 -> chi^0_1 pi^+)
#    BR                NDA      ID1      ID2       ID3
     1.54408444E-01    3     1000022       -11        12   # BR(chi^+_1 -> chi^0_1 e^+ nu_e)
     1.46332027E-01    3     1000022       -13        14   # BR(chi^+_1 -> chi^0_1 mu^+ nu_mu)
DECAY   1000037     1.00423475E+01   # chi^+_2
#    BR                NDA      ID1      ID2
     2.47081072E-01    2     1000022        24   # BR(chi^+_2 -> chi^0_1 W^+)
     2.53748921E-01    2     1000023        24   # BR(chi^+_2 -> chi^0_2 W^+)
     2.46534451E-01    2     1000024        23   # BR(chi^+_2 -> chi^+_1 Z)
     2.39172591E-01    2     1000024        25   # BR(chi^+_2 -> chi^+_1 h^0)
#    BR                NDA      ID1      ID2       ID3
     4.49045153E-03    3     1000024         6        -6   # BR(chi^+_2 -> chi^+_1 t t_bar)
     1.25223276E-04    3     1000024         5        -5   # BR(chi^+_2 -> chi^+_1 b b_bar)
     4.98731425E-03    3     1000022        -5         6   # BR(chi^+_2 -> chi^0_1 b_bar t)
     3.82700254E-03    3     1000023        -5         6   # BR(chi^+_2 -> chi^0_2 b_bar t)
DECAY   1000022     0.00000000E+00   # chi^0_1
DECAY   1000023     4.90152322E-08   # chi^0_2
#    BR                NDA      ID1      ID2
     5.21390174E-01    2     1000022        22   # BR(chi^0_2 -> chi^0_1 photon)
#    BR                NDA      ID1      ID2       ID3
     3.82026933E-02    3     1000022         2        -2   # BR(chi^0_2 -> chi^0_1 u u_bar)
     1.78044570E-02    3     1000022         4        -4   # BR(chi^0_2 -> chi^0_1 c c_bar)
     4.89834608E-02    3     1000022         1        -1   # BR(chi^0_2 -> chi^0_1 d d_bar)
     4.88089137E-02    3     1000022         3        -3   # BR(chi^0_2 -> chi^0_1 s s_bar)
     1.10541697E-02    3     1000022        11       -11   # BR(chi^0_2 -> chi^0_1 e^- e^+)
     1.09922452E-02    3     1000022        13       -13   # BR(chi^0_2 -> chi^0_1 mu^- mu^+)
     1.76560408E-03    3     1000022        15       -15   # BR(chi^0_2 -> chi^0_1 tau^- tau^+)
     6.55049822E-02    3     1000022        12       -12   # BR(chi^0_2 -> chi^0_1 nu_e nu_bar_e)
     4.72689290E-02    3     1000024         1        -2   # BR(chi^0_2 -> chi^+_1 d u_bar)
     4.72689290E-02    3    -1000024        -1         2   # BR(chi^0_2 -> chi^-_1 d_bar u)
     3.17641069E-02    3     1000024         3        -4   # BR(chi^0_2 -> chi^+_1 s c_bar)
     3.17641069E-02    3    -1000024        -3         4   # BR(chi^0_2 -> chi^-_1 s_bar c)
     1.57563726E-02    3     1000024        11       -12   # BR(chi^0_2 -> chi^+_1 e^- nu_bar_e)
     1.57563726E-02    3    -1000024       -11        12   # BR(chi^0_2 -> chi^-_1 e^+ nu_e)
     1.57115391E-02    3     1000024        13       -14   # BR(chi^0_2 -> chi^+_1 mu^- nu_bar_mu)
     1.57115391E-02    3    -1000024       -13        14   # BR(chi^0_2 -> chi^-_1 mu^+ nu_mu)
     7.24570272E-03    3     1000024        15       -16   # BR(chi^0_2 -> chi^+_1 tau^- nu_bar_tau)
     7.24570272E-03    3    -1000024       -15        16   # BR(chi^0_2 -> chi^-_1 tau^+ nu_tau)
DECAY   1000025     1.08661213E+01   # chi^0_3
#    BR                NDA      ID1      ID2
     2.31545775E-01    2     1000024       -24   # BR(chi^0_3 -> chi^+_1 W^-)
     2.31545775E-01    2    -1000024        24   # BR(chi^0_3 -> chi^-_1 W^+)
     3.59683198E-02    2     1000022        23   # BR(chi^0_3 -> chi^0_1 Z)
     1.97249634E-01    2     1000023        23   # BR(chi^0_3 -> chi^0_2 Z)
     1.83771201E-01    2     1000022        25   # BR(chi^0_3 -> chi^0_1 h^0)
     1.08433179E-01    2     1000023        25   # BR(chi^0_3 -> chi^0_2 h^0)
#    BR                NDA      ID1      ID2       ID3
     1.62452363E-03    3     1000022         6        -6   # BR(chi^0_3 -> chi^0_1 t t_bar)
     8.22744669E-04    3     1000023         6        -6   # BR(chi^0_3 -> chi^0_2 t t_bar)
     4.42756030E-03    3     1000024         5        -6   # BR(chi^0_3 -> chi^+_1 b t_bar)
     4.42756030E-03    3    -1000024        -5         6   # BR(chi^0_3 -> chi^-_1 b_bar t)
DECAY   1000035     2.79653808E+00   # chi^0_4
#    BR                NDA      ID1      ID2
     2.13740237E-01    2     1000024       -24   # BR(chi^0_4 -> chi^+_1 W^-)
     2.13740237E-01    2    -1000024        24   # BR(chi^0_4 -> chi^-_1 W^+)
     1.34179070E-01    2     1000022        23   # BR(chi^0_4 -> chi^0_1 Z)
     8.00006153E-02    2     1000023        23   # BR(chi^0_4 -> chi^0_2 Z)
     2.16240102E-01    2     1000022        25   # BR(chi^0_4 -> chi^0_1 h^0)
     1.25034956E-01    2     1000023        25   # BR(chi^0_4 -> chi^0_2 h^0)
#    BR                NDA      ID1      ID2       ID3
     2.41112568E-03    3     1000022         6        -6   # BR(chi^0_4 -> chi^0_1 t t_bar)
     2.24556811E-04    3     1000022         5        -5   # BR(chi^0_4 -> chi^0_1 b b_bar)
     1.19884769E-03    3     1000023         6        -6   # BR(chi^0_4 -> chi^0_2 t t_bar)
     2.30272930E-04    3     1000023         5        -5   # BR(chi^0_4 -> chi^0_2 b b_bar)
     6.45141491E-03    3     1000024         5        -6   # BR(chi^0_4 -> chi^+_1 b t_bar)
     6.45141491E-03    3    -1000024        -5         6   # BR(chi^0_4 -> chi^-_1 b_bar t)
DECAY   1000021     2.99611740E+01   # ~g
#    BR                NDA      ID1      ID2
     2.34924947E-01    2     1000006        -6   # BR(~g -> ~t_1 t_bar)
     2.34924947E-01    2    -1000006         6   # BR(~g -> ~t^*_1 t)
     1.51804693E-02    2     2000006        -6   # BR(~g -> ~t_2 t_bar)
     1.51804693E-02    2    -2000006         6   # BR(~g -> ~t^*_2 t)
     2.46650300E-01    2     1000005        -5   # BR(~g -> ~b_1 b_bar)
     2.46650300E-01    2    -1000005         5   # BR(~g -> ~b^*_1 b)
     2.81415427E-03    2     2000005        -5   # BR(~g -> ~b_2 b_bar)
     2.81415427E-03    2    -2000005         5   # BR(~g -> ~b^*_2 b)
     2.18844570E-04    2     1000022        21   # BR(~g -> chi^0_1 g)
     2.30332471E-04    2     1000023        21   # BR(~g -> chi^0_2 g)
#    BR                NDA      ID1      ID2       ID3
DECAY        25     3.60758643E-03   # Gamma(h0)
     2.24574851E-03   2        22        22   # BR(h0 -> photon photon)
     1.14699700E-03   2        22        23   # BR(h0 -> photon Z)
     1.85770167E-02   2        23        23   # BR(h0 -> Z Z)
     1.65141047E-01   2       -24        24   # BR(h0 -> W W)
     7.12328477E-02   2        21        21   # BR(h0 -> gluon gluon)
     5.68933093E-09   2       -11        11   # BR(h0 -> Electron electron)
     2.53069358E-04   2       -13        13   # BR(h0 -> Muon muon)
     7.29635973E-02   2       -15        15   # BR(h0 -> Tau tau)
     1.50989245E-07   2        -2         2   # BR(h0 -> Up up)
     2.92980570E-02   2        -4         4   # BR(h0 -> Charm charm)
     6.62063753E-07   2        -1         1   # BR(h0 -> Down down)
     2.39453893E-04   2        -3         3   # BR(h0 -> Strange strange)
     6.38901346E-01   2        -5         5   # BR(h0 -> Bottom bottom)
DECAY        35     1.23460444E+00   # Gamma(HH)
     4.08311599E-06   2        22        22   # BR(HH -> photon photon)
     1.93579891E-06   2        22        23   # BR(HH -> photon Z)
     1.81220531E-03   2        23        23   # BR(HH -> Z Z)
     3.11917900E-03   2       -24        24   # BR(HH -> W W)
     5.05465994E-04   2        21        21   # BR(HH -> gluon gluon)
     5.68977153E-09   2       -11        11   # BR(HH -> Electron electron)
     2.53229976E-04   2       -13        13   # BR(HH -> Muon muon)
     7.31187623E-02   2       -15        15   # BR(HH -> Tau tau)
     3.49009344E-11   2        -2         2   # BR(HH -> Up up)
     6.76787014E-06   2        -4         4   # BR(HH -> Charm charm)
     3.85562392E-01   2        -6         6   # BR(HH -> Top top)
     4.97206596E-07   2        -1         1   # BR(HH -> Down down)
     1.79840040E-04   2        -3         3   # BR(HH -> Strange strange)
     4.77729435E-01   2        -5         5   # BR(HH -> Bottom bottom)
     3.25126187E-02   2  -1000024   1000024   # BR(HH -> Chargino1 chargino1)
     4.76386079E-03   2   1000022   1000022   # BR(HH -> neutralino1 neutralino1)
     4.46045005E-03   2   1000022   1000023   # BR(HH -> neutralino1 neutralino2)
     6.38289814E-04   2   1000023   1000023   # BR(HH -> neutralino2 neutralino2)
     1.53309807E-02   2        25        25   # BR(HH -> h0 h0)
DECAY        36     1.33705047E+00   # Gamma(A0)
     7.02471564E-06   2        22        22   # BR(A0 -> photon photon)
     3.45286940E-06   2        22        23   # BR(A0 -> photon Z)
     9.20398119E-04   2        21        21   # BR(A0 -> gluon gluon)
     5.19540929E-09   2       -11        11   # BR(A0 -> Electron electron)
     2.31227718E-04   2       -13        13   # BR(A0 -> Muon muon)
     6.67671885E-02   2       -15        15   # BR(A0 -> Tau tau)
     2.94823905E-11   2        -2         2   # BR(A0 -> Up up)
     5.71654654E-06   2        -4         4   # BR(A0 -> Charm charm)
     4.10754722E-01   2        -6         6   # BR(A0 -> Top top)
     4.54041947E-07   2        -1         1   # BR(A0 -> Down down)
     1.64227364E-04   2        -3         3   # BR(A0 -> Strange strange)
     4.36325036E-01   2        -5         5   # BR(A0 -> Bottom bottom)
     6.71110752E-02   2  -1000024   1000024   # BR(A0 -> Chargino1 chargino1)
     1.36052588E-02   2   1000022   1000022   # BR(A0 -> neutralino1 neutralino1)
     8.19118239E-04   2   1000022   1000023   # BR(A0 -> neutralino1 neutralino2)
     6.29841859E-04   2   1000023   1000023   # BR(A0 -> neutralino2 neutralino2)
     2.65525214E-03   2        23        25   # BR(A0 -> Z h0)
     3.20612365E-36   2        25        25   # BR(A0 -> h0 h0)
DECAY        37     1.21856379E+00   # Gamma(Hp)
     5.79186247E-09   2       -11        12   # BR(Hp -> Electron nu_e)
     2.47620202E-04   2       -13        14   # BR(Hp -> Muon nu_mu)
     7.00403905E-02   2       -15        16   # BR(Hp -> Tau nu_tau)
     4.40194329E-07   2        -1         2   # BR(Hp -> Down up)
     7.30132386E-06   2        -3         2   # BR(Hp -> Strange up)
     4.68072460E-06   2        -5         2   # BR(Hp -> Bottom up)
     3.38852924E-07   2        -1         4   # BR(Hp -> Down charm)
     1.65559677E-04   2        -3         4   # BR(Hp -> Strange charm)
     6.55476113E-04   2        -5         4   # BR(Hp -> Bottom charm)
     3.16846554E-05   2        -1         6   # BR(Hp -> Down top)
     6.91038876E-04   2        -3         6   # BR(Hp -> Strange top)
     9.01871411E-01   2        -5         6   # BR(Hp -> Bottom top)
     4.16325114E-03   2   1000022   1000024   # BR(Hp -> neutralino1 chargino1)
     1.91202439E-02   2   1000023   1000024   # BR(Hp -> neutralino2 chargino1)
     3.00055356E-03   2        24        25   # BR(Hp -> W h0)
     1.44014187E-09   2        24        35   # BR(Hp -> W HH)
     2.31578556E-09   2        24        36   # BR(Hp -> W A0)
DECAY         6     2.43000000E+00   # top
#    BR                NDA      ID1      ID2
     1.00000000E+00    2           5        24   # BR(t -> b W)
Block HiggsBoundsInputHiggsCouplingsFermions
# ScalarNormEffCoupSq PseudoSNormEffCoupSq NP IP1 IP2 IP2
    9.73599882E-01    0.00000000E+00        3  25   5   5  # h0-b-b eff. coupling^2, normalised to SM
    4.96124180E+01    0.00000000E+00        3  35   5   5  # H0-b-b eff. coupling^2, normalised to SM
    0.00000000E+00    4.95860179E+01        3  36   5   5  # A0-b-b eff. coupling^2, normalised to SM
#
    1.00053241E+00    0.00000000E+00        3  25   6   6  # h0-t-t eff. coupling^2, normalised to SM
    1.96345648E-02    0.00000000E+00        3  35   6   6  # H0-t-t eff. coupling^2, normalised to SM
    0.00000000E+00    2.01669753E-02        3  36   6   6  # A0-t-t eff. coupling^2, normalised to SM
#
    9.73599882E-01    0.00000000E+00        3  25  15  15  # h0-tau-tau eff. coupling^2, normalised to SM
    4.96124180E+01    0.00000000E+00        3  35  15  15  # H0-tau-tau eff. coupling^2, normalised to SM
    0.00000000E+00    4.95860179E+01        3  36  15  15  # A0-tau-tau eff. coupling^2, normalised to SM
#
Block HiggsBoundsInputHiggsCouplingsBosons
    9.99996440E-01        3  25  24  24  # h0-W-W eff. coupling^2, normalised to SM
    3.56013493E-06        3  35  24  24  # H0-W-W eff. coupling^2, normalised to SM
    0.00000000E+00        3  36  24  24  # A0-W-W eff. coupling^2, normalised to SM
#
    9.99996440E-01        3  25  23  23  # h0-Z-Z eff. coupling^2, normalised to SM
    3.56013493E-06        3  35  23  23  # H0-Z-Z eff. coupling^2, normalised to SM
    0.00000000E+00        3  36  23  23  # A0-Z-Z eff. coupling^2, normalised to SM
#
    1.26815603E+00        3  25  21  21  # h0-g-g eff. coupling^2, normalised to SM
    1.83812823E-02        3  35  21  21  # H0-g-g eff. coupling^2, normalised to SM
    1.56334741E-01        3  36  21  21  # A0-g-g eff. coupling^2, normalised to SM
#
    0.00000000E+00        3  25  25  23  # h0-h0-Z eff. coupling^2, normalised to SM
    0.00000000E+00        3  35  25  23  # H0-h0-Z eff. coupling^2, normalised to SM
    3.56013493E-06        3  36  25  23  # A0-h0-Z eff. coupling^2, normalised to SM
    0.00000000E+00        3  35  35  23  # H0-H0-Z eff. coupling^2, normalised to SM
    9.99996440E-01        3  36  35  23  # A0-H0-Z eff. coupling^2, normalised to SM
    0.00000000E+00        3  36  36  23  # A0-A0-Z eff. coupling^2, normalised to SM
#
    0.00000000E+00        4  25  21  21  23  # h0-g-g-Z eff. coupling^2, normalised to SM
    0.00000000E+00        4  35  21  21  23  # H0-g-g-Z eff. coupling^2, normalised to SM
    0.00000000E+00        4  36  21  21  23  # A0-g-g-Z eff. coupling^2, normalised to SM
Block SPhenoLowEnergy  # low energy observables
    1    3.71503313E-04   # BR(b -> s gamma)
    2    1.58949201E-06   # BR(b -> s mu+ mu-)
    3    3.53017027E-05   # BR(b -> s nu nu)
    4    2.61223326E-15   # BR(Bd -> e+ e-)
    5    1.11591636E-10   # BR(Bd -> mu+ mu-)
    6    2.33604503E-08   # BR(Bd -> tau+ tau-)
    7    8.79865407E-14   # BR(Bs -> e+ e-)
    8    3.75878213E-09   # BR(Bs -> mu+ mu-)
    9    7.97265203E-07   # BR(Bs -> tau+ tau-)
   10    9.62400875E-05   # BR(B_u -> tau nu)
   11    9.94123259E-01   # BR(B_u -> tau nu)/BR(B_u -> tau nu)_SM
   12    5.43488404E-01   # |Delta(M_Bd)| [ps^-1] 
   13    1.94166943E+01   # |Delta(M_Bs)| [ps^-1] 
   14    0.00000000E+00   # neutron EDM according to the chiral quark model
   15    0.00000000E+00   # neutron EDM according to the relativistic quark-parton model
   16    2.16358266E-03   # epsilon_K
   17    2.28172415E-15   # Delta(M_K)
   18    2.48328442E-11   # BR(K^0 -> pi^0 nu nu)
   19    8.29833909E-11   # BR(K^+ -> pi^+ nu nu)
   20    5.36512273E-17   # Delta(g-2)_electron/2
   21    2.29375768E-12   # Delta(g-2)_muon/2
   22    6.48816115E-10   # Delta(g-2)_tau/2
   23    0.00000000E+00   # electric dipole moment of the electron
   24    0.00000000E+00   # electric dipole moment of the muon
   25    0.00000000E+00   # electric dipole moment of the tau
   26    0.00000000E+00   # Br(mu -> e gamma)
   27    0.00000000E+00   # Br(tau -> e gamma)
   28    0.00000000E+00   # Br(tau -> mu gamma)
   29    0.00000000E+00   # Br(mu -> 3 e)
   30    0.00000000E+00   # Br(tau -> 3 e)
   31    0.00000000E+00   # Br(tau -> 3 mu)
   39   -1.11036450E-04   # Delta(rho_parameter)
   40    0.00000000E+00   # BR(Z -> e mu)
   41    0.00000000E+00   # BR(Z -> e tau)
   42    0.00000000E+00   # BR(Z -> mu tau)
Block FWCOEF Q=  1.60000000E+02  # Wilson coefficients at scale Q
#    id        order  M        value         comment
     0305 4422   00   0    -1.88819110E-01   # C7
     0305 4422   00   2    -2.39285109E-01   # C7
     0305 4322   00   2    -1.00977974E-03   # C7'
     0305 6421   00   0    -9.52278348E-02   # C8
     0305 6421   00   2    -1.53847117E-01   # C8
     0305 6321   00   2    -1.15895120E-03   # C8'
 03051111 4133   00   0     1.62783320E+00   # C9 e+e-
 03051111 4133   00   2     1.62836738E+00   # C9 e+e-
 03051111 4233   00   2     4.44568946E-06   # C9' e+e-
 03051111 4137   00   0    -4.45052530E+00   # C10 e+e-
 03051111 4137   00   2    -4.45369391E+00   # C10 e+e-
 03051111 4237   00   2    -3.25005421E-05   # C10' e+e-
 03051313 4133   00   0     1.62783320E+00   # C9 mu+mu-
 03051313 4133   00   2     1.62836738E+00   # C9 mu+mu-
 03051313 4233   00   2     4.44564943E-06   # C9' mu+mu-
 03051313 4137   00   0    -4.45052530E+00   # C10 mu+mu-
 03051313 4137   00   2    -4.45369391E+00   # C10 mu+mu-
 03051313 4237   00   2    -3.25005025E-05   # C10' mu+mu-
 03051212 4137   00   0     1.50535012E+00   # C11 nu_1 nu_1
 03051212 4137   00   2     1.50603656E+00   # C11 nu_1 nu_1
 03051212 4237   00   2     7.02559994E-06   # C11' nu_1 nu_1
 03051414 4137   00   0     1.50535012E+00   # C11 nu_2 nu_2
 03051414 4137   00   2     1.50603656E+00   # C11 nu_2 nu_2
 03051414 4237   00   2     7.02560857E-06   # C11' nu_2 nu_2
 03051616 4137   00   0     1.50535012E+00   # C11 nu_3 nu_3
 03051616 4137   00   2     1.50603656E+00   # C11 nu_3 nu_3
 03051616 4237   00   2     7.02804029E-06   # C11' nu_3 nu_3
Block IMFWCOEF Q=  1.60000000E+02  # Im(Wilson coefficients) at scale Q
#    id        order  M        value         comment
     0305 4422   00   0     3.85823513E-07   # C7
     0305 4422   00   2     2.19113213E-06   # C7
     0305 4322   00   2     2.11540572E-07   # C7'
     0305 6421   00   0     3.30483355E-07   # C8
     0305 6421   00   2    -2.32036091E-07   # C8
     0305 6321   00   2     5.29772455E-08   # C8'
 03051111 4133   00   2     3.28592213E-07   # C9 e+e-
 03051111 4233   00   2     2.67046240E-07   # C9' e+e-
 03051111 4137   00   2     4.58872327E-07   # C10 e+e-
 03051111 4237   00   2    -1.96764025E-06   # C10' e+e-
 03051313 4133   00   2     3.28592101E-07   # C9 mu+mu-
 03051313 4233   00   2     2.67046238E-07   # C9' mu+mu-
 03051313 4137   00   2     4.58872438E-07   # C10 mu+mu-
 03051313 4237   00   2    -1.96764026E-06   # C10' mu+mu-
 03051212 4137   00   2    -7.35848858E-08   # C11 nu_1 nu_1
 03051212 4237   00   2     4.25360763E-07   # C11' nu_1 nu_1
 03051414 4137   00   2    -7.35848804E-08   # C11 nu_2 nu_2
 03051414 4237   00   2     4.25360763E-07   # C11' nu_2 nu_2
 03051616 4137   00   2    -7.35833588E-08   # C11 nu_3 nu_3
 03051616 4237   00   2     4.25360763E-07   # C11' nu_3 nu_3
