# SUSY Les Houches Accord 2 - MSSM spectrum + Decays
# SPheno v4.0.5be
# W. Porod, Comput. Phys. Commun. 153 (2003) 275-315, hep-ph/0301101;
# W. Porod, F.~Staub, Comput. Phys. Commun. 183 (2012) 2458
#                     arXiv:1104.1573 [hep-ph] 
# in case of problems send email to porod@physik.uni-wuerzburg.de
# Created: 22.11.2021,  13:31
Block SPINFO         # Program information
     1   SPheno      # spectrum calculator
     2   v4.0.5be    # version number
#
Block SPhenoINFO     # SPheno specific information
    1      2         # using 2-loop RGEs
    2      2         # using pole masses for boundary conditions at mZ
Block MODSEL  # Model selection
    1    0    # general MSSM
Block MINPAR  # Input parameters
    3    2.25685161E+01  # tanb at m_Z    
    4   -1.00000000E+00  # Sign(mu)
Block EXTPAR  # non-universal input parameters
    0    4.17708186E+03  # scale for input parameters
    1   -2.29819145E+02  # M_1
    2    1.68552576E+03  # M_2
    3    4.82038338E+03  # M_3
   11   -5.62846826E+03  # A_t
   12   -1.29945692E+03  # A_b
   13    3.59424042E+02  # A_tau
   23   -1.55376687E+02  # mu
   25    2.16078582E+01  # tan(beta)
   26    3.26486702E+03  # m_A, pole mass
   31    1.04440673E+03  # M_L11
   32    1.04440673E+03  # M_L22
   33    1.12897889E+03  # M_L33
   34    5.87546025E+02  # M_E11
   35    5.87546025E+02  # M_E22
   36    1.24376358E+03  # M_E33
   41    1.00000000E+04  # M_Q11
   42    1.00000000E+04  # M_Q22
   43    3.42496157E+03  # M_Q33
   44    1.00000000E+04  # M_U11
   45    1.00000000E+04  # M_U22
   46    4.86806865E+03  # M_U33
   47    1.00000000E+04  # M_D11
   48    1.00000000E+04  # M_D22
   49    3.44965854E+03  # M_D33
Block SMINPUTS  # SM parameters
         1     1.27908970E+02  # alpha_em^-1(MZ)^MSbar
         2     1.16637870E-05  # G_mu [GeV^-2]
         3     1.18400000E-01  # alpha_s(MZ)^MSbar
         4     9.11876000E+01  # m_Z(pole)
         5     4.18000000E+00  # m_b(m_b), MSbar
         6     1.73200000E+02  # m_t(pole)
         7     1.77700000E+00  # m_tau(pole)
         8     0.00000000E+00  # m_nu_3
        11     5.10998930E-04  # m_e(pole)
        12     0.00000000E+00  # m_nu_1
        13     1.05658372E-01  # m_muon(pole)
        14     0.00000000E+00  # m_nu_2
        21     5.00000000E-03  # m_d(2 GeV), MSbar
        22     2.50000000E-03  # m_u(2 GeV), MSbar
        23     9.50000000E-02  # m_s(2 GeV), MSbar
        24     1.27000000E+00  # m_c(m_c), MSbar
Block gauge Q=  4.17708186E+03  # (SUSY scale)
   1    3.55362975E-01  # g'(Q)^DRbar
   2    6.65198874E-01  # g(Q)^DRbar
   3    1.21977796E+00  # g3(Q)^DRbar
Block Yu Q=  4.17708186E+03  # (SUSY scale)
  1  1     8.39334611E-06   # Y_u(Q)^DRbar
  2  2     4.26381982E-03   # Y_c(Q)^DRbar
  3  3     1.01398363E+00   # Y_t(Q)^DRbar
Block Yd Q=  4.17708186E+03  # (SUSY scale)
  1  1     3.64440892E-04   # Y_d(Q)^DRbar
  2  2     6.92437694E-03   # Y_s(Q)^DRbar
  3  3     3.61411165E-01   # Y_b(Q)^DRbar
Block Ye Q=  4.17708186E+03  # (SUSY scale)
  1  1     6.35976006E-05   # Y_e(Q)^DRbar
  2  2     1.31499668E-02   # Y_mu(Q)^DRbar
  3  3     2.21160808E-01   # Y_tau(Q)^DRbar
Block Au Q=  4.17708186E+03  # (SUSY scale)
  1  1     0.00000000E+00   # A_u(Q)^DRbar
  2  2     0.00000000E+00   # A_c(Q)^DRbar
  3  3    -5.62847394E+03   # A_t(Q)^DRbar
Block Ad Q=  4.17708186E+03  # (SUSY scale)
  1  1     0.00000000E+00   # A_d(Q)^DRbar
  2  2     0.00000000E+00   # A_s(Q)^DRbar
  3  3    -1.29945626E+03   # A_b(Q)^DRbar
Block Ae Q=  4.17708186E+03  # (SUSY scale)
  1  1     0.00000000E+00   # A_e(Q)^DRbar
  2  2     0.00000000E+00   # A_mu(Q)^DRbar
  3  3     3.59423901E+02   # A_tau(Q)^DRbar
Block MSOFT Q=  4.17708186E+03  # soft SUSY breaking masses at Q
   1   -2.29819145E+02  # M_1
   2    1.68552576E+03  # M_2
   3    4.82038338E+03  # M_3
  21    1.06552894E+07  # M^2_(H,d)
  22    2.83754029E+05  # M^2_(H,u)
  31    1.04440673E+03  # M_(L,11)
  32    1.04440673E+03  # M_(L,22)
  33    1.12897889E+03  # M_(L,33)
  34    5.87546025E+02  # M_(E,11)
  35    5.87546025E+02  # M_(E,22)
  36    1.24376358E+03  # M_(E,33)
  41    1.00000000E+04  # M_(Q,11)
  42    1.00000000E+04  # M_(Q,22)
  43    3.42496157E+03  # M_(Q,33)
  44    1.00000000E+04  # M_(U,11)
  45    1.00000000E+04  # M_(U,22)
  46    4.86806865E+03  # M_(U,33)
  47    1.00000000E+04  # M_(D,11)
  48    1.00000000E+04  # M_(D,22)
  49    3.44965854E+03  # M_(D,33)
Block MASS  # Mass spectrum
#   PDG code      mass          particle
         6     1.73200000E+02  # m_t(pole)
        23     9.11876000E+01  # m_Z(pole)
        24     8.04299946E+01  # W+
        15     1.77700000E+00  # m_tau(pole)
        25     1.25745483E+02  # h0
        35     3.26451472E+03  # H0
        36     3.26486702E+03  # A0
        37     3.26769490E+03  # H+
   1000001     1.00999770E+04  # ~d_L
   2000001     1.00762250E+04  # ~d_R
   1000002     1.00996178E+04  # ~u_L
   2000002     1.00788391E+04  # ~u_R
   1000003     1.00999777E+04  # ~s_L
   2000003     1.00762259E+04  # ~s_R
   1000004     1.00996185E+04  # ~c_L
   2000004     1.00788396E+04  # ~c_R
   1000005     3.56306808E+03  # ~b_1
   2000005     3.61249760E+03  # ~b_2
   1000006     3.55718893E+03  # ~t_1
   2000006     4.90500032E+03  # ~t_2
   1000011     1.07727841E+03  # ~e_L-
   2000011     6.03832786E+02  # ~e_R-
   1000012     1.07391227E+03  # ~nu_eL
   1000013     1.07726717E+03  # ~mu_L-
   2000013     6.03796754E+02  # ~mu_R-
   1000014     1.07390037E+03  # ~nu_muL
   1000015     1.15644605E+03  # ~tau_1-
   2000015     1.24572770E+03  # ~tau_2-
   1000016     1.15351266E+03  # ~nu_tauL
   1000021     5.28857491E+03  # ~g
   1000022     1.61548159E+02  # ~chi_10
   1000023     1.75658734E+02  # ~chi_20
   1000025     2.44396876E+02  # ~chi_30
   1000035     1.75465014E+03  # ~chi_40
   1000024     1.75473684E+02  # ~chi_1+
   1000037     1.75444981E+03  # ~chi_2+
# Higgs mixing
Block alpha # Effective Higgs mixing angle
          -4.43753132E-02   # alpha
Block Hmix Q=  4.17708186E+03  # Higgs mixing parameters
   1   -1.55376687E+02  # mu
   2    2.16078582E+01  # tan[beta](Q)
   3    2.42900700E+02  # v(Q)
   4    1.06593567E+07  # m^2_A(Q)
Block stopmix # stop mixing matrix
   1  1     9.97604977E-01   # Re[R_st(1,1)]
   1  2     6.91687106E-02   # Re[R_st(1,2)]
   2  1    -6.91687106E-02   # Re[R_st(2,1)]
   2  2     9.97604977E-01   # Re[R_st(2,2)]
Block sbotmix # sbottom mixing matrix
   1  1    -9.99964784E-01   # Re[R_sb(1,1)]
   1  2     8.39224588E-03   # Re[R_sb(1,2)]
   2  1    -8.39224588E-03   # Re[R_sb(2,1)]
   2  2    -9.99964784E-01   # Re[R_sb(2,2)]
Block staumix # stau mixing matrix
   1  1    -9.99508144E-01   # Re[R_sta(1,1)]
   1  2     3.13603152E-02   # Re[R_sta(1,2)]
   2  1    -3.13603152E-02   # Re[R_sta(2,1)]
   2  2    -9.99508144E-01   # Re[R_sta(2,2)]
Block Nmix # neutralino mixing matrix
   1  1     4.32684726E-01   # Re[N(1,1)]
   1  2     2.69569887E-02   # Re[N(1,2)]
   1  3    -6.60519396E-01   # Re[N(1,3)]
   1  4     6.13001938E-01   # Re[N(1,4)]
   2  1    -7.32647352E-02   # Re[N(2,1)]
   2  2    -3.38595479E-02   # Re[N(2,2)]
   2  3    -7.04110926E-01   # Re[N(2,3)]
   2  4    -7.05488210E-01   # Re[N(2,4)]
   3  1    -8.98562838E-01   # Re[N(3,1)]
   3  2     1.46111388E-02   # Re[N(3,2)]
   3  3    -2.60647199E-01   # Re[N(3,3)]
   3  4     3.52752575E-01   # Re[N(3,4)]
   4  1     1.01662295E-03   # Re[N(4,1)]
   4  2    -9.98956138E-01   # Re[N(4,2)]
   4  3     2.22923836E-03   # Re[N(4,3)]
   4  4     4.56139296E-02   # Re[N(4,4)]
Block Umix # chargino mixing matrix
   1  1    -3.16410344E-03   # Re[U(1,1)]
   1  2    -9.99994994E-01   # Re[U(1,2)]
   2  1     9.99994994E-01   # Re[U(2,1)]
   2  2    -3.16410344E-03   # Re[U(2,2)]
Block Vmix # chargino mixing matrix
   1  1    -6.45421713E-02   # Re[V(1,1)]
   1  2     9.97914980E-01   # Re[V(1,2)]
   2  1     9.97914980E-01   # Re[V(2,1)]
   2  2     6.45421713E-02   # Re[V(2,2)]
DECAY        23     2.49520000E+00   # Z
DECAY        24     2.08500000E+00   # W
DECAY   2000011     2.21612046E+00   # ~e^-_R
#    BR                NDA      ID1      ID2
     2.20934321E-01    2     1000022        11   # BR(~e^-_R -> chi^0_1 e^-)
     6.15765214E-03    2     1000023        11   # BR(~e^-_R -> chi^0_2 e^-)
     7.72908008E-01    2     1000025        11   # BR(~e^-_R -> chi^0_3 e^-)
DECAY   1000011     1.24998105E+00   # ~e^-_L
#    BR                NDA      ID1      ID2
     2.41473019E-01    2     1000022        11   # BR(~e^-_L -> chi^0_1 e^-)
     1.91538787E-02    2     1000023        11   # BR(~e^-_L -> chi^0_2 e^-)
     7.39301123E-01    2     1000025        11   # BR(~e^-_L -> chi^0_3 e^-)
#    BR                NDA      ID1      ID2       ID3
DECAY   2000013     2.21938107E+00   # ~mu^-_R
#    BR                NDA      ID1      ID2
     2.20946225E-01    2     1000022        13   # BR(~mu^-_R -> chi^0_1 mu^-)
     6.53653287E-03    2     1000023        13   # BR(~mu^-_R -> chi^0_2 mu^-)
     7.71732747E-01    2     1000025        13   # BR(~mu^-_R -> chi^0_3 mu^-)
     7.84495113E-04    2    -1000024        14   # BR(~mu^-_R -> chi^-_1 nu_mu)
DECAY   1000013     1.25350374E+00   # ~mu^-_L
#    BR                NDA      ID1      ID2
     2.42023114E-01    2     1000022        13   # BR(~mu^-_L -> chi^0_1 mu^-)
     2.04889762E-02    2     1000023        13   # BR(~mu^-_L -> chi^0_2 mu^-)
     7.37395897E-01    2     1000025        13   # BR(~mu^-_L -> chi^0_3 mu^-)
#    BR                NDA      ID1      ID2       ID3
DECAY   1000015     2.43943356E+00   # ~tau^-_1
#    BR                NDA      ID1      ID2
     3.35236289E-01    2     1000022        15   # BR(~tau^-_1 -> chi^0_1 tau^-)
     2.28714309E-01    2     1000023        15   # BR(~tau^-_1 -> chi^0_2 tau^-)
     4.35313856E-01    2     1000025        15   # BR(~tau^-_1 -> chi^0_3 tau^-)
     7.35546459E-04    2    -1000024        16   # BR(~tau^-_1 -> chi^-_1 nu_tau)
#    BR                NDA      ID1      ID2       ID3
DECAY   2000015     8.15946908E+00   # ~tau^-_2
#    BR                NDA      ID1      ID2
     1.98875044E-01    2     1000022        15   # BR(~tau^-_2 -> chi^0_1 tau^-)
     7.47631351E-02    2     1000023        15   # BR(~tau^-_2 -> chi^0_2 tau^-)
     5.83808437E-01    2     1000025        15   # BR(~tau^-_2 -> chi^0_3 tau^-)
     1.42498114E-01    2    -1000024        16   # BR(~tau^-_2 -> chi^-_1 nu_tau)
#    BR                NDA      ID1      ID2       ID3
DECAY   1000012     1.26552540E+00   # ~nu_e
#    BR                NDA      ID1      ID2
     1.48764029E-01    2     1000022        12   # BR(~nu_e -> chi^0_1 nu_e)
     8.21658255E-01    2     1000025        12   # BR(~nu_e -> chi^0_3 nu_e)
     2.94790851E-02    2     1000024        11   # BR(~nu_e -> chi^+_1 e^-)
DECAY   1000014     1.26900902E+00   # ~nu_mu
#    BR                NDA      ID1      ID2
     1.48353854E-01    2     1000022        14   # BR(~nu_mu -> chi^0_1 nu_mu)
     8.19391621E-01    2     1000025        14   # BR(~nu_mu -> chi^0_3 nu_mu)
     3.21561665E-02    2     1000024        13   # BR(~nu_mu -> chi^+_1 mu^-)
DECAY   1000016     2.44847981E+00   # ~nu_tau
#    BR                NDA      ID1      ID2
     8.31000839E-02    2     1000022        16   # BR(~nu_tau -> chi^0_1 nu_tau)
     4.62826249E-01    2     1000025        16   # BR(~nu_tau -> chi^0_3 nu_tau)
     4.54018508E-01    2     1000024        15   # BR(~nu_tau -> chi^+_1 tau^-)
DECAY   2000001     4.23128301E+02   # ~d_R
#    BR                NDA      ID1      ID2
     2.48778242E-03    2     1000022         1   # BR(~d_R -> chi^0_1 d)
     1.07219483E-02    2     1000025         1   # BR(~d_R -> chi^0_3 d)
     9.86718842E-01    2     1000021         1   # BR(~d_R -> ~g d)
DECAY   1000001     5.46840065E+02   # ~d_L
#    BR                NDA      ID1      ID2
     2.03908567E-04    2     1000022         1   # BR(~d_L -> chi^0_1 d)
     2.47599670E-03    2     1000025         1   # BR(~d_L -> chi^0_3 d)
     7.63298506E-02    2     1000035         1   # BR(~d_L -> chi^0_4 d)
     1.52924123E-01    2    -1000037         2   # BR(~d_L -> chi^-_2 u)
     7.68029276E-01    2     1000021         1   # BR(~d_L -> ~g d)
DECAY   2000003     4.23147553E+02   # ~s_R
#    BR                NDA      ID1      ID2
     2.49754704E-03    2     1000022         3   # BR(~s_R -> chi^0_1 s)
     1.07229982E-02    2     1000025         3   # BR(~s_R -> chi^0_3 s)
     9.86674170E-01    2     1000021         3   # BR(~s_R -> ~g s)
DECAY   1000003     5.46853399E+02   # ~s_L
#    BR                NDA      ID1      ID2
     2.11564663E-04    2     1000022         3   # BR(~s_L -> chi^0_1 s)
     2.47712854E-03    2     1000025         3   # BR(~s_L -> chi^0_3 s)
     7.63279954E-02    2     1000035         3   # BR(~s_L -> chi^0_4 s)
     1.52920432E-01    2    -1000037         4   # BR(~s_L -> chi^-_2 c)
     7.68010682E-01    2     1000021         3   # BR(~s_L -> ~g s)
DECAY   1000005     1.08838083E+02   # ~b_1
#    BR                NDA      ID1      ID2
     3.75730741E-02    2     1000022         5   # BR(~b_1 -> chi^0_1 b)
     4.20261758E-02    2     1000023         5   # BR(~b_1 -> chi^0_2 b)
     9.83944258E-03    2     1000025         5   # BR(~b_1 -> chi^0_3 b)
     8.25281328E-02    2     1000035         5   # BR(~b_1 -> chi^0_4 b)
     6.60395835E-01    2    -1000024         6   # BR(~b_1 -> chi^-_1 t)
     1.67637340E-01    2    -1000037         6   # BR(~b_1 -> chi^-_2 t)
DECAY   2000005     2.06508866E+01   # ~b_2
#    BR                NDA      ID1      ID2
     2.14418579E-01    2     1000022         5   # BR(~b_2 -> chi^0_1 b)
     2.24854303E-01    2     1000023         5   # BR(~b_2 -> chi^0_2 b)
     1.09982931E-01    2     1000025         5   # BR(~b_2 -> chi^0_3 b)
     4.50605570E-01    2    -1000024         6   # BR(~b_2 -> chi^-_1 t)
DECAY   2000002     4.40265875E+02   # ~u_R
#    BR                NDA      ID1      ID2
     9.56615503E-03    2     1000022         2   # BR(~u_R -> chi^0_1 u)
     2.74248072E-04    2     1000023         2   # BR(~u_R -> chi^0_2 u)
     4.12290662E-02    2     1000025         2   # BR(~u_R -> chi^0_3 u)
     9.48930481E-01    2     1000021         2   # BR(~u_R -> ~g u)
DECAY   1000002     5.46821394E+02   # ~u_L
#    BR                NDA      ID1      ID2
     8.78947486E-04    2     1000022         2   # BR(~u_L -> chi^0_1 u)
     1.78754811E-04    2     1000023         2   # BR(~u_L -> chi^0_2 u)
     1.71663309E-03    2     1000025         2   # BR(~u_L -> chi^0_3 u)
     7.62740938E-02    2     1000035         2   # BR(~u_L -> chi^0_4 u)
     6.76937851E-04    2     1000024         1   # BR(~u_L -> chi^+_1 d)
     1.52287722E-01    2     1000037         1   # BR(~u_L -> chi^+_2 d)
     7.67986911E-01    2     1000021         2   # BR(~u_L -> ~g u)
DECAY   2000004     4.40273181E+02   # ~c_R
#    BR                NDA      ID1      ID2
     9.56910761E-03    2     1000022         4   # BR(~c_R -> chi^0_1 c)
     2.78362266E-04    2     1000023         4   # BR(~c_R -> chi^0_2 c)
     4.12294088E-02    2     1000025         4   # BR(~c_R -> chi^0_3 c)
     9.48914783E-01    2     1000021         4   # BR(~c_R -> ~g c)
DECAY   1000004     5.46834698E+02   # ~c_L
#    BR                NDA      ID1      ID2
     8.81434570E-04    2     1000022         4   # BR(~c_L -> chi^0_1 c)
     1.82072936E-04    2     1000023         4   # BR(~c_L -> chi^0_2 c)
     1.71742214E-03    2     1000025         4   # BR(~c_L -> chi^0_3 c)
     7.62722572E-02    2     1000035         4   # BR(~c_L -> chi^0_4 c)
     6.94479362E-04    2     1000024         3   # BR(~c_L -> chi^+_1 s)
     1.52284029E-01    2     1000037         3   # BR(~c_L -> chi^+_2 s)
     7.67968304E-01    2     1000021         4   # BR(~c_L -> ~g c)
DECAY   1000006     1.10821059E+02   # ~t_1
#    BR                NDA      ID1      ID2
     2.40572243E-01    2     1000022         6   # BR(~t_1 -> chi^0_1 t)
     3.23480500E-01    2     1000023         6   # BR(~t_1 -> chi^0_2 t)
     9.11150586E-02    2     1000025         6   # BR(~t_1 -> chi^0_3 t)
     8.03246004E-02    2     1000035         6   # BR(~t_1 -> chi^0_4 t)
     9.07011004E-02    2     1000024         5   # BR(~t_1 -> chi^+_1 b)
     1.58181652E-01    2     1000037         5   # BR(~t_1 -> chi^+_2 b)
#    BR                NDA      ID1      ID2       ID3
     1.55948612E-02    3     1000022        24         5   # BR(~t_1 -> chi^0_1 W^+ b)
DECAY   2000006     3.01092123E+02   # ~t_2
#    BR                NDA      ID1      ID2
     1.34212916E-01    2     1000022         6   # BR(~t_2 -> chi^0_1 t)
     1.65368615E-01    2     1000023         6   # BR(~t_2 -> chi^0_2 t)
     6.62563429E-02    2     1000025         6   # BR(~t_2 -> chi^0_3 t)
     1.52600811E-03    2     1000035         6   # BR(~t_2 -> chi^0_4 t)
     3.27665258E-01    2     1000024         5   # BR(~t_2 -> chi^+_1 b)
     3.04785983E-03    2     1000037         5   # BR(~t_2 -> chi^+_2 b)
     1.33684483E-01    2     1000005        24   # BR(~t_2 -> ~b_1 W^+)
     6.71627311E-02    2     1000006        23   # BR(~t_2 -> ~t_1 Z)
     1.01067228E-01    2     1000006        25   # BR(~t_2 -> ~t_1 h^0)
DECAY   1000024     1.60885934E-06   # chi^+_1
#    BR                NDA      ID1      ID2       ID3
     3.40701268E-01    3     1000022        -1         2   # BR(chi^+_1 -> chi^0_1 d_bar u)
     3.27156983E-01    3     1000022        -3         4   # BR(chi^+_1 -> chi^0_1 s_bar c)
     1.13557155E-01    3     1000022       -11        12   # BR(chi^+_1 -> chi^0_1 e^+ nu_e)
     1.13525983E-01    3     1000022       -13        14   # BR(chi^+_1 -> chi^0_1 mu^+ nu_mu)
     1.05058611E-01    3     1000022       -15        16   # BR(chi^+_1 -> chi^0_1 tau^+ nu_tau)
DECAY   1000037     3.22824680E+01   # chi^+_2
#    BR                NDA      ID1      ID2
     9.28345400E-02    2    -1000011        12   # BR(chi^+_2 -> ~e^+_L nu_e)
     9.28368849E-02    2    -1000013        14   # BR(chi^+_2 -> ~mu^+_L nu_mu)
     7.64212976E-02    2    -1000015        16   # BR(chi^+_2 -> ~tau^+_1 nu_tau)
     9.31482832E-02    2     1000012       -11   # BR(chi^+_2 -> ~nu_e e^+)
     9.31507590E-02    2     1000014       -13   # BR(chi^+_2 -> ~nu_mu mu^+)
     7.67783764E-02    2     1000016       -15   # BR(chi^+_2 -> ~nu_tau tau^+)
     8.98420408E-02    2     1000022        24   # BR(chi^+_2 -> chi^0_1 W^+)
     1.15362777E-01    2     1000023        24   # BR(chi^+_2 -> chi^0_2 W^+)
     2.50331343E-02    2     1000025        24   # BR(chi^+_2 -> chi^0_3 W^+)
     1.14790371E-01    2     1000024        23   # BR(chi^+_2 -> chi^+_1 Z)
     1.15775272E-01    2     1000024        25   # BR(chi^+_2 -> chi^+_1 h^0)
#    BR                NDA      ID1      ID2       ID3
     5.52577854E-03    3     1000024         6        -6   # BR(chi^+_2 -> chi^+_1 t t_bar)
     3.35890508E-03    3     1000022        -5         6   # BR(chi^+_2 -> chi^0_1 b_bar t)
     4.12517397E-03    3     1000023        -5         6   # BR(chi^+_2 -> chi^0_2 b_bar t)
     9.41008110E-04    3     1000025        -5         6   # BR(chi^+_2 -> chi^0_3 b_bar t)
DECAY   1000022     0.00000000E+00   # chi^0_1
DECAY   1000023     1.44428304E-06   # chi^0_2
#    BR                NDA      ID1      ID2
     1.38690569E-01    2     1000022        22   # BR(chi^0_2 -> chi^0_1 photon)
#    BR                NDA      ID1      ID2       ID3
     1.16328493E-01    3     1000022         2        -2   # BR(chi^0_2 -> chi^0_1 u u_bar)
     1.04453909E-01    3     1000022         4        -4   # BR(chi^0_2 -> chi^0_1 c c_bar)
     1.49156161E-01    3     1000022         1        -1   # BR(chi^0_2 -> chi^0_1 d d_bar)
     1.49078089E-01    3     1000022         3        -3   # BR(chi^0_2 -> chi^0_1 s s_bar)
     4.88843770E-02    3     1000022         5        -5   # BR(chi^0_2 -> chi^0_1 b b_bar)
     3.36062931E-02    3     1000022        11       -11   # BR(chi^0_2 -> chi^0_1 e^- e^+)
     3.35793275E-02    3     1000022        13       -13   # BR(chi^0_2 -> chi^0_1 mu^- mu^+)
     2.67555935E-02    3     1000022        15       -15   # BR(chi^0_2 -> chi^0_1 tau^- tau^+)
     1.99467188E-01    3     1000022        12       -12   # BR(chi^0_2 -> chi^0_1 nu_e nu_bar_e)
DECAY   1000025     6.44802993E-03   # chi^0_3
#    BR                NDA      ID1      ID2
     2.28914503E-03    2     1000023        22   # BR(chi^0_3 -> chi^0_2 photon)
#    BR                NDA      ID1      ID2       ID3
     1.22086727E-03    3     1000022         2        -2   # BR(chi^0_3 -> chi^0_1 u u_bar)
     1.21916744E-03    3     1000022         4        -4   # BR(chi^0_3 -> chi^0_1 c c_bar)
     1.56566262E-03    3     1000022         1        -1   # BR(chi^0_3 -> chi^0_1 d d_bar)
     1.56565342E-03    3     1000022         3        -3   # BR(chi^0_3 -> chi^0_1 s s_bar)
     1.54635754E-03    3     1000022         5        -5   # BR(chi^0_3 -> chi^0_1 b b_bar)
     4.18042744E-04    3     1000022        11       -11   # BR(chi^0_3 -> chi^0_1 e^- e^+)
     4.18034004E-04    3     1000022        13       -13   # BR(chi^0_3 -> chi^0_1 mu^- mu^+)
     3.66477455E-04    3     1000022        15       -15   # BR(chi^0_3 -> chi^0_1 tau^- tau^+)
     2.07107364E-03    3     1000022        12       -12   # BR(chi^0_3 -> chi^0_1 nu_e nu_bar_e)
     2.45436013E-02    3     1000023         2        -2   # BR(chi^0_3 -> chi^0_2 u u_bar)
     2.44616889E-02    3     1000023         4        -4   # BR(chi^0_3 -> chi^0_2 c c_bar)
     3.14699568E-02    3     1000023         1        -1   # BR(chi^0_3 -> chi^0_2 d d_bar)
     3.14695138E-02    3     1000023         3        -3   # BR(chi^0_3 -> chi^0_2 s s_bar)
     3.05418009E-02    3     1000023         5        -5   # BR(chi^0_3 -> chi^0_2 b b_bar)
     7.13583764E-03    3     1000023        11       -11   # BR(chi^0_3 -> chi^0_2 e^- e^+)
     7.13575702E-03    3     1000023        13       -13   # BR(chi^0_3 -> chi^0_2 mu^- mu^+)
     7.06974891E-03    3     1000023        15       -15   # BR(chi^0_3 -> chi^0_2 tau^- tau^+)
     4.20824998E-02    3     1000023        12       -12   # BR(chi^0_3 -> chi^0_2 nu_e nu_bar_e)
     1.30273988E-01    3     1000024         1        -2   # BR(chi^0_3 -> chi^+_1 d u_bar)
     1.30273988E-01    3    -1000024        -1         2   # BR(chi^0_3 -> chi^-_1 d_bar u)
     1.30155050E-01    3     1000024         3        -4   # BR(chi^0_3 -> chi^+_1 s c_bar)
     1.30155050E-01    3    -1000024        -3         4   # BR(chi^0_3 -> chi^-_1 s_bar c)
     4.34352377E-02    3     1000024        11       -12   # BR(chi^0_3 -> chi^+_1 e^- nu_bar_e)
     4.34352377E-02    3    -1000024       -11        12   # BR(chi^0_3 -> chi^-_1 e^+ nu_e)
     4.34352616E-02    3     1000024        13       -14   # BR(chi^0_3 -> chi^+_1 mu^- nu_bar_mu)
     4.34352616E-02    3    -1000024       -13        14   # BR(chi^0_3 -> chi^-_1 mu^+ nu_mu)
     4.33776292E-02    3     1000024        15       -16   # BR(chi^0_3 -> chi^+_1 tau^- nu_bar_tau)
     4.33776292E-02    3    -1000024       -15        16   # BR(chi^0_3 -> chi^-_1 tau^+ nu_tau)
DECAY   1000035     3.31132432E+01   # chi^0_4
#    BR                NDA      ID1      ID2
     4.51272683E-02    2     1000011       -11   # BR(chi^0_4 -> ~e^-_L e^+)
     4.51272683E-02    2    -1000011        11   # BR(chi^0_4 -> ~e^+_L e^-)
     4.51284086E-02    2     1000013       -13   # BR(chi^0_4 -> ~mu^-_L mu^+)
     4.51284086E-02    2    -1000013        13   # BR(chi^0_4 -> ~mu^+_L mu^-)
     3.71516969E-02    2     1000015       -15   # BR(chi^0_4 -> ~tau^-_1 tau^+)
     3.71516969E-02    2    -1000015        15   # BR(chi^0_4 -> ~tau^+_1 tau^-)
     4.55675973E-02    2     1000012       -12   # BR(chi^0_4 -> ~nu_e nu_bar_e)
     4.55675973E-02    2    -1000012        12   # BR(chi^0_4 -> ~nu^*_e nu_e)
     4.55688070E-02    2     1000014       -14   # BR(chi^0_4 -> ~nu_mu nu_bar_mu)
     4.55688070E-02    2    -1000014        14   # BR(chi^0_4 -> ~nu^*_mu nu_mu)
     3.75620959E-02    2     1000016       -16   # BR(chi^0_4 -> ~nu_tau nu_bar_tau)
     3.75620959E-02    2    -1000016        16   # BR(chi^0_4 -> ~nu^*_tau nu_tau)
     1.12541080E-01    2     1000024       -24   # BR(chi^0_4 -> chi^+_1 W^-)
     1.12541080E-01    2    -1000024        24   # BR(chi^0_4 -> chi^-_1 W^+)
     4.69416004E-02    2     1000022        23   # BR(chi^0_4 -> chi^0_1 Z)
     5.05393408E-02    2     1000023        23   # BR(chi^0_4 -> chi^0_2 Z)
     1.45792536E-02    2     1000025        23   # BR(chi^0_4 -> chi^0_3 Z)
     5.78240419E-02    2     1000022        25   # BR(chi^0_4 -> chi^0_1 h^0)
     6.27673609E-02    2     1000023        25   # BR(chi^0_4 -> chi^0_2 h^0)
     1.71270659E-02    2     1000025        25   # BR(chi^0_4 -> chi^0_3 h^0)
#    BR                NDA      ID1      ID2       ID3
     2.02786497E-03    3     1000022         6        -6   # BR(chi^0_4 -> chi^0_1 t t_bar)
     2.53655947E-03    3     1000023         6        -6   # BR(chi^0_4 -> chi^0_2 t t_bar)
     5.58374334E-04    3     1000025         6        -6   # BR(chi^0_4 -> chi^0_3 t t_bar)
     3.86441534E-03    3     1000024         5        -6   # BR(chi^0_4 -> chi^+_1 b t_bar)
     3.86441534E-03    3    -1000024        -5         6   # BR(chi^0_4 -> chi^-_1 b_bar t)
DECAY   1000021     1.40963103E+02   # ~g
#    BR                NDA      ID1      ID2
     2.72609728E-03    2     1000006        -4   # BR(~g -> ~t_1 c_bar)
     2.72609728E-03    2    -1000006         4   # BR(~g -> ~t^*_1 c)
     1.63217448E-01    2     1000006        -6   # BR(~g -> ~t_1 t_bar)
     1.63217448E-01    2    -1000006         6   # BR(~g -> ~t^*_1 t)
     1.03811708E-02    2     2000006        -6   # BR(~g -> ~t_2 t_bar)
     1.03811708E-02    2    -2000006         6   # BR(~g -> ~t^*_2 t)
     1.65592896E-01    2     1000005        -5   # BR(~g -> ~b_1 b_bar)
     1.65592896E-01    2    -1000005         5   # BR(~g -> ~b^*_1 b)
     1.57975800E-01    2     2000005        -5   # BR(~g -> ~b_2 b_bar)
     1.57975800E-01    2    -2000005         5   # BR(~g -> ~b^*_2 b)
#    BR                NDA      ID1      ID2       ID3
DECAY        25     3.61677573E-03   # Gamma(h0)
     2.56894428E-03   2        22        22   # BR(h0 -> photon photon)
     1.71455625E-03   2        22        23   # BR(h0 -> photon Z)
     3.25440162E-02   2        23        23   # BR(h0 -> Z Z)
     2.64929554E-01   2       -24        24   # BR(h0 -> W W)
     7.91890564E-02   2        21        21   # BR(h0 -> gluon gluon)
     4.77747117E-09   2       -11        11   # BR(h0 -> Electron electron)
     2.12510851E-04   2       -13        13   # BR(h0 -> Muon muon)
     6.12803500E-02   2       -15        15   # BR(h0 -> Tau tau)
     1.35600838E-07   2        -2         2   # BR(h0 -> Up up)
     2.63179019E-02   2        -4         4   # BR(h0 -> Charm charm)
     5.52508354E-07   2        -1         1   # BR(h0 -> Down down)
     1.99829143E-04   2        -3         3   # BR(h0 -> Strange strange)
     5.31042588E-01   2        -5         5   # BR(h0 -> Bottom bottom)
DECAY        35     4.37905451E+01   # Gamma(HH)
     5.28089585E-09   2        22        22   # BR(HH -> photon photon)
     1.80082034E-08   2        22        23   # BR(HH -> photon Z)
     1.34009245E-06   2        23        23   # BR(HH -> Z Z)
     3.62665018E-07   2       -24        24   # BR(HH -> W W)
     1.84199942E-06   2        21        21   # BR(HH -> gluon gluon)
     5.06602981E-09   2       -11        11   # BR(HH -> Electron electron)
     2.25570431E-04   2       -13        13   # BR(HH -> Muon muon)
     6.51902826E-02   2       -15        15   # BR(HH -> Tau tau)
     3.25222419E-13   2        -2         2   # BR(HH -> Up up)
     6.30908930E-08   2        -4         4   # BR(HH -> Charm charm)
     4.74181008E-03   2        -6         6   # BR(HH -> Top top)
     3.78585648E-07   2        -1         1   # BR(HH -> Down down)
     1.36933498E-04   2        -3         3   # BR(HH -> Strange strange)
     3.57782611E-01   2        -5         5   # BR(HH -> Bottom bottom)
     2.75051986E-03   2  -1000024   1000024   # BR(HH -> Chargino1 chargino1)
     1.60469190E-01   2  -1000024   1000037   # BR(HH -> Chargino1 chargino2)
     1.60469190E-01   2  -1000037   1000024   # BR(HH -> Chargino2 chargino1)
     6.17043475E-03   2   1000022   1000022   # BR(HH -> neutralino1 neutralino1)
     3.70675914E-03   2   1000022   1000023   # BR(HH -> neutralino1 neutralino2)
     2.82905985E-02   2   1000022   1000025   # BR(HH -> neutralino1 neutralino3)
     7.35469628E-02   2   1000022   1000035   # BR(HH -> neutralino1 neutralino4)
     7.79178874E-06   2   1000023   1000023   # BR(HH -> neutralino2 neutralino2)
     4.32923206E-02   2   1000023   1000025   # BR(HH -> neutralino2 neutralino3)
     8.15086098E-02   2   1000023   1000035   # BR(HH -> neutralino2 neutralino4)
     5.12078376E-03   2   1000025   1000025   # BR(HH -> neutralino3 neutralino3)
     5.96609408E-03   2   1000025   1000035   # BR(HH -> neutralino3 neutralino4)
     8.29968773E-06   2        25        25   # BR(HH -> h0 h0)
     2.22522925E-07   2  -1000011   1000011   # BR(HH -> Selectron1 selectron1)
     1.19618516E-14   2  -2000011   1000011   # BR(HH -> Selectron2 selectron1)
     1.19618516E-14   2  -1000011   2000011   # BR(HH -> Selectron1 selectron2)
     2.83190188E-07   2  -2000011   2000011   # BR(HH -> Selectron2 selectron2)
     2.21818096E-07   2  -1000013   1000013   # BR(HH -> Smuon1 smuon1)
     5.11406012E-10   2  -2000013   1000013   # BR(HH -> Smuon2 smuon1)
     5.11406012E-10   2  -1000013   2000013   # BR(HH -> Smuon1 smuon2)
     2.82513781E-07   2  -2000013   2000013   # BR(HH -> Smuon2 smuon2)
     1.53190734E-06   2  -1000015   1000015   # BR(HH -> Stau1 stau1)
     3.02782240E-04   2  -2000015   1000015   # BR(HH -> Stau2 stau1)
     3.02782240E-04   2  -1000015   2000015   # BR(HH -> Stau1 stau2)
     3.99194691E-07   2  -2000015   2000015   # BR(HH -> Stau2 stau2)
DECAY        36     4.31097827E+01   # Gamma(A0)
     4.64301454E-09   2        22        22   # BR(A0 -> photon photon)
     7.72525550E-09   2        22        23   # BR(A0 -> photon Z)
     1.27749094E-05   2        21        21   # BR(A0 -> gluon gluon)
     4.95861382E-09   2       -11        11   # BR(A0 -> Electron electron)
     2.20787812E-04   2       -13        13   # BR(A0 -> Muon muon)
     6.38081822E-02   2       -15        15   # BR(A0 -> Tau tau)
     3.07228445E-13   2        -2         2   # BR(A0 -> Up up)
     5.95981313E-08   2        -4         4   # BR(A0 -> Charm charm)
     4.53257458E-03   2        -6         6   # BR(A0 -> Top top)
     3.70553919E-07   2        -1         1   # BR(A0 -> Down down)
     1.34028408E-04   2        -3         3   # BR(A0 -> Strange strange)
     3.50194117E-01   2        -5         5   # BR(A0 -> Bottom bottom)
     2.79598971E-03   2  -1000024   1000024   # BR(A0 -> Chargino1 chargino1)
     1.63052471E-01   2  -1000024   1000037   # BR(A0 -> Chargino1 chargino2)
     1.63052471E-01   2  -1000037   1000024   # BR(A0 -> Chargino2 chargino1)
     7.46948365E-03   2   1000022   1000022   # BR(A0 -> neutralino1 neutralino1)
     3.09127063E-03   2   1000022   1000023   # BR(A0 -> neutralino1 neutralino2)
     3.41097962E-02   2   1000022   1000025   # BR(A0 -> neutralino1 neutralino3)
     7.79905224E-02   2   1000022   1000035   # BR(A0 -> neutralino1 neutralino4)
     6.68669908E-06   2   1000023   1000023   # BR(A0 -> neutralino2 neutralino2)
     3.63326916E-02   2   1000023   1000025   # BR(A0 -> neutralino2 neutralino3)
     7.93700430E-02   2   1000023   1000035   # BR(A0 -> neutralino2 neutralino4)
     6.95601177E-03   2   1000025   1000025   # BR(A0 -> neutralino3 neutralino3)
     6.25034796E-03   2   1000025   1000035   # BR(A0 -> neutralino3 neutralino4)
     2.36276750E-06   2        23        25   # BR(A0 -> Z h0)
     7.48474242E-39   2        25        25   # BR(A0 -> h0 h0)
     1.21566063E-14   2  -2000011   1000011   # BR(A0 -> Selectron2 selectron1)
     1.21566063E-14   2  -1000011   2000011   # BR(A0 -> Selectron1 selectron2)
     5.19732887E-10   2  -2000013   1000013   # BR(A0 -> Smuon2 smuon1)
     5.19732887E-10   2  -1000013   2000013   # BR(A0 -> Smuon1 smuon2)
     3.08469478E-04   2  -2000015   1000015   # BR(A0 -> Stau2 stau1)
     3.08469478E-04   2  -1000015   2000015   # BR(A0 -> Stau1 stau2)
DECAY        37     4.64800717E+01   # Gamma(Hp)
     5.92163161E-09   2       -11        12   # BR(Hp -> Electron nu_e)
     2.53168246E-04   2       -13        14   # BR(Hp -> Muon nu_mu)
     7.16103842E-02   2       -15        16   # BR(Hp -> Tau nu_tau)
     3.75290173E-07   2        -1         2   # BR(Hp -> Down up)
     6.34081329E-06   2        -3         2   # BR(Hp -> Strange up)
     4.05476229E-06   2        -5         2   # BR(Hp -> Bottom up)
     2.07590080E-08   2        -1         4   # BR(Hp -> Down charm)
     1.35315781E-04   2        -3         4   # BR(Hp -> Strange charm)
     5.67811930E-04   2        -5         4   # BR(Hp -> Bottom charm)
     3.52192882E-07   2        -1         6   # BR(Hp -> Down top)
     7.87962253E-06   2        -3         6   # BR(Hp -> Strange top)
     3.88243682E-01   2        -5         6   # BR(Hp -> Bottom top)
     1.34187021E-02   2   1000022   1000024   # BR(Hp -> neutralino1 chargino1)
     1.42068048E-01   2   1000022   1000037   # BR(Hp -> neutralino1 chargino2)
     1.49334550E-03   2   1000023   1000024   # BR(Hp -> neutralino2 chargino1)
     1.50982022E-01   2   1000023   1000037   # BR(Hp -> neutralino2 chargino2)
     6.74454765E-02   2   1000024   1000025   # BR(Hp -> chargino1 neutralino3)
     1.14527747E-02   2   1000025   1000037   # BR(Hp -> neutralino3 chargino2)
     1.51732125E-01   2   1000024   1000035   # BR(Hp -> chargino1 neutralino4)
     2.19831784E-06   2        24        25   # BR(Hp -> W h0)
     9.52646667E-12   2        24        35   # BR(Hp -> W HH)
     5.29624630E-12   2        24        36   # BR(Hp -> W A0)
     2.17816629E-14   2  -1000011   1000012   # BR(Hp -> Selectron1 snu_e1)
     1.04766950E-06   2  -2000011   1000012   # BR(Hp -> Selectron2 snu_e1)
     9.31248366E-10   2  -1000013   1000014   # BR(Hp -> Smuon1 snu_mu1)
     1.04677559E-06   2  -2000013   1000014   # BR(Hp -> Smuon2 snu_mu1)
     2.21436593E-06   2  -1000015   1000016   # BR(Hp -> Stau1 snu_tau1)
     5.71607463E-04   2  -2000015   1000016   # BR(Hp -> Stau2 snu_tau1)
DECAY         6     2.43000000E+00   # top
#    BR                NDA      ID1      ID2
     1.00000000E+00    2           5        24   # BR(t -> b W)
Block HiggsBoundsInputHiggsCouplingsFermions
# ScalarNormEffCoupSq PseudoSNormEffCoupSq NP IP1 IP2 IP2
    9.20768370E-01    0.00000000E+00        3  25   5   5  # h0-b-b eff. coupling^2, normalised to SM
    4.66978768E+02    0.00000000E+00        3  35   5   5  # H0-b-b eff. coupling^2, normalised to SM
    0.00000000E+00    4.66899536E+02        3  36   5   5  # A0-b-b eff. coupling^2, normalised to SM
#
    1.00016970E+00    0.00000000E+00        3  25   6   6  # h0-t-t eff. coupling^2, normalised to SM
    1.97209099E-03    0.00000000E+00        3  35   6   6  # H0-t-t eff. coupling^2, normalised to SM
    0.00000000E+00    2.14178838E-03        3  36   6   6  # A0-t-t eff. coupling^2, normalised to SM
#
    9.20768370E-01    0.00000000E+00        3  25  15  15  # h0-tau-tau eff. coupling^2, normalised to SM
    4.66978768E+02    0.00000000E+00        3  35  15  15  # H0-tau-tau eff. coupling^2, normalised to SM
    0.00000000E+00    4.66899536E+02        3  36  15  15  # A0-tau-tau eff. coupling^2, normalised to SM
#
Block HiggsBoundsInputHiggsCouplingsBosons
    9.99996499E-01        3  25  24  24  # h0-W-W eff. coupling^2, normalised to SM
    3.50119261E-06        3  35  24  24  # H0-W-W eff. coupling^2, normalised to SM
    0.00000000E+00        3  36  24  24  # A0-W-W eff. coupling^2, normalised to SM
#
    9.99996499E-01        3  25  23  23  # h0-Z-Z eff. coupling^2, normalised to SM
    3.50119261E-06        3  35  23  23  # H0-Z-Z eff. coupling^2, normalised to SM
    0.00000000E+00        3  36  23  23  # A0-Z-Z eff. coupling^2, normalised to SM
#
    1.26921015E+00        3  25  21  21  # h0-g-g eff. coupling^2, normalised to SM
    9.47523211E-04        3  35  21  21  # H0-g-g eff. coupling^2, normalised to SM
    9.60193841E-02        3  36  21  21  # A0-g-g eff. coupling^2, normalised to SM
#
    0.00000000E+00        3  25  25  23  # h0-h0-Z eff. coupling^2, normalised to SM
    0.00000000E+00        3  35  25  23  # H0-h0-Z eff. coupling^2, normalised to SM
    3.50119261E-06        3  36  25  23  # A0-h0-Z eff. coupling^2, normalised to SM
    0.00000000E+00        3  35  35  23  # H0-H0-Z eff. coupling^2, normalised to SM
    9.99996499E-01        3  36  35  23  # A0-H0-Z eff. coupling^2, normalised to SM
    0.00000000E+00        3  36  36  23  # A0-A0-Z eff. coupling^2, normalised to SM
#
    0.00000000E+00        4  25  21  21  23  # h0-g-g-Z eff. coupling^2, normalised to SM
    0.00000000E+00        4  35  21  21  23  # H0-g-g-Z eff. coupling^2, normalised to SM
    0.00000000E+00        4  36  21  21  23  # A0-g-g-Z eff. coupling^2, normalised to SM
Block SPhenoLowEnergy  # low energy observables
    1    3.30819186E-04   # BR(b -> s gamma)
    2    1.58961399E-06   # BR(b -> s mu+ mu-)
    3    3.52649251E-05   # BR(b -> s nu nu)
    4    2.17737690E-15   # BR(Bd -> e+ e-)
    5    9.30152543E-11   # BR(Bd -> mu+ mu-)
    6    1.94826689E-08   # BR(Bd -> tau+ tau-)
    7    7.36550660E-14   # BR(Bs -> e+ e-)
    8    3.14654819E-09   # BR(Bs -> mu+ mu-)
    9    6.67773607E-07   # BR(Bs -> tau+ tau-)
   10    9.65145330E-05   # BR(B_u -> tau nu)
   11    9.96958176E-01   # BR(B_u -> tau nu)/BR(B_u -> tau nu)_SM
   12    5.41856532E-01   # |Delta(M_Bd)| [ps^-1] 
   13    1.93592255E+01   # |Delta(M_Bs)| [ps^-1] 
   14    0.00000000E+00   # neutron EDM according to the chiral quark model
   15    0.00000000E+00   # neutron EDM according to the relativistic quark-parton model
   16    2.15676730E-03   # epsilon_K
   17    2.28165278E-15   # Delta(M_K)
   18    2.48063613E-11   # BR(K^0 -> pi^0 nu nu)
   19    8.29208478E-11   # BR(K^+ -> pi^+ nu nu)
   20    1.66884675E-15   # Delta(g-2)_electron/2
   21    7.14117600E-11   # Delta(g-2)_muon/2
   22   -5.01835590E-09   # Delta(g-2)_tau/2
   23    0.00000000E+00   # electric dipole moment of the electron
   24    0.00000000E+00   # electric dipole moment of the muon
   25    0.00000000E+00   # electric dipole moment of the tau
   26    0.00000000E+00   # Br(mu -> e gamma)
   27    0.00000000E+00   # Br(tau -> e gamma)
   28    0.00000000E+00   # Br(tau -> mu gamma)
   29    0.00000000E+00   # Br(mu -> 3 e)
   30    0.00000000E+00   # Br(tau -> 3 e)
   31    0.00000000E+00   # Br(tau -> 3 mu)
   39    5.00793593E-05   # Delta(rho_parameter)
   40    0.00000000E+00   # BR(Z -> e mu)
   41    0.00000000E+00   # BR(Z -> e tau)
   42    0.00000000E+00   # BR(Z -> mu tau)
Block FWCOEF Q=  1.60000000E+02  # Wilson coefficients at scale Q
#    id        order  M        value         comment
     0305 4422   00   0    -1.88819110E-01   # C7
     0305 4422   00   2    -2.00565653E-01   # C7
     0305 4322   00   2    -1.64005199E-04   # C7'
     0305 6421   00   0    -9.52278348E-02   # C8
     0305 6421   00   2    -1.05460359E-01   # C8
     0305 6321   00   2    -1.66080617E-04   # C8'
 03051111 4133   00   0     1.62794526E+00   # C9 e+e-
 03051111 4133   00   2     1.62816613E+00   # C9 e+e-
 03051111 4233   00   2     1.39267436E-04   # C9' e+e-
 03051111 4137   00   0    -4.45063736E+00   # C10 e+e-
 03051111 4137   00   2    -4.45019346E+00   # C10 e+e-
 03051111 4237   00   2    -1.02891906E-03   # C10' e+e-
 03051313 4133   00   0     1.62794526E+00   # C9 mu+mu-
 03051313 4133   00   2     1.62816580E+00   # C9 mu+mu-
 03051313 4233   00   2     1.39267364E-04   # C9' mu+mu-
 03051313 4137   00   0    -4.45063736E+00   # C10 mu+mu-
 03051313 4137   00   2    -4.45019378E+00   # C10 mu+mu-
 03051313 4237   00   2    -1.02891917E-03   # C10' mu+mu-
 03051212 4137   00   0     1.50535012E+00   # C11 nu_1 nu_1
 03051212 4137   00   2     1.50526045E+00   # C11 nu_1 nu_1
 03051212 4237   00   2     2.22421165E-04   # C11' nu_1 nu_1
 03051414 4137   00   0     1.50535012E+00   # C11 nu_2 nu_2
 03051414 4137   00   2     1.50526045E+00   # C11 nu_2 nu_2
 03051414 4237   00   2     2.22421170E-04   # C11' nu_2 nu_2
 03051616 4137   00   0     1.50535012E+00   # C11 nu_3 nu_3
 03051616 4137   00   2     1.50526046E+00   # C11 nu_3 nu_3
 03051616 4237   00   2     2.22422598E-04   # C11' nu_3 nu_3
Block IMFWCOEF Q=  1.60000000E+02  # Im(Wilson coefficients) at scale Q
#    id        order  M        value         comment
     0305 4422   00   0     3.85818119E-07   # C7
     0305 4422   00   2    -5.72974437E-06   # C7
     0305 4322   00   2    -8.32970812E-07   # C7'
     0305 6421   00   0     3.30478734E-07   # C8
     0305 6421   00   2     2.76148854E-06   # C8
     0305 6321   00   2    -2.48777546E-07   # C8'
 03051111 4133   00   2    -1.03008111E-07   # C9 e+e-
 03051111 4233   00   2     2.69257198E-06   # C9' e+e-
 03051111 4137   00   2     4.62311116E-07   # C10 e+e-
 03051111 4237   00   2    -1.98935885E-05   # C10' e+e-
 03051313 4133   00   2    -1.03010004E-07   # C9 mu+mu-
 03051313 4233   00   2     2.69257111E-06   # C9' mu+mu-
 03051313 4137   00   2     4.62312405E-07   # C10 mu+mu-
 03051313 4237   00   2    -1.98935909E-05   # C10' mu+mu-
 03051212 4137   00   2     1.17501843E-08   # C11 nu_1 nu_1
 03051212 4237   00   2     4.30040236E-06   # C11' nu_1 nu_1
 03051414 4137   00   2     1.17500603E-08   # C11 nu_2 nu_2
 03051414 4237   00   2     4.30040236E-06   # C11' nu_2 nu_2
 03051616 4137   00   2     1.19570834E-08   # C11 nu_3 nu_3
 03051616 4237   00   2     4.30040299E-06   # C11' nu_3 nu_3
