# SUSY Les Houches Accord 2 - MSSM spectrum + Decays
# SPheno v4.0.5be
# W. Porod, Comput. Phys. Commun. 153 (2003) 275-315, hep-ph/0301101;
# W. Porod, F.~Staub, Comput. Phys. Commun. 183 (2012) 2458
#                     arXiv:1104.1573 [hep-ph] 
# in case of problems send email to porod@physik.uni-wuerzburg.de
# Created: 07.09.2021,  18:31
Block SPINFO         # Program information
     1   SPheno      # spectrum calculator
     2   v4.0.5be    # version number
#
Block SPhenoINFO     # SPheno specific information
    1      2         # using 2-loop RGEs
    2      2         # using pole masses for boundary conditions at mZ
Block MODSEL  # Model selection
    1    0    # general MSSM
Block MINPAR  # Input parameters
    3    4.80024410E+01  # tanb at m_Z    
    4   -1.00000000E+00  # Sign(mu)
Block EXTPAR  # non-universal input parameters
    0    3.58700990E+03  # scale for input parameters
    1   -1.99023062E+02  # M_1
    2    3.85847988E+02  # M_2
    3    2.10345319E+03  # M_3
   11    5.54498494E+03  # A_t
   12   -1.27216246E+03  # A_b
   13    1.75564471E+03  # A_tau
   23   -2.01426964E+02  # mu
   25    4.72791256E+01  # tan(beta)
   26    8.75614351E+02  # m_A, pole mass
   31    1.00000000E+04  # M_L11
   32    1.00000000E+04  # M_L22
   33    1.00000000E+04  # M_L33
   34    1.00000000E+04  # M_E11
   35    1.00000000E+04  # M_E22
   36    1.00000000E+04  # M_E33
   41    1.00000000E+04  # M_Q11
   42    1.00000000E+04  # M_Q22
   43    3.52590275E+03  # M_Q33
   44    1.00000000E+04  # M_U11
   45    1.00000000E+04  # M_U22
   46    3.72429150E+03  # M_U33
   47    1.00000000E+04  # M_D11
   48    1.00000000E+04  # M_D22
   49    3.72542887E+03  # M_D33
Block SMINPUTS  # SM parameters
         1     1.27908970E+02  # alpha_em^-1(MZ)^MSbar
         2     1.16637870E-05  # G_mu [GeV^-2]
         3     1.18400000E-01  # alpha_s(MZ)^MSbar
         4     9.11876000E+01  # m_Z(pole)
         5     4.18000000E+00  # m_b(m_b), MSbar
         6     1.73200000E+02  # m_t(pole)
         7     1.77700000E+00  # m_tau(pole)
         8     0.00000000E+00  # m_nu_3
        11     5.10998930E-04  # m_e(pole)
        12     0.00000000E+00  # m_nu_1
        13     1.05658372E-01  # m_muon(pole)
        14     0.00000000E+00  # m_nu_2
        21     5.00000000E-03  # m_d(2 GeV), MSbar
        22     2.50000000E-03  # m_u(2 GeV), MSbar
        23     9.50000000E-02  # m_s(2 GeV), MSbar
        24     1.27000000E+00  # m_c(m_c), MSbar
Block gauge Q=  3.58700990E+03  # (SUSY scale)
   1    3.55362975E-01  # g'(Q)^DRbar
   2    6.65198874E-01  # g(Q)^DRbar
   3    1.21977796E+00  # g3(Q)^DRbar
Block Yu Q=  3.58700990E+03  # (SUSY scale)
  1  1     8.38624736E-06   # Y_u(Q)^DRbar
  2  2     4.26021366E-03   # Y_c(Q)^DRbar
  3  3     1.01312604E+00   # Y_t(Q)^DRbar
Block Yd Q=  3.58700990E+03  # (SUSY scale)
  1  1     7.96741340E-04   # Y_d(Q)^DRbar
  2  2     1.51380855E-02   # Y_s(Q)^DRbar
  3  3     7.90117746E-01   # Y_b(Q)^DRbar
Block Ye Q=  3.58700990E+03  # (SUSY scale)
  1  1     1.39037190E-04   # Y_e(Q)^DRbar
  2  2     2.87484812E-02   # Y_mu(Q)^DRbar
  3  3     4.83502160E-01   # Y_tau(Q)^DRbar
Block Au Q=  3.58700990E+03  # (SUSY scale)
  1  1     0.00000000E+00   # A_u(Q)^DRbar
  2  2     0.00000000E+00   # A_c(Q)^DRbar
  3  3     5.54498495E+03   # A_t(Q)^DRbar
Block Ad Q=  3.58700990E+03  # (SUSY scale)
  1  1     0.00000000E+00   # A_d(Q)^DRbar
  2  2     0.00000000E+00   # A_s(Q)^DRbar
  3  3    -1.27216244E+03   # A_b(Q)^DRbar
Block Ae Q=  3.58700990E+03  # (SUSY scale)
  1  1     0.00000000E+00   # A_e(Q)^DRbar
  2  2     0.00000000E+00   # A_mu(Q)^DRbar
  3  3     1.75564470E+03   # A_tau(Q)^DRbar
Block MSOFT Q=  3.58700990E+03  # soft SUSY breaking masses at Q
   1   -1.99023062E+02  # M_1
   2    3.85847988E+02  # M_2
   3    2.10345319E+03  # M_3
  21    6.47211809E+05  # M^2_(H,d)
  22    2.42322832E+05  # M^2_(H,u)
  31    1.00000000E+04  # M_(L,11)
  32    1.00000000E+04  # M_(L,22)
  33    1.00000000E+04  # M_(L,33)
  34    1.00000000E+04  # M_(E,11)
  35    1.00000000E+04  # M_(E,22)
  36    1.00000000E+04  # M_(E,33)
  41    1.00000000E+04  # M_(Q,11)
  42    1.00000000E+04  # M_(Q,22)
  43    3.52590275E+03  # M_(Q,33)
  44    1.00000000E+04  # M_(U,11)
  45    1.00000000E+04  # M_(U,22)
  46    3.72429150E+03  # M_(U,33)
  47    1.00000000E+04  # M_(D,11)
  48    1.00000000E+04  # M_(D,22)
  49    3.72542887E+03  # M_(D,33)
Block MASS  # Mass spectrum
#   PDG code      mass          particle
         6     1.73200000E+02  # m_t(pole)
        23     9.11876000E+01  # m_Z(pole)
        24     8.04299946E+01  # W+
        15     1.77700000E+00  # m_tau(pole)
        25     1.28468260E+02  # h0
        35     8.75327656E+02  # H0
        36     8.75614351E+02  # A0
        37     8.88103135E+02  # H+
   1000001     1.01163334E+04  # ~d_L
   2000001     1.00910340E+04  # ~d_R
   1000002     1.01159706E+04  # ~u_L
   2000002     1.00944101E+04  # ~u_R
   1000003     1.01163391E+04  # ~s_L
   2000003     1.00910442E+04  # ~s_R
   1000004     1.01159762E+04  # ~c_L
   2000004     1.00944110E+04  # ~c_R
   1000005     3.52318724E+03  # ~b_1
   2000005     3.75701360E+03  # ~b_2
   1000006     3.47065333E+03  # ~t_1
   2000006     3.70726743E+03  # ~t_2
   1000011     1.00215714E+04  # ~e_L-
   2000011     1.00087702E+04  # ~e_R-
   1000012     1.00208015E+04  # ~nu_eL
   1000013     1.00215987E+04  # ~mu_L-
   2000013     1.00088227E+04  # ~mu_R-
   1000014     1.00208285E+04  # ~nu_muL
   1000015     1.00238200E+04  # ~tau_1-
   2000015     1.00295590E+04  # ~tau_2-
   1000016     1.00286186E+04  # ~nu_tauL
   1000021     2.52701263E+03  # ~g
   1000022     1.79015776E+02  # ~chi_10
   1000023     2.06464573E+02  # ~chi_20
   1000025     2.46477277E+02  # ~chi_30
   1000035     4.43286148E+02  # ~chi_40
   1000024     2.09285774E+02  # ~chi_1+
   1000037     4.43214530E+02  # ~chi_2+
# Higgs mixing
Block alpha # Effective Higgs mixing angle
          -2.13994898E-02   # alpha
Block Hmix Q=  3.58700990E+03  # Higgs mixing parameters
   1   -2.01426964E+02  # mu
   2    4.72791256E+01  # tan[beta](Q)
   3    2.43017283E+02  # v(Q)
   4    7.66700492E+05  # m^2_A(Q)
Block stopmix # stop mixing matrix
   1  1    -8.88915690E-01   # Re[R_st(1,1)]
   1  2     4.58070841E-01   # Re[R_st(1,2)]
   2  1    -4.58070841E-01   # Re[R_st(2,1)]
   2  2    -8.88915690E-01   # Re[R_st(2,2)]
Block sbotmix # sbottom mixing matrix
   1  1    -9.99964576E-01   # Re[R_sb(1,1)]
   1  2     8.41702550E-03   # Re[R_sb(1,2)]
   2  1    -8.41702550E-03   # Re[R_sb(2,1)]
   2  2    -9.99964576E-01   # Re[R_sb(2,2)]
Block staumix # stau mixing matrix
   1  1    -1.76229254E-01   # Re[R_sta(1,1)]
   1  2     9.84349150E-01   # Re[R_sta(1,2)]
   2  1    -9.84349150E-01   # Re[R_sta(2,1)]
   2  2    -1.76229254E-01   # Re[R_sta(2,2)]
Block Nmix # neutralino mixing matrix
   1  1    -8.05005244E-01   # Re[N(1,1)]
   1  2    -5.21404513E-02   # Re[N(1,2)]
   1  3     4.55066221E-01   # Re[N(1,3)]
   1  4    -3.77044645E-01   # Re[N(1,4)]
   2  1    -7.07584414E-02   # Re[N(2,1)]
   2  2    -2.41268652E-01   # Re[N(2,2)]
   2  3    -7.03541958E-01   # Re[N(2,3)]
   2  4    -6.64688945E-01   # Re[N(2,4)]
   3  1    -5.88815735E-01   # Re[N(3,1)]
   3  2     7.40310646E-02   # Re[N(3,2)]
   3  3    -5.34610742E-01   # Re[N(3,3)]
   3  4     6.01669998E-01   # Re[N(3,4)]
   4  1     1.59947003E-02   # Re[N(4,1)]
   4  2    -9.66224721E-01   # Re[N(4,2)]
   4  3     1.10158079E-01   # Re[N(4,3)]
   4  4     2.32420212E-01   # Re[N(4,4)]
Block Umix # chargino mixing matrix
   1  1    -1.57783520E-01   # Re[U(1,1)]
   1  2    -9.87473727E-01   # Re[U(1,2)]
   2  1     9.87473727E-01   # Re[U(2,1)]
   2  2    -1.57783520E-01   # Re[U(2,2)]
Block Vmix # chargino mixing matrix
   1  1    -3.32420367E-01   # Re[V(1,1)]
   1  2     9.43131327E-01   # Re[V(1,2)]
   2  1     9.43131327E-01   # Re[V(2,1)]
   2  2     3.32420367E-01   # Re[V(2,2)]
DECAY        23     2.49520000E+00   # Z
DECAY        24     2.08500000E+00   # W
DECAY   2000011     5.02481678E+01   # ~e^-_R
#    BR                NDA      ID1      ID2
     6.48163396E-01    2     1000022        11   # BR(~e^-_R -> chi^0_1 e^-)
     5.00674065E-03    2     1000023        11   # BR(~e^-_R -> chi^0_2 e^-)
     3.46574744E-01    2     1000025        11   # BR(~e^-_R -> chi^0_3 e^-)
     2.55042930E-04    2     1000035        11   # BR(~e^-_R -> chi^0_4 e^-)
DECAY   1000011     1.44410472E+02   # ~e^-_L
#    BR                NDA      ID1      ID2
     7.09742985E-02    2     1000022        11   # BR(~e^-_L -> chi^0_1 e^-)
     2.37681749E-02    2     1000023        11   # BR(~e^-_L -> chi^0_2 e^-)
     1.76498346E-02    2     1000025        11   # BR(~e^-_L -> chi^0_3 e^-)
     2.79048716E-01    2     1000035        11   # BR(~e^-_L -> chi^0_4 e^-)
     1.51954890E-02    2    -1000024        12   # BR(~e^-_L -> chi^-_1 nu_e)
     5.93363487E-01    2    -1000037        12   # BR(~e^-_L -> chi^-_2 nu_e)
#    BR                NDA      ID1      ID2       ID3
DECAY   2000013     5.05772457E+01   # ~mu^-_R
#    BR                NDA      ID1      ID2
     6.44622919E-01    2     1000022        13   # BR(~mu^-_R -> chi^0_1 mu^-)
     6.58330643E-03    2     1000023        13   # BR(~mu^-_R -> chi^0_2 mu^-)
     3.45250376E-01    2     1000025        13   # BR(~mu^-_R -> chi^0_3 mu^-)
     2.92712932E-04    2     1000035        13   # BR(~mu^-_R -> chi^0_4 mu^-)
     3.16999821E-03    2    -1000024        14   # BR(~mu^-_R -> chi^-_1 nu_mu)
DECAY   1000013     1.44575485E+02   # ~mu^-_L
#    BR                NDA      ID1      ID2
     7.11293464E-02    2     1000022        13   # BR(~mu^-_L -> chi^0_1 mu^-)
     2.43047568E-02    2     1000023        13   # BR(~mu^-_L -> chi^0_2 mu^-)
     1.79550836E-02    2     1000025        13   # BR(~mu^-_L -> chi^0_3 mu^-)
     2.78744757E-01    2     1000035        13   # BR(~mu^-_L -> chi^0_4 mu^-)
     1.51781868E-02    2    -1000024        14   # BR(~mu^-_L -> chi^-_1 nu_mu)
     5.92687869E-01    2    -1000037        14   # BR(~mu^-_L -> chi^-_2 nu_mu)
#    BR                NDA      ID1      ID2       ID3
DECAY   1000015     1.44967056E+02   # ~tau^-_1
#    BR                NDA      ID1      ID2
     3.05419260E-01    2     1000022        15   # BR(~tau^-_1 -> chi^0_1 tau^-)
     1.76982245E-01    2     1000023        15   # BR(~tau^-_1 -> chi^0_2 tau^-)
     1.86396739E-01    2     1000025        15   # BR(~tau^-_1 -> chi^0_3 tau^-)
     9.98640316E-04    2     1000035        15   # BR(~tau^-_1 -> chi^0_4 tau^-)
     3.27937310E-01    2    -1000024        16   # BR(~tau^-_1 -> chi^-_1 nu_tau)
     2.26580611E-03    2    -1000037        16   # BR(~tau^-_1 -> chi^-_2 nu_tau)
DECAY   2000015     1.89632765E+02   # ~tau^-_2
#    BR                NDA      ID1      ID2
     9.43939838E-02    2     1000022        15   # BR(~tau^-_2 -> chi^0_1 tau^-)
     1.27367940E-01    2     1000023        15   # BR(~tau^-_2 -> chi^0_2 tau^-)
     1.03336147E-01    2     1000025        15   # BR(~tau^-_2 -> chi^0_3 tau^-)
     2.17923352E-01    2     1000035        15   # BR(~tau^-_2 -> chi^0_4 tau^-)
     3.86530981E-04    2    -1000024        16   # BR(~tau^-_2 -> chi^-_1 nu_tau)
     4.56592045E-01    2    -1000037        16   # BR(~tau^-_2 -> chi^-_2 nu_tau)
#    BR                NDA      ID1      ID2       ID3
DECAY   1000012     1.44415456E+02   # ~nu_e
#    BR                NDA      ID1      ID2
     4.35904556E-02    2     1000022        12   # BR(~nu_e -> chi^0_1 nu_e)
     1.26332622E-02    2     1000023        12   # BR(~nu_e -> chi^0_2 nu_e)
     4.60623811E-02    2     1000025        12   # BR(~nu_e -> chi^0_3 nu_e)
     2.89064228E-01    2     1000035        12   # BR(~nu_e -> chi^0_4 nu_e)
     6.74401310E-02    2     1000024        11   # BR(~nu_e -> chi^+_1 e^-)
     5.41209542E-01    2     1000037        11   # BR(~nu_e -> chi^+_2 e^-)
#    BR                NDA      ID1      ID2       ID3
DECAY   1000014     1.44580452E+02   # ~nu_mu
#    BR                NDA      ID1      ID2
     4.35408274E-02    2     1000022        14   # BR(~nu_mu -> chi^0_1 nu_mu)
     1.26188791E-02    2     1000023        14   # BR(~nu_mu -> chi^0_2 nu_mu)
     4.60099387E-02    2     1000025        14   # BR(~nu_mu -> chi^0_3 nu_mu)
     2.88735130E-01    2     1000035        14   # BR(~nu_mu -> chi^0_4 nu_mu)
     6.84735950E-02    2     1000024        13   # BR(~nu_mu -> chi^+_1 mu^-)
     5.40621630E-01    2     1000037        13   # BR(~nu_mu -> chi^+_2 mu^-)
#    BR                NDA      ID1      ID2       ID3
DECAY   1000016     1.91125770E+02   # ~nu_tau
#    BR                NDA      ID1      ID2
     3.29628628E-02    2     1000022        16   # BR(~nu_tau -> chi^0_1 nu_tau)
     9.55320651E-03    2     1000023        16   # BR(~nu_tau -> chi^0_2 nu_tau)
     3.48321503E-02    2     1000025        16   # BR(~nu_tau -> chi^0_3 nu_tau)
     2.18589897E-01    2     1000035        16   # BR(~nu_tau -> chi^0_4 nu_tau)
     2.88750047E-01    2     1000024        15   # BR(~nu_tau -> chi^+_1 tau^-)
     4.15311836E-01    2     1000037        15   # BR(~nu_tau -> chi^+_2 tau^-)
#    BR                NDA      ID1      ID2       ID3
DECAY   2000001     7.05379797E+02   # ~d_R
#    BR                NDA      ID1      ID2
     5.17251550E-03    2     1000022         1   # BR(~d_R -> chi^0_1 d)
     2.76581543E-03    2     1000025         1   # BR(~d_R -> chi^0_3 d)
     9.92019407E-01    2     1000021         1   # BR(~d_R -> ~g d)
DECAY   1000001     8.36468554E+02   # ~d_L
#    BR                NDA      ID1      ID2
     4.42606337E-04    2     1000022         1   # BR(~d_L -> chi^0_1 d)
     2.78124394E-03    2     1000023         1   # BR(~d_L -> chi^0_2 d)
     1.70142558E-03    2     1000025         1   # BR(~d_L -> chi^0_3 d)
     4.97989588E-02    2     1000035         1   # BR(~d_L -> chi^0_4 d)
     2.64824480E-03    2    -1000024         2   # BR(~d_L -> chi^-_1 u)
     1.03416286E-01    2    -1000037         2   # BR(~d_L -> chi^-_2 u)
     8.39211235E-01    2     1000021         1   # BR(~d_L -> ~g d)
DECAY   2000003     7.05472369E+02   # ~s_R
#    BR                NDA      ID1      ID2
     5.18530100E-03    2     1000022         3   # BR(~s_R -> chi^0_1 s)
     2.78401918E-03    2     1000025         3   # BR(~s_R -> chi^0_3 s)
     9.91890505E-01    2     1000021         3   # BR(~s_R -> ~g s)
DECAY   1000003     8.36518729E+02   # ~s_L
#    BR                NDA      ID1      ID2
     4.53958840E-04    2     1000022         3   # BR(~s_L -> chi^0_1 s)
     2.80827070E-03    2     1000023         3   # BR(~s_L -> chi^0_2 s)
     1.71701961E-03    2     1000025         3   # BR(~s_L -> chi^0_3 s)
     4.97966640E-02    2     1000035         3   # BR(~s_L -> chi^0_4 s)
     2.65196689E-03    2    -1000024         4   # BR(~s_L -> chi^-_1 c)
     1.03410624E-01    2    -1000037         4   # BR(~s_L -> chi^-_2 c)
     8.39161496E-01    2     1000021         3   # BR(~s_L -> ~g s)
DECAY   1000005     2.25604978E+02   # ~b_1
#    BR                NDA      ID1      ID2
     4.08610201E-02    2     1000022         5   # BR(~b_1 -> chi^0_1 b)
     9.91947649E-02    2     1000023         5   # BR(~b_1 -> chi^0_2 b)
     5.66672149E-02    2     1000025         5   # BR(~b_1 -> chi^0_3 b)
     6.45888666E-02    2     1000035         5   # BR(~b_1 -> chi^0_4 b)
     2.83697325E-01    2    -1000024         6   # BR(~b_1 -> chi^-_1 t)
     1.64399281E-01    2    -1000037         6   # BR(~b_1 -> chi^-_2 t)
     2.90591528E-01    2     1000021         5   # BR(~b_1 -> ~g b)
DECAY   2000005     1.83528252E+02   # ~b_2
#    BR                NDA      ID1      ID2
     5.93518247E-02    2     1000022         5   # BR(~b_2 -> chi^0_1 b)
     1.24778783E-01    2     1000023         5   # BR(~b_2 -> chi^0_2 b)
     7.64890318E-02    2     1000025         5   # BR(~b_2 -> chi^0_3 b)
     3.27453256E-03    2     1000035         5   # BR(~b_2 -> chi^0_4 b)
     2.44805088E-01    2    -1000024         6   # BR(~b_2 -> chi^-_1 t)
     6.68924198E-03    2    -1000037         6   # BR(~b_2 -> chi^-_2 t)
     4.84543664E-01    2     1000021         5   # BR(~b_2 -> ~g b)
DECAY   2000002     7.22571128E+02   # ~u_R
#    BR                NDA      ID1      ID2
     2.02044262E-02    2     1000022         2   # BR(~u_R -> chi^0_1 u)
     1.56068557E-04    2     1000023         2   # BR(~u_R -> chi^0_2 u)
     1.08034664E-02    2     1000025         2   # BR(~u_R -> chi^0_3 u)
     9.68828088E-01    2     1000021         2   # BR(~u_R -> ~g u)
DECAY   1000002     8.36456771E+02   # ~u_L
#    BR                NDA      ID1      ID2
     2.03304455E-03    2     1000022         2   # BR(~u_L -> chi^0_1 u)
     3.42786876E-03    2     1000023         2   # BR(~u_L -> chi^0_2 u)
     4.92141296E-02    2     1000035         2   # BR(~u_L -> chi^0_4 u)
     1.17545527E-02    2     1000024         1   # BR(~u_L -> chi^+_1 d)
     9.43349487E-02    2     1000037         1   # BR(~u_L -> chi^+_2 d)
     8.39184948E-01    2     1000021         2   # BR(~u_L -> ~g u)
DECAY   2000004     7.22578459E+02   # ~c_R
#    BR                NDA      ID1      ID2
     2.02049401E-02    2     1000022         4   # BR(~c_R -> chi^0_1 c)
     1.58293890E-04    2     1000023         4   # BR(~c_R -> chi^0_2 c)
     1.08051792E-02    2     1000025         4   # BR(~c_R -> chi^0_3 c)
     9.68818327E-01    2     1000021         4   # BR(~c_R -> ~g c)
DECAY   1000004     8.36506904E+02   # ~c_L
#    BR                NDA      ID1      ID2
     2.03354376E-03    2     1000022         4   # BR(~c_L -> chi^0_1 c)
     3.42959172E-03    2     1000023         4   # BR(~c_L -> chi^0_2 c)
     4.92114433E-02    2     1000035         4   # BR(~c_L -> chi^0_4 c)
     1.18074217E-02    2     1000024         3   # BR(~c_L -> chi^+_1 s)
     9.43307097E-02    2     1000037         3   # BR(~c_L -> chi^+_2 s)
     8.39135206E-01    2     1000021         4   # BR(~c_L -> ~g c)
DECAY   1000006     2.17658995E+02   # ~t_1
#    BR                NDA      ID1      ID2
     3.46182687E-04    2     1000022         4   # BR(~t_1 -> chi^0_1 c)
     7.02033763E-02    2     1000022         6   # BR(~t_1 -> chi^0_1 t)
     5.82783326E-04    2     1000023         4   # BR(~t_1 -> chi^0_2 c)
     1.29704240E-01    2     1000023         6   # BR(~t_1 -> chi^0_2 t)
     9.09405938E-02    2     1000025         6   # BR(~t_1 -> chi^0_3 t)
     9.41897636E-02    2     1000035         6   # BR(~t_1 -> chi^0_4 t)
     1.69774566E-01    2     1000024         5   # BR(~t_1 -> chi^+_1 b)
     1.59343531E-01    2     1000037         5   # BR(~t_1 -> chi^+_2 b)
     3.60543168E-02    2     1000021         4   # BR(~t_1 -> ~g c)
     2.37153312E-01    2     1000021         6   # BR(~t_1 -> ~g t)
#    BR                NDA      ID1      ID2       ID3
     1.17073350E-02    3     1000022        24         5   # BR(~t_1 -> chi^0_1 W^+ b)
DECAY   2000006     2.62917277E+02   # ~t_2
#    BR                NDA      ID1      ID2
     4.17259719E-02    2     1000022         6   # BR(~t_2 -> chi^0_1 t)
     1.40844433E-01    2     1000023         6   # BR(~t_2 -> chi^0_2 t)
     1.35658219E-01    2     1000025         6   # BR(~t_2 -> chi^0_3 t)
     2.88379593E-03    2     1000035         6   # BR(~t_2 -> chi^0_4 t)
     2.87536116E-01    2     1000024         5   # BR(~t_2 -> chi^+_1 b)
     9.28161394E-04    2     1000037         5   # BR(~t_2 -> chi^+_2 b)
     3.44724556E-01    2     1000021         6   # BR(~t_2 -> ~g t)
     1.82833481E-02    2     1000005        24   # BR(~t_2 -> ~b_1 W^+)
     1.62037531E-02    2     1000006        23   # BR(~t_2 -> ~t_1 Z)
     1.12116459E-02    2     1000006        25   # BR(~t_2 -> ~t_1 h^0)
DECAY   1000024     3.30276175E-05   # chi^+_1
#    BR                NDA      ID1      ID2       ID3
     3.34825020E-01    3     1000022        -1         2   # BR(chi^+_1 -> chi^0_1 d_bar u)
     3.32104677E-01    3     1000022        -3         4   # BR(chi^+_1 -> chi^0_1 s_bar c)
     1.11605139E-01    3     1000022       -11        12   # BR(chi^+_1 -> chi^0_1 e^+ nu_e)
     1.11600813E-01    3     1000022       -13        14   # BR(chi^+_1 -> chi^0_1 mu^+ nu_mu)
     1.09858592E-01    3     1000022       -15        16   # BR(chi^+_1 -> chi^0_1 tau^+ nu_tau)
DECAY   1000037     2.98621730E+00   # chi^+_2
#    BR                NDA      ID1      ID2
     1.48831303E-01    2     1000022        24   # BR(chi^+_2 -> chi^0_1 W^+)
     2.58431804E-01    2     1000023        24   # BR(chi^+_2 -> chi^0_2 W^+)
     1.72324738E-01    2     1000025        24   # BR(chi^+_2 -> chi^0_3 W^+)
     2.39622957E-01    2     1000024        23   # BR(chi^+_2 -> chi^+_1 Z)
     1.80577840E-01    2     1000024        25   # BR(chi^+_2 -> chi^+_1 h^0)
#    BR                NDA      ID1      ID2       ID3
     1.14513623E-04    3     1000022        -5         6   # BR(chi^+_2 -> chi^0_1 b_bar t)
DECAY   1000022     0.00000000E+00   # chi^0_1
DECAY   1000023     1.56029929E-05   # chi^0_2
#    BR                NDA      ID1      ID2
     3.66730798E-02    2     1000022        22   # BR(chi^0_2 -> chi^0_1 photon)
#    BR                NDA      ID1      ID2       ID3
     1.19035710E-01    3     1000022         2        -2   # BR(chi^0_2 -> chi^0_1 u u_bar)
     1.15775249E-01    3     1000022         4        -4   # BR(chi^0_2 -> chi^0_1 c c_bar)
     1.52625950E-01    3     1000022         1        -1   # BR(chi^0_2 -> chi^0_1 d d_bar)
     1.52605508E-01    3     1000022         3        -3   # BR(chi^0_2 -> chi^0_1 s s_bar)
     1.17856968E-01    3     1000022         5        -5   # BR(chi^0_2 -> chi^0_1 b b_bar)
     3.44416554E-02    3     1000022        11       -11   # BR(chi^0_2 -> chi^0_1 e^- e^+)
     3.44343480E-02    3     1000022        13       -13   # BR(chi^0_2 -> chi^0_1 mu^- mu^+)
     3.24511808E-02    3     1000022        15       -15   # BR(chi^0_2 -> chi^0_1 tau^- tau^+)
     2.04100351E-01    3     1000022        12       -12   # BR(chi^0_2 -> chi^0_1 nu_e nu_bar_e)
DECAY   1000025     5.76739926E-04   # chi^0_3
#    BR                NDA      ID1      ID2
     2.74860757E-04    2     1000022        22   # BR(chi^0_3 -> chi^0_1 photon)
     1.18966533E-02    2     1000023        22   # BR(chi^0_3 -> chi^0_2 photon)
#    BR                NDA      ID1      ID2       ID3
     3.51340292E-04    3     1000022         2        -2   # BR(chi^0_3 -> chi^0_1 u u_bar)
     3.50294129E-04    3     1000022         4        -4   # BR(chi^0_3 -> chi^0_1 c c_bar)
     4.50109194E-04    3     1000022         1        -1   # BR(chi^0_3 -> chi^0_1 d d_bar)
     4.50104702E-04    3     1000022         3        -3   # BR(chi^0_3 -> chi^0_1 s s_bar)
     4.54558080E-04    3     1000022         5        -5   # BR(chi^0_3 -> chi^0_1 b b_bar)
     1.01265758E-04    3     1000022        11       -11   # BR(chi^0_3 -> chi^0_1 e^- e^+)
     1.01265216E-04    3     1000022        13       -13   # BR(chi^0_3 -> chi^0_1 mu^- mu^+)
     1.01103241E-04    3     1000022        15       -15   # BR(chi^0_3 -> chi^0_1 tau^- tau^+)
     6.02494625E-04    3     1000022        12       -12   # BR(chi^0_3 -> chi^0_1 nu_e nu_bar_e)
     4.16856700E-02    3     1000023         2        -2   # BR(chi^0_3 -> chi^0_2 u u_bar)
     4.11707594E-02    3     1000023         4        -4   # BR(chi^0_3 -> chi^0_2 c c_bar)
     5.34491856E-02    3     1000023         1        -1   # BR(chi^0_3 -> chi^0_2 d d_bar)
     5.34460109E-02    3     1000023         3        -3   # BR(chi^0_3 -> chi^0_2 s s_bar)
     4.77087099E-02    3     1000023         5        -5   # BR(chi^0_3 -> chi^0_2 b b_bar)
     1.20622528E-02    3     1000023        11       -11   # BR(chi^0_3 -> chi^0_2 e^- e^+)
     1.20611149E-02    3     1000023        13       -13   # BR(chi^0_3 -> chi^0_2 mu^- mu^+)
     1.17460166E-02    3     1000023        15       -15   # BR(chi^0_3 -> chi^0_2 tau^- tau^+)
     7.14782282E-02    3     1000023        12       -12   # BR(chi^0_3 -> chi^0_2 nu_e nu_bar_e)
     1.06975276E-01    3     1000024         1        -2   # BR(chi^0_3 -> chi^+_1 d u_bar)
     1.06975276E-01    3    -1000024        -1         2   # BR(chi^0_3 -> chi^-_1 d_bar u)
     1.06428256E-01    3     1000024         3        -4   # BR(chi^0_3 -> chi^+_1 s c_bar)
     1.06428256E-01    3    -1000024        -3         4   # BR(chi^0_3 -> chi^-_1 s_bar c)
     3.56589623E-02    3     1000024        11       -12   # BR(chi^0_3 -> chi^+_1 e^- nu_bar_e)
     3.56589623E-02    3    -1000024       -11        12   # BR(chi^0_3 -> chi^-_1 e^+ nu_e)
     3.56580934E-02    3     1000024        13       -14   # BR(chi^0_3 -> chi^+_1 mu^- nu_bar_mu)
     3.56580934E-02    3    -1000024       -13        14   # BR(chi^0_3 -> chi^-_1 mu^+ nu_mu)
     3.53084132E-02    3     1000024        15       -16   # BR(chi^0_3 -> chi^+_1 tau^- nu_bar_tau)
     3.53084132E-02    3    -1000024       -15        16   # BR(chi^0_3 -> chi^-_1 tau^+ nu_tau)
DECAY   1000035     3.61353601E+00   # chi^0_4
#    BR                NDA      ID1      ID2
     2.26309171E-01    2     1000024       -24   # BR(chi^0_4 -> chi^+_1 W^-)
     2.26309171E-01    2    -1000024        24   # BR(chi^0_4 -> chi^-_1 W^+)
     1.02625917E-01    2     1000022        23   # BR(chi^0_4 -> chi^0_1 Z)
     2.71055364E-02    2     1000023        23   # BR(chi^0_4 -> chi^0_2 Z)
     1.31734505E-01    2     1000025        23   # BR(chi^0_4 -> chi^0_3 Z)
     7.84337412E-02    2     1000022        25   # BR(chi^0_4 -> chi^0_1 h^0)
     1.23544793E-01    2     1000023        25   # BR(chi^0_4 -> chi^0_2 h^0)
     8.37722734E-02    2     1000025        25   # BR(chi^0_4 -> chi^0_3 h^0)
#    BR                NDA      ID1      ID2       ID3
DECAY   1000021     1.68798355E-01   # ~g
#    BR                NDA      ID1      ID2
     7.03024460E-04    2     1000022        21   # BR(~g -> chi^0_1 g)
     2.64209883E-03    2     1000023        21   # BR(~g -> chi^0_2 g)
     1.78939910E-03    2     1000025        21   # BR(~g -> chi^0_3 g)
     3.06931119E-04    2     1000035        21   # BR(~g -> chi^0_4 g)
#    BR                NDA      ID1      ID2       ID3
     5.25861253E-02    3     1000022         6        -6   # BR(~g -> chi^0_1 t t_bar)
     3.47562406E-02    3     1000022         5        -5   # BR(~g -> chi^0_1 b b_bar)
     1.12946690E-01    3     1000023         6        -6   # BR(~g -> chi^0_2 t t_bar)
     7.93318639E-02    3     1000023         5        -5   # BR(~g -> chi^0_2 b b_bar)
     8.73670086E-02    3     1000025         6        -6   # BR(~g -> chi^0_3 t t_bar)
     4.55159492E-02    3     1000025         5        -5   # BR(~g -> chi^0_3 b b_bar)
     1.98235611E-04    3     1000035         2        -2   # BR(~g -> chi^0_4 u u_bar)
     1.98237416E-04    3     1000035         4        -4   # BR(~g -> chi^0_4 c c_bar)
     4.47431152E-02    3     1000035         6        -6   # BR(~g -> chi^0_4 t t_bar)
     2.00536073E-04    3     1000035         1        -1   # BR(~g -> chi^0_4 d d_bar)
     2.00541992E-04    3     1000035         3        -3   # BR(~g -> chi^0_4 s s_bar)
     2.33122006E-02    3     1000035         5        -5   # BR(~g -> chi^0_4 b b_bar)
     1.87270949E-01    3     1000024         5        -6   # BR(~g -> chi^+_1 b t_bar)
     1.87270949E-01    3    -1000024        -5         6   # BR(~g -> chi^-_1 b_bar t)
     3.98112886E-04    3     1000037         1        -2   # BR(~g -> chi^+_2 d u_bar)
     3.98112886E-04    3    -1000037        -1         2   # BR(~g -> chi^-_2 d_bar u)
     3.98120829E-04    3     1000037         3        -4   # BR(~g -> chi^+_2 s c_bar)
     3.98120829E-04    3    -1000037        -3         4   # BR(~g -> chi^-_2 s_bar c)
     6.82798321E-02    3     1000037         5        -6   # BR(~g -> chi^+_2 b t_bar)
     6.82798321E-02    3    -1000037        -5         6   # BR(~g -> chi^-_2 b_bar t)
DECAY        25     4.15772460E-03   # Gamma(h0)
     2.45331190E-03   2        22        22   # BR(h0 -> photon photon)
     1.87852410E-03   2        22        23   # BR(h0 -> photon Z)
     3.92908865E-02   2        23        23   # BR(h0 -> Z Z)
     3.04108944E-01   2       -24        24   # BR(h0 -> W W)
     7.31800161E-02   2        21        21   # BR(h0 -> gluon gluon)
     4.47558384E-09   2       -11        11   # BR(h0 -> Electron electron)
     1.99083619E-04   2       -13        13   # BR(h0 -> Muon muon)
     5.74060943E-02   2       -15        15   # BR(h0 -> Tau tau)
     1.19900041E-07   2        -2         2   # BR(h0 -> Up up)
     2.32720996E-02   2        -4         4   # BR(h0 -> Charm charm)
     5.15637197E-07   2        -1         1   # BR(h0 -> Down down)
     1.86494984E-04   2        -3         3   # BR(h0 -> Strange strange)
     4.98023904E-01   2        -5         5   # BR(h0 -> Bottom bottom)
DECAY        35     3.46994615E+01   # Gamma(HH)
     2.78919791E-07   2        22        22   # BR(HH -> photon photon)
     5.67860872E-07   2        22        23   # BR(HH -> photon Z)
     1.23349980E-06   2        23        23   # BR(HH -> Z Z)
     1.90111825E-06   2       -24        24   # BR(HH -> W W)
     6.39137336E-05   2        21        21   # BR(HH -> gluon gluon)
     7.97898788E-09   2       -11        11   # BR(HH -> Electron electron)
     3.55127701E-04   2       -13        13   # BR(HH -> Muon muon)
     1.02543717E-01   2       -15        15   # BR(HH -> Tau tau)
     3.37626198E-14   2        -2         2   # BR(HH -> Up up)
     6.54696625E-09   2        -4         4   # BR(HH -> Charm charm)
     4.07147949E-04   2        -6         6   # BR(HH -> Top top)
     6.91232026E-07   2        -1         1   # BR(HH -> Down down)
     2.50028316E-04   2        -3         3   # BR(HH -> Strange strange)
     7.06589592E-01   2        -5         5   # BR(HH -> Bottom bottom)
     1.92966790E-02   2  -1000024   1000024   # BR(HH -> Chargino1 chargino1)
     4.64423534E-02   2  -1000024   1000037   # BR(HH -> Chargino1 chargino2)
     4.64423534E-02   2  -1000037   1000024   # BR(HH -> Chargino2 chargino1)
     2.92992505E-04   2  -1000037   1000037   # BR(HH -> Chargino2 chargino2)
     4.35580304E-03   2   1000022   1000022   # BR(HH -> neutralino1 neutralino1)
     1.14229137E-02   2   1000022   1000023   # BR(HH -> neutralino1 neutralino2)
     2.64069498E-04   2   1000022   1000025   # BR(HH -> neutralino1 neutralino3)
     1.35412058E-02   2   1000022   1000035   # BR(HH -> neutralino1 neutralino4)
     3.89700893E-03   2   1000023   1000023   # BR(HH -> neutralino2 neutralino2)
     3.81093012E-03   2   1000023   1000025   # BR(HH -> neutralino2 neutralino3)
     1.75752739E-02   2   1000023   1000035   # BR(HH -> neutralino2 neutralino4)
     5.10174744E-03   2   1000025   1000025   # BR(HH -> neutralino3 neutralino3)
     1.71776400E-02   2   1000025   1000035   # BR(HH -> neutralino3 neutralino4)
     1.55210003E-04   2   1000035   1000035   # BR(HH -> neutralino4 neutralino4)
     9.60506842E-06   2        25        25   # BR(HH -> h0 h0)
DECAY        36     3.37151019E+01   # Gamma(A0)
     5.81356970E-08   2        22        22   # BR(A0 -> photon photon)
     4.67588240E-07   2        22        23   # BR(A0 -> photon Z)
     8.53031982E-05   2        21        21   # BR(A0 -> gluon gluon)
     7.92945612E-09   2       -11        11   # BR(A0 -> Electron electron)
     3.52923209E-04   2       -13        13   # BR(A0 -> Muon muon)
     1.01908929E-01   2       -15        15   # BR(A0 -> Tau tau)
     3.15196907E-14   2        -2         2   # BR(A0 -> Up up)
     6.10753267E-09   2        -4         4   # BR(A0 -> Charm charm)
     4.57350340E-04   2        -6         6   # BR(A0 -> Top top)
     6.86910422E-07   2        -1         1   # BR(A0 -> Down down)
     2.48465101E-04   2        -3         3   # BR(A0 -> Strange strange)
     7.02202122E-01   2        -5         5   # BR(A0 -> Bottom bottom)
     2.36545639E-02   2  -1000024   1000024   # BR(A0 -> Chargino1 chargino1)
     4.48811918E-02   2  -1000024   1000037   # BR(A0 -> Chargino1 chargino2)
     4.48811918E-02   2  -1000037   1000024   # BR(A0 -> Chargino2 chargino1)
     1.85701553E-03   2  -1000037   1000037   # BR(A0 -> Chargino2 chargino2)
     5.71515361E-03   2   1000022   1000022   # BR(A0 -> neutralino1 neutralino1)
     9.48233582E-03   2   1000022   1000023   # BR(A0 -> neutralino1 neutralino2)
     3.48223163E-04   2   1000022   1000025   # BR(A0 -> neutralino1 neutralino3)
     9.28009713E-03   2   1000022   1000035   # BR(A0 -> neutralino1 neutralino4)
     4.55305746E-03   2   1000023   1000023   # BR(A0 -> neutralino2 neutralino2)
     2.52786233E-03   2   1000023   1000025   # BR(A0 -> neutralino2 neutralino3)
     2.92985425E-02   2   1000023   1000035   # BR(A0 -> neutralino2 neutralino4)
     8.15860526E-03   2   1000025   1000025   # BR(A0 -> neutralino3 neutralino3)
     9.12113267E-03   2   1000025   1000035   # BR(A0 -> neutralino3 neutralino4)
     9.82785143E-04   2   1000035   1000035   # BR(A0 -> neutralino4 neutralino4)
     1.92208580E-06   2        23        25   # BR(A0 -> Z h0)
     1.34148457E-36   2        25        25   # BR(A0 -> h0 h0)
DECAY        37     3.66150350E+01   # Gamma(Hp)
     9.24253831E-09   2       -11        12   # BR(Hp -> Electron nu_e)
     3.95147369E-04   2       -13        14   # BR(Hp -> Muon nu_mu)
     1.11769332E-01   2       -15        16   # BR(Hp -> Tau nu_tau)
     6.93420062E-07   2        -1         2   # BR(Hp -> Down up)
     1.15253017E-05   2        -3         2   # BR(Hp -> Strange up)
     7.88304371E-06   2        -5         2   # BR(Hp -> Bottom up)
     3.21702350E-08   2        -1         4   # BR(Hp -> Down charm)
     2.49917326E-04   2        -3         4   # BR(Hp -> Strange charm)
     1.10390405E-03   2        -5         4   # BR(Hp -> Bottom charm)
     2.90867057E-08   2        -1         6   # BR(Hp -> Down top)
     9.73558482E-07   2        -3         6   # BR(Hp -> Strange top)
     7.04543390E-01   2        -5         6   # BR(Hp -> Bottom top)
     2.76531292E-02   2   1000022   1000024   # BR(Hp -> neutralino1 chargino1)
     2.13073292E-02   2   1000022   1000037   # BR(Hp -> neutralino1 chargino2)
     1.23312754E-03   2   1000023   1000024   # BR(Hp -> neutralino2 chargino1)
     5.60468684E-02   2   1000023   1000037   # BR(Hp -> neutralino2 chargino2)
     2.09858171E-03   2   1000024   1000025   # BR(Hp -> chargino1 neutralino3)
     2.47612218E-02   2   1000025   1000037   # BR(Hp -> neutralino3 chargino2)
     4.88147422E-02   2   1000024   1000035   # BR(Hp -> chargino1 neutralino4)
     2.73308023E-07   2   1000035   1000037   # BR(Hp -> neutralino4 chargino2)
     1.86611903E-06   2        24        25   # BR(Hp -> W h0)
     1.25695699E-08   2        24        35   # BR(Hp -> W HH)
     1.12192634E-08   2        24        36   # BR(Hp -> W A0)
DECAY         6     2.43000000E+00   # top
#    BR                NDA      ID1      ID2
     1.00000000E+00    2           5        24   # BR(t -> b W)
Block HiggsBoundsInputHiggsCouplingsFermions
# ScalarNormEffCoupSq PseudoSNormEffCoupSq NP IP1 IP2 IP2
    1.02393800E+00    0.00000000E+00        3  25   5   5  # h0-b-b eff. coupling^2, normalised to SM
    2.23529178E+03    0.00000000E+00        3  35   5   5  # H0-b-b eff. coupling^2, normalised to SM
    0.00000000E+00    2.23531572E+03        3  36   5   5  # A0-b-b eff. coupling^2, normalised to SM
#
    9.99989291E-01    0.00000000E+00        3  25   6   6  # h0-t-t eff. coupling^2, normalised to SM
    4.58073099E-04    0.00000000E+00        3  35   6   6  # H0-t-t eff. coupling^2, normalised to SM
    0.00000000E+00    4.47364098E-04        3  36   6   6  # A0-t-t eff. coupling^2, normalised to SM
#
    1.02393800E+00    0.00000000E+00        3  25  15  15  # h0-tau-tau eff. coupling^2, normalised to SM
    2.23529178E+03    0.00000000E+00        3  35  15  15  # H0-tau-tau eff. coupling^2, normalised to SM
    0.00000000E+00    2.23531572E+03        3  36  15  15  # A0-tau-tau eff. coupling^2, normalised to SM
#
Block HiggsBoundsInputHiggsCouplingsBosons
    9.99999937E-01        3  25  24  24  # h0-W-W eff. coupling^2, normalised to SM
    6.33325694E-08        3  35  24  24  # H0-W-W eff. coupling^2, normalised to SM
    0.00000000E+00        3  36  24  24  # A0-W-W eff. coupling^2, normalised to SM
#
    9.99999937E-01        3  25  23  23  # h0-Z-Z eff. coupling^2, normalised to SM
    6.33325694E-08        3  35  23  23  # H0-Z-Z eff. coupling^2, normalised to SM
    0.00000000E+00        3  36  23  23  # A0-Z-Z eff. coupling^2, normalised to SM
#
    1.26041581E+00        3  25  21  21  # h0-g-g eff. coupling^2, normalised to SM
    3.49960996E-02        3  35  21  21  # H0-g-g eff. coupling^2, normalised to SM
    1.84506497E-01        3  36  21  21  # A0-g-g eff. coupling^2, normalised to SM
#
    0.00000000E+00        3  25  25  23  # h0-h0-Z eff. coupling^2, normalised to SM
    0.00000000E+00        3  35  25  23  # H0-h0-Z eff. coupling^2, normalised to SM
    6.33325694E-08        3  36  25  23  # A0-h0-Z eff. coupling^2, normalised to SM
    0.00000000E+00        3  35  35  23  # H0-H0-Z eff. coupling^2, normalised to SM
    9.99999937E-01        3  36  35  23  # A0-H0-Z eff. coupling^2, normalised to SM
    0.00000000E+00        3  36  36  23  # A0-A0-Z eff. coupling^2, normalised to SM
#
    0.00000000E+00        4  25  21  21  23  # h0-g-g-Z eff. coupling^2, normalised to SM
    0.00000000E+00        4  35  21  21  23  # H0-g-g-Z eff. coupling^2, normalised to SM
    0.00000000E+00        4  36  21  21  23  # A0-g-g-Z eff. coupling^2, normalised to SM
Block SPhenoLowEnergy  # low energy observables
    1    3.44868523E-04   # BR(b -> s gamma)
    2    1.58750923E-06   # BR(b -> s mu+ mu-)
    3    3.52440447E-05   # BR(b -> s nu nu)
    4    1.70487187E-14   # BR(Bd -> e+ e-)
    5    7.28027132E-10   # BR(Bd -> mu+ mu-)
    6    1.36618174E-07   # BR(Bd -> tau+ tau-)
    7    6.03154715E-13   # BR(Bs -> e+ e-)
    8    2.57570835E-08   # BR(Bs -> mu+ mu-)
    9    4.90056468E-06   # BR(Bs -> tau+ tau-)
   10    8.22339913E-05   # BR(B_u -> tau nu)
   11    8.49445648E-01   # BR(B_u -> tau nu)/BR(B_u -> tau nu)_SM
   12    5.41712203E-01   # |Delta(M_Bd)| [ps^-1] 
   13    1.93464389E+01   # |Delta(M_Bs)| [ps^-1] 
   14    0.00000000E+00   # neutron EDM according to the chiral quark model
   15    0.00000000E+00   # neutron EDM according to the relativistic quark-parton model
   16    2.15749067E-03   # epsilon_K
   17    2.28167987E-15   # Delta(M_K)
   18    2.47955728E-11   # BR(K^0 -> pi^0 nu nu)
   19    8.28937235E-11   # BR(K^+ -> pi^+ nu nu)
   20   -3.55982026E-16   # Delta(g-2)_electron/2
   21   -1.52195317E-11   # Delta(g-2)_muon/2
   22   -4.32037218E-09   # Delta(g-2)_tau/2
   23    0.00000000E+00   # electric dipole moment of the electron
   24    0.00000000E+00   # electric dipole moment of the muon
   25    0.00000000E+00   # electric dipole moment of the tau
   26    0.00000000E+00   # Br(mu -> e gamma)
   27    0.00000000E+00   # Br(tau -> e gamma)
   28    0.00000000E+00   # Br(tau -> mu gamma)
   29    0.00000000E+00   # Br(mu -> 3 e)
   30    0.00000000E+00   # Br(tau -> 3 e)
   31    0.00000000E+00   # Br(tau -> 3 mu)
   39    7.53725294E-05   # Delta(rho_parameter)
   40    0.00000000E+00   # BR(Z -> e mu)
   41    0.00000000E+00   # BR(Z -> e tau)
   42    0.00000000E+00   # BR(Z -> mu tau)
Block FWCOEF Q=  1.60000000E+02  # Wilson coefficients at scale Q
#    id        order  M        value         comment
     0305 4422   00   0    -1.88819110E-01   # C7
     0305 4422   00   2    -2.11389703E-01   # C7
     0305 4322   00   2    -7.48820158E-04   # C7'
     0305 6421   00   0    -9.52278348E-02   # C8
     0305 6421   00   2    -1.31644829E-01   # C8
     0305 6321   00   2    -8.93110084E-04   # C8'
 03051111 4133   00   0     1.62356992E+00   # C9 e+e-
 03051111 4133   00   2     1.62387495E+00   # C9 e+e-
 03051111 4233   00   2     2.86270019E-04   # C9' e+e-
 03051111 4137   00   0    -4.44626203E+00   # C10 e+e-
 03051111 4137   00   2    -4.44382242E+00   # C10 e+e-
 03051111 4237   00   2    -2.12614493E-03   # C10' e+e-
 03051313 4133   00   0     1.62356992E+00   # C9 mu+mu-
 03051313 4133   00   2     1.62387473E+00   # C9 mu+mu-
 03051313 4233   00   2     2.86227849E-04   # C9' mu+mu-
 03051313 4137   00   0    -4.44626203E+00   # C10 mu+mu-
 03051313 4137   00   2    -4.44382264E+00   # C10 mu+mu-
 03051313 4237   00   2    -2.12610369E-03   # C10' mu+mu-
 03051212 4137   00   0     1.50535012E+00   # C11 nu_1 nu_1
 03051212 4137   00   2     1.50482424E+00   # C11 nu_1 nu_1
 03051212 4237   00   2     4.60074272E-04   # C11' nu_1 nu_1
 03051414 4137   00   0     1.50535012E+00   # C11 nu_2 nu_2
 03051414 4137   00   2     1.50482424E+00   # C11 nu_2 nu_2
 03051414 4237   00   2     4.60083348E-04   # C11' nu_2 nu_2
 03051616 4137   00   0     1.50535012E+00   # C11 nu_3 nu_3
 03051616 4137   00   2     1.50482424E+00   # C11 nu_3 nu_3
 03051616 4237   00   2     4.62641142E-04   # C11' nu_3 nu_3
Block IMFWCOEF Q=  1.60000000E+02  # Im(Wilson coefficients) at scale Q
#    id        order  M        value         comment
     0305 4422   00   0     3.85830704E-07   # C7
     0305 4422   00   2    -1.84619824E-05   # C7
     0305 4322   00   2     1.38425758E-06   # C7'
     0305 6421   00   0     3.30489514E-07   # C8
     0305 6421   00   2     2.39273075E-05   # C8
     0305 6321   00   2     1.11889938E-06   # C8'
 03051111 4133   00   2     8.31134551E-07   # C9 e+e-
 03051111 4233   00   2     1.14396519E-05   # C9' e+e-
 03051111 4137   00   2     2.46839701E-06   # C10 e+e-
 03051111 4237   00   2    -8.50327303E-05   # C10' e+e-
 03051313 4133   00   2     8.31128250E-07   # C9 mu+mu-
 03051313 4233   00   2     1.14396476E-05   # C9' mu+mu-
 03051313 4137   00   2     2.46840400E-06   # C10 mu+mu-
 03051313 4237   00   2    -8.50327430E-05   # C10' mu+mu-
 03051212 4137   00   2    -4.97880045E-07   # C11 nu_1 nu_1
 03051212 4237   00   2     1.84001615E-05   # C11' nu_1 nu_1
 03051414 4137   00   2    -4.97879705E-07   # C11 nu_2 nu_2
 03051414 4237   00   2     1.84001615E-05   # C11' nu_2 nu_2
 03051616 4137   00   2    -4.97783995E-07   # C11 nu_3 nu_3
 03051616 4237   00   2     1.84001615E-05   # C11' nu_3 nu_3
