# SUSY Les Houches Accord 2 - MSSM spectrum + Decays
# SPheno v4.0.5be
# W. Porod, Comput. Phys. Commun. 153 (2003) 275-315, hep-ph/0301101;
# W. Porod, F.~Staub, Comput. Phys. Commun. 183 (2012) 2458
#                     arXiv:1104.1573 [hep-ph] 
# in case of problems send email to porod@physik.uni-wuerzburg.de
# Created: 18.08.2022,  12:16
Block SPINFO         # Program information
     1   SPheno      # spectrum calculator
     2   v4.0.5be    # version number
#
Block SPhenoINFO     # SPheno specific information
    1      2         # using 2-loop RGEs
    2      2         # using pole masses for boundary conditions at mZ
Block MODSEL  # Model selection
    1    0    # general MSSM
Block MINPAR  # Input parameters
    3    3.36452838E+01  # tanb at m_Z    
    4   -1.00000000E+00  # Sign(mu)
Block EXTPAR  # non-universal input parameters
    0    2.46562574E+03  # scale for input parameters
    1    6.66171699E+02  # M_1
    2   -5.68068015E+02  # M_2
    3    1.94872050E+03  # M_3
   11   -5.96342443E+03  # A_t
   12    8.93338529E+02  # A_b
   13    1.63533590E+03  # A_tau
   23   -6.47778608E+01  # mu
   25    3.26592006E+01  # tan(beta)
   26    3.55368519E+02  # m_A, pole mass
   31    1.46122516E+03  # M_L11
   32    1.46122516E+03  # M_L22
   33    1.21289597E+03  # M_L33
   34    1.53071536E+02  # M_E11
   35    1.53071536E+02  # M_E22
   36    1.05825253E+03  # M_E33
   41    2.70967374E+03  # M_Q11
   42    2.70967374E+03  # M_Q22
   43    3.09425111E+03  # M_Q33
   44    3.69121688E+03  # M_U11
   45    3.69121688E+03  # M_U22
   46    1.99665849E+03  # M_U33
   47    3.32118892E+03  # M_D11
   48    3.32118892E+03  # M_D22
   49    1.50034889E+03  # M_D33
Block SMINPUTS  # SM parameters
         1     1.27908970E+02  # alpha_em^-1(MZ)^MSbar
         2     1.16637870E-05  # G_mu [GeV^-2]
         3     1.18400000E-01  # alpha_s(MZ)^MSbar
         4     9.11876000E+01  # m_Z(pole)
         5     4.18000000E+00  # m_b(m_b), MSbar
         6     1.73200000E+02  # m_t(pole)
         7     1.77700000E+00  # m_tau(pole)
         8     0.00000000E+00  # m_nu_3
        11     5.10998930E-04  # m_e(pole)
        12     0.00000000E+00  # m_nu_1
        13     1.05658372E-01  # m_muon(pole)
        14     0.00000000E+00  # m_nu_2
        21     5.00000000E-03  # m_d(2 GeV), MSbar
        22     2.50000000E-03  # m_u(2 GeV), MSbar
        23     9.50000000E-02  # m_s(2 GeV), MSbar
        24     1.27000000E+00  # m_c(m_c), MSbar
Block gauge Q=  2.46562574E+03  # (SUSY scale)
   1    3.55362975E-01  # g'(Q)^DRbar
   2    6.65198874E-01  # g(Q)^DRbar
   3    1.21977796E+00  # g3(Q)^DRbar
Block Yu Q=  2.46562574E+03  # (SUSY scale)
  1  1     8.38830155E-06   # Y_u(Q)^DRbar
  2  2     4.26125719E-03   # Y_c(Q)^DRbar
  3  3     1.01337420E+00   # Y_t(Q)^DRbar
Block Yd Q=  2.46562574E+03  # (SUSY scale)
  1  1     5.50503180E-04   # Y_d(Q)^DRbar
  2  2     1.04595604E-02   # Y_s(Q)^DRbar
  3  3     5.45926652E-01   # Y_b(Q)^DRbar
Block Ye Q=  2.46562574E+03  # (SUSY scale)
  1  1     9.60668305E-05   # Y_e(Q)^DRbar
  2  2     1.98635737E-02   # Y_mu(Q)^DRbar
  3  3     3.34072633E-01   # Y_tau(Q)^DRbar
Block Au Q=  2.46562574E+03  # (SUSY scale)
  1  1     0.00000000E+00   # A_u(Q)^DRbar
  2  2     0.00000000E+00   # A_c(Q)^DRbar
  3  3    -5.96342507E+03   # A_t(Q)^DRbar
Block Ad Q=  2.46562574E+03  # (SUSY scale)
  1  1     0.00000000E+00   # A_d(Q)^DRbar
  2  2     0.00000000E+00   # A_s(Q)^DRbar
  3  3     8.93338551E+02   # A_b(Q)^DRbar
Block Ae Q=  2.46562574E+03  # (SUSY scale)
  1  1     0.00000000E+00   # A_e(Q)^DRbar
  2  2     0.00000000E+00   # A_mu(Q)^DRbar
  3  3     1.63533589E+03   # A_tau(Q)^DRbar
Block MSOFT Q=  2.46562574E+03  # soft SUSY breaking masses at Q
   1    6.66171699E+02  # M_1
   2   -5.68068015E+02  # M_2
   3    1.94872050E+03  # M_3
  21    1.61252502E+05  # M^2_(H,d)
  22    7.71268142E+04  # M^2_(H,u)
  31    1.46122516E+03  # M_(L,11)
  32    1.46122516E+03  # M_(L,22)
  33    1.21289597E+03  # M_(L,33)
  34    1.53071536E+02  # M_(E,11)
  35    1.53071536E+02  # M_(E,22)
  36    1.05825253E+03  # M_(E,33)
  41    2.70967374E+03  # M_(Q,11)
  42    2.70967374E+03  # M_(Q,22)
  43    3.09425111E+03  # M_(Q,33)
  44    3.69121688E+03  # M_(U,11)
  45    3.69121688E+03  # M_(U,22)
  46    1.99665849E+03  # M_(U,33)
  47    3.32118892E+03  # M_(D,11)
  48    3.32118892E+03  # M_(D,22)
  49    1.50034889E+03  # M_(D,33)
Block MASS  # Mass spectrum
#   PDG code      mass          particle
         6     1.73200000E+02  # m_t(pole)
        23     9.11876000E+01  # m_Z(pole)
        24     8.04299946E+01  # W+
        15     1.77700000E+00  # m_tau(pole)
        25     1.26927415E+02  # h0
        35     3.55430484E+02  # H0
        36     3.55368519E+02  # A0
        37     3.66001322E+02  # H+
   1000001     2.77975417E+03  # ~d_L
   2000001     3.37351737E+03  # ~d_R
   1000002     2.77869936E+03  # ~u_L
   2000002     3.74144867E+03  # ~u_R
   1000003     2.77975209E+03  # ~s_L
   2000003     3.37351393E+03  # ~s_R
   1000004     2.77869737E+03  # ~c_L
   2000004     3.74144822E+03  # ~c_R
   1000005     1.59804277E+03  # ~b_1
   2000005     3.07360793E+03  # ~b_2
   1000006     1.96352917E+03  # ~t_1
   2000006     3.09611407E+03  # ~t_2
   1000011     1.46649523E+03  # ~e_L-
   2000011     1.81252704E+02  # ~e_R-
   1000012     1.46400017E+03  # ~nu_eL
   1000013     1.46648820E+03  # ~mu_L-
   2000013     1.81178834E+02  # ~mu_R-
   1000014     1.46399337E+03  # ~nu_muL
   1000015     1.05294877E+03  # ~tau_1-
   2000015     1.21386784E+03  # ~tau_2-
   1000016     1.21103602E+03  # ~nu_tauL
   1000021     2.18223531E+03  # ~g
   1000022     7.13984300E+01  # ~chi_10
   1000023     7.85137314E+01  # ~chi_20
   1000025     6.05682391E+02  # ~chi_30
   1000035     6.57709615E+02  # ~chi_40
   1000024     7.42381703E+01  # ~chi_1+
   1000037     6.05959929E+02  # ~chi_2+
# Higgs mixing
Block alpha # Effective Higgs mixing angle
          -3.60712674E-02   # alpha
Block Hmix Q=  2.46562574E+03  # Higgs mixing parameters
   1   -6.47778608E+01  # mu
   2    3.26592006E+01  # tan[beta](Q)
   3    2.43420253E+02  # v(Q)
   4    1.26286784E+05  # m^2_A(Q)
Block stopmix # stop mixing matrix
   1  1     1.46977809E-01   # Re[R_st(1,1)]
   1  2     9.89139790E-01   # Re[R_st(1,2)]
   2  1    -9.89139790E-01   # Re[R_st(2,1)]
   2  2     1.46977809E-01   # Re[R_st(2,2)]
Block sbotmix # sbottom mixing matrix
   1  1    -8.17243274E-04   # Re[R_sb(1,1)]
   1  2     9.99999666E-01   # Re[R_sb(1,2)]
   2  1    -9.99999666E-01   # Re[R_sb(2,1)]
   2  2    -8.17243274E-04   # Re[R_sb(2,2)]
Block staumix # stau mixing matrix
   1  1    -1.91053937E-02   # Re[R_sta(1,1)]
   1  2     9.99817475E-01   # Re[R_sta(1,2)]
   2  1    -9.99817475E-01   # Re[R_sta(2,1)]
   2  2    -1.91053937E-02   # Re[R_sta(2,2)]
Block Nmix # neutralino mixing matrix
   1  1    -4.30817911E-02   # Re[N(1,1)]
   1  2    -1.06157448E-01   # Re[N(1,2)]
   1  3    -7.22477298E-01   # Re[N(1,3)]
   1  4     6.81836571E-01   # Re[N(1,4)]
   2  1    -5.36968534E-02   # Re[N(2,1)]
   2  2    -8.25297224E-02   # Re[N(2,2)]
   2  3     6.91085401E-01   # Re[N(2,3)]
   2  4     7.16035238E-01   # Re[N(2,4)]
   3  1    -4.77177576E-03   # Re[N(3,1)]
   3  2     9.90909211E-01   # Re[N(3,2)]
   3  3    -1.98160987E-02   # Re[N(3,3)]
   3  4     1.32979278E-01   # Re[N(3,4)]
   4  1     9.97616077E-01   # Re[N(4,1)]
   4  2    -4.28686240E-03   # Re[N(4,2)]
   4  3     5.90300977E-03   # Re[N(4,3)]
   4  4     6.86217160E-02   # Re[N(4,4)]
Block Umix # chargino mixing matrix
   1  1    -2.81272288E-02   # Re[U(1,1)]
   1  2    -9.99604351E-01   # Re[U(1,2)]
   2  1    -9.99604351E-01   # Re[U(2,1)]
   2  2     2.81272288E-02   # Re[U(2,2)]
Block Vmix # chargino mixing matrix
   1  1     1.89047970E-01   # Re[V(1,1)]
   1  2     9.81967853E-01   # Re[V(1,2)]
   2  1     9.81967853E-01   # Re[V(2,1)]
   2  2    -1.89047970E-01   # Re[V(2,2)]
DECAY        23     2.49520000E+00   # Z
DECAY        24     2.08500000E+00   # W
DECAY   2000011     2.93945815E-03   # ~e^-_R
#    BR                NDA      ID1      ID2
     4.10442296E-01    2     1000022        11   # BR(~e^-_R -> chi^0_1 e^-)
     5.89549869E-01    2     1000023        11   # BR(~e^-_R -> chi^0_2 e^-)
DECAY   1000011     1.45563759E+01   # ~e^-_L
#    BR                NDA      ID1      ID2
     7.36394960E-03    2     1000022        11   # BR(~e^-_L -> chi^0_1 e^-)
     5.45343471E-03    2     1000023        11   # BR(~e^-_L -> chi^0_2 e^-)
     2.97995505E-01    2     1000025        11   # BR(~e^-_L -> chi^0_3 e^-)
     7.90898717E-02    2     1000035        11   # BR(~e^-_L -> chi^0_4 e^-)
     6.98048623E-04    2    -1000024        12   # BR(~e^-_L -> chi^-_1 nu_e)
     6.09399191E-01    2    -1000037        12   # BR(~e^-_L -> chi^-_2 nu_e)
#    BR                NDA      ID1      ID2       ID3
DECAY   2000013     4.89910258E-03   # ~mu^-_R
#    BR                NDA      ID1      ID2
     3.54027255E-01    2     1000022        13   # BR(~mu^-_R -> chi^0_1 mu^-)
     4.45133934E-01    2     1000023        13   # BR(~mu^-_R -> chi^0_2 mu^-)
     2.00838812E-01    2    -1000024        14   # BR(~mu^-_R -> chi^-_1 nu_mu)
DECAY   1000013     1.45677084E+01   # ~mu^-_L
#    BR                NDA      ID1      ID2
     7.76870599E-03    2     1000022        13   # BR(~mu^-_L -> chi^0_1 mu^-)
     5.82436917E-03    2     1000023        13   # BR(~mu^-_L -> chi^0_2 mu^-)
     2.97761258E-01    2     1000025        13   # BR(~mu^-_L -> chi^0_3 mu^-)
     7.90276079E-02    2     1000035        13   # BR(~mu^-_L -> chi^0_4 mu^-)
     6.97502218E-04    2    -1000024        14   # BR(~mu^-_L -> chi^-_1 nu_mu)
     6.08919802E-01    2    -1000037        14   # BR(~mu^-_L -> chi^-_2 nu_mu)
#    BR                NDA      ID1      ID2       ID3
DECAY   1000015     6.61550460E+00   # ~tau^-_1
#    BR                NDA      ID1      ID2
     1.85367405E-01    2     1000022        15   # BR(~tau^-_1 -> chi^0_1 tau^-)
     1.68501492E-01    2     1000023        15   # BR(~tau^-_1 -> chi^0_2 tau^-)
     2.95869726E-01    2     1000035        15   # BR(~tau^-_1 -> chi^0_4 tau^-)
     3.50231252E-01    2    -1000024        16   # BR(~tau^-_1 -> chi^-_1 nu_tau)
DECAY   2000015     1.25429957E+01   # ~tau^-_2
#    BR                NDA      ID1      ID2
     1.17758439E-01    2     1000022        15   # BR(~tau^-_2 -> chi^0_1 tau^-)
     1.07406195E-01    2     1000023        15   # BR(~tau^-_2 -> chi^0_2 tau^-)
     2.34778135E-01    2     1000025        15   # BR(~tau^-_2 -> chi^0_3 tau^-)
     5.95095223E-02    2     1000035        15   # BR(~tau^-_2 -> chi^0_4 tau^-)
     2.90362524E-04    2    -1000024        16   # BR(~tau^-_2 -> chi^-_1 nu_tau)
     4.79939035E-01    2    -1000037        16   # BR(~tau^-_2 -> chi^-_2 nu_tau)
     1.49861090E-04    2     1000015        23   # BR(~tau^-_2 -> ~tau^-_1 Z)
     1.68449614E-04    2     1000015        25   # BR(~tau^-_2 -> ~tau^-_1 h^0)
#    BR                NDA      ID1      ID2       ID3
DECAY   1000012     1.46088109E+01   # ~nu_e
#    BR                NDA      ID1      ID2
     3.03462317E-03    2     1000022        12   # BR(~nu_e -> chi^0_1 nu_e)
     1.27144715E-03    2     1000023        12   # BR(~nu_e -> chi^0_2 nu_e)
     2.99066643E-01    2     1000025        12   # BR(~nu_e -> chi^0_3 nu_e)
     8.11048734E-02    2     1000035        12   # BR(~nu_e -> chi^0_4 nu_e)
     3.13665914E-02    2     1000024        11   # BR(~nu_e -> chi^+_1 e^-)
     5.84155822E-01    2     1000037        11   # BR(~nu_e -> chi^+_2 e^-)
DECAY   1000014     1.46201173E+01   # ~nu_mu
#    BR                NDA      ID1      ID2
     3.03226212E-03    2     1000022        14   # BR(~nu_mu -> chi^0_1 nu_mu)
     1.27045791E-03    2     1000023        14   # BR(~nu_mu -> chi^0_2 nu_mu)
     2.98832825E-01    2     1000025        14   # BR(~nu_mu -> chi^0_3 nu_mu)
     8.10413937E-02    2     1000035        14   # BR(~nu_mu -> chi^0_4 nu_mu)
     3.21234591E-02    2     1000024        13   # BR(~nu_mu -> chi^+_1 mu^-)
     5.83699601E-01    2     1000037        13   # BR(~nu_mu -> chi^+_2 mu^-)
DECAY   1000016     1.26015298E+01   # ~nu_tau
#    BR                NDA      ID1      ID2
     2.90373046E-03    2     1000022        16   # BR(~nu_tau -> chi^0_1 nu_tau)
     1.21604347E-03    2     1000023        16   # BR(~nu_tau -> chi^0_2 nu_tau)
     2.34747843E-01    2     1000025        16   # BR(~nu_tau -> chi^0_3 nu_tau)
     6.06874399E-02    2     1000035        16   # BR(~nu_tau -> chi^0_4 nu_tau)
     2.41586308E-01    2     1000024        15   # BR(~nu_tau -> chi^+_1 tau^-)
     4.58534643E-01    2     1000037        15   # BR(~nu_tau -> chi^+_2 tau^-)
     3.23992655E-04    2     1000015        24   # BR(~nu_tau -> ~tau^-_1 W^+)
DECAY   1000001     6.59689297E+01   # ~d_L
#    BR                NDA      ID1      ID2
     1.79669953E-03    2     1000022         1   # BR(~d_L -> chi^0_1 d)
     9.86034106E-04    2     1000023         1   # BR(~d_L -> chi^0_2 d)
     1.65513687E-01    2     1000025         1   # BR(~d_L -> chi^0_3 d)
     5.47099867E-03    2     1000035         1   # BR(~d_L -> chi^0_4 d)
     2.93045016E-04    2    -1000024         2   # BR(~d_L -> chi^-_1 u)
     3.36254614E-01    2    -1000037         2   # BR(~d_L -> chi^-_2 u)
     4.89684923E-01    2     1000021         1   # BR(~d_L -> ~g d)
DECAY   2000001     9.18025427E+01   # ~d_R
#    BR                NDA      ID1      ID2
     1.88954767E-02    2     1000035         1   # BR(~d_R -> chi^0_4 d)
     9.81006508E-01    2     1000021         1   # BR(~d_R -> ~g d)
DECAY   1000003     6.59757412E+01   # ~s_L
#    BR                NDA      ID1      ID2
     1.84418559E-03    2     1000022         3   # BR(~s_L -> chi^0_1 s)
     1.02953544E-03    2     1000023         3   # BR(~s_L -> chi^0_2 s)
     1.65496475E-01    2     1000025         3   # BR(~s_L -> chi^0_3 s)
     5.47043123E-03    2     1000035         3   # BR(~s_L -> chi^0_4 s)
     3.07666328E-04    2    -1000024         4   # BR(~s_L -> chi^-_1 c)
     3.36220090E-01    2    -1000037         4   # BR(~s_L -> chi^-_2 c)
     4.89631616E-01    2     1000021         3   # BR(~s_L -> ~g s)
DECAY   2000003     9.18168126E+01   # ~s_R
#    BR                NDA      ID1      ID2
     1.88925198E-02    2     1000035         3   # BR(~s_R -> chi^0_4 s)
     9.80850147E-01    2     1000021         3   # BR(~s_R -> ~g s)
DECAY   1000005     1.92598021E+01   # ~b_1
#    BR                NDA      ID1      ID2
     2.55890300E-01    2     1000022         5   # BR(~b_1 -> chi^0_1 b)
     2.33936539E-01    2     1000023         5   # BR(~b_1 -> chi^0_2 b)
     1.32564984E-04    2     1000025         5   # BR(~b_1 -> chi^0_3 b)
     3.18130761E-02    2     1000035         5   # BR(~b_1 -> chi^0_4 b)
     4.77970998E-01    2    -1000024         6   # BR(~b_1 -> chi^-_1 t)
     2.56521659E-04    2    -1000037         6   # BR(~b_1 -> chi^-_2 t)
DECAY   2000005     2.67152395E+02   # ~b_2
#    BR                NDA      ID1      ID2
     3.60539606E-02    2     1000022         5   # BR(~b_2 -> chi^0_1 b)
     3.28098129E-02    2     1000023         5   # BR(~b_2 -> chi^0_2 b)
     4.60404310E-02    2     1000025         5   # BR(~b_2 -> chi^0_3 b)
     1.52858266E-03    2     1000035         5   # BR(~b_2 -> chi^0_4 b)
     2.24998217E-01    2    -1000024         6   # BR(~b_2 -> chi^-_1 t)
     1.01795052E-01    2    -1000037         6   # BR(~b_2 -> chi^-_2 t)
     2.23334200E-01    2     1000021         5   # BR(~b_2 -> ~g b)
     3.28536481E-01    2     1000006       -24   # BR(~b_2 -> ~t_1 W^-)
     8.23991403E-04    2     1000006       -37   # BR(~b_2 -> ~t_1 H^-)
     2.02372933E-03    2     1000005        36   # BR(~b_2 -> ~b_1 A^0)
     2.02137115E-03    2     1000005        35   # BR(~b_2 -> ~b_1 H^0)
DECAY   1000002     6.59485551E+01   # ~u_L
#    BR                NDA      ID1      ID2
     2.39978847E-03    2     1000022         2   # BR(~u_L -> chi^0_1 u)
     1.57031506E-03    2     1000023         2   # BR(~u_L -> chi^0_2 u)
     1.64922797E-01    2     1000025         2   # BR(~u_L -> chi^0_3 u)
     4.96670889E-03    2     1000035         2   # BR(~u_L -> chi^0_4 u)
     1.32373654E-02    2     1000024         1   # BR(~u_L -> chi^+_1 d)
     3.24446381E-01    2     1000037         1   # BR(~u_L -> chi^+_2 d)
     4.88456645E-01    2     1000021         2   # BR(~u_L -> ~g u)
DECAY   2000002     1.36418158E+02   # ~u_R
#    BR                NDA      ID1      ID2
     1.13595411E-04    2     1000022         2   # BR(~u_R -> chi^0_1 u)
     1.76443120E-04    2     1000023         2   # BR(~u_R -> chi^0_2 u)
     5.72468664E-02    2     1000035         2   # BR(~u_R -> chi^0_4 u)
     9.42461773E-01    2     1000021         2   # BR(~u_R -> ~g u)
DECAY   1000004     6.59552527E+01   # ~c_L
#    BR                NDA      ID1      ID2
     2.40661477E-03    2     1000022         4   # BR(~c_L -> chi^0_1 c)
     1.57795061E-03    2     1000023         4   # BR(~c_L -> chi^0_2 c)
     1.64905966E-01    2     1000025         4   # BR(~c_L -> chi^0_3 c)
     4.96625209E-03    2     1000035         4   # BR(~c_L -> chi^0_4 c)
     1.33272409E-02    2     1000024         3   # BR(~c_L -> chi^+_1 s)
     3.24413229E-01    2     1000037         3   # BR(~c_L -> chi^+_2 s)
     4.88402747E-01    2     1000021         4   # BR(~c_L -> ~g c)
DECAY   2000004     1.36420723E+02   # ~c_R
#    BR                NDA      ID1      ID2
     1.18195216E-04    2     1000022         4   # BR(~c_R -> chi^0_1 c)
     1.81513941E-04    2     1000023         4   # BR(~c_R -> chi^0_2 c)
     5.72458226E-02    2     1000035         4   # BR(~c_R -> chi^0_4 c)
     9.42443096E-01    2     1000021         4   # BR(~c_R -> ~g c)
DECAY   1000006     8.17911649E+01   # ~t_1
#    BR                NDA      ID1      ID2
     2.19836131E-01    2     1000022         6   # BR(~t_1 -> chi^0_1 t)
     2.43824621E-01    2     1000023         6   # BR(~t_1 -> chi^0_2 t)
     1.55874038E-02    2     1000025         6   # BR(~t_1 -> chi^0_3 t)
     4.15707251E-02    2     1000035         6   # BR(~t_1 -> chi^0_4 t)
     4.47296321E-01    2     1000024         5   # BR(~t_1 -> chi^+_1 b)
     3.18698935E-02    2     1000037         5   # BR(~t_1 -> chi^+_2 b)
#    BR                NDA      ID1      ID2       ID3
DECAY   2000006     2.87285652E+02   # ~t_2
#    BR                NDA      ID1      ID2
     1.03997466E-01    2     1000022         6   # BR(~t_2 -> chi^0_1 t)
     1.13693490E-01    2     1000023         6   # BR(~t_2 -> chi^0_2 t)
     4.12352872E-02    2     1000025         6   # BR(~t_2 -> chi^0_3 t)
     3.58185905E-03    2     1000035         6   # BR(~t_2 -> chi^0_4 t)
     7.80809142E-02    2     1000024         5   # BR(~t_2 -> chi^+_1 b)
     7.57688646E-02    2     1000037         5   # BR(~t_2 -> chi^+_2 b)
     2.00430770E-01    2     1000021         6   # BR(~t_2 -> ~g t)
     3.46186437E-03    2     1000005        37   # BR(~t_2 -> ~b_1 H^+)
     1.57077846E-01    2     1000006        23   # BR(~t_2 -> ~t_1 Z)
     3.97544566E-04    2     1000006        36   # BR(~t_2 -> ~t_1 A^0)
     2.21789368E-01    2     1000006        25   # BR(~t_2 -> ~t_1 h^0)
     4.66678960E-04    2     1000006        35   # BR(~t_2 -> ~t_1 H^0)
DECAY   1000024     5.21543031E-10   # chi^+_1
#    BR                NDA      ID1      ID2       ID3
     4.80014415E-01    3     1000022        -1         2   # BR(chi^+_1 -> chi^0_1 d_bar u)
     1.80279933E-01    3     1000022        -3         4   # BR(chi^+_1 -> chi^0_1 s_bar c)
     1.60012500E-01    3     1000022       -11        12   # BR(chi^+_1 -> chi^0_1 e^+ nu_e)
     1.58948186E-01    3     1000022       -13        14   # BR(chi^+_1 -> chi^0_1 mu^+ nu_mu)
     2.07449661E-02    3     1000022       -15        16   # BR(chi^+_1 -> chi^0_1 tau^+ nu_tau)
DECAY   1000037     7.17798379E+00   # chi^+_2
#    BR                NDA      ID1      ID2
     1.74149455E-01    2     1000022        24   # BR(chi^+_2 -> chi^0_1 W^+)
     1.89023958E-01    2     1000023        24   # BR(chi^+_2 -> chi^0_2 W^+)
     7.82205069E-02    2          37   1000022   # BR(chi^+_2 -> H^+ chi^0_1)
     6.69847307E-02    2          37   1000023   # BR(chi^+_2 -> H^+ chi^0_2)
     1.76464620E-01    2     1000024        23   # BR(chi^+_2 -> chi^+_1 Z)
     7.36216446E-02    2     1000024        36   # BR(chi^+_2 -> chi^+_1 A^0)
     1.65759649E-01    2     1000024        25   # BR(chi^+_2 -> chi^+_1 h^0)
     7.28091274E-02    2     1000024        35   # BR(chi^+_2 -> chi^+_1 H^0)
#    BR                NDA      ID1      ID2       ID3
     4.59363038E-04    3     1000024         6        -6   # BR(chi^+_2 -> chi^+_1 t t_bar)
     1.17923163E-03    3     1000022        -5         6   # BR(chi^+_2 -> chi^0_1 b_bar t)
     1.32298884E-03    3     1000023        -5         6   # BR(chi^+_2 -> chi^0_2 b_bar t)
DECAY   1000022     0.00000000E+00   # chi^0_1
DECAY   1000023     6.04091714E-08   # chi^0_2
#    BR                NDA      ID1      ID2
     2.47479936E-01    2     1000022        22   # BR(chi^0_2 -> chi^0_1 photon)
#    BR                NDA      ID1      ID2       ID3
     1.06123629E-01    3     1000022         2        -2   # BR(chi^0_2 -> chi^0_1 u u_bar)
     6.89149478E-02    3     1000022         4        -4   # BR(chi^0_2 -> chi^0_1 c c_bar)
     1.36066880E-01    3     1000022         1        -1   # BR(chi^0_2 -> chi^0_1 d d_bar)
     1.35784659E-01    3     1000022         3        -3   # BR(chi^0_2 -> chi^0_1 s s_bar)
     3.06698076E-02    3     1000022        11       -11   # BR(chi^0_2 -> chi^0_1 e^- e^+)
     3.05838357E-02    3     1000022        13       -13   # BR(chi^0_2 -> chi^0_1 mu^- mu^+)
     1.17114955E-02    3     1000022        15       -15   # BR(chi^0_2 -> chi^0_1 tau^- tau^+)
     1.81968751E-01    3     1000022        12       -12   # BR(chi^0_2 -> chi^0_1 nu_e nu_bar_e)
     1.02870219E-02    3     1000024         1        -2   # BR(chi^0_2 -> chi^+_1 d u_bar)
     1.02870219E-02    3    -1000024        -1         2   # BR(chi^0_2 -> chi^-_1 d_bar u)
     6.72657118E-03    3     1000024         3        -4   # BR(chi^0_2 -> chi^+_1 s c_bar)
     6.72657118E-03    3    -1000024        -3         4   # BR(chi^0_2 -> chi^-_1 s_bar c)
     3.42904313E-03    3     1000024        11       -12   # BR(chi^0_2 -> chi^+_1 e^- nu_bar_e)
     3.42904313E-03    3    -1000024       -11        12   # BR(chi^0_2 -> chi^-_1 e^+ nu_e)
     3.41909152E-03    3     1000024        13       -14   # BR(chi^0_2 -> chi^+_1 mu^- nu_bar_mu)
     3.41909152E-03    3    -1000024       -13        14   # BR(chi^0_2 -> chi^-_1 mu^+ nu_mu)
     1.48630177E-03    3     1000024        15       -16   # BR(chi^0_2 -> chi^+_1 tau^- nu_bar_tau)
     1.48630177E-03    3    -1000024       -15        16   # BR(chi^0_2 -> chi^-_1 tau^+ nu_tau)
DECAY   1000025     7.56979480E+00   # chi^0_3
#    BR                NDA      ID1      ID2
     1.76379358E-01    2     1000024       -24   # BR(chi^0_3 -> chi^+_1 W^-)
     1.76379358E-01    2    -1000024        24   # BR(chi^0_3 -> chi^-_1 W^+)
     6.89177606E-02    2          37  -1000024   # BR(chi^0_3 -> H^+ chi^-_1)
     6.89177606E-02    2         -37   1000024   # BR(chi^0_3 -> H^- chi^+_1)
     5.66319471E-02    2     1000022        23   # BR(chi^0_3 -> chi^0_1 Z)
     1.14401841E-01    2     1000023        23   # BR(chi^0_3 -> chi^0_2 Z)
     2.59519571E-02    2     1000022        36   # BR(chi^0_3 -> chi^0_1 A^0)
     2.00184916E-02    2     1000023        36   # BR(chi^0_3 -> chi^0_2 A^0)
     9.55825322E-02    2     1000022        25   # BR(chi^0_3 -> chi^0_1 h^0)
     9.37819754E-02    2     1000023        25   # BR(chi^0_3 -> chi^0_2 h^0)
     4.77822320E-02    2     1000022        35   # BR(chi^0_3 -> chi^0_1 H^0)
     5.16870962E-02    2     1000023        35   # BR(chi^0_3 -> chi^0_2 H^0)
#    BR                NDA      ID1      ID2       ID3
     1.70044346E-04    3     1000022         6        -6   # BR(chi^0_3 -> chi^0_1 t t_bar)
     1.80361561E-04    3     1000023         6        -6   # BR(chi^0_3 -> chi^0_2 t t_bar)
     1.57578097E-03    3     1000024         5        -6   # BR(chi^0_3 -> chi^+_1 b t_bar)
     1.57578097E-03    3    -1000024        -5         6   # BR(chi^0_3 -> chi^-_1 b_bar t)
DECAY   1000035     8.21673661E+00   # chi^0_4
#    BR                NDA      ID1      ID2
     1.70895888E-01    2     2000011       -11   # BR(chi^0_4 -> ~e^-_R e^+)
     1.70895888E-01    2    -2000011        11   # BR(chi^0_4 -> ~e^+_R e^-)
     1.70918817E-01    2     2000013       -13   # BR(chi^0_4 -> ~mu^-_R mu^+)
     1.70918817E-01    2    -2000013        13   # BR(chi^0_4 -> ~mu^+_R mu^-)
     5.34791138E-02    2     1000024       -24   # BR(chi^0_4 -> chi^+_1 W^-)
     5.34791138E-02    2    -1000024        24   # BR(chi^0_4 -> chi^-_1 W^+)
     2.34700187E-02    2          37  -1000024   # BR(chi^0_4 -> H^+ chi^-_1)
     2.34700187E-02    2         -37   1000024   # BR(chi^0_4 -> H^- chi^+_1)
     2.99694136E-02    2     1000022        23   # BR(chi^0_4 -> chi^0_1 Z)
     2.31973657E-02    2     1000023        23   # BR(chi^0_4 -> chi^0_2 Z)
     9.66943675E-03    2     1000022        36   # BR(chi^0_4 -> chi^0_1 A^0)
     7.50654883E-03    2     1000023        36   # BR(chi^0_4 -> chi^0_2 A^0)
     2.96765959E-02    2     1000022        25   # BR(chi^0_4 -> chi^0_1 h^0)
     2.84901847E-02    2     1000023        25   # BR(chi^0_4 -> chi^0_2 h^0)
     1.58395050E-02    2     1000022        35   # BR(chi^0_4 -> chi^0_1 H^0)
     1.71345725E-02    2     1000023        35   # BR(chi^0_4 -> chi^0_2 H^0)
#    BR                NDA      ID1      ID2       ID3
     4.05203869E-04    3     1000024         5        -6   # BR(chi^0_4 -> chi^+_1 b t_bar)
     4.05203869E-04    3    -1000024        -5         6   # BR(chi^0_4 -> chi^-_1 b_bar t)
DECAY   1000021     1.51144159E+01   # ~g
#    BR                NDA      ID1      ID2
     3.73662623E-02    2     1000006        -6   # BR(~g -> ~t_1 t_bar)
     3.73662623E-02    2    -1000006         6   # BR(~g -> ~t^*_1 t)
     4.59539700E-01    2     1000005        -5   # BR(~g -> ~b_1 b_bar)
     4.59539700E-01    2    -1000005         5   # BR(~g -> ~b^*_1 b)
     1.23471873E-04    2     1000022        21   # BR(~g -> chi^0_1 g)
     1.50811355E-04    2     1000023        21   # BR(~g -> chi^0_2 g)
#    BR                NDA      ID1      ID2       ID3
     4.70745987E-04    3     1000022         6        -6   # BR(~g -> chi^0_1 t t_bar)
     1.48567459E-04    3     1000022         5        -5   # BR(~g -> chi^0_1 b b_bar)
     5.11396652E-04    3     1000023         6        -6   # BR(~g -> chi^0_2 t t_bar)
     1.34801251E-04    3     1000023         5        -5   # BR(~g -> chi^0_2 b b_bar)
     2.95427678E-04    3     1000025         2        -2   # BR(~g -> chi^0_3 u u_bar)
     2.95429499E-04    3     1000025         4        -4   # BR(~g -> chi^0_3 c c_bar)
     1.23025155E-04    3     1000025         6        -6   # BR(~g -> chi^0_3 t t_bar)
     2.95770232E-04    3     1000025         1        -1   # BR(~g -> chi^0_3 d d_bar)
     2.95771641E-04    3     1000025         3        -3   # BR(~g -> chi^0_3 s s_bar)
     1.67474776E-04    3     1000025         5        -5   # BR(~g -> chi^0_3 b b_bar)
     6.61329702E-04    3     1000024         5        -6   # BR(~g -> chi^+_1 b t_bar)
     6.61329702E-04    3    -1000024        -5         6   # BR(~g -> chi^-_1 b_bar t)
     3.22044216E-04    3     1000037         1        -2   # BR(~g -> chi^+_2 d u_bar)
     3.22044216E-04    3    -1000037        -1         2   # BR(~g -> chi^-_2 d_bar u)
     3.22046379E-04    3     1000037         3        -4   # BR(~g -> chi^+_2 s c_bar)
     3.22046379E-04    3    -1000037        -3         4   # BR(~g -> chi^-_2 s_bar c)
     1.64732730E-04    3     1000037         5        -6   # BR(~g -> chi^+_2 b t_bar)
     1.64732730E-04    3    -1000037        -5         6   # BR(~g -> chi^-_2 b_bar t)
DECAY        25     5.51090642E-03   # Gamma(h0)
     1.77653194E-03   2        22        22   # BR(h0 -> photon photon)
     1.27236235E-03   2        22        23   # BR(h0 -> photon Z)
     2.46715538E-02   2        23        23   # BR(h0 -> Z Z)
     1.96355860E-01   2       -24        24   # BR(h0 -> W W)
     5.20671461E-02   2        21        21   # BR(h0 -> gluon gluon)
     5.39694735E-09   2       -11        11   # BR(h0 -> Electron electron)
     2.40066997E-04   2       -13        13   # BR(h0 -> Muon muon)
     6.94346318E-02   2       -15        15   # BR(h0 -> Tau tau)
     1.03494020E-07   2        -2         2   # BR(h0 -> Up up)
     2.00841920E-02   2        -4         4   # BR(h0 -> Charm charm)
     6.25250379E-07   2        -1         1   # BR(h0 -> Down down)
     2.26139878E-04   2        -3         3   # BR(h0 -> Strange strange)
     6.04300811E-01   2        -5         5   # BR(h0 -> Bottom bottom)
     6.26810711E-04   2  -1000024   1000024   # BR(h0 -> Chargino1 chargino1)
     2.89431594E-02   2   1000022   1000022   # BR(h0 -> neutralino1 neutralino1)
DECAY        35     7.29026769E+00   # Gamma(HH)
     1.83085011E-07   2        22        22   # BR(HH -> photon photon)
     9.08751848E-08   2        22        23   # BR(HH -> photon Z)
     2.77380616E-05   2        23        23   # BR(HH -> Z Z)
     6.08121864E-05   2       -24        24   # BR(HH -> W W)
     2.65283868E-04   2        21        21   # BR(HH -> gluon gluon)
     9.11528751E-09   2       -11        11   # BR(HH -> Electron electron)
     4.05591710E-04   2       -13        13   # BR(HH -> Muon muon)
     1.18602300E-01   2       -15        15   # BR(HH -> Tau tau)
     2.10773805E-13   2        -2         2   # BR(HH -> Up up)
     4.08580808E-08   2        -4         4   # BR(HH -> Charm charm)
     6.26715413E-05   2        -6         6   # BR(HH -> Top top)
     9.04917259E-07   2        -1         1   # BR(HH -> Down down)
     3.27295275E-04   2        -3         3   # BR(HH -> Strange strange)
     8.65147573E-01   2        -5         5   # BR(HH -> Bottom bottom)
     1.27942600E-02   2  -1000024   1000024   # BR(HH -> Chargino1 chargino1)
     1.27797548E-03   2   1000022   1000022   # BR(HH -> neutralino1 neutralino1)
     6.68346841E-05   2   1000022   1000023   # BR(HH -> neutralino1 neutralino2)
     6.00289541E-04   2   1000023   1000023   # BR(HH -> neutralino2 neutralino2)
     3.53682979E-04   2        25        25   # BR(HH -> h0 h0)
     3.24135292E-06   2  -1000011   1000011   # BR(HH -> Selectron1 selectron1)
     3.22135896E-06   2  -1000013   1000013   # BR(HH -> Smuon1 smuon1)
DECAY        36     7.26418511E+00   # Gamma(A0)
     5.52760838E-07   2        22        22   # BR(A0 -> photon photon)
     2.69626848E-07   2        22        23   # BR(A0 -> photon Z)
     2.43940627E-04   2        21        21   # BR(A0 -> gluon gluon)
     9.08713983E-09   2       -11        11   # BR(A0 -> Electron electron)
     4.04339385E-04   2       -13        13   # BR(A0 -> Muon muon)
     1.18248918E-01   2       -15        15   # BR(A0 -> Tau tau)
     1.36352638E-13   2        -2         2   # BR(A0 -> Up up)
     2.64555945E-08   2        -4         4   # BR(A0 -> Charm charm)
     8.27637533E-04   2        -6         6   # BR(A0 -> Top top)
     9.02151344E-07   2        -1         1   # BR(A0 -> Down down)
     3.26294909E-04   2        -3         3   # BR(A0 -> Strange strange)
     8.62689173E-01   2        -5         5   # BR(A0 -> Bottom bottom)
     1.49463467E-02   2  -1000024   1000024   # BR(A0 -> Chargino1 chargino1)
     1.63307373E-03   2   1000022   1000022   # BR(A0 -> neutralino1 neutralino1)
     2.36234822E-05   2   1000022   1000023   # BR(A0 -> neutralino1 neutralino2)
     6.15173389E-04   2   1000023   1000023   # BR(A0 -> neutralino2 neutralino2)
     3.97191395E-05   2        23        25   # BR(A0 -> Z h0)
     2.62861321E-36   2        25        25   # BR(A0 -> h0 h0)
DECAY        37     4.48674895E+00   # Gamma(Hp)
     1.52707339E-08   2       -11        12   # BR(Hp -> Electron nu_e)
     6.52871463E-04   2       -13        14   # BR(Hp -> Muon nu_mu)
     1.84660629E-01   2       -15        16   # BR(Hp -> Tau nu_tau)
     1.31637692E-06   2        -1         2   # BR(Hp -> Down up)
     2.15780966E-05   2        -3         2   # BR(Hp -> Strange up)
     1.36081870E-05   2        -5         2   # BR(Hp -> Bottom up)
     6.18889220E-08   2        -1         4   # BR(Hp -> Down charm)
     4.74429284E-04   2        -3         4   # BR(Hp -> Strange charm)
     1.90558785E-03   2        -5         4   # BR(Hp -> Bottom charm)
     1.45240528E-07   2        -1         6   # BR(Hp -> Down top)
     3.57958086E-06   2        -3         6   # BR(Hp -> Strange top)
     8.03082764E-01   2        -5         6   # BR(Hp -> Bottom top)
     3.15177809E-03   2   1000022   1000024   # BR(Hp -> neutralino1 chargino1)
     5.95238013E-03   2   1000023   1000024   # BR(Hp -> neutralino2 chargino1)
     7.91769698E-05   2        24        25   # BR(Hp -> W h0)
     3.87352534E-08   2        24        35   # BR(Hp -> W HH)
     3.98799381E-08   2        24        36   # BR(Hp -> W A0)
DECAY         6     2.43000000E+00   # top
#    BR                NDA      ID1      ID2
     1.00000000E+00    2           5        24   # BR(t -> b W)
Block HiggsBoundsInputHiggsCouplingsFermions
# ScalarNormEffCoupSq PseudoSNormEffCoupSq NP IP1 IP2 IP2
    1.38852120E+00    0.00000000E+00        3  25   5   5  # h0-b-b eff. coupling^2, normalised to SM
    1.06623486E+03    0.00000000E+00        3  35   5   5  # H0-b-b eff. coupling^2, normalised to SM
    0.00000000E+00    1.06662338E+03        3  36   5   5  # A0-b-b eff. coupling^2, normalised to SM
#
    9.99635747E-01    0.00000000E+00        3  25   6   6  # h0-t-t eff. coupling^2, normalised to SM
    1.30179145E-03    0.00000000E+00        3  35   6   6  # H0-t-t eff. coupling^2, normalised to SM
    0.00000000E+00    9.37538043E-04        3  36   6   6  # A0-t-t eff. coupling^2, normalised to SM
#
    1.38852120E+00    0.00000000E+00        3  25  15  15  # h0-tau-tau eff. coupling^2, normalised to SM
    1.06623486E+03    0.00000000E+00        3  35  15  15  # H0-tau-tau eff. coupling^2, normalised to SM
    0.00000000E+00    1.06662338E+03        3  36  15  15  # A0-tau-tau eff. coupling^2, normalised to SM
#
Block HiggsBoundsInputHiggsCouplingsBosons
    9.99970171E-01        3  25  24  24  # h0-W-W eff. coupling^2, normalised to SM
    2.98286458E-05        3  35  24  24  # H0-W-W eff. coupling^2, normalised to SM
    0.00000000E+00        3  36  24  24  # A0-W-W eff. coupling^2, normalised to SM
#
    9.99970171E-01        3  25  23  23  # h0-Z-Z eff. coupling^2, normalised to SM
    2.98286458E-05        3  35  23  23  # H0-Z-Z eff. coupling^2, normalised to SM
    0.00000000E+00        3  36  23  23  # A0-Z-Z eff. coupling^2, normalised to SM
#
    1.22568082E+00        3  25  21  21  # h0-g-g eff. coupling^2, normalised to SM
    1.55889025E-01        3  35  21  21  # H0-g-g eff. coupling^2, normalised to SM
    1.53181481E-01        3  36  21  21  # A0-g-g eff. coupling^2, normalised to SM
#
    0.00000000E+00        3  25  25  23  # h0-h0-Z eff. coupling^2, normalised to SM
    0.00000000E+00        3  35  25  23  # H0-h0-Z eff. coupling^2, normalised to SM
    2.98286458E-05        3  36  25  23  # A0-h0-Z eff. coupling^2, normalised to SM
    0.00000000E+00        3  35  35  23  # H0-H0-Z eff. coupling^2, normalised to SM
    9.99970171E-01        3  36  35  23  # A0-H0-Z eff. coupling^2, normalised to SM
    0.00000000E+00        3  36  36  23  # A0-A0-Z eff. coupling^2, normalised to SM
#
    0.00000000E+00        4  25  21  21  23  # h0-g-g-Z eff. coupling^2, normalised to SM
    0.00000000E+00        4  35  21  21  23  # H0-g-g-Z eff. coupling^2, normalised to SM
    0.00000000E+00        4  36  21  21  23  # A0-g-g-Z eff. coupling^2, normalised to SM
Block SPhenoLowEnergy  # low energy observables
    1    4.91487799E-04   # BR(b -> s gamma)
    2    1.60084768E-06   # BR(b -> s mu+ mu-)
    3    3.52171648E-05   # BR(b -> s nu nu)
    4    8.93301484E-16   # BR(Bd -> e+ e-)
    5    3.81511923E-11   # BR(Bd -> mu+ mu-)
    6    7.42570604E-09   # BR(Bd -> tau+ tau-)
    7    3.09927064E-14   # BR(Bs -> e+ e-)
    8    1.32370974E-09   # BR(Bs -> mu+ mu-)
    9    2.63209877E-07   # BR(Bs -> tau+ tau-)
   10    5.35508433E-05   # BR(B_u -> tau nu)
   11    5.53159710E-01   # BR(B_u -> tau nu)/BR(B_u -> tau nu)_SM
   12    5.42385979E-01   # |Delta(M_Bd)| [ps^-1] 
   13    1.92143897E+01   # |Delta(M_Bs)| [ps^-1] 
   14    0.00000000E+00   # neutron EDM according to the chiral quark model
   15    0.00000000E+00   # neutron EDM according to the relativistic quark-parton model
   16    2.16091855E-03   # epsilon_K
   17    2.28175213E-15   # Delta(M_K)
   18    2.48062632E-11   # BR(K^0 -> pi^0 nu nu)
   19    8.28588039E-11   # BR(K^+ -> pi^+ nu nu)
   20    1.55269980E-15   # Delta(g-2)_electron/2
   21    6.63398631E-11   # Delta(g-2)_muon/2
   22    4.60656096E-08   # Delta(g-2)_tau/2
   23    0.00000000E+00   # electric dipole moment of the electron
   24    0.00000000E+00   # electric dipole moment of the muon
   25    0.00000000E+00   # electric dipole moment of the tau
   26    0.00000000E+00   # Br(mu -> e gamma)
   27    0.00000000E+00   # Br(tau -> e gamma)
   28    0.00000000E+00   # Br(tau -> mu gamma)
   29    0.00000000E+00   # Br(mu -> 3 e)
   30    0.00000000E+00   # Br(tau -> 3 e)
   31    0.00000000E+00   # Br(tau -> 3 mu)
   39    8.40934688E-05   # Delta(rho_parameter)
   40    0.00000000E+00   # BR(Z -> e mu)
   41    0.00000000E+00   # BR(Z -> e tau)
   42    0.00000000E+00   # BR(Z -> mu tau)
Block FWCOEF Q=  1.60000000E+02  # Wilson coefficients at scale Q
#    id        order  M        value         comment
     0305 4422   00   0    -1.88819110E-01   # C7
     0305 4422   00   2    -3.54033663E-01   # C7
     0305 4322   00   2    -3.34993793E-03   # C7'
     0305 6421   00   0    -9.52278348E-02   # C8
     0305 6421   00   2    -2.40360201E-01   # C8
     0305 6321   00   2    -2.94019046E-03   # C8'
 03051111 4133   00   0     1.60975707E+00   # C9 e+e-
 03051111 4133   00   2     1.60979053E+00   # C9 e+e-
 03051111 4233   00   2    -1.89357944E-04   # C9' e+e-
 03051111 4137   00   0    -4.43244917E+00   # C10 e+e-
 03051111 4137   00   2    -4.42710368E+00   # C10 e+e-
 03051111 4237   00   2     1.43997985E-03   # C10' e+e-
 03051313 4133   00   0     1.60975707E+00   # C9 mu+mu-
 03051313 4133   00   2     1.60978788E+00   # C9 mu+mu-
 03051313 4233   00   2    -1.89531622E-04   # C9' mu+mu-
 03051313 4137   00   0    -4.43244917E+00   # C10 mu+mu-
 03051313 4137   00   2    -4.42710634E+00   # C10 mu+mu-
 03051313 4237   00   2     1.44015174E-03   # C10' mu+mu-
 03051212 4137   00   0     1.50535012E+00   # C11 nu_1 nu_1
 03051212 4137   00   2     1.50421934E+00   # C11 nu_1 nu_1
 03051212 4237   00   2    -3.12568921E-04   # C11' nu_1 nu_1
 03051414 4137   00   0     1.50535012E+00   # C11 nu_2 nu_2
 03051414 4137   00   2     1.50421934E+00   # C11 nu_2 nu_2
 03051414 4237   00   2    -3.12531291E-04   # C11' nu_2 nu_2
 03051616 4137   00   0     1.50535012E+00   # C11 nu_3 nu_3
 03051616 4137   00   2     1.50421991E+00   # C11 nu_3 nu_3
 03051616 4237   00   2    -3.01926856E-04   # C11' nu_3 nu_3
Block IMFWCOEF Q=  1.60000000E+02  # Im(Wilson coefficients) at scale Q
#    id        order  M        value         comment
     0305 4422   00   0     3.85814325E-07   # C7
     0305 4422   00   2     8.79764927E-06   # C7
     0305 4322   00   2    -1.77559356E-05   # C7'
     0305 6421   00   0     3.30475485E-07   # C8
     0305 6421   00   2     7.71962615E-05   # C8
     0305 6321   00   2    -1.01090798E-05   # C8'
 03051111 4133   00   2    -1.08857460E-05   # C9 e+e-
 03051111 4233   00   2     5.40921261E-06   # C9' e+e-
 03051111 4137   00   2     8.76531481E-05   # C10 e+e-
 03051111 4237   00   2    -4.10097995E-05   # C10' e+e-
 03051313 4133   00   2    -1.08856766E-05   # C9 mu+mu-
 03051313 4233   00   2     5.40920255E-06   # C9' mu+mu-
 03051313 4137   00   2     8.76532363E-05   # C10 mu+mu-
 03051313 4237   00   2    -4.10098261E-05   # C10' mu+mu-
 03051212 4137   00   2    -1.84818548E-05   # C11 nu_1 nu_1
 03051212 4237   00   2     8.90170908E-06   # C11' nu_1 nu_1
 03051414 4137   00   2    -1.84818545E-05   # C11 nu_2 nu_2
 03051414 4237   00   2     8.90170908E-06   # C11' nu_2 nu_2
 03051616 4137   00   2    -1.84719326E-05   # C11 nu_3 nu_3
 03051616 4237   00   2     8.90170784E-06   # C11' nu_3 nu_3
