# SUSY Les Houches Accord 2 - MSSM spectrum + Decays
# SPheno v4.0.5be
# W. Porod, Comput. Phys. Commun. 153 (2003) 275-315, hep-ph/0301101;
# W. Porod, F.~Staub, Comput. Phys. Commun. 183 (2012) 2458
#                     arXiv:1104.1573 [hep-ph] 
# in case of problems send email to porod@physik.uni-wuerzburg.de
# Created: 20.12.2022,  17:56
Block SPINFO         # Program information
     1   SPheno      # spectrum calculator
     2   v4.0.5be    # version number
#
Block SPhenoINFO     # SPheno specific information
    1      2         # using 2-loop RGEs
    2      2         # using pole masses for boundary conditions at mZ
Block MODSEL  # Model selection
    1    0    # general MSSM
Block MINPAR  # Input parameters
    3    1.41837024E+01  # tanb at m_Z    
    4   -1.00000000E+00  # Sign(mu)
Block EXTPAR  # non-universal input parameters
    0    3.75989706E+03  # scale for input parameters
    1    2.61884541E+02  # M_1
    2    9.70076846E+02  # M_2
    3    2.64686010E+03  # M_3
   11   -6.81441403E+03  # A_t
   12    1.72674472E+03  # A_b
   13    1.50993491E+03  # A_tau
   23   -1.64448918E+03  # mu
   25    1.35258165E+01  # tan(beta)
   26    1.27106627E+03  # m_A, pole mass
   31    1.00000000E+04  # M_L11
   32    1.00000000E+04  # M_L22
   33    1.00000000E+04  # M_L33
   34    1.00000000E+04  # M_E11
   35    1.00000000E+04  # M_E22
   36    1.00000000E+04  # M_E33
   41    1.00000000E+04  # M_Q11
   42    1.00000000E+04  # M_Q22
   43    3.90408888E+03  # M_Q33
   44    1.00000000E+04  # M_U11
   45    1.00000000E+04  # M_U22
   46    3.66448207E+03  # M_U33
   47    1.00000000E+04  # M_D11
   48    1.00000000E+04  # M_D22
   49    4.54463264E+03  # M_D33
Block SMINPUTS  # SM parameters
         1     1.27908970E+02  # alpha_em^-1(MZ)^MSbar
         2     1.16637870E-05  # G_mu [GeV^-2]
         3     1.18400000E-01  # alpha_s(MZ)^MSbar
         4     9.11876000E+01  # m_Z(pole)
         5     4.18000000E+00  # m_b(m_b), MSbar
         6     1.73200000E+02  # m_t(pole)
         7     1.77700000E+00  # m_tau(pole)
         8     0.00000000E+00  # m_nu_3
        11     5.10998930E-04  # m_e(pole)
        12     0.00000000E+00  # m_nu_1
        13     1.05658372E-01  # m_muon(pole)
        14     0.00000000E+00  # m_nu_2
        21     5.00000000E-03  # m_d(2 GeV), MSbar
        22     2.50000000E-03  # m_u(2 GeV), MSbar
        23     9.50000000E-02  # m_s(2 GeV), MSbar
        24     1.27000000E+00  # m_c(m_c), MSbar
Block gauge Q=  3.75989706E+03  # (SUSY scale)
   1    3.55362975E-01  # g'(Q)^DRbar
   2    6.65198874E-01  # g(Q)^DRbar
   3    1.21977796E+00  # g3(Q)^DRbar
Block Yu Q=  3.75989706E+03  # (SUSY scale)
  1  1     8.40725557E-06   # Y_u(Q)^DRbar
  2  2     4.27088583E-03   # Y_c(Q)^DRbar
  3  3     1.01566400E+00   # Y_t(Q)^DRbar
Block Yd Q=  3.75989706E+03  # (SUSY scale)
  1  1     2.28506200E-04   # Y_d(Q)^DRbar
  2  2     4.34161780E-03   # Y_s(Q)^DRbar
  3  3     2.26606547E-01   # Y_b(Q)^DRbar
Block Ye Q=  3.75989706E+03  # (SUSY scale)
  1  1     3.98760029E-05   # Y_e(Q)^DRbar
  2  2     8.24509270E-03   # Y_mu(Q)^DRbar
  3  3     1.38668895E-01   # Y_tau(Q)^DRbar
Block Au Q=  3.75989706E+03  # (SUSY scale)
  1  1     0.00000000E+00   # A_u(Q)^DRbar
  2  2     0.00000000E+00   # A_c(Q)^DRbar
  3  3    -6.81441392E+03   # A_t(Q)^DRbar
Block Ad Q=  3.75989706E+03  # (SUSY scale)
  1  1     0.00000000E+00   # A_d(Q)^DRbar
  2  2     0.00000000E+00   # A_s(Q)^DRbar
  3  3     1.72674469E+03   # A_b(Q)^DRbar
Block Ae Q=  3.75989706E+03  # (SUSY scale)
  1  1     0.00000000E+00   # A_e(Q)^DRbar
  2  2     0.00000000E+00   # A_mu(Q)^DRbar
  3  3     1.50993492E+03   # A_tau(Q)^DRbar
Block MSOFT Q=  3.75989706E+03  # soft SUSY breaking masses at Q
   1    2.61884541E+02  # M_1
   2    9.70076846E+02  # M_2
   3    2.64686010E+03  # M_3
  21   -1.19247683E+06  # M^2_(H,d)
  22   -2.43102218E+06  # M^2_(H,u)
  31    1.00000000E+04  # M_(L,11)
  32    1.00000000E+04  # M_(L,22)
  33    1.00000000E+04  # M_(L,33)
  34    1.00000000E+04  # M_(E,11)
  35    1.00000000E+04  # M_(E,22)
  36    1.00000000E+04  # M_(E,33)
  41    1.00000000E+04  # M_(Q,11)
  42    1.00000000E+04  # M_(Q,22)
  43    3.90408888E+03  # M_(Q,33)
  44    1.00000000E+04  # M_(U,11)
  45    1.00000000E+04  # M_(U,22)
  46    3.66448207E+03  # M_(U,33)
  47    1.00000000E+04  # M_(D,11)
  48    1.00000000E+04  # M_(D,22)
  49    4.54463264E+03  # M_(D,33)
Block MASS  # Mass spectrum
#   PDG code      mass          particle
         6     1.73200000E+02  # m_t(pole)
        23     9.11876000E+01  # m_Z(pole)
        24     8.04299946E+01  # W+
        15     1.77700000E+00  # m_tau(pole)
        25     1.26476868E+02  # h0
        35     1.27115012E+03  # H0
        36     1.27106627E+03  # A0
        37     1.27354572E+03  # H+
   1000001     1.01118576E+04  # ~d_L
   2000001     1.00873477E+04  # ~d_R
   1000002     1.01115036E+04  # ~u_L
   2000002     1.00906651E+04  # ~u_R
   1000003     1.01118584E+04  # ~s_L
   2000003     1.00873483E+04  # ~s_R
   1000004     1.01115043E+04  # ~c_L
   2000004     1.00906657E+04  # ~c_R
   1000005     3.91196966E+03  # ~b_1
   2000005     4.61525401E+03  # ~b_2
   1000006     3.57500692E+03  # ~t_1
   2000006     3.95434924E+03  # ~t_2
   1000011     1.00209925E+04  # ~e_L-
   2000011     1.00087871E+04  # ~e_R-
   1000012     1.00202370E+04  # ~nu_eL
   1000013     1.00209954E+04  # ~mu_L-
   2000013     1.00087894E+04  # ~mu_R-
   1000014     1.00202388E+04  # ~nu_muL
   1000015     1.00094022E+04  # ~tau_1-
   2000015     1.00218548E+04  # ~tau_2-
   1000016     1.00207376E+04  # ~nu_tauL
   1000021     3.11470927E+03  # ~g
   1000022     2.63814081E+02  # ~chi_10
   1000023     1.04355084E+03  # ~chi_20
   1000025     1.66349715E+03  # ~chi_30
   1000035     1.66627568E+03  # ~chi_40
   1000024     1.04255598E+03  # ~chi_1+
   1000037     1.66694382E+03  # ~chi_2+
# Higgs mixing
Block alpha # Effective Higgs mixing angle
          -7.14003556E-02   # alpha
Block Hmix Q=  3.75989706E+03  # Higgs mixing parameters
   1   -1.64448918E+03  # mu
   2    1.35258165E+01  # tan[beta](Q)
   3    2.42976246E+02  # v(Q)
   4    1.61560946E+06  # m^2_A(Q)
Block stopmix # stop mixing matrix
   1  1     3.42192574E-01   # Re[R_st(1,1)]
   1  2     9.39629843E-01   # Re[R_st(1,2)]
   2  1    -9.39629843E-01   # Re[R_st(2,1)]
   2  2     3.42192574E-01   # Re[R_st(2,2)]
Block sbotmix # sbottom mixing matrix
   1  1    -9.99964427E-01   # Re[R_sb(1,1)]
   1  2     8.43477972E-03   # Re[R_sb(1,2)]
   2  1    -8.43477972E-03   # Re[R_sb(2,1)]
   2  2    -9.99964427E-01   # Re[R_sb(2,2)]
Block staumix # stau mixing matrix
   1  1    -1.72174193E-01   # Re[R_sta(1,1)]
   1  2     9.85066519E-01   # Re[R_sta(1,2)]
   2  1    -9.85066519E-01   # Re[R_sta(2,1)]
   2  2    -1.72174193E-01   # Re[R_sta(2,2)]
Block Nmix # neutralino mixing matrix
   1  1    -9.99624753E-01   # Re[N(1,1)]
   1  2     4.97352145E-05   # Re[N(1,2)]
   1  3     2.72803263E-02   # Re[N(1,3)]
   1  4     2.47688514E-03   # Re[N(1,4)]
   2  1     2.15130807E-03   # Re[N(2,1)]
   2  2     9.96436106E-01   # Re[N(2,2)]
   2  3     7.32148937E-02   # Re[N(2,3)]
   2  4     4.18334469E-02   # Re[N(2,4)]
   3  1    -1.75261011E-02   # Re[N(3,1)]
   3  2     2.22555827E-02   # Re[N(3,2)]
   3  3    -7.06452948E-01   # Re[N(3,3)]
   3  4     7.07192871E-01   # Re[N(3,4)]
   4  1    -2.09418549E-02   # Re[N(4,1)]
   4  2     8.13619852E-02   # Re[N(4,2)]
   4  3    -7.03434144E-01   # Re[N(4,3)]
   4  4    -7.05777636E-01   # Re[N(4,4)]
Block Umix # chargino mixing matrix
   1  1    -9.94545720E-01   # Re[U(1,1)]
   1  2    -1.04301541E-01   # Re[U(1,2)]
   2  1     1.04301541E-01   # Re[U(2,1)]
   2  2    -9.94545720E-01   # Re[U(2,2)]
Block Vmix # chargino mixing matrix
   1  1    -9.98189873E-01   # Re[V(1,1)]
   1  2     6.01413053E-02   # Re[V(1,2)]
   2  1     6.01413053E-02   # Re[V(2,1)]
   2  2     9.98189873E-01   # Re[V(2,2)]
DECAY        23     2.49520000E+00   # Z
DECAY        24     2.08500000E+00   # W
DECAY   2000011     5.02186448E+01   # ~e^-_R
#    BR                NDA      ID1      ID2
     9.99289428E-01    2     1000022        11   # BR(~e^-_R -> chi^0_1 e^-)
     2.90847136E-04    2     1000025        11   # BR(~e^-_R -> chi^0_3 e^-)
     4.15183990E-04    2     1000035        11   # BR(~e^-_R -> chi^0_4 e^-)
DECAY   1000011     1.42003348E+02   # ~e^-_L
#    BR                NDA      ID1      ID2
     8.84397619E-02    2     1000022        11   # BR(~e^-_L -> chi^0_1 e^-)
     3.02443801E-01    2     1000023        11   # BR(~e^-_L -> chi^0_2 e^-)
     1.44617135E-03    2     1000035        11   # BR(~e^-_L -> chi^0_4 e^-)
     6.01232137E-01    2    -1000024        12   # BR(~e^-_L -> chi^-_1 nu_e)
     6.38930306E-03    2    -1000037        12   # BR(~e^-_L -> chi^-_2 nu_e)
#    BR                NDA      ID1      ID2       ID3
DECAY   2000013     5.02442569E+01   # ~mu^-_R
#    BR                NDA      ID1      ID2
     9.98780468E-01    2     1000022        13   # BR(~mu^-_R -> chi^0_1 mu^-)
     4.17825633E-04    2     1000025        13   # BR(~mu^-_R -> chi^0_3 mu^-)
     5.40990768E-04    2     1000035        13   # BR(~mu^-_R -> chi^0_4 mu^-)
     2.51902381E-04    2    -1000037        14   # BR(~mu^-_R -> chi^-_2 nu_mu)
DECAY   1000013     1.42016208E+02   # ~mu^-_L
#    BR                NDA      ID1      ID2
     8.84318496E-02    2     1000022        13   # BR(~mu^-_L -> chi^0_1 mu^-)
     3.02417007E-01    2     1000023        13   # BR(~mu^-_L -> chi^0_2 mu^-)
     1.49068450E-03    2     1000035        13   # BR(~mu^-_L -> chi^0_4 mu^-)
     6.01177873E-01    2    -1000024        14   # BR(~mu^-_L -> chi^-_1 nu_mu)
     6.38872653E-03    2    -1000037        14   # BR(~mu^-_L -> chi^-_2 nu_mu)
#    BR                NDA      ID1      ID2       ID3
DECAY   1000015     6.01074762E+01   # ~tau^-_1
#    BR                NDA      ID1      ID2
     8.17486820E-01    2     1000022        15   # BR(~tau^-_1 -> chi^0_1 tau^-)
     2.67191228E-02    2     1000023        15   # BR(~tau^-_1 -> chi^0_2 tau^-)
     2.87526635E-02    2     1000025        15   # BR(~tau^-_1 -> chi^0_3 tau^-)
     2.57261173E-02    2     1000035        15   # BR(~tau^-_1 -> chi^0_4 tau^-)
     5.32342669E-02    2    -1000024        16   # BR(~tau^-_1 -> chi^-_1 nu_tau)
     4.80810092E-02    2    -1000037        16   # BR(~tau^-_1 -> chi^-_2 nu_tau)
DECAY   2000015     1.42994870E+02   # ~tau^-_2
#    BR                NDA      ID1      ID2
     9.52189145E-02    2     1000022        15   # BR(~tau^-_2 -> chi^0_1 tau^-)
     2.89411049E-01    2     1000023        15   # BR(~tau^-_2 -> chi^0_2 tau^-)
     1.33549846E-02    2     1000025        15   # BR(~tau^-_2 -> chi^0_3 tau^-)
     1.58394379E-02    2     1000035        15   # BR(~tau^-_2 -> chi^0_4 tau^-)
     5.74996301E-01    2    -1000024        16   # BR(~tau^-_2 -> chi^-_1 nu_tau)
     1.11793127E-02    2    -1000037        16   # BR(~tau^-_2 -> chi^-_2 nu_tau)
#    BR                NDA      ID1      ID2       ID3
DECAY   1000012     1.42006972E+02   # ~nu_e
#    BR                NDA      ID1      ID2
     8.84637685E-02    2     1000022        12   # BR(~nu_e -> chi^0_1 nu_e)
     3.01020305E-01    2     1000023        12   # BR(~nu_e -> chi^0_2 nu_e)
     2.93613524E-04    2     1000025        12   # BR(~nu_e -> chi^0_3 nu_e)
     2.51514476E-03    2     1000035        12   # BR(~nu_e -> chi^0_4 nu_e)
     6.05583090E-01    2     1000024        11   # BR(~nu_e -> chi^+_1 e^-)
     2.12407873E-03    2     1000037        11   # BR(~nu_e -> chi^+_2 e^-)
#    BR                NDA      ID1      ID2       ID3
DECAY   1000014     1.42019815E+02   # ~nu_mu
#    BR                NDA      ID1      ID2
     8.84557844E-02    2     1000022        14   # BR(~nu_mu -> chi^0_1 nu_mu)
     3.00993139E-01    2     1000023        14   # BR(~nu_mu -> chi^0_2 nu_mu)
     2.93587030E-04    2     1000025        14   # BR(~nu_mu -> chi^0_3 nu_mu)
     2.51491781E-03    2     1000035        14   # BR(~nu_mu -> chi^0_4 nu_mu)
     6.05529457E-01    2     1000024        13   # BR(~nu_mu -> chi^+_1 mu^-)
     2.21311430E-03    2     1000037        13   # BR(~nu_mu -> chi^+_2 mu^-)
#    BR                NDA      ID1      ID2       ID3
DECAY   1000016     1.45639950E+02   # ~nu_tau
#    BR                NDA      ID1      ID2
     8.62613674E-02    2     1000022        16   # BR(~nu_tau -> chi^0_1 nu_tau)
     2.93526682E-01    2     1000023        16   # BR(~nu_tau -> chi^0_2 nu_tau)
     2.86305279E-04    2     1000025        16   # BR(~nu_tau -> chi^0_3 nu_tau)
     2.45254111E-03    2     1000035        16   # BR(~nu_tau -> chi^0_4 nu_tau)
     5.90788754E-01    2     1000024        15   # BR(~nu_tau -> chi^+_1 tau^-)
     2.66843503E-02    2     1000037        15   # BR(~nu_tau -> chi^+_2 tau^-)
#    BR                NDA      ID1      ID2       ID3
DECAY   2000001     6.57262638E+02   # ~d_R
#    BR                NDA      ID1      ID2
     8.55026817E-03    2     1000022         1   # BR(~d_R -> chi^0_1 d)
     9.91443617E-01    2     1000021         1   # BR(~d_R -> ~g d)
DECAY   1000001     7.85952993E+02   # ~d_L
#    BR                NDA      ID1      ID2
     1.79292285E-03    2     1000022         1   # BR(~d_L -> chi^0_1 d)
     5.49923172E-02    2     1000023         1   # BR(~d_L -> chi^0_2 d)
     3.88062677E-04    2     1000035         1   # BR(~d_L -> chi^0_4 d)
     1.09656513E-01    2    -1000024         2   # BR(~d_L -> chi^-_1 u)
     1.16605180E-03    2    -1000037         2   # BR(~d_L -> chi^-_2 u)
     8.31969606E-01    2     1000021         1   # BR(~d_L -> ~g d)
DECAY   2000003     6.57269833E+02   # ~s_R
#    BR                NDA      ID1      ID2
     8.55017935E-03    2     1000022         3   # BR(~s_R -> chi^0_1 s)
     9.91432846E-01    2     1000021         3   # BR(~s_R -> ~g s)
DECAY   1000003     7.85960129E+02   # ~s_L
#    BR                NDA      ID1      ID2
     1.79291030E-03    2     1000022         3   # BR(~s_L -> chi^0_1 s)
     5.49918480E-02    2     1000023         3   # BR(~s_L -> chi^0_2 s)
     3.90311908E-04    2     1000035         3   # BR(~s_L -> chi^0_4 s)
     1.09655536E-01    2    -1000024         4   # BR(~s_L -> chi^-_1 c)
     1.17045045E-03    2    -1000037         4   # BR(~s_L -> chi^-_2 c)
     8.31962145E-01    2     1000021         3   # BR(~s_L -> ~g s)
DECAY   1000005     1.62212210E+02   # ~b_1
#    BR                NDA      ID1      ID2
     3.36622901E-03    2     1000022         5   # BR(~b_1 -> chi^0_1 b)
     9.10232395E-02    2     1000023         5   # BR(~b_1 -> chi^0_2 b)
     8.28270566E-03    2     1000025         5   # BR(~b_1 -> chi^0_3 b)
     8.64134904E-03    2     1000035         5   # BR(~b_1 -> chi^0_4 b)
     1.81179753E-01    2    -1000024         6   # BR(~b_1 -> chi^-_1 t)
     3.31833475E-01    2    -1000037         6   # BR(~b_1 -> chi^-_2 t)
     2.55063295E-01    2     1000021         5   # BR(~b_1 -> ~g b)
     1.20609954E-01    2     1000006       -24   # BR(~b_1 -> ~t_1 W^-)
DECAY   2000005     1.17990452E+02   # ~b_2
#    BR                NDA      ID1      ID2
     2.16873890E-02    2     1000022         5   # BR(~b_2 -> chi^0_1 b)
     1.12087900E-04    2     1000023         5   # BR(~b_2 -> chi^0_2 b)
     1.51259474E-02    2     1000025         5   # BR(~b_2 -> chi^0_3 b)
     1.50296251E-02    2     1000035         5   # BR(~b_2 -> chi^0_4 b)
     2.28131617E-04    2    -1000024         6   # BR(~b_2 -> chi^-_1 t)
     3.00404232E-02    2    -1000037         6   # BR(~b_2 -> chi^-_2 t)
     9.15575036E-01    2     1000021         5   # BR(~b_2 -> ~g b)
     2.99471770E-04    2     1000006       -24   # BR(~b_2 -> ~t_1 W^-)
     6.54509302E-04    2     2000006       -24   # BR(~b_2 -> ~t_2 W^-)
     4.38648263E-04    2     1000005        23   # BR(~b_2 -> ~b_1 Z)
     8.08730532E-04    2     1000005        25   # BR(~b_2 -> ~b_1 h^0)
DECAY   2000002     6.74445982E+02   # ~u_R
#    BR                NDA      ID1      ID2
     3.33406984E-02    2     1000022         2   # BR(~u_R -> chi^0_1 u)
     9.66635573E-01    2     1000021         2   # BR(~u_R -> ~g u)
DECAY   1000002     7.85938782E+02   # ~u_L
#    BR                NDA      ID1      ID2
     1.79088970E-03    2     1000022         2   # BR(~u_L -> chi^0_1 u)
     5.50759365E-02    2     1000023         2   # BR(~u_L -> chi^0_2 u)
     3.23003511E-04    2     1000035         2   # BR(~u_L -> chi^0_4 u)
     1.10459542E-01    2     1000024         1   # BR(~u_L -> chi^+_1 d)
     3.87692168E-04    2     1000037         1   # BR(~u_L -> chi^+_2 d)
     8.31943309E-01    2     1000021         2   # BR(~u_L -> ~g u)
DECAY   2000004     6.74452937E+02   # ~c_R
#    BR                NDA      ID1      ID2
     3.33403553E-02    2     1000022         4   # BR(~c_R -> chi^0_1 c)
     9.66625641E-01    2     1000021         4   # BR(~c_R -> ~g c)
DECAY   1000004     7.85945877E+02   # ~c_L
#    BR                NDA      ID1      ID2
     1.79087362E-03    2     1000022         4   # BR(~c_L -> chi^0_1 c)
     5.50754479E-02    2     1000023         4   # BR(~c_L -> chi^0_2 c)
     3.25204075E-04    2     1000035         4   # BR(~c_L -> chi^0_4 c)
     1.10458605E-01    2     1000024         3   # BR(~c_L -> chi^+_1 s)
     3.92191749E-04    2     1000037         3   # BR(~c_L -> chi^+_2 s)
     8.31935842E-01    2     1000021         4   # BR(~c_L -> ~g c)
DECAY   1000006     1.13725033E+02   # ~t_1
#    BR                NDA      ID1      ID2
     6.18034698E-02    2     1000022         6   # BR(~t_1 -> chi^0_1 t)
     2.09036683E-02    2     1000023         6   # BR(~t_1 -> chi^0_2 t)
     1.91673194E-01    2     1000025         6   # BR(~t_1 -> chi^0_3 t)
     1.80885017E-01    2     1000035         6   # BR(~t_1 -> chi^0_4 t)
     4.24442613E-02    2     1000024         5   # BR(~t_1 -> chi^+_1 b)
     3.40018157E-01    2     1000037         5   # BR(~t_1 -> chi^+_2 b)
     1.62164163E-01    2     1000021         6   # BR(~t_1 -> ~g t)
#    BR                NDA      ID1      ID2       ID3
     1.07972165E-04    3     1000022        24         5   # BR(~t_1 -> chi^0_1 W^+ b)
DECAY   2000006     1.68268846E+02   # ~t_2
#    BR                NDA      ID1      ID2
     8.68463455E-03    2     1000022         6   # BR(~t_2 -> chi^0_1 t)
     7.34272888E-02    2     1000023         6   # BR(~t_2 -> chi^0_2 t)
     1.64836564E-01    2     1000025         6   # BR(~t_2 -> chi^0_3 t)
     1.73608352E-01    2     1000035         6   # BR(~t_2 -> chi^0_4 t)
     1.47392942E-01    2     1000024         5   # BR(~t_2 -> chi^+_1 b)
     6.08582091E-02    2     1000037         5   # BR(~t_2 -> chi^+_2 b)
     2.29520391E-01    2     1000021         6   # BR(~t_2 -> ~g t)
     7.20212250E-02    2     1000006        23   # BR(~t_2 -> ~t_1 Z)
     6.96503935E-02    2     1000006        25   # BR(~t_2 -> ~t_1 h^0)
DECAY   1000024     2.73805172E-03   # chi^+_1
#    BR                NDA      ID1      ID2
     9.85087431E-01    2     1000022        24   # BR(chi^+_1 -> chi^0_1 W^+)
#    BR                NDA      ID1      ID2       ID3
     1.48371058E-02    3     1000022        -5         6   # BR(chi^+_1 -> chi^0_1 b_bar t)
DECAY   1000037     8.94787076E+00   # chi^+_2
#    BR                NDA      ID1      ID2
     1.21014298E-01    2     1000022        24   # BR(chi^+_2 -> chi^0_1 W^+)
     2.85035499E-01    2     1000023        24   # BR(chi^+_2 -> chi^0_2 W^+)
     1.71093017E-02    2          37   1000022   # BR(chi^+_2 -> H^+ chi^0_1)
     2.77979556E-01    2     1000024        23   # BR(chi^+_2 -> chi^+_1 Z)
     2.87361550E-01    2     1000024        25   # BR(chi^+_2 -> chi^+_1 h^0)
#    BR                NDA      ID1      ID2       ID3
     3.37251811E-03    3     1000024         6        -6   # BR(chi^+_2 -> chi^+_1 t t_bar)
     3.65335511E-03    3     1000022        -5         6   # BR(chi^+_2 -> chi^0_1 b_bar t)
     4.45468956E-03    3     1000023        -5         6   # BR(chi^+_2 -> chi^0_2 b_bar t)
DECAY   1000022     0.00000000E+00   # chi^0_1
DECAY   1000023     2.48440067E-03   # chi^0_2
#    BR                NDA      ID1      ID2
     4.63647894E-01    2     1000022        23   # BR(chi^0_2 -> chi^0_1 Z)
     5.29483666E-01    2     1000022        25   # BR(chi^0_2 -> chi^0_1 h^0)
#    BR                NDA      ID1      ID2       ID3
     6.35626660E-03    3     1000022         6        -6   # BR(chi^0_2 -> chi^0_1 t t_bar)
     4.24133005E-04    3     1000022         5        -5   # BR(chi^0_2 -> chi^0_1 b b_bar)
DECAY   1000025     1.25373716E+01   # chi^0_3
#    BR                NDA      ID1      ID2
     2.07273359E-01    2     1000024       -24   # BR(chi^0_3 -> chi^+_1 W^-)
     2.07273359E-01    2    -1000024        24   # BR(chi^0_3 -> chi^-_1 W^+)
     5.13006965E-02    2     1000022        23   # BR(chi^0_3 -> chi^0_1 Z)
     1.89749309E-01    2     1000023        23   # BR(chi^0_3 -> chi^0_2 Z)
     1.80870693E-03    2     1000022        36   # BR(chi^0_3 -> chi^0_1 A^0)
     6.16065936E-02    2     1000022        25   # BR(chi^0_3 -> chi^0_1 h^0)
     2.59726932E-01    2     1000023        25   # BR(chi^0_3 -> chi^0_2 h^0)
     8.25131310E-03    2     1000022        35   # BR(chi^0_3 -> chi^0_1 H^0)
#    BR                NDA      ID1      ID2       ID3
     1.79169324E-03    3     1000022         6        -6   # BR(chi^0_3 -> chi^0_1 t t_bar)
     1.17261370E-03    3     1000023         6        -6   # BR(chi^0_3 -> chi^0_2 t t_bar)
     4.99223722E-03    3     1000024         5        -6   # BR(chi^0_3 -> chi^+_1 b t_bar)
     4.99223722E-03    3    -1000024        -5         6   # BR(chi^0_3 -> chi^-_1 b_bar t)
DECAY   1000035     8.69154641E+00   # chi^0_4
#    BR                NDA      ID1      ID2
     2.77035863E-01    2     1000024       -24   # BR(chi^0_4 -> chi^+_1 W^-)
     2.77035863E-01    2    -1000024        24   # BR(chi^0_4 -> chi^-_1 W^+)
     5.11997192E-02    2     1000022        23   # BR(chi^0_4 -> chi^0_1 Z)
     2.02223140E-02    2     1000023        23   # BR(chi^0_4 -> chi^0_2 Z)
     1.96282113E-03    2     1000022        36   # BR(chi^0_4 -> chi^0_1 A^0)
     6.65645891E-02    2     1000022        25   # BR(chi^0_4 -> chi^0_1 h^0)
     2.77363051E-01    2     1000023        25   # BR(chi^0_4 -> chi^0_2 h^0)
     1.58235909E-02    2     1000022        35   # BR(chi^0_4 -> chi^0_1 H^0)
#    BR                NDA      ID1      ID2       ID3
     2.27594089E-03    3     1000022         6        -6   # BR(chi^0_4 -> chi^0_1 t t_bar)
     1.22710566E-03    3     1000023         6        -6   # BR(chi^0_4 -> chi^0_2 t t_bar)
     4.63666936E-03    3     1000024         5        -6   # BR(chi^0_4 -> chi^+_1 b t_bar)
     4.63666936E-03    3    -1000024        -5         6   # BR(chi^0_4 -> chi^-_1 b_bar t)
DECAY   1000021     9.20528884E-02   # ~g
#    BR                NDA      ID1      ID2
     3.72390180E-03    2     1000025        21   # BR(~g -> chi^0_3 g)
     3.85121107E-03    2     1000035        21   # BR(~g -> chi^0_4 g)
#    BR                NDA      ID1      ID2       ID3
     6.72623433E-04    3     1000022         2        -2   # BR(~g -> chi^0_1 u u_bar)
     6.72623267E-04    3     1000022         4        -4   # BR(~g -> chi^0_1 c c_bar)
     7.70275967E-02    3     1000022         6        -6   # BR(~g -> chi^0_1 t t_bar)
     1.97831073E-04    3     1000022         1        -1   # BR(~g -> chi^0_1 d d_bar)
     1.97831227E-04    3     1000022         3        -3   # BR(~g -> chi^0_1 s s_bar)
     8.35900074E-03    3     1000022         5        -5   # BR(~g -> chi^0_1 b b_bar)
     7.07872318E-04    3     1000023         2        -2   # BR(~g -> chi^0_2 u u_bar)
     7.07872337E-04    3     1000023         4        -4   # BR(~g -> chi^0_2 c c_bar)
     5.50595257E-02    3     1000023         6        -6   # BR(~g -> chi^0_2 t t_bar)
     7.06679542E-04    3     1000023         1        -1   # BR(~g -> chi^0_2 d d_bar)
     7.06680015E-04    3     1000023         3        -3   # BR(~g -> chi^0_2 s s_bar)
     6.38629340E-02    3     1000023         5        -5   # BR(~g -> chi^0_2 b b_bar)
     1.24952889E-01    3     1000025         6        -6   # BR(~g -> chi^0_3 t t_bar)
     3.67030509E-03    3     1000025         5        -5   # BR(~g -> chi^0_3 b b_bar)
     1.26716134E-01    3     1000035         6        -6   # BR(~g -> chi^0_4 t t_bar)
     3.74987145E-03    3     1000035         5        -5   # BR(~g -> chi^0_4 b b_bar)
     1.41629298E-03    3     1000024         1        -2   # BR(~g -> chi^+_1 d u_bar)
     1.41629298E-03    3    -1000024        -1         2   # BR(~g -> chi^-_1 d_bar u)
     1.41629349E-03    3     1000024         3        -4   # BR(~g -> chi^+_1 s c_bar)
     1.41629349E-03    3    -1000024        -3         4   # BR(~g -> chi^-_1 s_bar c)
     1.18949178E-01    3     1000024         5        -6   # BR(~g -> chi^+_1 b t_bar)
     1.18949178E-01    3    -1000024        -5         6   # BR(~g -> chi^-_1 b_bar t)
     1.40391227E-01    3     1000037         5        -6   # BR(~g -> chi^+_2 b t_bar)
     1.40391227E-01    3    -1000037        -5         6   # BR(~g -> chi^-_2 b_bar t)
DECAY        25     4.14136044E-03   # Gamma(h0)
     2.30707920E-03   2        22        22   # BR(h0 -> photon photon)
     1.59680010E-03   2        22        23   # BR(h0 -> photon Z)
     3.10864290E-02   2        23        23   # BR(h0 -> Z Z)
     2.49524393E-01   2       -24        24   # BR(h0 -> W W)
     7.02064382E-02   2        21        21   # BR(h0 -> gluon gluon)
     4.98077667E-09   2       -11        11   # BR(h0 -> Electron electron)
     2.21554647E-04   2       -13        13   # BR(h0 -> Muon muon)
     6.38841320E-02   2       -15        15   # BR(h0 -> Tau tau)
     1.37708590E-07   2        -2         2   # BR(h0 -> Up up)
     2.67236222E-02   2        -4         4   # BR(h0 -> Charm charm)
     5.75525617E-07   2        -1         1   # BR(h0 -> Down down)
     2.08154738E-04   2        -3         3   # BR(h0 -> Strange strange)
     5.54240679E-01   2        -5         5   # BR(h0 -> Bottom bottom)
DECAY        35     4.05350841E+00   # Gamma(HH)
     1.25430004E-07   2        22        22   # BR(HH -> photon photon)
     4.69549071E-08   2        22        23   # BR(HH -> photon Z)
     1.19993400E-04   2        23        23   # BR(HH -> Z Z)
     1.20116351E-04   2       -24        24   # BR(HH -> W W)
     2.94528816E-05   2        21        21   # BR(HH -> gluon gluon)
     1.03225608E-08   2       -11        11   # BR(HH -> Electron electron)
     4.59487306E-04   2       -13        13   # BR(HH -> Muon muon)
     1.32686978E-01   2       -15        15   # BR(HH -> Tau tau)
     4.45561986E-12   2        -2         2   # BR(HH -> Up up)
     8.64148771E-07   2        -4         4   # BR(HH -> Charm charm)
     6.37357275E-02   2        -6         6   # BR(HH -> Top top)
     8.60772728E-07   2        -1         1   # BR(HH -> Down down)
     3.11332306E-04   2        -3         3   # BR(HH -> Strange strange)
     8.00950668E-01   2        -5         5   # BR(HH -> Bottom bottom)
     3.93533038E-04   2   1000022   1000022   # BR(HH -> neutralino1 neutralino1)
     7.66404564E-05   2   1000022   1000023   # BR(HH -> neutralino1 neutralino2)
     1.11416306E-03   2        25        25   # BR(HH -> h0 h0)
DECAY        36     3.99630276E+00   # Gamma(A0)
     5.13278981E-07   2        22        22   # BR(A0 -> photon photon)
     3.64736654E-07   2        22        23   # BR(A0 -> photon Z)
     1.73849939E-04   2        21        21   # BR(A0 -> gluon gluon)
     1.02729658E-08   2       -11        11   # BR(A0 -> Electron electron)
     4.57279459E-04   2       -13        13   # BR(A0 -> Muon muon)
     1.32050500E-01   2       -15        15   # BR(A0 -> Tau tau)
     4.41074307E-12   2        -2         2   # BR(A0 -> Up up)
     8.55192474E-07   2        -4         4   # BR(A0 -> Charm charm)
     6.84908271E-02   2        -6         6   # BR(A0 -> Top top)
     8.56643616E-07   2        -1         1   # BR(A0 -> Down down)
     3.09838665E-04   2        -3         3   # BR(A0 -> Strange strange)
     7.97131859E-01   2        -5         5   # BR(A0 -> Bottom bottom)
     4.68709297E-04   2   1000022   1000022   # BR(A0 -> neutralino1 neutralino1)
     7.49120454E-04   2   1000022   1000023   # BR(A0 -> neutralino1 neutralino2)
     1.65416180E-04   2        23        25   # BR(A0 -> Z h0)
     1.88765872E-34   2        25        25   # BR(A0 -> h0 h0)
DECAY        37     3.68970027E+00   # Gamma(Hp)
     1.14832100E-08   2       -11        12   # BR(Hp -> Electron nu_e)
     4.90943089E-04   2       -13        14   # BR(Hp -> Muon nu_mu)
     1.38866181E-01   2       -15        16   # BR(Hp -> Tau nu_tau)
     8.26611847E-07   2        -1         2   # BR(Hp -> Down up)
     1.38048183E-05   2        -3         2   # BR(Hp -> Strange up)
     8.48452678E-06   2        -5         2   # BR(Hp -> Bottom up)
     8.26639253E-08   2        -1         4   # BR(Hp -> Down charm)
     2.98820763E-04   2        -3         4   # BR(Hp -> Strange charm)
     1.18813683E-03   2        -5         4   # BR(Hp -> Bottom charm)
     4.71784835E-06   2        -1         6   # BR(Hp -> Down top)
     1.03287682E-04   2        -3         6   # BR(Hp -> Strange top)
     8.57916575E-01   2        -5         6   # BR(Hp -> Bottom top)
     9.27241848E-04   2   1000022   1000024   # BR(Hp -> neutralino1 chargino1)
     1.80885596E-04   2        24        25   # BR(Hp -> W h0)
     2.90575162E-11   2        24        35   # BR(Hp -> W HH)
     3.45094368E-11   2        24        36   # BR(Hp -> W A0)
DECAY         6     2.43000000E+00   # top
#    BR                NDA      ID1      ID2
     1.00000000E+00    2           5        24   # BR(t -> b W)
Block HiggsBoundsInputHiggsCouplingsFermions
# ScalarNormEffCoupSq PseudoSNormEffCoupSq NP IP1 IP2 IP2
    9.36174919E-01    0.00000000E+00        3  25   5   5  # h0-b-b eff. coupling^2, normalised to SM
    1.83011537E+02    0.00000000E+00        3  35   5   5  # H0-b-b eff. coupling^2, normalised to SM
    0.00000000E+00    1.82947712E+02        3  36   5   5  # A0-b-b eff. coupling^2, normalised to SM
#
    1.00034887E+00    0.00000000E+00        3  25   6   6  # h0-t-t eff. coupling^2, normalised to SM
    5.11717205E-03    0.00000000E+00        3  35   6   6  # H0-t-t eff. coupling^2, normalised to SM
    0.00000000E+00    5.46604267E-03        3  36   6   6  # A0-t-t eff. coupling^2, normalised to SM
#
    9.36174919E-01    0.00000000E+00        3  25  15  15  # h0-tau-tau eff. coupling^2, normalised to SM
    1.83011537E+02    0.00000000E+00        3  35  15  15  # H0-tau-tau eff. coupling^2, normalised to SM
    0.00000000E+00    1.82947712E+02        3  36  15  15  # A0-tau-tau eff. coupling^2, normalised to SM
#
Block HiggsBoundsInputHiggsCouplingsBosons
    9.99994249E-01        3  25  24  24  # h0-W-W eff. coupling^2, normalised to SM
    5.75071998E-06        3  35  24  24  # H0-W-W eff. coupling^2, normalised to SM
    0.00000000E+00        3  36  24  24  # A0-W-W eff. coupling^2, normalised to SM
#
    9.99994249E-01        3  25  23  23  # h0-Z-Z eff. coupling^2, normalised to SM
    5.75071998E-06        3  35  23  23  # H0-Z-Z eff. coupling^2, normalised to SM
    0.00000000E+00        3  36  23  23  # A0-Z-Z eff. coupling^2, normalised to SM
#
    1.26531489E+00        3  25  21  21  # h0-g-g eff. coupling^2, normalised to SM
    3.43414812E-03        3  35  21  21  # H0-g-g eff. coupling^2, normalised to SM
    1.08454163E-01        3  36  21  21  # A0-g-g eff. coupling^2, normalised to SM
#
    0.00000000E+00        3  25  25  23  # h0-h0-Z eff. coupling^2, normalised to SM
    0.00000000E+00        3  35  25  23  # H0-h0-Z eff. coupling^2, normalised to SM
    5.75071998E-06        3  36  25  23  # A0-h0-Z eff. coupling^2, normalised to SM
    0.00000000E+00        3  35  35  23  # H0-H0-Z eff. coupling^2, normalised to SM
    9.99994249E-01        3  36  35  23  # A0-H0-Z eff. coupling^2, normalised to SM
    0.00000000E+00        3  36  36  23  # A0-A0-Z eff. coupling^2, normalised to SM
#
    0.00000000E+00        4  25  21  21  23  # h0-g-g-Z eff. coupling^2, normalised to SM
    0.00000000E+00        4  35  21  21  23  # H0-g-g-Z eff. coupling^2, normalised to SM
    0.00000000E+00        4  36  21  21  23  # A0-g-g-Z eff. coupling^2, normalised to SM
Block SPhenoLowEnergy  # low energy observables
    1    3.51611348E-04   # BR(b -> s gamma)
    2    1.58853304E-06   # BR(b -> s mu+ mu-)
    3    3.52729556E-05   # BR(b -> s nu nu)
    4    2.42276100E-15   # BR(Bd -> e+ e-)
    5    1.03497662E-10   # BR(Bd -> mu+ mu-)
    6    2.16698837E-08   # BR(Bd -> tau+ tau-)
    7    8.17719767E-14   # BR(Bs -> e+ e-)
    8    3.49329830E-09   # BR(Bs -> mu+ mu-)
    9    7.41081929E-07   # BR(Bs -> tau+ tau-)
   10    9.59623778E-05   # BR(B_u -> tau nu)
   11    9.91254624E-01   # BR(B_u -> tau nu)/BR(B_u -> tau nu)_SM
   12    5.42286318E-01   # |Delta(M_Bd)| [ps^-1] 
   13    1.93721569E+01   # |Delta(M_Bs)| [ps^-1] 
   14    0.00000000E+00   # neutron EDM according to the chiral quark model
   15    0.00000000E+00   # neutron EDM according to the relativistic quark-parton model
   16    2.15872320E-03   # epsilon_K
   17    2.28167345E-15   # Delta(M_K)
   18    2.48117435E-11   # BR(K^0 -> pi^0 nu nu)
   19    8.29334555E-11   # BR(K^+ -> pi^+ nu nu)
   20   -1.25998159E-16   # Delta(g-2)_electron/2
   21   -5.38681965E-12   # Delta(g-2)_muon/2
   22   -1.52418709E-09   # Delta(g-2)_tau/2
   23    0.00000000E+00   # electric dipole moment of the electron
   24    0.00000000E+00   # electric dipole moment of the muon
   25    0.00000000E+00   # electric dipole moment of the tau
   26    0.00000000E+00   # Br(mu -> e gamma)
   27    0.00000000E+00   # Br(tau -> e gamma)
   28    0.00000000E+00   # Br(tau -> mu gamma)
   29    0.00000000E+00   # Br(mu -> 3 e)
   30    0.00000000E+00   # Br(tau -> 3 e)
   31    0.00000000E+00   # Br(tau -> 3 mu)
   39    1.95196115E-05   # Delta(rho_parameter)
   40    0.00000000E+00   # BR(Z -> e mu)
   41    0.00000000E+00   # BR(Z -> e tau)
   42    0.00000000E+00   # BR(Z -> mu tau)
Block FWCOEF Q=  1.60000000E+02  # Wilson coefficients at scale Q
#    id        order  M        value         comment
     0305 4422   00   0    -1.88819110E-01   # C7
     0305 4422   00   2    -2.21016320E-01   # C7
     0305 4322   00   2    -5.51388728E-04   # C7'
     0305 6421   00   0    -9.52278348E-02   # C8
     0305 6421   00   2    -1.29496706E-01   # C8
     0305 6321   00   2    -6.22740843E-04   # C8'
 03051111 4133   00   0     1.62410994E+00   # C9 e+e-
 03051111 4133   00   2     1.62446160E+00   # C9 e+e-
 03051111 4233   00   2     3.90614449E-05   # C9' e+e-
 03051111 4137   00   0    -4.44680204E+00   # C10 e+e-
 03051111 4137   00   2    -4.44714226E+00   # C10 e+e-
 03051111 4237   00   2    -2.89741999E-04   # C10' e+e-
 03051313 4133   00   0     1.62410994E+00   # C9 mu+mu-
 03051313 4133   00   2     1.62446158E+00   # C9 mu+mu-
 03051313 4233   00   2     3.90613438E-05   # C9' mu+mu-
 03051313 4137   00   0    -4.44680204E+00   # C10 mu+mu-
 03051313 4137   00   2    -4.44714228E+00   # C10 mu+mu-
 03051313 4237   00   2    -2.89741904E-04   # C10' mu+mu-
 03051212 4137   00   0     1.50535012E+00   # C11 nu_1 nu_1
 03051212 4137   00   2     1.50542545E+00   # C11 nu_1 nu_1
 03051212 4237   00   2     6.26888423E-05   # C11' nu_1 nu_1
 03051414 4137   00   0     1.50535012E+00   # C11 nu_2 nu_2
 03051414 4137   00   2     1.50542545E+00   # C11 nu_2 nu_2
 03051414 4237   00   2     6.26888638E-05   # C11' nu_2 nu_2
 03051616 4137   00   0     1.50535012E+00   # C11 nu_3 nu_3
 03051616 4137   00   2     1.50542545E+00   # C11 nu_3 nu_3
 03051616 4237   00   2     6.26949314E-05   # C11' nu_3 nu_3
Block IMFWCOEF Q=  1.60000000E+02  # Im(Wilson coefficients) at scale Q
#    id        order  M        value         comment
     0305 4422   00   0     3.85795335E-07   # C7
     0305 4422   00   2    -4.62771927E-06   # C7
     0305 4322   00   2    -8.28215290E-07   # C7'
     0305 6421   00   0     3.30459219E-07   # C8
     0305 6421   00   2     6.59429795E-06   # C8
     0305 6321   00   2    -2.55233087E-07   # C8'
 03051111 4133   00   2     2.02743121E-07   # C9 e+e-
 03051111 4233   00   2     1.04139059E-06   # C9' e+e-
 03051111 4137   00   2     2.48821994E-06   # C10 e+e-
 03051111 4237   00   2    -7.72967172E-06   # C10' e+e-
 03051313 4133   00   2     2.02742616E-07   # C9 mu+mu-
 03051313 4233   00   2     1.04139056E-06   # C9' mu+mu-
 03051313 4137   00   2     2.48822038E-06   # C10 mu+mu-
 03051313 4237   00   2    -7.72967180E-06   # C10' mu+mu-
 03051212 4137   00   2    -5.07642013E-07   # C11 nu_1 nu_1
 03051212 4237   00   2     1.67240431E-06   # C11' nu_1 nu_1
 03051414 4137   00   2    -5.07641991E-07   # C11 nu_2 nu_2
 03051414 4237   00   2     1.67240431E-06   # C11' nu_2 nu_2
 03051616 4137   00   2    -5.07635812E-07   # C11 nu_3 nu_3
 03051616 4237   00   2     1.67240430E-06   # C11' nu_3 nu_3
