# SUSY Les Houches Accord 2 - MSSM spectrum + Decays
# SPheno v4.0.5be
# W. Porod, Comput. Phys. Commun. 153 (2003) 275-315, hep-ph/0301101;
# W. Porod, F.~Staub, Comput. Phys. Commun. 183 (2012) 2458
#                     arXiv:1104.1573 [hep-ph] 
# in case of problems send email to porod@physik.uni-wuerzburg.de
# Created: 15.05.2022,  06:37
Block SPINFO         # Program information
     1   SPheno      # spectrum calculator
     2   v4.0.5be    # version number
#
Block SPhenoINFO     # SPheno specific information
    1      2         # using 2-loop RGEs
    2      2         # using pole masses for boundary conditions at mZ
Block MODSEL  # Model selection
    1    0    # general MSSM
Block MINPAR  # Input parameters
    3    4.09214279E+01  # tanb at m_Z    
    4   -1.00000000E+00  # Sign(mu)
Block EXTPAR  # non-universal input parameters
    0    3.06371768E+03  # scale for input parameters
    1   -2.76932020E+02  # M_1
    2    1.95550099E+03  # M_2
    3    3.94220834E+03  # M_3
   11   -4.46154459E+03  # A_t
   12    1.89053311E+03  # A_b
   13   -1.83102829E+03  # A_tau
   23   -3.10948067E+02  # mu
   25    3.99615459E+01  # tan(beta)
   26    4.06584959E+03  # m_A, pole mass
   31    4.75978056E+02  # M_L11
   32    4.75978056E+02  # M_L22
   33    1.95035302E+03  # M_L33
   34    2.64209162E+02  # M_E11
   35    2.64209162E+02  # M_E22
   36    5.73726708E+02  # M_E33
   41    1.00000000E+04  # M_Q11
   42    1.00000000E+04  # M_Q22
   43    3.78805833E+03  # M_Q33
   44    1.00000000E+04  # M_U11
   45    1.00000000E+04  # M_U22
   46    2.37302001E+03  # M_U33
   47    1.00000000E+04  # M_D11
   48    1.00000000E+04  # M_D22
   49    4.78082418E+03  # M_D33
Block SMINPUTS  # SM parameters
         1     1.27908970E+02  # alpha_em^-1(MZ)^MSbar
         2     1.16637870E-05  # G_mu [GeV^-2]
         3     1.18400000E-01  # alpha_s(MZ)^MSbar
         4     9.11876000E+01  # m_Z(pole)
         5     4.18000000E+00  # m_b(m_b), MSbar
         6     1.73200000E+02  # m_t(pole)
         7     1.77700000E+00  # m_tau(pole)
         8     0.00000000E+00  # m_nu_3
        11     5.10998930E-04  # m_e(pole)
        12     0.00000000E+00  # m_nu_1
        13     1.05658372E-01  # m_muon(pole)
        14     0.00000000E+00  # m_nu_2
        21     5.00000000E-03  # m_d(2 GeV), MSbar
        22     2.50000000E-03  # m_u(2 GeV), MSbar
        23     9.50000000E-02  # m_s(2 GeV), MSbar
        24     1.27000000E+00  # m_c(m_c), MSbar
Block gauge Q=  3.06371768E+03  # (SUSY scale)
   1    3.55362975E-01  # g'(Q)^DRbar
   2    6.65198874E-01  # g(Q)^DRbar
   3    1.21977796E+00  # g3(Q)^DRbar
Block Yu Q=  3.06371768E+03  # (SUSY scale)
  1  1     8.38699688E-06   # Y_u(Q)^DRbar
  2  2     4.26059442E-03   # Y_c(Q)^DRbar
  3  3     1.01321659E+00   # Y_t(Q)^DRbar
Block Yd Q=  3.06371768E+03  # (SUSY scale)
  1  1     6.73486678E-04   # Y_d(Q)^DRbar
  2  2     1.27962469E-02   # Y_s(Q)^DRbar
  3  3     6.67887744E-01   # Y_b(Q)^DRbar
Block Ye Q=  3.06371768E+03  # (SUSY scale)
  1  1     1.17528350E-04   # Y_e(Q)^DRbar
  2  2     2.43011353E-02   # Y_mu(Q)^DRbar
  3  3     4.08705119E-01   # Y_tau(Q)^DRbar
Block Au Q=  3.06371768E+03  # (SUSY scale)
  1  1     0.00000000E+00   # A_u(Q)^DRbar
  2  2     0.00000000E+00   # A_c(Q)^DRbar
  3  3    -4.46154964E+03   # A_t(Q)^DRbar
Block Ad Q=  3.06371768E+03  # (SUSY scale)
  1  1     0.00000000E+00   # A_d(Q)^DRbar
  2  2     0.00000000E+00   # A_s(Q)^DRbar
  3  3     1.89053328E+03   # A_b(Q)^DRbar
Block Ae Q=  3.06371768E+03  # (SUSY scale)
  1  1     0.00000000E+00   # A_e(Q)^DRbar
  2  2     0.00000000E+00   # A_mu(Q)^DRbar
  3  3    -1.83102745E+03   # A_tau(Q)^DRbar
Block MSOFT Q=  3.06371768E+03  # soft SUSY breaking masses at Q
   1   -2.76932020E+02  # M_1
   2    1.95550099E+03  # M_2
   3    3.94220834E+03  # M_3
  21    1.65539795E+07  # M^2_(H,d)
  22    2.40313600E+04  # M^2_(H,u)
  31    4.75978056E+02  # M_(L,11)
  32    4.75978056E+02  # M_(L,22)
  33    1.95035302E+03  # M_(L,33)
  34    2.64209162E+02  # M_(E,11)
  35    2.64209162E+02  # M_(E,22)
  36    5.73726708E+02  # M_(E,33)
  41    1.00000000E+04  # M_(Q,11)
  42    1.00000000E+04  # M_(Q,22)
  43    3.78805833E+03  # M_(Q,33)
  44    1.00000000E+04  # M_(U,11)
  45    1.00000000E+04  # M_(U,22)
  46    2.37302001E+03  # M_(U,33)
  47    1.00000000E+04  # M_(D,11)
  48    1.00000000E+04  # M_(D,22)
  49    4.78082418E+03  # M_(D,33)
Block MASS  # Mass spectrum
#   PDG code      mass          particle
         6     1.73200000E+02  # m_t(pole)
        23     9.11876000E+01  # m_Z(pole)
        24     8.04299946E+01  # W+
        15     1.77700000E+00  # m_tau(pole)
        25     1.24542676E+02  # h0
        35     4.06462969E+03  # H0
        36     4.06584959E+03  # A0
        37     4.06520494E+03  # H+
   1000001     1.00865203E+04  # ~d_L
   2000001     1.00644184E+04  # ~d_R
   1000002     1.00862244E+04  # ~u_L
   2000002     1.00668874E+04  # ~u_R
   1000003     1.00865279E+04  # ~s_L
   2000003     1.00644313E+04  # ~s_R
   1000004     1.00862319E+04  # ~c_L
   2000004     1.00668889E+04  # ~c_R
   1000005     3.86109787E+03  # ~b_1
   2000005     4.84867721E+03  # ~b_2
   1000006     2.42555562E+03  # ~t_1
   2000006     3.86977975E+03  # ~t_2
   1000011     5.29350641E+02  # ~e_L-
   2000011     3.01621169E+02  # ~e_R-
   1000012     5.22978703E+02  # ~nu_eL
   1000013     5.29331291E+02  # ~mu_L-
   2000013     3.01519512E+02  # ~mu_R-
   1000014     5.22947613E+02  # ~nu_muL
   1000015     5.65050311E+02  # ~tau_1-
   2000015     1.96488665E+03  # ~tau_2-
   1000016     1.96129104E+03  # ~nu_tauL
   1000021     4.38715068E+03  # ~g
   1000022     2.56240444E+02  # ~chi_10
   1000023     3.12044602E+02  # ~chi_20
   1000025     3.31561364E+02  # ~chi_30
   1000035     2.04040779E+03  # ~chi_40
   1000024     3.11877478E+02  # ~chi_1+
   1000037     2.03944729E+03  # ~chi_2+
# Higgs mixing
Block alpha # Effective Higgs mixing angle
          -2.44661585E-02   # alpha
Block Hmix Q=  3.06371768E+03  # Higgs mixing parameters
   1   -3.10948067E+02  # mu
   2    3.99615459E+01  # tan[beta](Q)
   3    2.43225118E+02  # v(Q)
   4    1.65311329E+07  # m^2_A(Q)
Block stopmix # stop mixing matrix
   1  1     7.05604103E-02   # Re[R_st(1,1)]
   1  2     9.97507508E-01   # Re[R_st(1,2)]
   2  1    -9.97507508E-01   # Re[R_st(2,1)]
   2  2     7.05604103E-02   # Re[R_st(2,2)]
Block sbotmix # sbottom mixing matrix
   1  1    -9.99993284E-01   # Re[R_sb(1,1)]
   1  2     3.66507455E-03   # Re[R_sb(1,2)]
   2  1    -3.66507455E-03   # Re[R_sb(2,1)]
   2  2    -9.99993284E-01   # Re[R_sb(2,2)]
Block staumix # stau mixing matrix
   1  1    -5.24380350E-03   # Re[R_sta(1,1)]
   1  2     9.99986251E-01   # Re[R_sta(1,2)]
   2  1    -9.99986251E-01   # Re[R_sta(2,1)]
   2  2    -5.24380350E-03   # Re[R_sta(2,2)]
Block Nmix # neutralino mixing matrix
   1  1    -8.72436290E-01   # Re[N(1,1)]
   1  2    -1.11527009E-02   # Re[N(1,2)]
   1  3     3.76400152E-01   # Re[N(1,3)]
   1  4    -3.11534048E-01   # Re[N(1,4)]
   2  1    -5.22523692E-02   # Re[N(2,1)]
   2  2    -3.18456579E-02   # Re[N(2,2)]
   2  3    -7.06015268E-01   # Re[N(2,3)]
   2  4    -7.05548004E-01   # Re[N(2,4)]
   3  1    -4.85925937E-01   # Re[N(3,1)]
   3  2     2.18633906E-02   # Re[N(3,2)]
   3  3    -5.99865476E-01   # Re[N(3,3)]
   3  4     6.35263242E-01   # Re[N(3,4)]
   4  1     7.70666675E-04   # Re[N(4,1)]
   4  2    -9.99191405E-01   # Re[N(4,2)]
   4  3     5.17473340E-03   # Re[N(4,3)]
   4  4     3.98643290E-02   # Re[N(4,4)]
Block Umix # chargino mixing matrix
   1  1    -7.34251744E-03   # Re[U(1,1)]
   1  2    -9.99973043E-01   # Re[U(1,2)]
   2  1     9.99973043E-01   # Re[U(2,1)]
   2  2    -7.34251744E-03   # Re[U(2,2)]
Block Vmix # chargino mixing matrix
   1  1    -5.64467088E-02   # Re[V(1,1)]
   1  2     9.98405613E-01   # Re[V(1,2)]
   2  1     9.98405613E-01   # Re[V(2,1)]
   2  2     5.64467088E-02   # Re[V(2,2)]
DECAY        23     2.49520000E+00   # Z
DECAY        24     2.08500000E+00   # W
DECAY   2000011     8.93269086E-02   # ~e^-_R
#    BR                NDA      ID1      ID2
     1.00000000E+00    2     1000022        11   # BR(~e^-_R -> chi^0_1 e^-)
#    BR                NDA      ID1      ID2       ID3
DECAY   1000011     3.63367699E-01   # ~e^-_L
#    BR                NDA      ID1      ID2
     8.56138404E-01    2     1000022        11   # BR(~e^-_L -> chi^0_1 e^-)
     9.74977256E-03    2     1000023        11   # BR(~e^-_L -> chi^0_2 e^-)
     1.33817032E-01    2     1000025        11   # BR(~e^-_L -> chi^0_3 e^-)
     2.94703562E-04    2    -1000024        12   # BR(~e^-_L -> chi^-_1 nu_e)
#    BR                NDA      ID1      ID2       ID3
DECAY   2000013     8.90310959E-02   # ~mu^-_R
#    BR                NDA      ID1      ID2
     1.00000000E+00    2     1000022        13   # BR(~mu^-_R -> chi^0_1 mu^-)
DECAY   1000013     3.66598088E-01   # ~mu^-_L
#    BR                NDA      ID1      ID2
     8.49916640E-01    2     1000022        13   # BR(~mu^-_L -> chi^0_1 mu^-)
     1.32667758E-02    2     1000023        13   # BR(~mu^-_L -> chi^0_2 mu^-)
     1.34888552E-01    2     1000025        13   # BR(~mu^-_L -> chi^0_3 mu^-)
     2.92073306E-04    2    -1000024        14   # BR(~mu^-_L -> chi^-_1 nu_mu)
     1.63591010E-03    2     2000013        25   # BR(~mu^-_L -> ~mu^-_R h^0)
#    BR                NDA      ID1      ID2       ID3
DECAY   1000015     3.47451732E+00   # ~tau^-_1
#    BR                NDA      ID1      ID2
     4.42436940E-01    2     1000022        15   # BR(~tau^-_1 -> chi^0_1 tau^-)
     1.31099234E-01    2     1000023        15   # BR(~tau^-_1 -> chi^0_2 tau^-)
     1.65142167E-01    2     1000025        15   # BR(~tau^-_1 -> chi^0_3 tau^-)
     2.61321658E-01    2    -1000024        16   # BR(~tau^-_1 -> chi^-_1 nu_tau)
DECAY   2000015     8.70700478E+00   # ~tau^-_2
#    BR                NDA      ID1      ID2
     3.19697626E-01    2     1000022        15   # BR(~tau^-_2 -> chi^0_1 tau^-)
     3.58554573E-01    2     1000023        15   # BR(~tau^-_2 -> chi^0_2 tau^-)
     3.09207334E-01    2     1000025        15   # BR(~tau^-_2 -> chi^0_3 tau^-)
     6.23850427E-03    2     1000015        23   # BR(~tau^-_2 -> ~tau^-_1 Z)
     6.26991000E-03    2     1000015        25   # BR(~tau^-_2 -> ~tau^-_1 h^0)
#    BR                NDA      ID1      ID2       ID3
DECAY   1000012     3.46441760E-01   # ~nu_e
#    BR                NDA      ID1      ID2
     7.94113029E-01    2     1000022        12   # BR(~nu_e -> chi^0_1 nu_e)
     1.88263638E-01    2     1000025        12   # BR(~nu_e -> chi^0_3 nu_e)
     1.75807443E-02    2     1000024        11   # BR(~nu_e -> chi^+_1 e^-)
DECAY   1000014     3.48942687E-01   # ~nu_mu
#    BR                NDA      ID1      ID2
     7.88315400E-01    2     1000022        14   # BR(~nu_mu -> chi^0_1 nu_mu)
     1.86873340E-01    2     1000025        14   # BR(~nu_mu -> chi^0_3 nu_mu)
     2.47689840E-02    2     1000024        13   # BR(~nu_mu -> chi^+_1 mu^-)
DECAY   1000016     8.72415223E+00   # ~nu_tau
#    BR                NDA      ID1      ID2
     1.97851559E-01    2     1000022        16   # BR(~nu_tau -> chi^0_1 nu_tau)
     7.39699392E-02    2     1000025        16   # BR(~nu_tau -> chi^0_3 nu_tau)
     7.15769113E-01    2     1000024        15   # BR(~nu_tau -> chi^+_1 tau^-)
     1.23948605E-02    2     1000015        24   # BR(~nu_tau -> ~tau^-_1 W^+)
DECAY   2000001     5.26809113E+02   # ~d_R
#    BR                NDA      ID1      ID2
     8.10779815E-03    2     1000022         1   # BR(~d_R -> chi^0_1 d)
     2.51307269E-03    2     1000025         1   # BR(~d_R -> chi^0_3 d)
     9.89349800E-01    2     1000021         1   # BR(~d_R -> ~g d)
DECAY   1000001     6.47344443E+02   # ~d_L
#    BR                NDA      ID1      ID2
     1.42434706E-03    2     1000022         1   # BR(~d_L -> chi^0_1 d)
     8.04095009E-04    2     1000025         1   # BR(~d_L -> chi^0_3 d)
     6.29990659E-02    2     1000035         1   # BR(~d_L -> chi^0_4 d)
     1.26170814E-01    2    -1000037         2   # BR(~d_L -> chi^-_2 u)
     8.08559448E-01    2     1000021         1   # BR(~d_L -> ~g d)
DECAY   2000003     5.26875678E+02   # ~s_R
#    BR                NDA      ID1      ID2
     8.11556512E-03    2     1000022         3   # BR(~s_R -> chi^0_1 s)
     2.53503880E-03    2     1000025         3   # BR(~s_R -> chi^0_3 s)
     9.89227263E-01    2     1000021         3   # BR(~s_R -> ~g s)
DECAY   1000003     6.47381652E+02   # ~s_L
#    BR                NDA      ID1      ID2
     1.43142811E-03    2     1000022         3   # BR(~s_L -> chi^0_1 s)
     8.22222628E-04    2     1000025         3   # BR(~s_L -> chi^0_3 s)
     6.29955015E-02    2     1000035         3   # BR(~s_L -> chi^0_4 s)
     1.26163690E-01    2    -1000037         4   # BR(~s_L -> chi^-_2 c)
     8.08514151E-01    2     1000021         3   # BR(~s_L -> ~g s)
DECAY   1000005     1.81354254E+02   # ~b_1
#    BR                NDA      ID1      ID2
     2.86322856E-02    2     1000022         5   # BR(~b_1 -> chi^0_1 b)
     9.30018480E-02    2     1000023         5   # BR(~b_1 -> chi^0_2 b)
     6.79075651E-02    2     1000025         5   # BR(~b_1 -> chi^0_3 b)
     4.86114999E-02    2     1000035         5   # BR(~b_1 -> chi^0_4 b)
     4.26031353E-01    2    -1000024         6   # BR(~b_1 -> chi^-_1 t)
     9.84732377E-02    2    -1000037         6   # BR(~b_1 -> chi^-_2 t)
     2.37342210E-01    2     1000006       -24   # BR(~b_1 -> ~t_1 W^-)
DECAY   2000005     1.00627802E+02   # ~b_2
#    BR                NDA      ID1      ID2
     8.02354992E-02    2     1000022         5   # BR(~b_2 -> chi^0_1 b)
     2.11446170E-01    2     1000023         5   # BR(~b_2 -> chi^0_2 b)
     1.59086875E-01    2     1000025         5   # BR(~b_2 -> chi^0_3 b)
     4.22964916E-01    2    -1000024         6   # BR(~b_2 -> chi^-_1 t)
     1.25033093E-01    2     1000021         5   # BR(~b_2 -> ~g b)
     4.87797491E-04    2     2000006       -24   # BR(~b_2 -> ~t_2 W^-)
     2.50263027E-04    2     1000005        23   # BR(~b_2 -> ~b_1 Z)
     4.21304576E-04    2     1000005        25   # BR(~b_2 -> ~b_1 h^0)
DECAY   2000002     5.43893608E+02   # ~u_R
#    BR                NDA      ID1      ID2
     3.14201128E-02    2     1000022         2   # BR(~u_R -> chi^0_1 u)
     1.12636798E-04    2     1000023         2   # BR(~u_R -> chi^0_2 u)
     9.73869275E-03    2     1000025         2   # BR(~u_R -> chi^0_3 u)
     9.58728535E-01    2     1000021         2   # BR(~u_R -> ~g u)
DECAY   1000002     6.47334434E+02   # ~u_L
#    BR                NDA      ID1      ID2
     1.89900319E-03    2     1000022         2   # BR(~u_L -> chi^0_1 u)
     1.15909748E-04    2     1000023         2   # BR(~u_L -> chi^0_2 u)
     2.86174961E-04    2     1000025         2   # BR(~u_L -> chi^0_3 u)
     6.29632758E-02    2     1000035         2   # BR(~u_L -> chi^0_4 u)
     4.36334103E-04    2     1000024         1   # BR(~u_L -> chi^+_1 d)
     1.25773211E-01    2     1000037         1   # BR(~u_L -> chi^+_2 d)
     8.08526091E-01    2     1000021         2   # BR(~u_L -> ~g u)
DECAY   2000004     5.43900986E+02   # ~c_R
#    BR                NDA      ID1      ID2
     3.14203400E-02    2     1000022         4   # BR(~c_R -> chi^0_1 c)
     1.15956569E-04    2     1000023         4   # BR(~c_R -> chi^0_2 c)
     9.74125034E-03    2     1000025         4   # BR(~c_R -> chi^0_3 c)
     9.58715751E-01    2     1000021         4   # BR(~c_R -> ~g c)
DECAY   1000004     6.47371601E+02   # ~c_L
#    BR                NDA      ID1      ID2
     1.89944043E-03    2     1000022         4   # BR(~c_L -> chi^0_1 c)
     1.18698402E-04    2     1000023         4   # BR(~c_L -> chi^0_2 c)
     2.88424955E-04    2     1000025         4   # BR(~c_L -> chi^0_3 c)
     6.29597240E-02    2     1000035         4   # BR(~c_L -> chi^0_4 c)
     4.86823784E-04    2     1000024         3   # BR(~c_L -> chi^+_1 s)
     1.25766102E-01    2     1000037         3   # BR(~c_L -> chi^+_2 s)
     8.08480786E-01    2     1000021         4   # BR(~c_L -> ~g c)
DECAY   1000006     1.00332216E+02   # ~t_1
#    BR                NDA      ID1      ID2
     8.27537676E-02    2     1000022         6   # BR(~t_1 -> chi^0_1 t)
     2.35033530E-01    2     1000023         6   # BR(~t_1 -> chi^0_2 t)
     2.04994903E-01    2     1000025         6   # BR(~t_1 -> chi^0_3 t)
     4.77206620E-01    2     1000024         5   # BR(~t_1 -> chi^+_1 b)
#    BR                NDA      ID1      ID2       ID3
DECAY   2000006     1.91446053E+02   # ~t_2
#    BR                NDA      ID1      ID2
     4.58335832E-02    2     1000022         6   # BR(~t_2 -> chi^0_1 t)
     2.02222360E-01    2     1000023         6   # BR(~t_2 -> chi^0_2 t)
     1.59471462E-01    2     1000025         6   # BR(~t_2 -> chi^0_3 t)
     4.71189938E-02    2     1000035         6   # BR(~t_2 -> chi^0_4 t)
     1.76620596E-01    2     1000024         5   # BR(~t_2 -> chi^+_1 b)
     9.31926401E-02    2     1000037         5   # BR(~t_2 -> chi^+_2 b)
     1.13450901E-01    2     1000006        23   # BR(~t_2 -> ~t_1 Z)
     1.62089464E-01    2     1000006        25   # BR(~t_2 -> ~t_1 h^0)
DECAY   1000024     7.42130314E-04   # chi^+_1
#    BR                NDA      ID1      ID2
     1.05324618E-02    2    -2000013        14   # BR(chi^+_1 -> ~mu^+_R nu_mu)
#    BR                NDA      ID1      ID2       ID3
     3.29969008E-01    3     1000022        -1         2   # BR(chi^+_1 -> chi^0_1 d_bar u)
     3.29333520E-01    3     1000022        -3         4   # BR(chi^+_1 -> chi^0_1 s_bar c)
     1.09832307E-01    3     1000022       -11        12   # BR(chi^+_1 -> chi^0_1 e^+ nu_e)
     1.09831635E-01    3     1000022       -13        14   # BR(chi^+_1 -> chi^0_1 mu^+ nu_mu)
     1.10500827E-01    3     1000022       -15        16   # BR(chi^+_1 -> chi^0_1 tau^+ nu_tau)
DECAY   1000037     4.93318739E+01   # chi^+_2
#    BR                NDA      ID1      ID2
     1.58264697E-01    2    -1000011        12   # BR(chi^+_2 -> ~e^+_L nu_e)
     1.58266368E-01    2    -1000013        14   # BR(chi^+_2 -> ~mu^+_L nu_mu)
     9.37568727E-04    2    -2000015        16   # BR(chi^+_2 -> ~tau^+_2 nu_tau)
     1.58314837E-01    2     1000012       -11   # BR(chi^+_2 -> ~nu_e e^+)
     1.58317507E-01    2     1000014       -13   # BR(chi^+_2 -> ~nu_mu mu^+)
     1.02506577E-03    2     1000016       -15   # BR(chi^+_2 -> ~nu_tau tau^+)
     1.93543119E-02    2     1000022        24   # BR(chi^+_2 -> chi^0_1 W^+)
     8.79356340E-02    2     1000023        24   # BR(chi^+_2 -> chi^0_2 W^+)
     6.87277900E-02    2     1000025        24   # BR(chi^+_2 -> chi^0_3 W^+)
     8.79565848E-02    2     1000024        23   # BR(chi^+_2 -> chi^+_1 Z)
     8.86080945E-02    2     1000024        25   # BR(chi^+_2 -> chi^+_1 h^0)
#    BR                NDA      ID1      ID2       ID3
     4.96472357E-03    3     1000024         6        -6   # BR(chi^+_2 -> chi^+_1 t t_bar)
     8.15176147E-04    3     1000022        -5         6   # BR(chi^+_2 -> chi^0_1 b_bar t)
     3.58076666E-03    3     1000023        -5         6   # BR(chi^+_2 -> chi^0_2 b_bar t)
     2.89992719E-03    3     1000025        -5         6   # BR(chi^+_2 -> chi^0_3 b_bar t)
DECAY   1000022     0.00000000E+00   # chi^0_1
DECAY   1000023     5.59272701E-04   # chi^0_2
#    BR                NDA      ID1      ID2
     1.65159158E-02    2     2000011       -11   # BR(chi^0_2 -> ~e^-_R e^+)
     1.65159158E-02    2    -2000011        11   # BR(chi^0_2 -> ~e^+_R e^-)
     2.42431837E-02    2     2000013       -13   # BR(chi^0_2 -> ~mu^-_R mu^+)
     2.42431837E-02    2    -2000013        13   # BR(chi^0_2 -> ~mu^+_R mu^-)
     5.99459500E-03    2     1000022        22   # BR(chi^0_2 -> chi^0_1 photon)
#    BR                NDA      ID1      ID2       ID3
     1.09188830E-01    3     1000022         2        -2   # BR(chi^0_2 -> chi^0_1 u u_bar)
     1.08553064E-01    3     1000022         4        -4   # BR(chi^0_2 -> chi^0_1 c c_bar)
     1.40001455E-01    3     1000022         1        -1   # BR(chi^0_2 -> chi^0_1 d d_bar)
     1.39997601E-01    3     1000022         3        -3   # BR(chi^0_2 -> chi^0_1 s s_bar)
     1.32806777E-01    3     1000022         5        -5   # BR(chi^0_2 -> chi^0_1 b b_bar)
     3.14888609E-02    3     1000022        11       -11   # BR(chi^0_2 -> chi^0_1 e^- e^+)
     3.14896618E-02    3     1000022        13       -13   # BR(chi^0_2 -> chi^0_1 mu^- mu^+)
     3.17642193E-02    3     1000022        15       -15   # BR(chi^0_2 -> chi^0_1 tau^- tau^+)
     1.87196737E-01    3     1000022        12       -12   # BR(chi^0_2 -> chi^0_1 nu_e nu_bar_e)
DECAY   1000025     2.35584096E-02   # chi^0_3
#    BR                NDA      ID1      ID2
     2.48281341E-01    2     2000011       -11   # BR(chi^0_3 -> ~e^-_R e^+)
     2.48281341E-01    2    -2000011        11   # BR(chi^0_3 -> ~e^+_R e^-)
     2.50888834E-01    2     2000013       -13   # BR(chi^0_3 -> ~mu^-_R mu^+)
     2.50888834E-01    2    -2000013        13   # BR(chi^0_3 -> ~mu^+_R mu^-)
#    BR                NDA      ID1      ID2       ID3
     1.23327239E-04    3     1000022        12       -12   # BR(chi^0_3 -> chi^0_1 nu_e nu_bar_e)
     1.31173819E-04    3     1000024         1        -2   # BR(chi^0_3 -> chi^+_1 d u_bar)
     1.31173819E-04    3    -1000024        -1         2   # BR(chi^0_3 -> chi^-_1 d_bar u)
     1.28568983E-04    3     1000024         3        -4   # BR(chi^0_3 -> chi^+_1 s c_bar)
     1.28568983E-04    3    -1000024        -3         4   # BR(chi^0_3 -> chi^-_1 s_bar c)
DECAY   1000035     5.07739733E+01   # chi^0_4
#    BR                NDA      ID1      ID2
     7.67479681E-02    2     1000011       -11   # BR(chi^0_4 -> ~e^-_L e^+)
     7.67479681E-02    2    -1000011        11   # BR(chi^0_4 -> ~e^+_L e^-)
     7.67487880E-02    2     1000013       -13   # BR(chi^0_4 -> ~mu^-_L mu^+)
     7.67487880E-02    2    -1000013        13   # BR(chi^0_4 -> ~mu^+_L mu^-)
     4.65716804E-04    2     2000015       -15   # BR(chi^0_4 -> ~tau^-_2 tau^+)
     4.65716804E-04    2    -2000015        15   # BR(chi^0_4 -> ~tau^+_2 tau^-)
     7.71402933E-02    2     1000012       -12   # BR(chi^0_4 -> ~nu_e nu_bar_e)
     7.71402933E-02    2    -1000012        12   # BR(chi^0_4 -> ~nu^*_e nu_e)
     7.71415830E-02    2     1000014       -14   # BR(chi^0_4 -> ~nu_mu nu_bar_mu)
     7.71415830E-02    2    -1000014        14   # BR(chi^0_4 -> ~nu^*_mu nu_mu)
     5.11048327E-04    2     1000016       -16   # BR(chi^0_4 -> ~nu_tau nu_bar_tau)
     5.11048327E-04    2    -1000016        16   # BR(chi^0_4 -> ~nu^*_tau nu_tau)
     8.60743575E-02    2     1000024       -24   # BR(chi^0_4 -> chi^+_1 W^-)
     8.60743575E-02    2    -1000024        24   # BR(chi^0_4 -> chi^-_1 W^+)
     1.12182873E-02    2     1000022        23   # BR(chi^0_4 -> chi^0_1 Z)
     3.18129970E-02    2     1000023        23   # BR(chi^0_4 -> chi^0_2 Z)
     4.25375341E-02    2     1000025        23   # BR(chi^0_4 -> chi^0_3 Z)
     1.25567988E-02    2     1000022        25   # BR(chi^0_4 -> chi^0_1 h^0)
     5.39183682E-02    2     1000023        25   # BR(chi^0_4 -> chi^0_2 h^0)
     4.70888916E-02    2     1000025        25   # BR(chi^0_4 -> chi^0_3 h^0)
#    BR                NDA      ID1      ID2       ID3
     5.04515725E-04    3     1000022         6        -6   # BR(chi^0_4 -> chi^0_1 t t_bar)
     2.23789529E-03    3     1000023         6        -6   # BR(chi^0_4 -> chi^0_2 t t_bar)
     1.78587666E-03    3     1000025         6        -6   # BR(chi^0_4 -> chi^0_3 t t_bar)
     3.32377828E-03    3     1000024         5        -6   # BR(chi^0_4 -> chi^+_1 b t_bar)
     3.32377828E-03    3    -1000024        -5         6   # BR(chi^0_4 -> chi^-_1 b_bar t)
DECAY   1000021     7.46560437E+01   # ~g
#    BR                NDA      ID1      ID2
     4.68566336E-04    2     1000006        -4   # BR(~g -> ~t_1 c_bar)
     4.68566336E-04    2    -1000006         4   # BR(~g -> ~t^*_1 c)
     4.11763993E-01    2     1000006        -6   # BR(~g -> ~t_1 t_bar)
     4.11763993E-01    2    -1000006         6   # BR(~g -> ~t^*_1 t)
     4.26677958E-02    2     2000006        -6   # BR(~g -> ~t_2 t_bar)
     4.26677958E-02    2    -2000006         6   # BR(~g -> ~t^*_2 t)
     4.42024305E-02    2     1000005        -5   # BR(~g -> ~b_1 b_bar)
     4.42024305E-02    2    -1000005         5   # BR(~g -> ~b^*_1 b)
#    BR                NDA      ID1      ID2       ID3
     1.45242093E-04    3     1000022         5        -5   # BR(~g -> chi^0_1 b b_bar)
     3.73922114E-04    3     1000023         5        -5   # BR(~g -> chi^0_2 b b_bar)
     2.81619063E-04    3     1000025         5        -5   # BR(~g -> chi^0_3 b b_bar)
     3.71793783E-04    3     1000024         5        -6   # BR(~g -> chi^+_1 b t_bar)
     3.71793783E-04    3    -1000024        -5         6   # BR(~g -> chi^-_1 b_bar t)
DECAY        25     3.48702205E-03   # Gamma(h0)
     2.54640288E-03   2        22        22   # BR(h0 -> photon photon)
     1.60004137E-03   2        22        23   # BR(h0 -> photon Z)
     2.90531563E-02   2        23        23   # BR(h0 -> Z Z)
     2.42194916E-01   2       -24        24   # BR(h0 -> W W)
     7.98793123E-02   2        21        21   # BR(h0 -> gluon gluon)
     4.96604359E-09   2       -11        11   # BR(h0 -> Electron electron)
     2.20898312E-04   2       -13        13   # BR(h0 -> Muon muon)
     6.37279575E-02   2       -15        15   # BR(h0 -> Tau tau)
     1.41488719E-07   2        -2         2   # BR(h0 -> Up up)
     2.74595894E-02   2        -4         4   # BR(h0 -> Charm charm)
     5.75685890E-07   2        -1         1   # BR(h0 -> Down down)
     2.08211698E-04   2        -3         3   # BR(h0 -> Strange strange)
     5.53108792E-01   2        -5         5   # BR(h0 -> Bottom bottom)
DECAY        35     1.06613786E+02   # Gamma(HH)
     1.25782298E-08   2        22        22   # BR(HH -> photon photon)
     2.14290460E-08   2        22        23   # BR(HH -> photon Z)
     1.10525882E-07   2        23        23   # BR(HH -> Z Z)
     2.29157810E-08   2       -24        24   # BR(HH -> W W)
     4.19882365E-06   2        21        21   # BR(HH -> gluon gluon)
     7.34144918E-09   2       -11        11   # BR(HH -> Electron electron)
     3.26907588E-04   2       -13        13   # BR(HH -> Muon muon)
     1.06003461E-01   2       -15        15   # BR(HH -> Tau tau)
     4.99697490E-14   2        -2         2   # BR(HH -> Up up)
     9.69427174E-09   2        -4         4   # BR(HH -> Charm charm)
     7.80998927E-04   2        -6         6   # BR(HH -> Top top)
     6.13788241E-07   2        -1         1   # BR(HH -> Down down)
     2.21989049E-04   2        -3         3   # BR(HH -> Strange strange)
     5.59940628E-01   2        -5         5   # BR(HH -> Bottom bottom)
     1.06479567E-03   2  -1000024   1000024   # BR(HH -> Chargino1 chargino1)
     8.94021264E-02   2  -1000024   1000037   # BR(HH -> Chargino1 chargino2)
     8.94021264E-02   2  -1000037   1000024   # BR(HH -> Chargino2 chargino1)
     5.24642507E-07   2  -1000037   1000037   # BR(HH -> Chargino2 chargino2)
     8.96751674E-03   2   1000022   1000022   # BR(HH -> neutralino1 neutralino1)
     1.64404333E-02   2   1000022   1000023   # BR(HH -> neutralino1 neutralino2)
     3.11818528E-03   2   1000022   1000025   # BR(HH -> neutralino1 neutralino3)
     1.41750603E-02   2   1000022   1000035   # BR(HH -> neutralino1 neutralino4)
     6.90518038E-06   2   1000023   1000023   # BR(HH -> neutralino2 neutralino2)
     6.79459168E-03   2   1000023   1000025   # BR(HH -> neutralino2 neutralino3)
     4.25561158E-02   2   1000023   1000035   # BR(HH -> neutralino2 neutralino4)
     8.63634735E-03   2   1000025   1000025   # BR(HH -> neutralino3 neutralino3)
     3.28965895E-02   2   1000025   1000035   # BR(HH -> neutralino3 neutralino4)
     2.62503809E-07   2   1000035   1000035   # BR(HH -> neutralino4 neutralino4)
     9.57941245E-07   2        25        25   # BR(HH -> h0 h0)
     2.37799439E-08   2  -1000011   1000011   # BR(HH -> Selectron1 selectron1)
     1.77478131E-14   2  -2000011   1000011   # BR(HH -> Selectron2 selectron1)
     1.77478131E-14   2  -1000011   2000011   # BR(HH -> Selectron1 selectron2)
     3.60334364E-08   2  -2000011   2000011   # BR(HH -> Selectron2 selectron2)
     2.33948791E-08   2  -1000013   1000013   # BR(HH -> Smuon1 smuon1)
     7.58552519E-10   2  -2000013   1000013   # BR(HH -> Smuon2 smuon1)
     7.58552519E-10   2  -1000013   2000013   # BR(HH -> Smuon1 smuon2)
     3.59201455E-08   2  -2000013   2000013   # BR(HH -> Smuon2 smuon2)
     1.72015864E-06   2  -1000015   1000015   # BR(HH -> Stau1 stau1)
     9.62796802E-03   2  -2000015   1000015   # BR(HH -> Stau2 stau1)
     9.62796802E-03   2  -1000015   2000015   # BR(HH -> Stau1 stau2)
     4.34009048E-07   2  -2000015   2000015   # BR(HH -> Stau2 stau2)
DECAY        36     1.02220838E+02   # Gamma(A0)
     1.96715352E-09   2        22        22   # BR(A0 -> photon photon)
     6.83875412E-09   2        22        23   # BR(A0 -> photon Z)
     8.75180867E-06   2        21        21   # BR(A0 -> gluon gluon)
     7.18189426E-09   2       -11        11   # BR(A0 -> Electron electron)
     3.19803541E-04   2       -13        13   # BR(A0 -> Muon muon)
     1.03702997E-01   2       -15        15   # BR(A0 -> Tau tau)
     4.74881783E-14   2        -2         2   # BR(A0 -> Up up)
     9.21261091E-09   2        -4         4   # BR(A0 -> Charm charm)
     7.48463432E-04   2        -6         6   # BR(A0 -> Top top)
     6.00449739E-07   2        -1         1   # BR(A0 -> Down down)
     2.17165645E-04   2        -3         3   # BR(A0 -> Strange strange)
     5.47779032E-01   2        -5         5   # BR(A0 -> Bottom bottom)
     1.12258079E-03   2  -1000024   1000024   # BR(A0 -> Chargino1 chargino1)
     9.33003071E-02   2  -1000024   1000037   # BR(A0 -> Chargino1 chargino2)
     9.33003071E-02   2  -1000037   1000024   # BR(A0 -> Chargino2 chargino1)
     3.71370767E-06   2  -1000037   1000037   # BR(A0 -> Chargino2 chargino2)
     1.03290506E-02   2   1000022   1000022   # BR(A0 -> neutralino1 neutralino1)
     1.52740412E-02   2   1000022   1000023   # BR(A0 -> neutralino1 neutralino2)
     3.74794431E-03   2   1000022   1000025   # BR(A0 -> neutralino1 neutralino3)
     1.37395401E-02   2   1000022   1000035   # BR(A0 -> neutralino1 neutralino4)
     6.68975222E-06   2   1000023   1000023   # BR(A0 -> neutralino2 neutralino2)
     6.24493885E-03   2   1000023   1000025   # BR(A0 -> neutralino2 neutralino3)
     4.88996098E-02   2   1000023   1000035   # BR(A0 -> neutralino2 neutralino4)
     1.02684453E-02   2   1000025   1000025   # BR(A0 -> neutralino3 neutralino3)
     3.08995086E-02   2   1000025   1000035   # BR(A0 -> neutralino3 neutralino4)
     1.86009343E-06   2   1000035   1000035   # BR(A0 -> neutralino4 neutralino4)
     2.47572256E-07   2        23        25   # BR(A0 -> Z h0)
     2.90395435E-14   2        23        35   # BR(A0 -> Z HH)
     7.08754344E-40   2        25        25   # BR(A0 -> h0 h0)
     1.88840015E-14   2  -2000011   1000011   # BR(A0 -> Selectron2 selectron1)
     1.88840015E-14   2  -1000011   2000011   # BR(A0 -> Selectron1 selectron2)
     8.07350057E-10   2  -2000013   1000013   # BR(A0 -> Smuon2 smuon1)
     8.07350057E-10   2  -1000013   2000013   # BR(A0 -> Smuon1 smuon2)
     1.00421871E-02   2  -2000015   1000015   # BR(A0 -> Stau2 stau1)
     1.00421871E-02   2  -1000015   2000015   # BR(A0 -> Stau1 stau2)
DECAY        37     1.17875037E+02   # Gamma(Hp)
     9.55042782E-09   2       -11        12   # BR(Hp -> Electron nu_e)
     4.08310618E-04   2       -13        14   # BR(Hp -> Muon nu_mu)
     1.15493498E-01   2       -15        16   # BR(Hp -> Tau nu_tau)
     5.92243395E-07   2        -1         2   # BR(Hp -> Down up)
     1.00297373E-05   2        -3         2   # BR(Hp -> Strange up)
     6.16089416E-06   2        -5         2   # BR(Hp -> Bottom up)
     2.82206719E-08   2        -1         4   # BR(Hp -> Down charm)
     2.13425893E-04   2        -3         4   # BR(Hp -> Strange charm)
     8.62745764E-04   2        -5         4   # BR(Hp -> Bottom charm)
     5.14778366E-08   2        -1         6   # BR(Hp -> Down top)
     1.44041396E-06   2        -3         6   # BR(Hp -> Strange top)
     5.82252389E-01   2        -5         6   # BR(Hp -> Bottom top)
     3.14411131E-02   2   1000022   1000024   # BR(Hp -> neutralino1 chargino1)
     2.47390139E-02   2   1000022   1000037   # BR(Hp -> neutralino1 chargino2)
     3.81538619E-04   2   1000023   1000024   # BR(Hp -> neutralino2 chargino1)
     8.10503326E-02   2   1000023   1000037   # BR(Hp -> neutralino2 chargino2)
     8.19781001E-03   2   1000024   1000025   # BR(Hp -> chargino1 neutralino3)
     5.65494119E-02   2   1000025   1000037   # BR(Hp -> neutralino3 chargino2)
     8.09642923E-02   2   1000024   1000035   # BR(Hp -> chargino1 neutralino4)
     6.14002410E-13   2   1000035   1000037   # BR(Hp -> neutralino4 chargino2)
     2.14663882E-07   2        24        25   # BR(Hp -> W h0)
     2.76066789E-14   2  -1000011   1000012   # BR(Hp -> Selectron1 snu_e1)
     1.28015140E-07   2  -2000011   1000012   # BR(Hp -> Selectron2 snu_e1)
     1.18050757E-09   2  -1000013   1000014   # BR(Hp -> Smuon1 snu_mu1)
     1.27863075E-07   2  -2000013   1000014   # BR(Hp -> Smuon2 snu_mu1)
     1.74270111E-02   2  -1000015   1000016   # BR(Hp -> Stau1 snu_tau1)
     3.23082920E-07   2  -2000015   1000016   # BR(Hp -> Stau2 snu_tau1)
DECAY         6     2.43000000E+00   # top
#    BR                NDA      ID1      ID2
     1.00000000E+00    2           5        24   # BR(t -> b W)
Block HiggsBoundsInputHiggsCouplingsFermions
# ScalarNormEffCoupSq PseudoSNormEffCoupSq NP IP1 IP2 IP2
    9.56315831E-01    0.00000000E+00        3  25   5   5  # h0-b-b eff. coupling^2, normalised to SM
    1.59696883E+03    0.00000000E+00        3  35   5   5  # H0-b-b eff. coupling^2, normalised to SM
    0.00000000E+00    1.59692515E+03        3  36   5   5  # A0-b-b eff. coupling^2, normalised to SM
#
    1.00002736E+00    0.00000000E+00        3  25   6   6  # h0-t-t eff. coupling^2, normalised to SM
    5.98848250E-04    0.00000000E+00        3  35   6   6  # H0-t-t eff. coupling^2, normalised to SM
    0.00000000E+00    6.26203426E-04        3  36   6   6  # A0-t-t eff. coupling^2, normalised to SM
#
    9.56315831E-01    0.00000000E+00        3  25  15  15  # h0-tau-tau eff. coupling^2, normalised to SM
    1.59696883E+03    0.00000000E+00        3  35  15  15  # H0-tau-tau eff. coupling^2, normalised to SM
    0.00000000E+00    1.59692515E+03        3  36  15  15  # A0-tau-tau eff. coupling^2, normalised to SM
#
Block HiggsBoundsInputHiggsCouplingsBosons
    9.99999695E-01        3  25  24  24  # h0-W-W eff. coupling^2, normalised to SM
    3.05451855E-07        3  35  24  24  # H0-W-W eff. coupling^2, normalised to SM
    0.00000000E+00        3  36  24  24  # A0-W-W eff. coupling^2, normalised to SM
#
    9.99999695E-01        3  25  23  23  # h0-Z-Z eff. coupling^2, normalised to SM
    3.05451855E-07        3  35  23  23  # H0-Z-Z eff. coupling^2, normalised to SM
    0.00000000E+00        3  36  23  23  # A0-Z-Z eff. coupling^2, normalised to SM
#
    1.26154856E+00        3  25  21  21  # h0-g-g eff. coupling^2, normalised to SM
    5.64950292E-03        3  35  21  21  # H0-g-g eff. coupling^2, normalised to SM
    1.16026438E-01        3  36  21  21  # A0-g-g eff. coupling^2, normalised to SM
#
    0.00000000E+00        3  25  25  23  # h0-h0-Z eff. coupling^2, normalised to SM
    0.00000000E+00        3  35  25  23  # H0-h0-Z eff. coupling^2, normalised to SM
    3.05451855E-07        3  36  25  23  # A0-h0-Z eff. coupling^2, normalised to SM
    0.00000000E+00        3  35  35  23  # H0-H0-Z eff. coupling^2, normalised to SM
    9.99999695E-01        3  36  35  23  # A0-H0-Z eff. coupling^2, normalised to SM
    0.00000000E+00        3  36  36  23  # A0-A0-Z eff. coupling^2, normalised to SM
#
    0.00000000E+00        4  25  21  21  23  # h0-g-g-Z eff. coupling^2, normalised to SM
    0.00000000E+00        4  35  21  21  23  # H0-g-g-Z eff. coupling^2, normalised to SM
    0.00000000E+00        4  36  21  21  23  # A0-g-g-Z eff. coupling^2, normalised to SM
Block SPhenoLowEnergy  # low energy observables
    1    3.40925146E-04   # BR(b -> s gamma)
    2    1.58873662E-06   # BR(b -> s mu+ mu-)
    3    3.52616546E-05   # BR(b -> s nu nu)
    4    1.80616196E-15   # BR(Bd -> e+ e-)
    5    7.71579751E-11   # BR(Bd -> mu+ mu-)
    6    1.61942547E-08   # BR(Bd -> tau+ tau-)
    7    6.08191844E-14   # BR(Bs -> e+ e-)
    8    2.59822029E-09   # BR(Bs -> mu+ mu-)
    9    5.52548749E-07   # BR(Bs -> tau+ tau-)
   10    9.61961900E-05   # BR(B_u -> tau nu)
   11    9.93669814E-01   # BR(B_u -> tau nu)/BR(B_u -> tau nu)_SM
   12    5.42219487E-01   # |Delta(M_Bd)| [ps^-1] 
   13    1.93699935E+01   # |Delta(M_Bs)| [ps^-1] 
   14    0.00000000E+00   # neutron EDM according to the chiral quark model
   15    0.00000000E+00   # neutron EDM according to the relativistic quark-parton model
   16    2.15849164E-03   # epsilon_K
   17    2.28167065E-15   # Delta(M_K)
   18    2.48029279E-11   # BR(K^0 -> pi^0 nu nu)
   19    8.29131734E-11   # BR(K^+ -> pi^+ nu nu)
   20    7.00620061E-14   # Delta(g-2)_electron/2
   21    3.04845385E-09   # Delta(g-2)_muon/2
   22   -4.25767278E-09   # Delta(g-2)_tau/2
   23    0.00000000E+00   # electric dipole moment of the electron
   24    0.00000000E+00   # electric dipole moment of the muon
   25    0.00000000E+00   # electric dipole moment of the tau
   26    0.00000000E+00   # Br(mu -> e gamma)
   27    0.00000000E+00   # Br(tau -> e gamma)
   28    0.00000000E+00   # Br(tau -> mu gamma)
   29    0.00000000E+00   # Br(mu -> 3 e)
   30    0.00000000E+00   # Br(tau -> 3 e)
   31    0.00000000E+00   # Br(tau -> 3 mu)
   39    7.24009334E-05   # Delta(rho_parameter)
   40    0.00000000E+00   # BR(Z -> e mu)
   41    0.00000000E+00   # BR(Z -> e tau)
   42    0.00000000E+00   # BR(Z -> mu tau)
Block FWCOEF Q=  1.60000000E+02  # Wilson coefficients at scale Q
#    id        order  M        value         comment
     0305 4422   00   0    -1.88819110E-01   # C7
     0305 4422   00   2    -2.12840098E-01   # C7
     0305 4322   00   2    -2.06881004E-04   # C7'
     0305 6421   00   0    -9.52278348E-02   # C8
     0305 6421   00   2    -1.10012822E-01   # C8
     0305 6321   00   2    -1.51479525E-04   # C8'
 03051111 4133   00   0     1.61768538E+00   # C9 e+e-
 03051111 4133   00   2     1.61819862E+00   # C9 e+e-
 03051111 4233   00   2     3.39146323E-04   # C9' e+e-
 03051111 4137   00   0    -4.44037748E+00   # C10 e+e-
 03051111 4137   00   2    -4.43964533E+00   # C10 e+e-
 03051111 4237   00   2    -2.54303352E-03   # C10' e+e-
 03051313 4133   00   0     1.61768538E+00   # C9 mu+mu-
 03051313 4133   00   2     1.61819536E+00   # C9 mu+mu-
 03051313 4233   00   2     3.39145585E-04   # C9' mu+mu-
 03051313 4137   00   0    -4.44037748E+00   # C10 mu+mu-
 03051313 4137   00   2    -4.43964859E+00   # C10 mu+mu-
 03051313 4237   00   2    -2.54303500E-03   # C10' mu+mu-
 03051212 4137   00   0     1.50535012E+00   # C11 nu_1 nu_1
 03051212 4137   00   2     1.50519560E+00   # C11 nu_1 nu_1
 03051212 4237   00   2     5.51009633E-04   # C11' nu_1 nu_1
 03051414 4137   00   0     1.50535012E+00   # C11 nu_2 nu_2
 03051414 4137   00   2     1.50519563E+00   # C11 nu_2 nu_2
 03051414 4237   00   2     5.51009657E-04   # C11' nu_2 nu_2
 03051616 4137   00   0     1.50535012E+00   # C11 nu_3 nu_3
 03051616 4137   00   2     1.50521989E+00   # C11 nu_3 nu_3
 03051616 4237   00   2     5.51018827E-04   # C11' nu_3 nu_3
Block IMFWCOEF Q=  1.60000000E+02  # Im(Wilson coefficients) at scale Q
#    id        order  M        value         comment
     0305 4422   00   0     3.85800400E-07   # C7
     0305 4422   00   2    -8.34125728E-06   # C7
     0305 4322   00   2    -2.28200958E-06   # C7'
     0305 6421   00   0     3.30463557E-07   # C8
     0305 6421   00   2     3.20305880E-06   # C8
     0305 6321   00   2    -8.42512178E-07   # C8'
 03051111 4133   00   2    -3.41627680E-08   # C9 e+e-
 03051111 4233   00   2     6.51193952E-06   # C9' e+e-
 03051111 4137   00   2     1.92194336E-07   # C10 e+e-
 03051111 4237   00   2    -4.88303204E-05   # C10' e+e-
 03051313 4133   00   2    -3.41749778E-08   # C9 mu+mu-
 03051313 4233   00   2     6.51192834E-06   # C9' mu+mu-
 03051313 4137   00   2     1.92162295E-07   # C10 mu+mu-
 03051313 4237   00   2    -4.88303489E-05   # C10' mu+mu-
 03051212 4137   00   2     2.80066919E-08   # C11 nu_1 nu_1
 03051212 4237   00   2     1.05802751E-05   # C11' nu_1 nu_1
 03051414 4137   00   2     2.80077987E-08   # C11 nu_2 nu_2
 03051414 4237   00   2     1.05802751E-05   # C11' nu_2 nu_2
 03051616 4137   00   2     3.12337405E-08   # C11 nu_3 nu_3
 03051616 4237   00   2     1.05803220E-05   # C11' nu_3 nu_3
