# SUSY Les Houches Accord 2 - MSSM spectrum + Decays
# SPheno v4.0.5be
# W. Porod, Comput. Phys. Commun. 153 (2003) 275-315, hep-ph/0301101;
# W. Porod, F.~Staub, Comput. Phys. Commun. 183 (2012) 2458
#                     arXiv:1104.1573 [hep-ph] 
# in case of problems send email to porod@physik.uni-wuerzburg.de
# Created: 12.05.2022,  15:43
Block SPINFO         # Program information
     1   SPheno      # spectrum calculator
     2   v4.0.5be    # version number
#
Block SPhenoINFO     # SPheno specific information
    1      2         # using 2-loop RGEs
    2      2         # using pole masses for boundary conditions at mZ
Block MODSEL  # Model selection
    1    0    # general MSSM
Block MINPAR  # Input parameters
    3    2.75192208E+01  # tanb at m_Z    
    4    1.00000000E+00  # Sign(mu)
Block EXTPAR  # non-universal input parameters
    0    3.43932126E+03  # scale for input parameters
    1   -6.03901142E+02  # M_1
    2    2.89390497E+02  # M_2
    3    2.90130479E+03  # M_3
   11    4.82759391E+02  # A_t
   12   -1.54522637E+03  # A_b
   13   -1.44170629E+03  # A_tau
   23    1.23359411E+02  # mu
   25    2.64541428E+01  # tan(beta)
   26    7.72767403E+02  # m_A, pole mass
   31    1.00000000E+04  # M_L11
   32    1.00000000E+04  # M_L22
   33    1.00000000E+04  # M_L33
   34    1.00000000E+04  # M_E11
   35    1.00000000E+04  # M_E22
   36    1.00000000E+04  # M_E33
   41    1.00000000E+04  # M_Q11
   42    1.00000000E+04  # M_Q22
   43    4.92914731E+03  # M_Q33
   44    1.00000000E+04  # M_U11
   45    1.00000000E+04  # M_U22
   46    2.26442862E+03  # M_U33
   47    1.00000000E+04  # M_D11
   48    1.00000000E+04  # M_D22
   49    3.60792035E+03  # M_D33
Block SMINPUTS  # SM parameters
         1     1.27908970E+02  # alpha_em^-1(MZ)^MSbar
         2     1.16637870E-05  # G_mu [GeV^-2]
         3     1.18400000E-01  # alpha_s(MZ)^MSbar
         4     9.11876000E+01  # m_Z(pole)
         5     4.18000000E+00  # m_b(m_b), MSbar
         6     1.73200000E+02  # m_t(pole)
         7     1.77700000E+00  # m_tau(pole)
         8     0.00000000E+00  # m_nu_3
        11     5.10998930E-04  # m_e(pole)
        12     0.00000000E+00  # m_nu_1
        13     1.05658372E-01  # m_muon(pole)
        14     0.00000000E+00  # m_nu_2
        21     5.00000000E-03  # m_d(2 GeV), MSbar
        22     2.50000000E-03  # m_u(2 GeV), MSbar
        23     9.50000000E-02  # m_s(2 GeV), MSbar
        24     1.27000000E+00  # m_c(m_c), MSbar
Block gauge Q=  3.43932126E+03  # (SUSY scale)
   1    3.55362975E-01  # g'(Q)^DRbar
   2    6.65198874E-01  # g(Q)^DRbar
   3    1.21977796E+00  # g3(Q)^DRbar
Block Yu Q=  3.43932126E+03  # (SUSY scale)
  1  1     8.39036036E-06   # Y_u(Q)^DRbar
  2  2     4.26230306E-03   # Y_c(Q)^DRbar
  3  3     1.01362292E+00   # Y_t(Q)^DRbar
Block Yd Q=  3.43932126E+03  # (SUSY scale)
  1  1     4.46020227E-04   # Y_d(Q)^DRbar
  2  2     8.47438432E-03   # Y_s(Q)^DRbar
  3  3     4.42312303E-01   # Y_b(Q)^DRbar
Block Ye Q=  3.43932126E+03  # (SUSY scale)
  1  1     7.78337912E-05   # Y_e(Q)^DRbar
  2  2     1.60935595E-02   # Y_mu(Q)^DRbar
  3  3     2.70667195E-01   # Y_tau(Q)^DRbar
Block Au Q=  3.43932126E+03  # (SUSY scale)
  1  1     0.00000000E+00   # A_u(Q)^DRbar
  2  2     0.00000000E+00   # A_c(Q)^DRbar
  3  3     4.82759396E+02   # A_t(Q)^DRbar
Block Ad Q=  3.43932126E+03  # (SUSY scale)
  1  1     0.00000000E+00   # A_d(Q)^DRbar
  2  2     0.00000000E+00   # A_s(Q)^DRbar
  3  3    -1.54522638E+03   # A_b(Q)^DRbar
Block Ae Q=  3.43932126E+03  # (SUSY scale)
  1  1     0.00000000E+00   # A_e(Q)^DRbar
  2  2     0.00000000E+00   # A_mu(Q)^DRbar
  3  3    -1.44170630E+03   # A_tau(Q)^DRbar
Block MSOFT Q=  3.43932126E+03  # soft SUSY breaking masses at Q
   1   -6.03901142E+02  # M_1
   2    2.89390497E+02  # M_2
   3    2.90130479E+03  # M_3
  21    5.09789735E+05  # M^2_(H,d)
  22    1.65995193E+05  # M^2_(H,u)
  31    1.00000000E+04  # M_(L,11)
  32    1.00000000E+04  # M_(L,22)
  33    1.00000000E+04  # M_(L,33)
  34    1.00000000E+04  # M_(E,11)
  35    1.00000000E+04  # M_(E,22)
  36    1.00000000E+04  # M_(E,33)
  41    1.00000000E+04  # M_(Q,11)
  42    1.00000000E+04  # M_(Q,22)
  43    4.92914731E+03  # M_(Q,33)
  44    1.00000000E+04  # M_(U,11)
  45    1.00000000E+04  # M_(U,22)
  46    2.26442862E+03  # M_(U,33)
  47    1.00000000E+04  # M_(D,11)
  48    1.00000000E+04  # M_(D,22)
  49    3.60792035E+03  # M_(D,33)
Block MASS  # Mass spectrum
#   PDG code      mass          particle
         6     1.73200000E+02  # m_t(pole)
        23     9.11876000E+01  # m_Z(pole)
        24     8.04299946E+01  # W+
        15     1.77700000E+00  # m_tau(pole)
        25     1.22438958E+02  # h0
        35     7.72692906E+02  # H0
        36     7.72767403E+02  # A0
        37     7.81116957E+02  # H+
   1000001     1.01071647E+04  # ~d_L
   2000001     1.00819380E+04  # ~d_R
   1000002     1.01067963E+04  # ~u_L
   2000002     1.00851986E+04  # ~u_R
   1000003     1.01071674E+04  # ~s_L
   2000003     1.00819424E+04  # ~s_R
   1000004     1.01067991E+04  # ~c_L
   2000004     1.00851997E+04  # ~c_R
   1000005     3.69270735E+03  # ~b_1
   2000005     4.98590910E+03  # ~b_2
   1000006     2.37169986E+03  # ~t_1
   2000006     4.98753276E+03  # ~t_2
   1000011     1.00216093E+04  # ~e_L-
   2000011     1.00087300E+04  # ~e_R-
   1000012     1.00208357E+04  # ~nu_eL
   1000013     1.00216207E+04  # ~mu_L-
   2000013     1.00087523E+04  # ~mu_R-
   1000014     1.00208471E+04  # ~nu_muL
   1000015     1.00150898E+04  # ~tau_1-
   2000015     1.00248976E+04  # ~tau_2-
   1000016     1.00241028E+04  # ~nu_tauL
   1000021     3.36049470E+03  # ~g
   1000022     1.23506797E+02  # ~chi_10
   1000023     1.43002471E+02  # ~chi_20
   1000025     3.43526142E+02  # ~chi_30
   1000035     6.11116445E+02  # ~chi_40
   1000024     1.27992003E+02  # ~chi_1+
   1000037     3.43897466E+02  # ~chi_2+
# Higgs mixing
Block alpha # Effective Higgs mixing angle
          -3.78079035E-02   # alpha
Block Hmix Q=  3.43932126E+03  # Higgs mixing parameters
   1    1.23359411E+02  # mu
   2    2.64541428E+01  # tan[beta](Q)
   3    2.43119254E+02  # v(Q)
   4    5.97169459E+05  # m^2_A(Q)
Block stopmix # stop mixing matrix
   1  1    -2.20043134E-03   # Re[R_st(1,1)]
   1  2     9.99997579E-01   # Re[R_st(1,2)]
   2  1    -9.99997579E-01   # Re[R_st(2,1)]
   2  2    -2.20043134E-03   # Re[R_st(2,2)]
Block sbotmix # sbottom mixing matrix
   1  1     9.34041701E-04   # Re[R_sb(1,1)]
   1  2     9.99999564E-01   # Re[R_sb(1,2)]
   2  1    -9.99999564E-01   # Re[R_sb(2,1)]
   2  2     9.34041701E-04   # Re[R_sb(2,2)]
Block staumix # stau mixing matrix
   1  1     4.19242211E-02   # Re[R_sta(1,1)]
   1  2     9.99120793E-01   # Re[R_sta(1,2)]
   2  1    -9.99120793E-01   # Re[R_sta(2,1)]
   2  2     4.19242211E-02   # Re[R_sta(2,2)]
Block Nmix # neutralino mixing matrix
   1  1    -4.11164753E-02   # Re[N(1,1)]
   1  2    -2.72227459E-01   # Re[N(1,2)]
   1  3     7.15334977E-01   # Re[N(1,3)]
   1  4    -6.42259696E-01   # Re[N(1,4)]
   2  1     6.64386061E-02   # Re[N(2,1)]
   2  2     1.19346461E-01   # Re[N(2,2)]
   2  3     6.88624944E-01   # Re[N(2,3)]
   2  4     7.12136237E-01   # Re[N(2,4)]
   3  1    -1.31562496E-02   # Re[N(3,1)]
   3  2     9.54780244E-01   # Re[N(3,2)]
   3  3     1.17777077E-01   # Re[N(3,3)]
   3  4    -2.72672254E-01   # Re[N(3,4)]
   4  1    -9.96856188E-01   # Re[N(4,1)]
   4  2     6.58161023E-03   # Re[N(4,2)]
   4  3     1.48363666E-02   # Re[N(4,3)]
   4  4     7.75519469E-02   # Re[N(4,4)]
Block Umix # chargino mixing matrix
   1  1    -1.69315641E-01   # Re[U(1,1)]
   1  2     9.85561877E-01   # Re[U(1,2)]
   2  1     9.85561877E-01   # Re[U(2,1)]
   2  2     1.69315641E-01   # Re[U(2,2)]
Block Vmix # chargino mixing matrix
   1  1    -3.93824134E-01   # Re[V(1,1)]
   1  2     9.19185809E-01   # Re[V(1,2)]
   2  1     9.19185809E-01   # Re[V(2,1)]
   2  2     3.93824134E-01   # Re[V(2,2)]
DECAY        23     2.49520000E+00   # Z
DECAY        24     2.08500000E+00   # W
DECAY   2000011     4.99181502E+01   # ~e^-_R
#    BR                NDA      ID1      ID2
     1.70265877E-03    2     1000022        11   # BR(~e^-_R -> chi^0_1 e^-)
     4.44518455E-03    2     1000023        11   # BR(~e^-_R -> chi^0_2 e^-)
     1.73966725E-04    2     1000025        11   # BR(~e^-_R -> chi^0_3 e^-)
     9.93678166E-01    2     1000035        11   # BR(~e^-_R -> chi^0_4 e^-)
DECAY   1000011     1.44532071E+02   # ~e^-_L
#    BR                NDA      ID1      ID2
     2.64063520E-02    2     1000022        11   # BR(~e^-_L -> chi^0_1 e^-)
     7.31412473E-03    2     1000023        11   # BR(~e^-_L -> chi^0_2 e^-)
     2.73491935E-01    2     1000025        11   # BR(~e^-_L -> chi^0_3 e^-)
     8.38002252E-02    2     1000035        11   # BR(~e^-_L -> chi^0_4 e^-)
     1.74927812E-02    2    -1000024        12   # BR(~e^-_L -> chi^-_1 nu_e)
     5.91494582E-01    2    -1000037        12   # BR(~e^-_L -> chi^-_2 nu_e)
#    BR                NDA      ID1      ID2       ID3
DECAY   2000013     5.00213652E+01   # ~mu^-_R
#    BR                NDA      ID1      ID2
     2.22654385E-03    2     1000022        13   # BR(~mu^-_R -> chi^0_1 mu^-)
     4.92471502E-03    2     1000023        13   # BR(~mu^-_R -> chi^0_2 mu^-)
     1.87875669E-04    2     1000025        13   # BR(~mu^-_R -> chi^0_3 mu^-)
     9.91630262E-01    2     1000035        13   # BR(~mu^-_R -> chi^0_4 mu^-)
     1.00111623E-03    2    -1000024        14   # BR(~mu^-_R -> chi^-_1 nu_mu)
DECAY   1000013     1.44583854E+02   # ~mu^-_L
#    BR                NDA      ID1      ID2
     2.65796196E-02    2     1000022        13   # BR(~mu^-_L -> chi^0_1 mu^-)
     7.48080404E-03    2     1000023        13   # BR(~mu^-_L -> chi^0_2 mu^-)
     2.73399240E-01    2     1000025        13   # BR(~mu^-_L -> chi^0_3 mu^-)
     8.37703867E-02    2     1000035        13   # BR(~mu^-_L -> chi^0_4 mu^-)
     1.74865361E-02    2    -1000024        14   # BR(~mu^-_L -> chi^-_1 nu_mu)
     5.91283413E-01    2    -1000037        14   # BR(~mu^-_L -> chi^-_2 nu_mu)
#    BR                NDA      ID1      ID2       ID3
DECAY   1000015     7.92747529E+01   # ~tau^-_1
#    BR                NDA      ID1      ID2
     1.00143689E-01    2     1000022        15   # BR(~tau^-_1 -> chi^0_1 tau^-)
     8.85508797E-02    2     1000023        15   # BR(~tau^-_1 -> chi^0_2 tau^-)
     5.03940257E-04    2     1000025        15   # BR(~tau^-_1 -> chi^0_3 tau^-)
     6.25104155E-01    2     1000035        15   # BR(~tau^-_1 -> chi^0_4 tau^-)
     1.84857390E-01    2    -1000024        16   # BR(~tau^-_1 -> chi^-_1 nu_tau)
     8.39945326E-04    2    -1000037        16   # BR(~tau^-_1 -> chi^-_2 nu_tau)
DECAY   2000015     1.59042995E+02   # ~tau^-_2
#    BR                NDA      ID1      ID2
     6.85650335E-02    2     1000022        15   # BR(~tau^-_2 -> chi^0_1 tau^-)
     5.09586377E-02    2     1000023        15   # BR(~tau^-_2 -> chi^0_2 tau^-)
     2.50967133E-01    2     1000025        15   # BR(~tau^-_2 -> chi^0_3 tau^-)
     7.67208331E-02    2     1000035        15   # BR(~tau^-_2 -> chi^0_4 tau^-)
     1.28755593E-02    2    -1000024        16   # BR(~tau^-_2 -> chi^-_1 nu_tau)
     5.39912804E-01    2    -1000037        16   # BR(~tau^-_2 -> chi^-_2 nu_tau)
#    BR                NDA      ID1      ID2       ID3
DECAY   1000012     1.44536723E+02   # ~nu_e
#    BR                NDA      ID1      ID2
     1.91067763E-02    2     1000022        12   # BR(~nu_e -> chi^0_1 nu_e)
     2.14484182E-03    2     1000023        12   # BR(~nu_e -> chi^0_2 nu_e)
     2.81633834E-01    2     1000025        12   # BR(~nu_e -> chi^0_3 nu_e)
     8.80375282E-02    2     1000035        12   # BR(~nu_e -> chi^0_4 nu_e)
     9.46284813E-02    2     1000024        11   # BR(~nu_e -> chi^+_1 e^-)
     5.14448538E-01    2     1000037        11   # BR(~nu_e -> chi^+_2 e^-)
#    BR                NDA      ID1      ID2       ID3
DECAY   1000014     1.44588502E+02   # ~nu_mu
#    BR                NDA      ID1      ID2
     1.90999558E-02    2     1000022        14   # BR(~nu_mu -> chi^0_1 nu_mu)
     2.14407617E-03    2     1000023        14   # BR(~nu_mu -> chi^0_2 nu_mu)
     2.81533300E-01    2     1000025        14   # BR(~nu_mu -> chi^0_3 nu_mu)
     8.80061027E-02    2     1000035        14   # BR(~nu_mu -> chi^0_4 nu_mu)
     9.49414521E-02    2     1000024        13   # BR(~nu_mu -> chi^+_1 mu^-)
     5.14275113E-01    2     1000037        13   # BR(~nu_mu -> chi^+_2 mu^-)
#    BR                NDA      ID1      ID2       ID3
DECAY   1000016     1.59188367E+02   # ~nu_tau
#    BR                NDA      ID1      ID2
     1.73538545E-02    2     1000022        16   # BR(~nu_tau -> chi^0_1 nu_tau)
     1.94806674E-03    2     1000023        16   # BR(~nu_tau -> chi^0_2 nu_tau)
     2.55796113E-01    2     1000025        16   # BR(~nu_tau -> chi^0_3 nu_tau)
     7.99610338E-02    2     1000035        16   # BR(~nu_tau -> chi^0_4 nu_tau)
     1.75063371E-01    2     1000024        15   # BR(~nu_tau -> chi^+_1 tau^-)
     4.69877561E-01    2     1000037        15   # BR(~nu_tau -> chi^+_2 tau^-)
#    BR                NDA      ID1      ID2       ID3
DECAY   2000001     6.34382880E+02   # ~d_R
#    BR                NDA      ID1      ID2
     8.75230305E-03    2     1000035         1   # BR(~d_R -> chi^0_4 d)
     9.91191895E-01    2     1000021         1   # BR(~d_R -> ~g d)
DECAY   1000001     7.65718865E+02   # ~d_L
#    BR                NDA      ID1      ID2
     4.07585671E-03    2     1000022         1   # BR(~d_L -> chi^0_1 d)
     6.71347631E-04    2     1000023         1   # BR(~d_L -> chi^0_2 d)
     5.31000227E-02    2     1000025         1   # BR(~d_L -> chi^0_3 d)
     1.95464300E-03    2     1000035         1   # BR(~d_L -> chi^0_4 d)
     3.33002896E-03    2    -1000024         2   # BR(~d_L -> chi^-_1 u)
     1.12604251E-01    2    -1000037         2   # BR(~d_L -> chi^-_2 u)
     8.24263850E-01    2     1000021         1   # BR(~d_L -> ~g d)
DECAY   2000003     6.34412012E+02   # ~s_R
#    BR                NDA      ID1      ID2
     8.75191001E-03    2     1000035         3   # BR(~s_R -> chi^0_4 s)
     9.91147028E-01    2     1000021         3   # BR(~s_R -> ~g s)
DECAY   1000003     7.65737199E+02   # ~s_L
#    BR                NDA      ID1      ID2
     4.08538011E-03    2     1000022         3   # BR(~s_L -> chi^0_1 s)
     6.80246049E-04    2     1000023         3   # BR(~s_L -> chi^0_2 s)
     5.30990261E-02    2     1000025         3   # BR(~s_L -> chi^0_3 s)
     1.95460086E-03    2     1000035         3   # BR(~s_L -> chi^0_4 s)
     3.33397851E-03    2    -1000024         4   # BR(~s_L -> chi^-_1 c)
     1.12602325E-01    2    -1000037         4   # BR(~s_L -> chi^-_2 c)
     8.24244443E-01    2     1000021         3   # BR(~s_L -> ~g s)
DECAY   1000005     3.91730894E+01   # ~b_1
#    BR                NDA      ID1      ID2
     1.87542467E-01    2     1000022         5   # BR(~b_1 -> chi^0_1 b)
     1.73651123E-01    2     1000023         5   # BR(~b_1 -> chi^0_2 b)
     4.92990567E-03    2     1000025         5   # BR(~b_1 -> chi^0_3 b)
     4.95446890E-02    2     1000035         5   # BR(~b_1 -> chi^0_4 b)
     3.54122525E-01    2    -1000024         6   # BR(~b_1 -> chi^-_1 t)
     1.01219503E-02    2    -1000037         6   # BR(~b_1 -> chi^-_2 t)
     2.19691229E-01    2     1000021         5   # BR(~b_1 -> ~g b)
     3.96110558E-04    2     1000006       -37   # BR(~b_1 -> ~t_1 H^-)
DECAY   2000005     3.04926137E+02   # ~b_2
#    BR                NDA      ID1      ID2
     3.75460294E-02    2     1000022         5   # BR(~b_2 -> chi^0_1 b)
     3.09675870E-02    2     1000023         5   # BR(~b_2 -> chi^0_2 b)
     6.61966035E-02    2     1000025         5   # BR(~b_2 -> chi^0_3 b)
     2.38106584E-03    2     1000035         5   # BR(~b_2 -> chi^0_4 b)
     2.85289180E-01    2    -1000024         6   # BR(~b_2 -> chi^-_1 t)
     1.90209604E-01    2    -1000037         6   # BR(~b_2 -> chi^-_2 t)
     3.84375579E-01    2     1000021         5   # BR(~b_2 -> ~g b)
     6.19285607E-04    2     1000006       -24   # BR(~b_2 -> ~t_1 W^-)
     1.97428172E-04    2     1000006       -37   # BR(~b_2 -> ~t_1 H^-)
     1.09379578E-03    2     1000005        36   # BR(~b_2 -> ~b_1 A^0)
     1.09385277E-03    2     1000005        35   # BR(~b_2 -> ~b_1 H^0)
DECAY   2000002     6.51458045E+02   # ~u_R
#    BR                NDA      ID1      ID2
     1.52540928E-04    2     1000023         2   # BR(~u_R -> chi^0_2 u)
     3.41027847E-02    2     1000035         2   # BR(~u_R -> chi^0_4 u)
     9.65680276E-01    2     1000021         2   # BR(~u_R -> ~g u)
DECAY   1000002     7.65704149E+02   # ~u_L
#    BR                NDA      ID1      ID2
     4.53881531E-03    2     1000022         2   # BR(~u_L -> chi^0_1 u)
     9.99309313E-04    2     1000023         2   # BR(~u_L -> chi^0_2 u)
     5.25804812E-02    2     1000025         2   # BR(~u_L -> chi^0_3 u)
     1.68508375E-03    2     1000035         2   # BR(~u_L -> chi^0_4 u)
     1.80157452E-02    2     1000024         1   # BR(~u_L -> chi^+_1 d)
     9.79458562E-02    2     1000037         1   # BR(~u_L -> chi^+_2 d)
     8.24234709E-01    2     1000021         2   # BR(~u_L -> ~g u)
DECAY   2000004     6.51465404E+02   # ~c_R
#    BR                NDA      ID1      ID2
     1.55375743E-04    2     1000023         4   # BR(~c_R -> chi^0_2 c)
     3.41024342E-02    2     1000035         4   # BR(~c_R -> chi^0_4 c)
     9.65669479E-01    2     1000021         4   # BR(~c_R -> ~g c)
DECAY   1000004     7.65722463E+02   # ~c_L
#    BR                NDA      ID1      ID2
     4.54067440E-03    2     1000022         4   # BR(~c_L -> chi^0_1 c)
     1.00170357E-03    2     1000023         4   # BR(~c_L -> chi^0_2 c)
     5.25795927E-02    2     1000025         4   # BR(~c_L -> chi^0_3 c)
     1.68507258E-03    2     1000035         4   # BR(~c_L -> chi^0_4 c)
     1.80335792E-02    2     1000024         3   # BR(~c_L -> chi^+_1 s)
     9.79440795E-02    2     1000037         3   # BR(~c_L -> chi^+_2 s)
     8.24215298E-01    2     1000021         4   # BR(~c_L -> ~g c)
DECAY   1000006     9.99128607E+01   # ~t_1
#    BR                NDA      ID1      ID2
     1.96929582E-01    2     1000022         6   # BR(~t_1 -> chi^0_1 t)
     2.41969688E-01    2     1000023         6   # BR(~t_1 -> chi^0_2 t)
     3.44750923E-02    2     1000025         6   # BR(~t_1 -> chi^0_3 t)
     4.69623085E-02    2     1000035         6   # BR(~t_1 -> chi^0_4 t)
     4.07054609E-01    2     1000024         5   # BR(~t_1 -> chi^+_1 b)
     7.26083931E-02    2     1000037         5   # BR(~t_1 -> chi^+_2 b)
#    BR                NDA      ID1      ID2       ID3
DECAY   2000006     3.04516374E+02   # ~t_2
#    BR                NDA      ID1      ID2
     1.43218540E-01    2     1000022         6   # BR(~t_2 -> chi^0_1 t)
     1.70307099E-01    2     1000023         6   # BR(~t_2 -> chi^0_2 t)
     8.94202632E-02    2     1000025         6   # BR(~t_2 -> chi^0_3 t)
     4.04964760E-03    2     1000035         6   # BR(~t_2 -> chi^0_4 t)
     8.45182105E-02    2     1000024         5   # BR(~t_2 -> chi^+_1 b)
     1.22129878E-01    2     1000037         5   # BR(~t_2 -> chi^+_2 b)
     3.82459764E-01    2     1000021         6   # BR(~t_2 -> ~g t)
     2.17854864E-03    2     1000005        37   # BR(~t_2 -> ~b_1 H^+)
     3.10397440E-04    2     1000006        23   # BR(~t_2 -> ~t_1 Z)
     1.18731259E-03    2     1000006        25   # BR(~t_2 -> ~t_1 h^0)
DECAY   1000024     2.32942460E-09   # chi^+_1
#    BR                NDA      ID1      ID2       ID3
     3.99599312E-01    3     1000022        -1         2   # BR(chi^+_1 -> chi^0_1 d_bar u)
     2.71663684E-01    3     1000022        -3         4   # BR(chi^+_1 -> chi^0_1 s_bar c)
     1.33199527E-01    3     1000022       -11        12   # BR(chi^+_1 -> chi^0_1 e^+ nu_e)
     1.32831570E-01    3     1000022       -13        14   # BR(chi^+_1 -> chi^0_1 mu^+ nu_mu)
     6.27059070E-02    3     1000022       -15        16   # BR(chi^+_1 -> chi^0_1 tau^+ nu_tau)
DECAY   1000037     2.44894130E+00   # chi^+_2
#    BR                NDA      ID1      ID2
     2.54990164E-01    2     1000022        24   # BR(chi^+_2 -> chi^0_1 W^+)
     3.41050261E-01    2     1000023        24   # BR(chi^+_2 -> chi^0_2 W^+)
     2.38294296E-01    2     1000024        23   # BR(chi^+_2 -> chi^+_1 Z)
     1.65623637E-01    2     1000024        25   # BR(chi^+_2 -> chi^+_1 h^0)
#    BR                NDA      ID1      ID2       ID3
DECAY   1000022     0.00000000E+00   # chi^0_1
DECAY   1000023     1.27839781E-05   # chi^0_2
#    BR                NDA      ID1      ID2
     5.03462206E-02    2     1000022        22   # BR(chi^0_2 -> chi^0_1 photon)
#    BR                NDA      ID1      ID2       ID3
     6.91099699E-02    3     1000022         2        -2   # BR(chi^0_2 -> chi^0_1 u u_bar)
     6.53470895E-02    3     1000022         4        -4   # BR(chi^0_2 -> chi^0_1 c c_bar)
     8.86119392E-02    3     1000022         1        -1   # BR(chi^0_2 -> chi^0_1 d d_bar)
     8.85878978E-02    3     1000022         3        -3   # BR(chi^0_2 -> chi^0_1 s s_bar)
     5.16698175E-02    3     1000022         5        -5   # BR(chi^0_2 -> chi^0_1 b b_bar)
     1.99971425E-02    3     1000022        11       -11   # BR(chi^0_2 -> chi^0_1 e^- e^+)
     1.99885818E-02    3     1000022        13       -13   # BR(chi^0_2 -> chi^0_1 mu^- mu^+)
     1.77387552E-02    3     1000022        15       -15   # BR(chi^0_2 -> chi^0_1 tau^- tau^+)
     1.18500429E-01    3     1000022        12       -12   # BR(chi^0_2 -> chi^0_1 nu_e nu_bar_e)
     6.96516132E-02    3     1000024         1        -2   # BR(chi^0_2 -> chi^+_1 d u_bar)
     6.96516132E-02    3    -1000024        -1         2   # BR(chi^0_2 -> chi^-_1 d_bar u)
     6.72657382E-02    3     1000024         3        -4   # BR(chi^0_2 -> chi^+_1 s c_bar)
     6.72657382E-02    3    -1000024        -3         4   # BR(chi^0_2 -> chi^-_1 s_bar c)
     2.32171646E-02    3     1000024        11       -12   # BR(chi^0_2 -> chi^+_1 e^- nu_bar_e)
     2.32171646E-02    3    -1000024       -11        12   # BR(chi^0_2 -> chi^-_1 e^+ nu_e)
     2.32115654E-02    3     1000024        13       -14   # BR(chi^0_2 -> chi^+_1 mu^- nu_bar_mu)
     2.32115654E-02    3    -1000024       -13        14   # BR(chi^0_2 -> chi^-_1 mu^+ nu_mu)
     2.17049973E-02    3     1000024        15       -16   # BR(chi^0_2 -> chi^+_1 tau^- nu_bar_tau)
     2.17049973E-02    3    -1000024       -15        16   # BR(chi^0_2 -> chi^-_1 tau^+ nu_tau)
DECAY   1000025     2.87595513E+00   # chi^0_3
#    BR                NDA      ID1      ID2
     2.47008423E-01    2     1000024       -24   # BR(chi^0_3 -> chi^+_1 W^-)
     2.47008423E-01    2    -1000024        24   # BR(chi^0_3 -> chi^-_1 W^+)
     3.01584321E-02    2     1000022        23   # BR(chi^0_3 -> chi^0_1 Z)
     2.45008094E-01    2     1000023        23   # BR(chi^0_3 -> chi^0_2 Z)
     1.04078917E-01    2     1000022        25   # BR(chi^0_3 -> chi^0_1 h^0)
     1.26663591E-01    2     1000023        25   # BR(chi^0_3 -> chi^0_2 h^0)
#    BR                NDA      ID1      ID2       ID3
DECAY   1000035     1.75490846E+00   # chi^0_4
#    BR                NDA      ID1      ID2
     2.25358054E-01    2     1000024       -24   # BR(chi^0_4 -> chi^+_1 W^-)
     2.25358054E-01    2    -1000024        24   # BR(chi^0_4 -> chi^-_1 W^+)
     9.57510161E-03    2     1000037       -24   # BR(chi^0_4 -> chi^+_2 W^-)
     9.57510161E-03    2    -1000037        24   # BR(chi^0_4 -> chi^-_2 W^+)
     1.46359153E-01    2     1000022        23   # BR(chi^0_4 -> chi^0_1 Z)
     7.81434870E-02    2     1000023        23   # BR(chi^0_4 -> chi^0_2 Z)
     8.48004226E-03    2     1000025        23   # BR(chi^0_4 -> chi^0_3 Z)
     1.42207290E-01    2     1000022        25   # BR(chi^0_4 -> chi^0_1 h^0)
     1.44667416E-01    2     1000023        25   # BR(chi^0_4 -> chi^0_2 h^0)
     6.29114170E-03    2     1000025        25   # BR(chi^0_4 -> chi^0_3 h^0)
#    BR                NDA      ID1      ID2       ID3
     1.45878095E-04    3     1000022         6        -6   # BR(chi^0_4 -> chi^0_1 t t_bar)
     1.14991189E-04    3     1000023         6        -6   # BR(chi^0_4 -> chi^0_2 t t_bar)
     1.80811072E-03    3     1000024         5        -6   # BR(chi^0_4 -> chi^+_1 b t_bar)
     1.80811072E-03    3    -1000024        -5         6   # BR(chi^0_4 -> chi^-_1 b_bar t)
DECAY   1000021     2.49409685E+01   # ~g
#    BR                NDA      ID1      ID2
     4.97405478E-01    2     1000006        -6   # BR(~g -> ~t_1 t_bar)
     4.97405478E-01    2    -1000006         6   # BR(~g -> ~t^*_1 t)
     1.12553147E-04    2     1000023        21   # BR(~g -> chi^0_2 g)
#    BR                NDA      ID1      ID2       ID3
     2.69442263E-04    3     1000022         6        -6   # BR(~g -> chi^0_1 t t_bar)
     6.43144292E-04    3     1000022         5        -5   # BR(~g -> chi^0_1 b b_bar)
     3.26397729E-04    3     1000023         6        -6   # BR(~g -> chi^0_2 t t_bar)
     5.87209439E-04    3     1000023         5        -5   # BR(~g -> chi^0_2 b b_bar)
     2.02582335E-04    3     1000025         6        -6   # BR(~g -> chi^0_3 t t_bar)
     1.63879843E-04    3     1000025         5        -5   # BR(~g -> chi^0_3 b b_bar)
     1.20392912E-04    3     1000035         5        -5   # BR(~g -> chi^0_4 b b_bar)
     8.85835266E-04    3     1000024         5        -6   # BR(~g -> chi^+_1 b t_bar)
     8.85835266E-04    3    -1000024        -5         6   # BR(~g -> chi^-_1 b_bar t)
     3.69570942E-04    3     1000037         5        -6   # BR(~g -> chi^+_2 b t_bar)
     3.69570942E-04    3    -1000037        -5         6   # BR(~g -> chi^-_2 b_bar t)
DECAY        25     3.53985961E-03   # Gamma(h0)
     2.39562015E-03   2        22        22   # BR(h0 -> photon photon)
     1.30645035E-03   2        22        23   # BR(h0 -> photon Z)
     2.18366516E-02   2        23        23   # BR(h0 -> Z Z)
     1.89934346E-01   2       -24        24   # BR(h0 -> W W)
     7.47090125E-02   2        21        21   # BR(h0 -> gluon gluon)
     5.46012187E-09   2       -11        11   # BR(h0 -> Electron electron)
     2.42874465E-04   2       -13        13   # BR(h0 -> Muon muon)
     7.00254879E-02   2       -15        15   # BR(h0 -> Tau tau)
     1.44211108E-07   2        -2         2   # BR(h0 -> Up up)
     2.79855660E-02   2        -4         4   # BR(h0 -> Charm charm)
     6.34325953E-07   2        -1         1   # BR(h0 -> Down down)
     2.29421483E-04   2        -3         3   # BR(h0 -> Strange strange)
     6.11333785E-01   2        -5         5   # BR(h0 -> Bottom bottom)
DECAY        35     1.51719460E+01   # Gamma(HH)
     3.76086276E-07   2        22        22   # BR(HH -> photon photon)
     1.16085337E-06   2        22        23   # BR(HH -> photon Z)
     1.22899106E-05   2        23        23   # BR(HH -> Z Z)
     2.11310646E-05   2       -24        24   # BR(HH -> W W)
     4.40625564E-05   2        21        21   # BR(HH -> gluon gluon)
     5.83437797E-09   2       -11        11   # BR(HH -> Electron electron)
     2.59665850E-04   2       -13        13   # BR(HH -> Muon muon)
     7.49770662E-02   2       -15        15   # BR(HH -> Tau tau)
     1.99786539E-13   2        -2         2   # BR(HH -> Up up)
     3.87417909E-08   2        -4         4   # BR(HH -> Charm charm)
     2.18599825E-03   2        -6         6   # BR(HH -> Top top)
     5.09234658E-07   2        -1         1   # BR(HH -> Down down)
     1.84190074E-04   2        -3         3   # BR(HH -> Strange strange)
     4.84775298E-01   2        -5         5   # BR(HH -> Bottom bottom)
     6.17717172E-02   2  -1000024   1000024   # BR(HH -> Chargino1 chargino1)
     1.14145020E-01   2  -1000024   1000037   # BR(HH -> Chargino1 chargino2)
     1.14145020E-01   2  -1000037   1000024   # BR(HH -> Chargino2 chargino1)
     1.69536041E-03   2  -1000037   1000037   # BR(HH -> Chargino2 chargino2)
     1.28047090E-02   2   1000022   1000022   # BR(HH -> neutralino1 neutralino1)
     2.89209276E-03   2   1000022   1000023   # BR(HH -> neutralino1 neutralino2)
     4.76057041E-02   2   1000022   1000025   # BR(HH -> neutralino1 neutralino3)
     4.88342050E-03   2   1000022   1000035   # BR(HH -> neutralino1 neutralino4)
     1.72922203E-03   2   1000023   1000023   # BR(HH -> neutralino2 neutralino2)
     7.41335814E-02   2   1000023   1000025   # BR(HH -> neutralino2 neutralino3)
     6.87332291E-04   2   1000023   1000035   # BR(HH -> neutralino2 neutralino4)
     9.41895702E-04   2   1000025   1000025   # BR(HH -> neutralino3 neutralino3)
     1.03131570E-04   2        25        25   # BR(HH -> h0 h0)
DECAY        36     1.49786939E+01   # Gamma(A0)
     8.88562968E-07   2        22        22   # BR(A0 -> photon photon)
     1.74018880E-06   2        22        23   # BR(A0 -> photon Z)
     7.78367735E-05   2        21        21   # BR(A0 -> gluon gluon)
     5.78650818E-09   2       -11        11   # BR(A0 -> Electron electron)
     2.57535442E-04   2       -13        13   # BR(A0 -> Muon muon)
     7.43635568E-02   2       -15        15   # BR(A0 -> Tau tau)
     1.84638942E-13   2        -2         2   # BR(A0 -> Up up)
     3.57881678E-08   2        -4         4   # BR(A0 -> Charm charm)
     2.55008056E-03   2        -6         6   # BR(A0 -> Top top)
     5.05049989E-07   2        -1         1   # BR(A0 -> Down down)
     1.82676542E-04   2        -3         3   # BR(A0 -> Strange strange)
     4.80817834E-01   2        -5         5   # BR(A0 -> Bottom bottom)
     7.23187885E-02   2  -1000024   1000024   # BR(A0 -> Chargino1 chargino1)
     1.07459308E-01   2  -1000024   1000037   # BR(A0 -> Chargino1 chargino2)
     1.07459308E-01   2  -1000037   1000024   # BR(A0 -> Chargino2 chargino1)
     7.56844641E-03   2  -1000037   1000037   # BR(A0 -> Chargino2 chargino2)
     1.59964028E-02   2   1000022   1000022   # BR(A0 -> neutralino1 neutralino1)
     1.89547146E-03   2   1000022   1000023   # BR(A0 -> neutralino1 neutralino2)
     7.17233176E-02   2   1000022   1000025   # BR(A0 -> neutralino1 neutralino3)
     1.43377700E-03   2   1000022   1000035   # BR(A0 -> neutralino1 neutralino4)
     1.68746388E-03   2   1000023   1000023   # BR(A0 -> neutralino2 neutralino2)
     4.62034726E-02   2   1000023   1000025   # BR(A0 -> neutralino2 neutralino3)
     3.95371476E-03   2   1000023   1000035   # BR(A0 -> neutralino2 neutralino4)
     4.02807633E-03   2   1000025   1000025   # BR(A0 -> neutralino3 neutralino3)
     1.97575443E-05   2        23        25   # BR(A0 -> Z h0)
     1.63463541E-38   2        25        25   # BR(A0 -> h0 h0)
DECAY        37     1.46727215E+01   # Gamma(Hp)
     6.66712078E-09   2       -11        12   # BR(Hp -> Electron nu_e)
     2.85040227E-04   2       -13        14   # BR(Hp -> Muon nu_mu)
     8.06248095E-02   2       -15        16   # BR(Hp -> Tau nu_tau)
     5.05761710E-07   2        -1         2   # BR(Hp -> Down up)
     8.39032071E-06   2        -3         2   # BR(Hp -> Strange up)
     5.33388688E-06   2        -5         2   # BR(Hp -> Bottom up)
     2.51468982E-08   2        -1         4   # BR(Hp -> Down charm)
     1.82311731E-04   2        -3         4   # BR(Hp -> Strange charm)
     7.46931375E-04   2        -5         4   # BR(Hp -> Bottom charm)
     1.92570952E-07   2        -1         6   # BR(Hp -> Down top)
     4.43997422E-06   2        -3         6   # BR(Hp -> Strange top)
     4.69173383E-01   2        -5         6   # BR(Hp -> Bottom top)
     3.08350265E-03   2   1000022   1000024   # BR(Hp -> neutralino1 chargino1)
     1.62871115E-01   2   1000022   1000037   # BR(Hp -> neutralino1 chargino2)
     2.22405275E-02   2   1000023   1000024   # BR(Hp -> neutralino2 chargino1)
     1.21062940E-01   2   1000023   1000037   # BR(Hp -> neutralino2 chargino2)
     1.33385465E-01   2   1000024   1000025   # BR(Hp -> chargino1 neutralino3)
     1.64595530E-06   2   1000025   1000037   # BR(Hp -> neutralino3 chargino2)
     6.30233072E-03   2   1000024   1000035   # BR(Hp -> chargino1 neutralino4)
     2.10954857E-05   2        24        25   # BR(Hp -> W h0)
     3.89908050E-09   2        24        35   # BR(Hp -> W HH)
     3.72982885E-09   2        24        36   # BR(Hp -> W A0)
DECAY         6     2.43000000E+00   # top
#    BR                NDA      ID1      ID2
     1.00000000E+00    2           5        24   # BR(t -> b W)
Block HiggsBoundsInputHiggsCouplingsFermions
# ScalarNormEffCoupSq PseudoSNormEffCoupSq NP IP1 IP2 IP2
    1.00130359E+00    0.00000000E+00        3  25   5   5  # h0-b-b eff. coupling^2, normalised to SM
    6.99820368E+02    0.00000000E+00        3  35   5   5  # H0-b-b eff. coupling^2, normalised to SM
    0.00000000E+00    6.99821671E+02        3  36   5   5  # A0-b-b eff. coupling^2, normalised to SM
#
    9.99998137E-01    0.00000000E+00        3  25   6   6  # h0-t-t eff. coupling^2, normalised to SM
    1.43079820E-03    0.00000000E+00        3  35   6   6  # H0-t-t eff. coupling^2, normalised to SM
    0.00000000E+00    1.42893546E-03        3  36   6   6  # A0-t-t eff. coupling^2, normalised to SM
#
    1.00130359E+00    0.00000000E+00        3  25  15  15  # h0-tau-tau eff. coupling^2, normalised to SM
    6.99820368E+02    0.00000000E+00        3  35  15  15  # H0-tau-tau eff. coupling^2, normalised to SM
    0.00000000E+00    6.99821671E+02        3  36  15  15  # A0-tau-tau eff. coupling^2, normalised to SM
#
Block HiggsBoundsInputHiggsCouplingsBosons
    9.99999999E-01        3  25  24  24  # h0-W-W eff. coupling^2, normalised to SM
    6.06667596E-10        3  35  24  24  # H0-W-W eff. coupling^2, normalised to SM
    0.00000000E+00        3  36  24  24  # A0-W-W eff. coupling^2, normalised to SM
#
    9.99999999E-01        3  25  23  23  # h0-Z-Z eff. coupling^2, normalised to SM
    6.06667596E-10        3  35  23  23  # H0-Z-Z eff. coupling^2, normalised to SM
    0.00000000E+00        3  36  23  23  # A0-Z-Z eff. coupling^2, normalised to SM
#
    1.26481628E+00        3  25  21  21  # h0-g-g eff. coupling^2, normalised to SM
    1.26047384E-02        3  35  21  21  # H0-g-g eff. coupling^2, normalised to SM
    1.23271974E-01        3  36  21  21  # A0-g-g eff. coupling^2, normalised to SM
#
    0.00000000E+00        3  25  25  23  # h0-h0-Z eff. coupling^2, normalised to SM
    0.00000000E+00        3  35  25  23  # H0-h0-Z eff. coupling^2, normalised to SM
    6.06667596E-10        3  36  25  23  # A0-h0-Z eff. coupling^2, normalised to SM
    0.00000000E+00        3  35  35  23  # H0-H0-Z eff. coupling^2, normalised to SM
    9.99999999E-01        3  36  35  23  # A0-H0-Z eff. coupling^2, normalised to SM
    0.00000000E+00        3  36  36  23  # A0-A0-Z eff. coupling^2, normalised to SM
#
    0.00000000E+00        4  25  21  21  23  # h0-g-g-Z eff. coupling^2, normalised to SM
    0.00000000E+00        4  35  21  21  23  # H0-g-g-Z eff. coupling^2, normalised to SM
    0.00000000E+00        4  36  21  21  23  # A0-g-g-Z eff. coupling^2, normalised to SM
Block SPhenoLowEnergy  # low energy observables
    1    3.69005334E-04   # BR(b -> s gamma)
    2    1.58587998E-06   # BR(b -> s mu+ mu-)
    3    3.52252285E-05   # BR(b -> s nu nu)
    4    2.60182495E-15   # BR(Bd -> e+ e-)
    5    1.11146968E-10   # BR(Bd -> mu+ mu-)
    6    2.32651876E-08   # BR(Bd -> tau+ tau-)
    7    8.71656391E-14   # BR(Bs -> e+ e-)
    8    3.72371255E-09   # BR(Bs -> mu+ mu-)
    9    7.89785853E-07   # BR(Bs -> tau+ tau-)
   10    8.95926310E-05   # BR(B_u -> tau nu)
   11    9.25457578E-01   # BR(B_u -> tau nu)/BR(B_u -> tau nu)_SM
   12    5.42493606E-01   # |Delta(M_Bd)| [ps^-1] 
   13    1.93510588E+01   # |Delta(M_Bs)| [ps^-1] 
   14    0.00000000E+00   # neutron EDM according to the chiral quark model
   15    0.00000000E+00   # neutron EDM according to the relativistic quark-parton model
   16    2.15970037E-03   # epsilon_K
   17    2.28169096E-15   # Delta(M_K)
   18    2.47794300E-11   # BR(K^0 -> pi^0 nu nu)
   19    8.28561898E-11   # BR(K^+ -> pi^+ nu nu)
   20    1.62808837E-16   # Delta(g-2)_electron/2
   21    6.96062007E-12   # Delta(g-2)_muon/2
   22    1.97143787E-09   # Delta(g-2)_tau/2
   23    0.00000000E+00   # electric dipole moment of the electron
   24    0.00000000E+00   # electric dipole moment of the muon
   25    0.00000000E+00   # electric dipole moment of the tau
   26    0.00000000E+00   # Br(mu -> e gamma)
   27    0.00000000E+00   # Br(tau -> e gamma)
   28    0.00000000E+00   # Br(tau -> mu gamma)
   29    0.00000000E+00   # Br(mu -> 3 e)
   30    0.00000000E+00   # Br(tau -> 3 e)
   31    0.00000000E+00   # Br(tau -> 3 mu)
   39    6.69936112E-05   # Delta(rho_parameter)
   40    0.00000000E+00   # BR(Z -> e mu)
   41    0.00000000E+00   # BR(Z -> e tau)
   42    0.00000000E+00   # BR(Z -> mu tau)
Block FWCOEF Q=  1.60000000E+02  # Wilson coefficients at scale Q
#    id        order  M        value         comment
     0305 4422   00   0    -1.88819110E-01   # C7
     0305 4422   00   2    -2.36766168E-01   # C7
     0305 4322   00   2    -9.74619173E-04   # C7'
     0305 6421   00   0    -9.52278348E-02   # C8
     0305 6421   00   2    -1.51652021E-01   # C8
     0305 6321   00   2    -1.12827942E-03   # C8'
 03051111 4133   00   0     1.62128439E+00   # C9 e+e-
 03051111 4133   00   2     1.62159505E+00   # C9 e+e-
 03051111 4233   00   2    -3.57681904E-06   # C9' e+e-
 03051111 4137   00   0    -4.44397649E+00   # C10 e+e-
 03051111 4137   00   2    -4.43960071E+00   # C10 e+e-
 03051111 4237   00   2     2.79202939E-05   # C10' e+e-
 03051313 4133   00   0     1.62128439E+00   # C9 mu+mu-
 03051313 4133   00   2     1.62159496E+00   # C9 mu+mu-
 03051313 4233   00   2    -3.58398185E-06   # C9' mu+mu-
 03051313 4137   00   0    -4.44397649E+00   # C10 mu+mu-
 03051313 4137   00   2    -4.43960081E+00   # C10 mu+mu-
 03051313 4237   00   2     2.79273887E-05   # C10' mu+mu-
 03051212 4137   00   0     1.50535012E+00   # C11 nu_1 nu_1
 03051212 4137   00   2     1.50440389E+00   # C11 nu_1 nu_1
 03051212 4237   00   2    -6.04545816E-06   # C11' nu_1 nu_1
 03051414 4137   00   0     1.50535012E+00   # C11 nu_2 nu_2
 03051414 4137   00   2     1.50440389E+00   # C11 nu_2 nu_2
 03051414 4237   00   2    -6.04391067E-06   # C11' nu_2 nu_2
 03051616 4137   00   0     1.50535012E+00   # C11 nu_3 nu_3
 03051616 4137   00   2     1.50440389E+00   # C11 nu_3 nu_3
 03051616 4237   00   2    -5.60781923E-06   # C11' nu_3 nu_3
Block IMFWCOEF Q=  1.60000000E+02  # Im(Wilson coefficients) at scale Q
#    id        order  M        value         comment
     0305 4422   00   0     3.85820852E-07   # C7
     0305 4422   00   2     4.24565915E-06   # C7
     0305 4322   00   2     2.93030429E-07   # C7'
     0305 6421   00   0     3.30481075E-07   # C8
     0305 6421   00   2    -3.65541058E-06   # C8
     0305 6321   00   2    -1.95551166E-09   # C8'
 03051111 4133   00   2     5.02003862E-07   # C9 e+e-
 03051111 4233   00   2     2.42849578E-06   # C9' e+e-
 03051111 4137   00   2     1.37490449E-07   # C10 e+e-
 03051111 4237   00   2    -1.81014679E-05   # C10' e+e-
 03051313 4133   00   2     5.02002755E-07   # C9 mu+mu-
 03051313 4233   00   2     2.42849546E-06   # C9' mu+mu-
 03051313 4137   00   2     1.37491595E-07   # C10 mu+mu-
 03051313 4237   00   2    -1.81014689E-05   # C10' mu+mu-
 03051212 4137   00   2    -9.64959580E-09   # C11 nu_1 nu_1
 03051212 4237   00   2     3.91896670E-06   # C11' nu_1 nu_1
 03051414 4137   00   2    -9.64953710E-09   # C11 nu_2 nu_2
 03051414 4237   00   2     3.91896670E-06   # C11' nu_2 nu_2
 03051616 4137   00   2    -9.63292843E-09   # C11 nu_3 nu_3
 03051616 4237   00   2     3.91896669E-06   # C11' nu_3 nu_3
