# SUSY Les Houches Accord 2 - MSSM spectrum + Decays
# SPheno v4.0.5be
# W. Porod, Comput. Phys. Commun. 153 (2003) 275-315, hep-ph/0301101;
# W. Porod, F.~Staub, Comput. Phys. Commun. 183 (2012) 2458
#                     arXiv:1104.1573 [hep-ph] 
# in case of problems send email to porod@physik.uni-wuerzburg.de
# Created: 07.09.2021,  19:23
Block SPINFO         # Program information
     1   SPheno      # spectrum calculator
     2   v4.0.5be    # version number
#
Block SPhenoINFO     # SPheno specific information
    1      2         # using 2-loop RGEs
    2      2         # using pole masses for boundary conditions at mZ
Block MODSEL  # Model selection
    1    0    # general MSSM
Block MINPAR  # Input parameters
    3    1.66885037E+01  # tanb at m_Z    
    4    1.00000000E+00  # Sign(mu)
Block EXTPAR  # non-universal input parameters
    0    3.89491874E+03  # scale for input parameters
    1    1.61492851E+02  # M_1
    2   -1.68165874E+03  # M_2
    3    1.58059483E+03  # M_3
   11    5.49599030E+03  # A_t
   12    6.62579968E+02  # A_b
   13   -1.04407724E+03  # A_tau
   23    1.71632489E+02  # mu
   25    1.58944110E+01  # tan(beta)
   26    3.62906536E+03  # m_A, pole mass
   31    1.00000000E+04  # M_L11
   32    1.00000000E+04  # M_L22
   33    1.00000000E+04  # M_L33
   34    1.00000000E+04  # M_E11
   35    1.00000000E+04  # M_E22
   36    1.00000000E+04  # M_E33
   41    1.00000000E+04  # M_Q11
   42    1.00000000E+04  # M_Q22
   43    3.90244997E+03  # M_Q33
   44    1.00000000E+04  # M_U11
   45    1.00000000E+04  # M_U22
   46    3.96020307E+03  # M_U33
   47    1.00000000E+04  # M_D11
   48    1.00000000E+04  # M_D22
   49    3.94116325E+03  # M_D33
Block SMINPUTS  # SM parameters
         1     1.27908970E+02  # alpha_em^-1(MZ)^MSbar
         2     1.16637870E-05  # G_mu [GeV^-2]
         3     1.18400000E-01  # alpha_s(MZ)^MSbar
         4     9.11876000E+01  # m_Z(pole)
         5     4.18000000E+00  # m_b(m_b), MSbar
         6     1.73200000E+02  # m_t(pole)
         7     1.77700000E+00  # m_tau(pole)
         8     0.00000000E+00  # m_nu_3
        11     5.10998930E-04  # m_e(pole)
        12     0.00000000E+00  # m_nu_1
        13     1.05658372E-01  # m_muon(pole)
        14     0.00000000E+00  # m_nu_2
        21     5.00000000E-03  # m_d(2 GeV), MSbar
        22     2.50000000E-03  # m_u(2 GeV), MSbar
        23     9.50000000E-02  # m_s(2 GeV), MSbar
        24     1.27000000E+00  # m_c(m_c), MSbar
Block gauge Q=  3.89491874E+03  # (SUSY scale)
   1    3.55362975E-01  # g'(Q)^DRbar
   2    6.65198874E-01  # g(Q)^DRbar
   3    1.21977796E+00  # g3(Q)^DRbar
Block Yu Q=  3.89491874E+03  # (SUSY scale)
  1  1     8.40094977E-06   # Y_u(Q)^DRbar
  2  2     4.26768248E-03   # Y_c(Q)^DRbar
  3  3     1.01490221E+00   # Y_t(Q)^DRbar
Block Yd Q=  3.89491874E+03  # (SUSY scale)
  1  1     2.68320018E-04   # Y_d(Q)^DRbar
  2  2     5.09808034E-03   # Y_s(Q)^DRbar
  3  3     2.66089378E-01   # Y_b(Q)^DRbar
Block Ye Q=  3.89491874E+03  # (SUSY scale)
  1  1     4.68238052E-05   # Y_e(Q)^DRbar
  2  2     9.68167787E-03   # Y_mu(Q)^DRbar
  3  3     1.62829895E-01   # Y_tau(Q)^DRbar
Block Au Q=  3.89491874E+03  # (SUSY scale)
  1  1     0.00000000E+00   # A_u(Q)^DRbar
  2  2     0.00000000E+00   # A_c(Q)^DRbar
  3  3     5.49599033E+03   # A_t(Q)^DRbar
Block Ad Q=  3.89491874E+03  # (SUSY scale)
  1  1     0.00000000E+00   # A_d(Q)^DRbar
  2  2     0.00000000E+00   # A_s(Q)^DRbar
  3  3     6.62579966E+02   # A_b(Q)^DRbar
Block Ae Q=  3.89491874E+03  # (SUSY scale)
  1  1     0.00000000E+00   # A_e(Q)^DRbar
  2  2     0.00000000E+00   # A_mu(Q)^DRbar
  3  3    -1.04407723E+03   # A_tau(Q)^DRbar
Block MSOFT Q=  3.89491874E+03  # soft SUSY breaking masses at Q
   1    1.61492851E+02  # M_1
   2   -1.68165874E+03  # M_2
   3    1.58059483E+03  # M_3
  21    1.30547712E+07  # M^2_(H,d)
  22    3.13175830E+05  # M^2_(H,u)
  31    1.00000000E+04  # M_(L,11)
  32    1.00000000E+04  # M_(L,22)
  33    1.00000000E+04  # M_(L,33)
  34    1.00000000E+04  # M_(E,11)
  35    1.00000000E+04  # M_(E,22)
  36    1.00000000E+04  # M_(E,33)
  41    1.00000000E+04  # M_(Q,11)
  42    1.00000000E+04  # M_(Q,22)
  43    3.90244997E+03  # M_(Q,33)
  44    1.00000000E+04  # M_(U,11)
  45    1.00000000E+04  # M_(U,22)
  46    3.96020307E+03  # M_(U,33)
  47    1.00000000E+04  # M_(D,11)
  48    1.00000000E+04  # M_(D,22)
  49    3.94116325E+03  # M_(D,33)
Block MASS  # Mass spectrum
#   PDG code      mass          particle
         6     1.73200000E+02  # m_t(pole)
        23     9.11876000E+01  # m_Z(pole)
        24     8.04299946E+01  # W+
        15     1.77700000E+00  # m_tau(pole)
        25     1.26121519E+02  # h0
        35     3.62875752E+03  # H0
        36     3.62906536E+03  # A0
        37     3.62958761E+03  # H+
   1000001     1.01196281E+04  # ~d_L
   2000001     1.00955496E+04  # ~d_R
   1000002     1.01192702E+04  # ~u_L
   2000002     1.00984401E+04  # ~u_R
   1000003     1.01196288E+04  # ~s_L
   2000003     1.00955502E+04  # ~s_R
   1000004     1.01192709E+04  # ~c_L
   2000004     1.00984407E+04  # ~c_R
   1000005     3.90436919E+03  # ~b_1
   2000005     3.99096567E+03  # ~b_2
   1000006     3.80406818E+03  # ~t_1
   2000006     3.98793903E+03  # ~t_2
   1000011     1.00202934E+04  # ~e_L-
   2000011     1.00092427E+04  # ~e_R-
   1000012     1.00195317E+04  # ~nu_eL
   1000013     1.00202951E+04  # ~mu_L-
   2000013     1.00092461E+04  # ~mu_R-
   1000014     1.00195334E+04  # ~nu_muL
   1000015     1.00102112E+04  # ~tau_1-
   2000015     1.00208055E+04  # ~tau_2-
   1000016     1.00200339E+04  # ~nu_tauL
   1000021     1.96065646E+03  # ~g
   1000022     1.42694894E+02  # ~chi_10
   1000023     1.91976654E+02  # ~chi_20
   1000025     2.15197167E+02  # ~chi_30
   1000035     1.79139821E+03  # ~chi_40
   1000024     1.91545196E+02  # ~chi_1+
   1000037     1.79136654E+03  # ~chi_2+
# Higgs mixing
Block alpha # Effective Higgs mixing angle
          -5.99539467E-02   # alpha
Block Hmix Q=  3.89491874E+03  # Higgs mixing parameters
   1    1.71632489E+02  # mu
   2    1.58944110E+01  # tan[beta](Q)
   3    2.42939382E+02  # v(Q)
   4    1.31701154E+07  # m^2_A(Q)
Block stopmix # stop mixing matrix
   1  1    -6.92344956E-01   # Re[R_st(1,1)]
   1  2     7.21566672E-01   # Re[R_st(1,2)]
   2  1    -7.21566672E-01   # Re[R_st(2,1)]
   2  2    -6.92344956E-01   # Re[R_st(2,2)]
Block sbotmix # sbottom mixing matrix
   1  1     9.99994956E-01   # Re[R_sb(1,1)]
   1  2     3.17612569E-03   # Re[R_sb(1,2)]
   2  1    -3.17612569E-03   # Re[R_sb(2,1)]
   2  2     9.99994956E-01   # Re[R_sb(2,2)]
Block staumix # stau mixing matrix
   1  1     3.09988518E-02   # Re[R_sta(1,1)]
   1  2     9.99519420E-01   # Re[R_sta(1,2)]
   2  1    -9.99519420E-01   # Re[R_sta(2,1)]
   2  2     3.09988518E-02   # Re[R_sta(2,2)]
Block Nmix # neutralino mixing matrix
   1  1    -8.31403103E-01   # Re[N(1,1)]
   1  2    -1.53562853E-02   # Re[N(1,2)]
   1  3    -4.39614641E-01   # Re[N(1,3)]
   1  4     3.39517351E-01   # Re[N(1,4)]
   2  1     8.29189050E-02   # Re[N(2,1)]
   2  2     3.31087236E-02   # Re[N(2,2)]
   2  3    -7.02934795E-01   # Re[N(2,3)]
   2  4    -7.05628048E-01   # Re[N(2,4)]
   3  1     5.49447233E-01   # Re[N(3,1)]
   3  2    -2.63495718E-02   # Re[N(3,2)]
   3  3    -5.59122913E-01   # Re[N(3,3)]
   3  4     6.20318472E-01   # Re[N(3,4)]
   4  1     1.03595315E-03   # Re[N(4,1)]
   4  2    -9.98986335E-01   # Re[N(4,2)]
   4  3    -1.79159275E-03   # Re[N(4,3)]
   4  4    -4.49668768E-02   # Re[N(4,4)]
Block Umix # chargino mixing matrix
   1  1    -2.54511964E-03   # Re[U(1,1)]
   1  2     9.99996761E-01   # Re[U(1,2)]
   2  1    -9.99996761E-01   # Re[U(2,1)]
   2  2    -2.54511964E-03   # Re[U(2,2)]
Block Vmix # chargino mixing matrix
   1  1     6.36183774E-02   # Re[V(1,1)]
   1  2     9.97974299E-01   # Re[V(1,2)]
   2  1     9.97974299E-01   # Re[V(2,1)]
   2  2    -6.36183774E-02   # Re[V(2,2)]
DECAY        23     2.49520000E+00   # Z
DECAY        24     2.08500000E+00   # W
DECAY   2000011     5.02643687E+01   # ~e^-_R
#    BR                NDA      ID1      ID2
     6.91340842E-01    2     1000022        11   # BR(~e^-_R -> chi^0_1 e^-)
     6.87437602E-03    2     1000023        11   # BR(~e^-_R -> chi^0_2 e^-)
     3.01783767E-01    2     1000025        11   # BR(~e^-_R -> chi^0_3 e^-)
DECAY   1000011     1.36580178E+02   # ~e^-_L
#    BR                NDA      ID1      ID2
     6.81565805E-02    2     1000022        11   # BR(~e^-_L -> chi^0_1 e^-)
     1.93340772E-03    2     1000023        11   # BR(~e^-_L -> chi^0_2 e^-)
     2.30298815E-02    2     1000025        11   # BR(~e^-_L -> chi^0_3 e^-)
     3.01661027E-01    2     1000035        11   # BR(~e^-_L -> chi^0_4 e^-)
     6.05214923E-01    2    -1000037        12   # BR(~e^-_L -> chi^-_2 nu_e)
#    BR                NDA      ID1      ID2       ID3
DECAY   2000013     5.03016881E+01   # ~mu^-_R
#    BR                NDA      ID1      ID2
     6.90899840E-01    2     1000022        13   # BR(~mu^-_R -> chi^0_1 mu^-)
     7.05248967E-03    2     1000023        13   # BR(~mu^-_R -> chi^0_2 mu^-)
     3.01675870E-01    2     1000025        13   # BR(~mu^-_R -> chi^0_3 mu^-)
     3.70791052E-04    2    -1000024        14   # BR(~mu^-_R -> chi^-_1 nu_mu)
DECAY   1000013     1.36598876E+02   # ~mu^-_L
#    BR                NDA      ID1      ID2
     6.81736891E-02    2     1000022        13   # BR(~mu^-_L -> chi^0_1 mu^-)
     2.00068386E-03    2     1000023        13   # BR(~mu^-_L -> chi^0_2 mu^-)
     2.30694559E-02    2     1000025        13   # BR(~mu^-_L -> chi^0_3 mu^-)
     3.01619794E-01    2     1000035        13   # BR(~mu^-_L -> chi^0_4 mu^-)
     6.05132198E-01    2    -1000037        14   # BR(~mu^-_L -> chi^-_2 nu_mu)
#    BR                NDA      ID1      ID2       ID3
DECAY   1000015     6.08998580E+01   # ~tau^-_1
#    BR                NDA      ID1      ID2
     5.89932063E-01    2     1000022        15   # BR(~tau^-_1 -> chi^0_1 tau^-)
     4.83604060E-02    2     1000023        15   # BR(~tau^-_1 -> chi^0_2 tau^-)
     2.73222347E-01    2     1000025        15   # BR(~tau^-_1 -> chi^0_3 tau^-)
     6.24408161E-04    2     1000035        15   # BR(~tau^-_1 -> chi^0_4 tau^-)
     8.66097933E-02    2    -1000024        16   # BR(~tau^-_1 -> chi^-_1 nu_tau)
     1.25098283E-03    2    -1000037        16   # BR(~tau^-_1 -> chi^-_2 nu_tau)
DECAY   2000015     1.41791572E+02   # ~tau^-_2
#    BR                NDA      ID1      ID2
     7.17718278E-02    2     1000022        15   # BR(~tau^-_2 -> chi^0_1 tau^-)
     2.03214683E-02    2     1000023        15   # BR(~tau^-_2 -> chi^0_2 tau^-)
     3.51012680E-02    2     1000025        15   # BR(~tau^-_2 -> chi^0_3 tau^-)
     2.90322697E-01    2     1000035        15   # BR(~tau^-_2 -> chi^0_4 tau^-)
     5.82466922E-01    2    -1000037        16   # BR(~tau^-_2 -> chi^-_2 nu_tau)
#    BR                NDA      ID1      ID2       ID3
DECAY   1000012     1.36583996E+02   # ~nu_e
#    BR                NDA      ID1      ID2
     5.93440093E-02    2     1000022        12   # BR(~nu_e -> chi^0_1 nu_e)
     3.30074756E-02    2     1000025        12   # BR(~nu_e -> chi^0_3 nu_e)
     3.02295769E-01    2     1000035        12   # BR(~nu_e -> chi^0_4 nu_e)
     2.61173419E-03    2     1000024        11   # BR(~nu_e -> chi^+_1 e^-)
     6.02700624E-01    2     1000037        11   # BR(~nu_e -> chi^+_2 e^-)
#    BR                NDA      ID1      ID2       ID3
DECAY   1000014     1.36602692E+02   # ~nu_mu
#    BR                NDA      ID1      ID2
     5.93358972E-02    2     1000022        14   # BR(~nu_mu -> chi^0_1 nu_mu)
     3.30029636E-02    2     1000025        14   # BR(~nu_mu -> chi^0_3 nu_mu)
     3.02254453E-01    2     1000035        14   # BR(~nu_mu -> chi^0_4 nu_mu)
     2.74805269E-03    2     1000024        13   # BR(~nu_mu -> chi^+_1 mu^-)
     6.02618251E-01    2     1000037        13   # BR(~nu_mu -> chi^+_2 mu^-)
#    BR                NDA      ID1      ID2       ID3
DECAY   1000016     1.41873078E+02   # ~nu_tau
#    BR                NDA      ID1      ID2
     5.71345082E-02    2     1000022        16   # BR(~nu_tau -> chi^0_1 nu_tau)
     3.17785401E-02    2     1000025        16   # BR(~nu_tau -> chi^0_3 nu_tau)
     2.91042582E-01    2     1000035        16   # BR(~nu_tau -> chi^0_4 nu_tau)
     3.97407033E-02    2     1000024        15   # BR(~nu_tau -> chi^+_1 tau^-)
     5.80264781E-01    2     1000037        15   # BR(~nu_tau -> chi^+_2 tau^-)
#    BR                NDA      ID1      ID2       ID3
DECAY   2000001     7.43529876E+02   # ~d_R
#    BR                NDA      ID1      ID2
     5.23773565E-03    2     1000022         1   # BR(~d_R -> chi^0_1 d)
     2.28639842E-03    2     1000025         1   # BR(~d_R -> chi^0_3 d)
     9.92423747E-01    2     1000021         1   # BR(~d_R -> ~g d)
DECAY   1000001     8.66730351E+02   # ~d_L
#    BR                NDA      ID1      ID2
     9.04522025E-04    2     1000022         1   # BR(~d_L -> chi^0_1 d)
     7.91914107E-04    2     1000025         1   # BR(~d_L -> chi^0_3 d)
     4.81402956E-02    2     1000035         1   # BR(~d_L -> chi^0_4 d)
     9.64400554E-02    2    -1000037         2   # BR(~d_L -> chi^-_2 u)
     8.53705260E-01    2     1000021         1   # BR(~d_L -> ~g d)
DECAY   2000003     7.43540331E+02   # ~s_R
#    BR                NDA      ID1      ID2
     5.23901470E-03    2     1000022         3   # BR(~s_R -> chi^0_1 s)
     2.28855321E-03    2     1000025         3   # BR(~s_R -> chi^0_3 s)
     9.92409861E-01    2     1000021         3   # BR(~s_R -> ~g s)
DECAY   1000003     8.66739297E+02   # ~s_L
#    BR                NDA      ID1      ID2
     9.05675728E-04    2     1000022         3   # BR(~s_L -> chi^0_1 s)
     7.93786402E-04    2     1000025         3   # BR(~s_L -> chi^0_3 s)
     4.81398024E-02    2     1000035         3   # BR(~s_L -> chi^0_4 s)
     9.64390837E-02    2    -1000037         4   # BR(~s_L -> chi^-_2 c)
     8.53696517E-01    2     1000021         3   # BR(~s_L -> ~g s)
DECAY   1000005     2.90314923E+02   # ~b_1
#    BR                NDA      ID1      ID2
     4.73053799E-03    2     1000022         5   # BR(~b_1 -> chi^0_1 b)
     9.33327930E-03    2     1000023         5   # BR(~b_1 -> chi^0_2 b)
     6.75644989E-03    2     1000025         5   # BR(~b_1 -> chi^0_3 b)
     3.68336615E-02    2     1000035         5   # BR(~b_1 -> chi^0_4 b)
     2.72064915E-01    2    -1000024         6   # BR(~b_1 -> chi^-_1 t)
     7.47514483E-02    2    -1000037         6   # BR(~b_1 -> chi^-_2 t)
     5.93669365E-01    2     1000021         5   # BR(~b_1 -> ~g b)
     1.86034280E-03    2     1000006       -24   # BR(~b_1 -> ~t_1 W^-)
DECAY   2000005     1.94699844E+02   # ~b_2
#    BR                NDA      ID1      ID2
     1.33939370E-02    2     1000022         5   # BR(~b_2 -> chi^0_1 b)
     1.42819426E-02    2     1000023         5   # BR(~b_2 -> chi^0_2 b)
     1.24676129E-02    2     1000025         5   # BR(~b_2 -> chi^0_3 b)
     2.86371320E-02    2    -1000024         6   # BR(~b_2 -> chi^-_1 t)
     9.31215717E-01    2     1000021         5   # BR(~b_2 -> ~g b)
DECAY   2000002     7.60680120E+02   # ~u_R
#    BR                NDA      ID1      ID2
     2.04844374E-02    2     1000022         2   # BR(~u_R -> chi^0_1 u)
     2.03688906E-04    2     1000023         2   # BR(~u_R -> chi^0_2 u)
     8.94193808E-03    2     1000025         2   # BR(~u_R -> chi^0_3 u)
     9.70369906E-01    2     1000021         2   # BR(~u_R -> ~g u)
DECAY   1000002     8.66719208E+02   # ~u_L
#    BR                NDA      ID1      ID2
     1.37165063E-03    2     1000022         2   # BR(~u_L -> chi^0_1 u)
     1.17697638E-04    2     1000023         2   # BR(~u_L -> chi^0_2 u)
     2.62422681E-04    2     1000025         2   # BR(~u_L -> chi^0_3 u)
     4.81034467E-02    2     1000035         2   # BR(~u_L -> chi^0_4 u)
     4.15695473E-04    2     1000024         1   # BR(~u_L -> chi^+_1 d)
     9.60477542E-02    2     1000037         1   # BR(~u_L -> chi^+_2 d)
     8.53681333E-01    2     1000021         2   # BR(~u_L -> ~g u)
DECAY   2000004     7.60687452E+02   # ~c_R
#    BR                NDA      ID1      ID2
     2.04847938E-02    2     1000022         4   # BR(~c_R -> chi^0_1 c)
     2.06080020E-04    2     1000023         4   # BR(~c_R -> chi^0_2 c)
     8.94370286E-03    2     1000025         4   # BR(~c_R -> chi^0_3 c)
     9.70360579E-01    2     1000021         4   # BR(~c_R -> ~g c)
DECAY   1000004     8.66728120E+02   # ~c_L
#    BR                NDA      ID1      ID2
     1.37212423E-03    2     1000022         4   # BR(~c_L -> chi^0_1 c)
     1.19801432E-04    2     1000023         4   # BR(~c_L -> chi^0_2 c)
     2.64046101E-04    2     1000025         4   # BR(~c_L -> chi^0_3 c)
     4.81029599E-02    2     1000035         4   # BR(~c_L -> chi^0_4 c)
     4.21707080E-04    2     1000024         3   # BR(~c_L -> chi^+_1 s)
     9.60467740E-02    2     1000037         3   # BR(~c_L -> chi^+_2 s)
     8.53672587E-01    2     1000021         4   # BR(~c_L -> ~g c)
DECAY   1000006     2.92226019E+02   # ~t_1
#    BR                NDA      ID1      ID2
     2.38149523E-02    2     1000022         6   # BR(~t_1 -> chi^0_1 t)
     1.31391990E-01    2     1000023         6   # BR(~t_1 -> chi^0_2 t)
     1.31126129E-01    2     1000025         6   # BR(~t_1 -> chi^0_3 t)
     1.33077848E-02    2     1000035         6   # BR(~t_1 -> chi^0_4 t)
     1.57632742E-01    2     1000024         5   # BR(~t_1 -> chi^+_1 b)
     2.67573590E-02    2     1000037         5   # BR(~t_1 -> chi^+_2 b)
     5.00195626E-04    2     1000021         4   # BR(~t_1 -> ~g c)
     5.14609820E-01    2     1000021         6   # BR(~t_1 -> ~g t)
#    BR                NDA      ID1      ID2       ID3
     8.57531710E-04    3     1000022        24         5   # BR(~t_1 -> chi^0_1 W^+ b)
DECAY   2000006     3.35184962E+02   # ~t_2
#    BR                NDA      ID1      ID2
     5.36103030E-02    2     1000022         6   # BR(~t_2 -> chi^0_1 t)
     1.20898444E-01    2     1000023         6   # BR(~t_2 -> chi^0_2 t)
     7.43420995E-02    2     1000025         6   # BR(~t_2 -> chi^0_3 t)
     2.05735664E-02    2     1000035         6   # BR(~t_2 -> chi^0_4 t)
     1.14664913E-01    2     1000024         5   # BR(~t_2 -> chi^+_1 b)
     4.13647835E-02    2     1000037         5   # BR(~t_2 -> chi^+_2 b)
     5.66732623E-01    2     1000021         6   # BR(~t_2 -> ~g t)
     7.68959043E-03    2     1000006        23   # BR(~t_2 -> ~t_1 Z)
DECAY   1000024     1.08607395E-04   # chi^+_1
#    BR                NDA      ID1      ID2       ID3
     3.33889955E-01    3     1000022        -1         2   # BR(chi^+_1 -> chi^0_1 d_bar u)
     3.32935835E-01    3     1000022        -3         4   # BR(chi^+_1 -> chi^0_1 s_bar c)
     1.11296388E-01    3     1000022       -11        12   # BR(chi^+_1 -> chi^0_1 e^+ nu_e)
     1.11295764E-01    3     1000022       -13        14   # BR(chi^+_1 -> chi^0_1 mu^+ nu_mu)
     1.10582058E-01    3     1000022       -15        16   # BR(chi^+_1 -> chi^0_1 tau^+ nu_tau)
DECAY   1000037     1.57173080E+01   # chi^+_2
#    BR                NDA      ID1      ID2
     6.36583998E-02    2     1000022        24   # BR(chi^+_2 -> chi^0_1 W^+)
     2.44173721E-01    2     1000023        24   # BR(chi^+_2 -> chi^0_2 W^+)
     1.78861720E-01    2     1000025        24   # BR(chi^+_2 -> chi^0_3 W^+)
     2.42623724E-01    2     1000024        23   # BR(chi^+_2 -> chi^+_1 Z)
     2.40988576E-01    2     1000024        25   # BR(chi^+_2 -> chi^+_1 h^0)
#    BR                NDA      ID1      ID2       ID3
     1.17440385E-02    3     1000024         6        -6   # BR(chi^+_2 -> chi^+_1 t t_bar)
     2.26044501E-03    3     1000022        -5         6   # BR(chi^+_2 -> chi^0_1 b_bar t)
     9.29925521E-03    3     1000023        -5         6   # BR(chi^+_2 -> chi^0_2 b_bar t)
     6.37911850E-03    3     1000025        -5         6   # BR(chi^+_2 -> chi^0_3 b_bar t)
DECAY   1000022     0.00000000E+00   # chi^0_1
DECAY   1000023     2.73348571E-04   # chi^0_2
#    BR                NDA      ID1      ID2
     1.03195035E-02    2     1000022        22   # BR(chi^0_2 -> chi^0_1 photon)
#    BR                NDA      ID1      ID2       ID3
     1.18832567E-01    3     1000022         2        -2   # BR(chi^0_2 -> chi^0_1 u u_bar)
     1.17912214E-01    3     1000022         4        -4   # BR(chi^0_2 -> chi^0_1 c c_bar)
     1.52366391E-01    3     1000022         1        -1   # BR(chi^0_2 -> chi^0_1 d d_bar)
     1.52360756E-01    3     1000022         3        -3   # BR(chi^0_2 -> chi^0_1 s s_bar)
     1.41869773E-01    3     1000022         5        -5   # BR(chi^0_2 -> chi^0_1 b b_bar)
     3.43840183E-02    3     1000022        11       -11   # BR(chi^0_2 -> chi^0_1 e^- e^+)
     3.43819845E-02    3     1000022        13       -13   # BR(chi^0_2 -> chi^0_1 mu^- mu^+)
     3.38150435E-02    3     1000022        15       -15   # BR(chi^0_2 -> chi^0_1 tau^- tau^+)
     2.03757750E-01    3     1000022        12       -12   # BR(chi^0_2 -> chi^0_1 nu_e nu_bar_e)
DECAY   1000025     3.97156010E-05   # chi^0_3
#    BR                NDA      ID1      ID2
     3.54489504E-03    2     1000022        22   # BR(chi^0_3 -> chi^0_1 photon)
     2.51397315E-02    2     1000023        22   # BR(chi^0_3 -> chi^0_2 photon)
#    BR                NDA      ID1      ID2       ID3
     3.53901789E-02    3     1000022         2        -2   # BR(chi^0_3 -> chi^0_1 u u_bar)
     3.52887015E-02    3     1000022         4        -4   # BR(chi^0_3 -> chi^0_1 c c_bar)
     4.53609677E-02    3     1000022         1        -1   # BR(chi^0_3 -> chi^0_1 d d_bar)
     4.53604243E-02    3     1000022         3        -3   # BR(chi^0_3 -> chi^0_1 s s_bar)
     4.42786843E-02    3     1000022         5        -5   # BR(chi^0_3 -> chi^0_1 b b_bar)
     1.02236585E-02    3     1000022        11       -11   # BR(chi^0_3 -> chi^0_1 e^- e^+)
     1.02234652E-02    3     1000022        13       -13   # BR(chi^0_3 -> chi^0_1 mu^- mu^+)
     1.01649761E-02    3     1000022        15       -15   # BR(chi^0_3 -> chi^0_1 tau^- tau^+)
     6.06835029E-02    3     1000022        12       -12   # BR(chi^0_3 -> chi^0_1 nu_e nu_bar_e)
     4.35645497E-02    3     1000023         2        -2   # BR(chi^0_3 -> chi^0_2 u u_bar)
     4.18899289E-02    3     1000023         4        -4   # BR(chi^0_3 -> chi^0_2 c c_bar)
     5.58586043E-02    3     1000023         1        -1   # BR(chi^0_3 -> chi^0_2 d d_bar)
     5.58480188E-02    3     1000023         3        -3   # BR(chi^0_3 -> chi^0_2 s s_bar)
     3.85399910E-02    3     1000023         5        -5   # BR(chi^0_3 -> chi^0_2 b b_bar)
     1.26058327E-02    3     1000023        11       -11   # BR(chi^0_3 -> chi^0_2 e^- e^+)
     1.26020529E-02    3     1000023        13       -13   # BR(chi^0_3 -> chi^0_2 mu^- mu^+)
     1.15899929E-02    3     1000023        15       -15   # BR(chi^0_3 -> chi^0_2 tau^- tau^+)
     7.46989621E-02    3     1000023        12       -12   # BR(chi^0_3 -> chi^0_2 nu_e nu_bar_e)
     5.49450862E-02    3     1000024         1        -2   # BR(chi^0_3 -> chi^+_1 d u_bar)
     5.49450862E-02    3    -1000024        -1         2   # BR(chi^0_3 -> chi^-_1 d_bar u)
     5.41855698E-02    3     1000024         3        -4   # BR(chi^0_3 -> chi^+_1 s c_bar)
     5.41855698E-02    3    -1000024        -3         4   # BR(chi^0_3 -> chi^-_1 s_bar c)
     1.83150692E-02    3     1000024        11       -12   # BR(chi^0_3 -> chi^+_1 e^- nu_bar_e)
     1.83150692E-02    3    -1000024       -11        12   # BR(chi^0_3 -> chi^-_1 e^+ nu_e)
     1.83149096E-02    3     1000024        13       -14   # BR(chi^0_3 -> chi^+_1 mu^- nu_bar_mu)
     1.83149096E-02    3    -1000024       -13        14   # BR(chi^0_3 -> chi^-_1 mu^+ nu_mu)
     1.78108054E-02    3     1000024        15       -16   # BR(chi^0_3 -> chi^+_1 tau^- nu_bar_tau)
     1.78108054E-02    3    -1000024       -15        16   # BR(chi^0_3 -> chi^-_1 tau^+ nu_tau)
DECAY   1000035     1.67086157E+01   # chi^0_4
#    BR                NDA      ID1      ID2
     2.29409729E-01    2     1000024       -24   # BR(chi^0_4 -> chi^+_1 W^-)
     2.29409729E-01    2    -1000024        24   # BR(chi^0_4 -> chi^-_1 W^+)
     2.96357069E-02    2     1000022        23   # BR(chi^0_4 -> chi^0_1 Z)
     1.05150617E-01    2     1000023        23   # BR(chi^0_4 -> chi^0_2 Z)
     9.37384465E-02    2     1000025        23   # BR(chi^0_4 -> chi^0_3 Z)
     3.99832767E-02    2     1000022        25   # BR(chi^0_4 -> chi^0_1 h^0)
     1.24316892E-01    2     1000023        25   # BR(chi^0_4 -> chi^0_2 h^0)
     1.17713467E-01    2     1000025        25   # BR(chi^0_4 -> chi^0_3 h^0)
#    BR                NDA      ID1      ID2       ID3
     1.49706169E-03    3     1000022         6        -6   # BR(chi^0_4 -> chi^0_1 t t_bar)
     5.51380829E-03    3     1000023         6        -6   # BR(chi^0_4 -> chi^0_2 t t_bar)
     4.16826585E-03    3     1000025         6        -6   # BR(chi^0_4 -> chi^0_3 t t_bar)
     9.70870033E-03    3     1000024         5        -6   # BR(chi^0_4 -> chi^+_1 b t_bar)
     9.70870033E-03    3    -1000024        -5         6   # BR(chi^0_4 -> chi^-_1 b_bar t)
DECAY   1000021     1.49620195E-02   # ~g
#    BR                NDA      ID1      ID2
     1.79857364E-03    2     1000022        21   # BR(~g -> chi^0_1 g)
     8.46487165E-03    2     1000023        21   # BR(~g -> chi^0_2 g)
     6.21827672E-03    2     1000025        21   # BR(~g -> chi^0_3 g)
#    BR                NDA      ID1      ID2       ID3
     2.71948709E-04    3     1000022         2        -2   # BR(~g -> chi^0_1 u u_bar)
     2.71966696E-04    3     1000022         4        -4   # BR(~g -> chi^0_1 c c_bar)
     5.16117703E-02    3     1000022         6        -6   # BR(~g -> chi^0_1 t t_bar)
     9.78342800E-03    3     1000022         5        -5   # BR(~g -> chi^0_1 b b_bar)
     2.18169036E-01    3     1000023         6        -6   # BR(~g -> chi^0_2 t t_bar)
     1.52001822E-02    3     1000023         5        -5   # BR(~g -> chi^0_2 b b_bar)
     1.13689721E-04    3     1000025         2        -2   # BR(~g -> chi^0_3 u u_bar)
     1.13746970E-04    3     1000025         4        -4   # BR(~g -> chi^0_3 c c_bar)
     1.90595788E-01    3     1000025         6        -6   # BR(~g -> chi^0_3 t t_bar)
     1.14669837E-02    3     1000025         5        -5   # BR(~g -> chi^0_3 b b_bar)
     2.42833032E-01    3     1000024         5        -6   # BR(~g -> chi^+_1 b t_bar)
     2.42833032E-01    3    -1000024        -5         6   # BR(~g -> chi^-_1 b_bar t)
DECAY        25     3.70200734E-03   # Gamma(h0)
     2.54511334E-03   2        22        22   # BR(h0 -> photon photon)
     1.73060983E-03   2        22        23   # BR(h0 -> photon Z)
     3.32989779E-02   2        23        23   # BR(h0 -> Z Z)
     2.69108864E-01   2       -24        24   # BR(h0 -> W W)
     7.80609984E-02   2        21        21   # BR(h0 -> gluon gluon)
     4.75062278E-09   2       -11        11   # BR(h0 -> Electron electron)
     2.11316776E-04   2       -13        13   # BR(h0 -> Muon muon)
     6.09316522E-02   2       -15        15   # BR(h0 -> Tau tau)
     1.34844538E-07   2        -2         2   # BR(h0 -> Up up)
     2.61709866E-02   2        -4         4   # BR(h0 -> Charm charm)
     5.48995060E-07   2        -1         1   # BR(h0 -> Down down)
     1.98558560E-04   2        -3         3   # BR(h0 -> Strange strange)
     5.27742234E-01   2        -5         5   # BR(h0 -> Bottom bottom)
DECAY        35     4.27872622E+01   # Gamma(HH)
     1.39952993E-09   2        22        22   # BR(HH -> photon photon)
     1.51839123E-08   2        22        23   # BR(HH -> photon Z)
     2.06724834E-06   2        23        23   # BR(HH -> Z Z)
     4.90324212E-07   2       -24        24   # BR(HH -> W W)
     6.14418204E-07   2        21        21   # BR(HH -> gluon gluon)
     3.26415986E-09   2       -11        11   # BR(HH -> Electron electron)
     1.45343857E-04   2       -13        13   # BR(HH -> Muon muon)
     4.19783301E-02   2       -15        15   # BR(HH -> Tau tau)
     6.74537416E-13   2        -2         2   # BR(HH -> Up up)
     1.30859829E-07   2        -4         4   # BR(HH -> Charm charm)
     9.65393554E-03   2        -6         6   # BR(HH -> Top top)
     2.34410508E-07   2        -1         1   # BR(HH -> Down down)
     8.47857040E-05   2        -3         3   # BR(HH -> Strange strange)
     2.16586211E-01   2        -5         5   # BR(HH -> Bottom bottom)
     3.13569155E-03   2  -1000024   1000024   # BR(HH -> Chargino1 chargino1)
     2.09520493E-01   2  -1000024   1000037   # BR(HH -> Chargino1 chargino2)
     2.09520493E-01   2  -1000037   1000024   # BR(HH -> Chargino2 chargino1)
     1.67641993E-06   2  -1000037   1000037   # BR(HH -> Chargino2 chargino2)
     2.37164157E-02   2   1000022   1000022   # BR(HH -> neutralino1 neutralino1)
     2.72992999E-02   2   1000022   1000023   # BR(HH -> neutralino1 neutralino2)
     2.52724268E-06   2   1000022   1000025   # BR(HH -> neutralino1 neutralino3)
     5.12498919E-02   2   1000022   1000035   # BR(HH -> neutralino1 neutralino4)
     4.16830035E-05   2   1000023   1000023   # BR(HH -> neutralino2 neutralino2)
     2.76585014E-02   2   1000023   1000025   # BR(HH -> neutralino2 neutralino3)
     1.10514746E-01   2   1000023   1000035   # BR(HH -> neutralino2 neutralino4)
     2.03813254E-02   2   1000025   1000025   # BR(HH -> neutralino3 neutralino3)
     4.84903640E-02   2   1000025   1000035   # BR(HH -> neutralino3 neutralino4)
     8.35715585E-07   2   1000035   1000035   # BR(HH -> neutralino4 neutralino4)
     1.38915153E-05   2        25        25   # BR(HH -> h0 h0)
DECAY        36     4.23810271E+01   # Gamma(A0)
     5.81671423E-09   2        22        22   # BR(A0 -> photon photon)
     8.05022445E-09   2        22        23   # BR(A0 -> photon Z)
     1.11567769E-05   2        21        21   # BR(A0 -> gluon gluon)
     3.18043432E-09   2       -11        11   # BR(A0 -> Electron electron)
     1.41615892E-04   2       -13        13   # BR(A0 -> Muon muon)
     4.09016607E-02   2       -15        15   # BR(A0 -> Tau tau)
     6.32596804E-13   2        -2         2   # BR(A0 -> Up up)
     1.22719260E-07   2        -4         4   # BR(A0 -> Charm charm)
     9.13585724E-03   2        -6         6   # BR(A0 -> Top top)
     2.28393470E-07   2        -1         1   # BR(A0 -> Down down)
     8.26100141E-05   2        -3         3   # BR(A0 -> Strange strange)
     2.11028814E-01   2        -5         5   # BR(A0 -> Bottom bottom)
     3.16248557E-03   2  -1000024   1000024   # BR(A0 -> Chargino1 chargino1)
     2.11580149E-01   2  -1000024   1000037   # BR(A0 -> Chargino1 chargino2)
     2.11580149E-01   2  -1000037   1000024   # BR(A0 -> Chargino2 chargino1)
     3.71140350E-07   2  -1000037   1000037   # BR(A0 -> Chargino2 chargino2)
     2.92839593E-02   2   1000022   1000022   # BR(A0 -> neutralino1 neutralino1)
     2.13164576E-02   2   1000022   1000023   # BR(A0 -> neutralino1 neutralino2)
     9.19074718E-06   2   1000022   1000025   # BR(A0 -> neutralino1 neutralino3)
     5.80863783E-02   2   1000022   1000035   # BR(A0 -> neutralino1 neutralino4)
     3.33720858E-05   2   1000023   1000023   # BR(A0 -> neutralino2 neutralino2)
     2.19337908E-02   2   1000023   1000025   # BR(A0 -> neutralino2 neutralino3)
     9.81508583E-02   2   1000023   1000035   # BR(A0 -> neutralino2 neutralino4)
     2.74803213E-02   2   1000025   1000025   # BR(A0 -> neutralino3 neutralino3)
     5.60762658E-02   2   1000025   1000035   # BR(A0 -> neutralino3 neutralino4)
     1.86006077E-07   2   1000035   1000035   # BR(A0 -> neutralino4 neutralino4)
     3.98232958E-06   2        23        25   # BR(A0 -> Z h0)
     3.30532954E-37   2        25        25   # BR(A0 -> h0 h0)
DECAY        37     4.42764965E+01   # Gamma(Hp)
     3.77554368E-09   2       -11        12   # BR(Hp -> Electron nu_e)
     1.61416284E-04   2       -13        14   # BR(Hp -> Muon nu_mu)
     4.56577142E-02   2       -15        16   # BR(Hp -> Tau nu_tau)
     2.35104353E-07   2        -1         2   # BR(Hp -> Down up)
     3.97692427E-06   2        -3         2   # BR(Hp -> Strange up)
     2.49860331E-06   2        -5         2   # BR(Hp -> Bottom up)
     1.77833269E-08   2        -1         4   # BR(Hp -> Down charm)
     8.48717636E-05   2        -3         4   # BR(Hp -> Strange charm)
     3.49894122E-04   2        -5         4   # BR(Hp -> Bottom charm)
     7.43370932E-07   2        -1         6   # BR(Hp -> Down top)
     1.63339291E-05   2        -3         6   # BR(Hp -> Strange top)
     2.47280778E-01   2        -5         6   # BR(Hp -> Bottom top)
     6.03884375E-02   2   1000022   1000024   # BR(Hp -> neutralino1 chargino1)
     1.05257513E-01   2   1000022   1000037   # BR(Hp -> neutralino1 chargino2)
     2.02392006E-03   2   1000023   1000024   # BR(Hp -> neutralino2 chargino1)
     2.01110733E-01   2   1000023   1000037   # BR(Hp -> neutralino2 chargino2)
     3.41948764E-02   2   1000024   1000025   # BR(Hp -> chargino1 neutralino3)
     1.00655337E-01   2   1000025   1000037   # BR(Hp -> neutralino3 chargino2)
     2.02806885E-01   2   1000024   1000035   # BR(Hp -> chargino1 neutralino4)
     1.04158967E-12   2   1000035   1000037   # BR(Hp -> neutralino4 chargino2)
     3.81511535E-06   2        24        25   # BR(Hp -> W h0)
DECAY         6     2.43000000E+00   # top
#    BR                NDA      ID1      ID2
     1.00000000E+00    2           5        24   # BR(t -> b W)
Block HiggsBoundsInputHiggsCouplingsFermions
# ScalarNormEffCoupSq PseudoSNormEffCoupSq NP IP1 IP2 IP2
    9.10583341E-01    0.00000000E+00        3  25   5   5  # h0-b-b eff. coupling^2, normalised to SM
    2.52721718E+02    0.00000000E+00        3  35   5   5  # H0-b-b eff. coupling^2, normalised to SM
    0.00000000E+00    2.52632301E+02        3  36   5   5  # A0-b-b eff. coupling^2, normalised to SM
#
    1.00035394E+00    0.00000000E+00        3  25   6   6  # h0-t-t eff. coupling^2, normalised to SM
    3.60438209E-03    0.00000000E+00        3  35   6   6  # H0-t-t eff. coupling^2, normalised to SM
    0.00000000E+00    3.95832202E-03        3  36   6   6  # A0-t-t eff. coupling^2, normalised to SM
#
    9.10583341E-01    0.00000000E+00        3  25  15  15  # h0-tau-tau eff. coupling^2, normalised to SM
    2.52721718E+02    0.00000000E+00        3  35  15  15  # H0-tau-tau eff. coupling^2, normalised to SM
    0.00000000E+00    2.52632301E+02        3  36  15  15  # A0-tau-tau eff. coupling^2, normalised to SM
#
Block HiggsBoundsInputHiggsCouplingsBosons
    9.99991715E-01        3  25  24  24  # h0-W-W eff. coupling^2, normalised to SM
    8.28535985E-06        3  35  24  24  # H0-W-W eff. coupling^2, normalised to SM
    0.00000000E+00        3  36  24  24  # A0-W-W eff. coupling^2, normalised to SM
#
    9.99991715E-01        3  25  23  23  # h0-Z-Z eff. coupling^2, normalised to SM
    8.28535985E-06        3  35  23  23  # H0-Z-Z eff. coupling^2, normalised to SM
    0.00000000E+00        3  36  23  23  # A0-Z-Z eff. coupling^2, normalised to SM
#
    1.26947829E+00        3  25  21  21  # h0-g-g eff. coupling^2, normalised to SM
    1.14094740E-03        3  35  21  21  # H0-g-g eff. coupling^2, normalised to SM
    9.79698032E-02        3  36  21  21  # A0-g-g eff. coupling^2, normalised to SM
#
    0.00000000E+00        3  25  25  23  # h0-h0-Z eff. coupling^2, normalised to SM
    0.00000000E+00        3  35  25  23  # H0-h0-Z eff. coupling^2, normalised to SM
    8.28535985E-06        3  36  25  23  # A0-h0-Z eff. coupling^2, normalised to SM
    0.00000000E+00        3  35  35  23  # H0-H0-Z eff. coupling^2, normalised to SM
    9.99991715E-01        3  36  35  23  # A0-H0-Z eff. coupling^2, normalised to SM
    0.00000000E+00        3  36  36  23  # A0-A0-Z eff. coupling^2, normalised to SM
#
    0.00000000E+00        4  25  21  21  23  # h0-g-g-Z eff. coupling^2, normalised to SM
    0.00000000E+00        4  35  21  21  23  # H0-g-g-Z eff. coupling^2, normalised to SM
    0.00000000E+00        4  36  21  21  23  # A0-g-g-Z eff. coupling^2, normalised to SM
Block SPhenoLowEnergy  # low energy observables
    1    3.30224448E-04   # BR(b -> s gamma)
    2    1.58945550E-06   # BR(b -> s mu+ mu-)
    3    3.52590515E-05   # BR(b -> s nu nu)
    4    2.39370756E-15   # BR(Bd -> e+ e-)
    5    1.02256516E-10   # BR(Bd -> mu+ mu-)
    6    2.14091114E-08   # BR(Bd -> tau+ tau-)
    7    8.03821399E-14   # BR(Bs -> e+ e-)
    8    3.43392407E-09   # BR(Bs -> mu+ mu-)
    9    7.28461875E-07   # BR(Bs -> tau+ tau-)
   10    9.66780283E-05   # BR(B_u -> tau nu)
   11    9.98647019E-01   # BR(B_u -> tau nu)/BR(B_u -> tau nu)_SM
   12    5.42116403E-01   # |Delta(M_Bd)| [ps^-1] 
   13    1.93696949E+01   # |Delta(M_Bs)| [ps^-1] 
   14    0.00000000E+00   # neutron EDM according to the chiral quark model
   15    0.00000000E+00   # neutron EDM according to the relativistic quark-parton model
   16    2.15780976E-03   # epsilon_K
   17    2.28166323E-15   # Delta(M_K)
   18    2.48009940E-11   # BR(K^0 -> pi^0 nu nu)
   19    8.29083829E-11   # BR(K^+ -> pi^+ nu nu)
   20   -1.80615378E-16   # Delta(g-2)_electron/2
   21   -7.72188165E-12   # Delta(g-2)_muon/2
   22   -2.18497964E-09   # Delta(g-2)_tau/2
   23    0.00000000E+00   # electric dipole moment of the electron
   24    0.00000000E+00   # electric dipole moment of the muon
   25    0.00000000E+00   # electric dipole moment of the tau
   26    0.00000000E+00   # Br(mu -> e gamma)
   27    0.00000000E+00   # Br(tau -> e gamma)
   28    0.00000000E+00   # Br(tau -> mu gamma)
   29    0.00000000E+00   # Br(mu -> 3 e)
   30    0.00000000E+00   # Br(tau -> 3 e)
   31    0.00000000E+00   # Br(tau -> 3 mu)
   39    3.06306958E-05   # Delta(rho_parameter)
   40    0.00000000E+00   # BR(Z -> e mu)
   41    0.00000000E+00   # BR(Z -> e tau)
   42    0.00000000E+00   # BR(Z -> mu tau)
Block FWCOEF Q=  1.60000000E+02  # Wilson coefficients at scale Q
#    id        order  M        value         comment
     0305 4422   00   0    -1.88819110E-01   # C7
     0305 4422   00   2    -1.99788627E-01   # C7
     0305 4322   00   2    -1.35705890E-04   # C7'
     0305 6421   00   0    -9.52278348E-02   # C8
     0305 6421   00   2    -1.05349713E-01   # C8
     0305 6321   00   2    -1.55597922E-04   # C8'
 03051111 4133   00   0     1.62537980E+00   # C9 e+e-
 03051111 4133   00   2     1.62579467E+00   # C9 e+e-
 03051111 4233   00   2     7.69363005E-05   # C9' e+e-
 03051111 4137   00   0    -4.44807190E+00   # C10 e+e-
 03051111 4137   00   2    -4.44705364E+00   # C10 e+e-
 03051111 4237   00   2    -5.69670106E-04   # C10' e+e-
 03051313 4133   00   0     1.62537980E+00   # C9 mu+mu-
 03051313 4133   00   2     1.62579464E+00   # C9 mu+mu-
 03051313 4233   00   2     7.69362922E-05   # C9' mu+mu-
 03051313 4137   00   0    -4.44807190E+00   # C10 mu+mu-
 03051313 4137   00   2    -4.44705367E+00   # C10 mu+mu-
 03051313 4237   00   2    -5.69670113E-04   # C10' mu+mu-
 03051212 4137   00   0     1.50535012E+00   # C11 nu_1 nu_1
 03051212 4137   00   2     1.50513113E+00   # C11 nu_1 nu_1
 03051212 4237   00   2     1.23219546E-04   # C11' nu_1 nu_1
 03051414 4137   00   0     1.50535012E+00   # C11 nu_2 nu_2
 03051414 4137   00   2     1.50513113E+00   # C11 nu_2 nu_2
 03051414 4237   00   2     1.23219547E-04   # C11' nu_2 nu_2
 03051616 4137   00   0     1.50535012E+00   # C11 nu_3 nu_3
 03051616 4137   00   2     1.50513113E+00   # C11 nu_3 nu_3
 03051616 4237   00   2     1.23219830E-04   # C11' nu_3 nu_3
Block IMFWCOEF Q=  1.60000000E+02  # Im(Wilson coefficients) at scale Q
#    id        order  M        value         comment
     0305 4422   00   0     3.85819065E-07   # C7
     0305 4422   00   2    -2.02562625E-06   # C7
     0305 4322   00   2    -6.73399391E-07   # C7'
     0305 6421   00   0     3.30479545E-07   # C8
     0305 6421   00   2    -1.25765649E-05   # C8
     0305 6321   00   2    -4.89700122E-07   # C8'
 03051111 4133   00   2     4.12741224E-07   # C9 e+e-
 03051111 4233   00   2     1.46793836E-06   # C9' e+e-
 03051111 4137   00   2    -4.64459022E-07   # C10 e+e-
 03051111 4237   00   2    -1.08705852E-05   # C10' e+e-
 03051313 4133   00   2     4.12740696E-07   # C9 mu+mu-
 03051313 4233   00   2     1.46793830E-06   # C9' mu+mu-
 03051313 4137   00   2    -4.64458559E-07   # C10 mu+mu-
 03051313 4237   00   2    -1.08705854E-05   # C10' mu+mu-
 03051212 4137   00   2     1.22888602E-07   # C11 nu_1 nu_1
 03051212 4237   00   2     2.35130673E-06   # C11' nu_1 nu_1
 03051414 4137   00   2     1.22888622E-07   # C11 nu_2 nu_2
 03051414 4237   00   2     2.35130673E-06   # C11' nu_2 nu_2
 03051616 4137   00   2     1.22894237E-07   # C11 nu_3 nu_3
 03051616 4237   00   2     2.35130672E-06   # C11' nu_3 nu_3
