# SUSY Les Houches Accord 2 - MSSM spectrum + Decays
# SPheno v4.0.5be
# W. Porod, Comput. Phys. Commun. 153 (2003) 275-315, hep-ph/0301101;
# W. Porod, F.~Staub, Comput. Phys. Commun. 183 (2012) 2458
#                     arXiv:1104.1573 [hep-ph] 
# in case of problems send email to porod@physik.uni-wuerzburg.de
# Created: 20.12.2022,  19:17
Block SPINFO         # Program information
     1   SPheno      # spectrum calculator
     2   v4.0.5be    # version number
#
Block SPhenoINFO     # SPheno specific information
    1      2         # using 2-loop RGEs
    2      2         # using pole masses for boundary conditions at mZ
Block MODSEL  # Model selection
    1    0    # general MSSM
Block MINPAR  # Input parameters
    3    4.90915547E+01  # tanb at m_Z    
    4   -1.00000000E+00  # Sign(mu)
Block EXTPAR  # non-universal input parameters
    0    4.23914142E+03  # scale for input parameters
    1    1.14296799E+00  # M_1
    2    6.36643544E+02  # M_2
    3    3.36278440E+03  # M_3
   11   -3.61135706E+03  # A_t
   12    1.59928557E+03  # A_b
   13    9.51654150E+02  # A_tau
   23   -4.90981897E+02  # mu
   25    4.84635759E+01  # tan(beta)
   26    4.06061224E+03  # m_A, pole mass
   31    1.00000000E+04  # M_L11
   32    1.00000000E+04  # M_L22
   33    1.00000000E+04  # M_L33
   34    1.00000000E+04  # M_E11
   35    1.00000000E+04  # M_E22
   36    1.00000000E+04  # M_E33
   41    1.00000000E+04  # M_Q11
   42    1.00000000E+04  # M_Q22
   43    4.52915697E+03  # M_Q33
   44    1.00000000E+04  # M_U11
   45    1.00000000E+04  # M_U22
   46    3.87326697E+03  # M_U33
   47    1.00000000E+04  # M_D11
   48    1.00000000E+04  # M_D22
   49    3.38379587E+03  # M_D33
Block SMINPUTS  # SM parameters
         1     1.27908970E+02  # alpha_em^-1(MZ)^MSbar
         2     1.16637870E-05  # G_mu [GeV^-2]
         3     1.18400000E-01  # alpha_s(MZ)^MSbar
         4     9.11876000E+01  # m_Z(pole)
         5     4.18000000E+00  # m_b(m_b), MSbar
         6     1.73200000E+02  # m_t(pole)
         7     1.77700000E+00  # m_tau(pole)
         8     0.00000000E+00  # m_nu_3
        11     5.10998930E-04  # m_e(pole)
        12     0.00000000E+00  # m_nu_1
        13     1.05658372E-01  # m_muon(pole)
        14     0.00000000E+00  # m_nu_2
        21     5.00000000E-03  # m_d(2 GeV), MSbar
        22     2.50000000E-03  # m_u(2 GeV), MSbar
        23     9.50000000E-02  # m_s(2 GeV), MSbar
        24     1.27000000E+00  # m_c(m_c), MSbar
Block gauge Q=  4.23914142E+03  # (SUSY scale)
   1    3.55362975E-01  # g'(Q)^DRbar
   2    6.65198874E-01  # g(Q)^DRbar
   3    1.21977796E+00  # g3(Q)^DRbar
Block Yu Q=  4.23914142E+03  # (SUSY scale)
  1  1     8.38615683E-06   # Y_u(Q)^DRbar
  2  2     4.26016767E-03   # Y_c(Q)^DRbar
  3  3     1.01311510E+00   # Y_t(Q)^DRbar
Block Yd Q=  4.23914142E+03  # (SUSY scale)
  1  1     8.16692717E-04   # Y_d(Q)^DRbar
  2  2     1.55171616E-02   # Y_s(Q)^DRbar
  3  3     8.09903261E-01   # Y_b(Q)^DRbar
Block Ye Q=  4.23914142E+03  # (SUSY scale)
  1  1     1.42518851E-04   # Y_e(Q)^DRbar
  2  2     2.94683783E-02   # Y_mu(Q)^DRbar
  3  3     4.95609646E-01   # Y_tau(Q)^DRbar
Block Au Q=  4.23914142E+03  # (SUSY scale)
  1  1     0.00000000E+00   # A_u(Q)^DRbar
  2  2     0.00000000E+00   # A_c(Q)^DRbar
  3  3    -3.61135881E+03   # A_t(Q)^DRbar
Block Ad Q=  4.23914142E+03  # (SUSY scale)
  1  1     0.00000000E+00   # A_d(Q)^DRbar
  2  2     0.00000000E+00   # A_s(Q)^DRbar
  3  3     1.59928617E+03   # A_b(Q)^DRbar
Block Ae Q=  4.23914142E+03  # (SUSY scale)
  1  1     0.00000000E+00   # A_e(Q)^DRbar
  2  2     0.00000000E+00   # A_mu(Q)^DRbar
  3  3     9.51653999E+02   # A_tau(Q)^DRbar
Block MSOFT Q=  4.23914142E+03  # soft SUSY breaking masses at Q
   1    1.14296799E+00  # M_1
   2    6.36643544E+02  # M_2
   3    3.36278440E+03  # M_3
  21    1.65573971E+07  # M^2_(H,d)
  22    1.72898960E+05  # M^2_(H,u)
  31    1.00000000E+04  # M_(L,11)
  32    1.00000000E+04  # M_(L,22)
  33    1.00000000E+04  # M_(L,33)
  34    1.00000000E+04  # M_(E,11)
  35    1.00000000E+04  # M_(E,22)
  36    1.00000000E+04  # M_(E,33)
  41    1.00000000E+04  # M_(Q,11)
  42    1.00000000E+04  # M_(Q,22)
  43    4.52915697E+03  # M_(Q,33)
  44    1.00000000E+04  # M_(U,11)
  45    1.00000000E+04  # M_(U,22)
  46    3.87326697E+03  # M_(U,33)
  47    1.00000000E+04  # M_(D,11)
  48    1.00000000E+04  # M_(D,22)
  49    3.38379587E+03  # M_(D,33)
Block MASS  # Mass spectrum
#   PDG code      mass          particle
         6     1.73200000E+02  # m_t(pole)
        23     9.11876000E+01  # m_Z(pole)
        24     8.04299946E+01  # W+
        15     1.77700000E+00  # m_tau(pole)
        25     1.24393060E+02  # h0
        35     4.05825177E+03  # H0
        36     4.06061224E+03  # A0
        37     4.05791575E+03  # H+
   1000001     1.01103443E+04  # ~d_L
   2000001     1.00856228E+04  # ~d_R
   1000002     1.01099800E+04  # ~u_L
   2000002     1.00883037E+04  # ~u_R
   1000003     1.01103462E+04  # ~s_L
   2000003     1.00856260E+04  # ~s_R
   1000004     1.01099819E+04  # ~c_L
   2000004     1.00883041E+04  # ~c_R
   1000005     3.47905483E+03  # ~b_1
   2000005     4.57922721E+03  # ~b_2
   1000006     3.91822103E+03  # ~t_1
   2000006     4.58634667E+03  # ~t_2
   1000011     1.00210623E+04  # ~e_L-
   2000011     1.00093911E+04  # ~e_R-
   1000012     1.00202941E+04  # ~nu_eL
   1000013     1.00210721E+04  # ~mu_L-
   2000013     1.00094063E+04  # ~mu_R-
   1000014     1.00203025E+04  # ~nu_muL
   1000015     1.00136735E+04  # ~tau_1-
   2000015     1.00240026E+04  # ~tau_2-
   1000016     1.00227378E+04  # ~nu_tauL
   1000021     3.86390807E+03  # ~g
   1000022     1.36677059E+00  # ~chi_10
   1000023     4.88900125E+02  # ~chi_20
   1000025     5.06573988E+02  # ~chi_30
   1000035     7.10313726E+02  # ~chi_40
   1000024     4.89873859E+02  # ~chi_1+
   1000037     7.10379377E+02  # ~chi_2+
# Higgs mixing
Block alpha # Effective Higgs mixing angle
          -2.03931367E-02   # alpha
Block Hmix Q=  4.23914142E+03  # Higgs mixing parameters
   1   -4.90981897E+02  # mu
   2    4.84635759E+01  # tan[beta](Q)
   3    2.42880200E+02  # v(Q)
   4    1.64885718E+07  # m^2_A(Q)
Block stopmix # stop mixing matrix
   1  1     9.36291556E-02   # Re[R_st(1,1)]
   1  2     9.95607142E-01   # Re[R_st(1,2)]
   2  1    -9.95607142E-01   # Re[R_st(2,1)]
   2  2     9.36291556E-02   # Re[R_st(2,2)]
Block sbotmix # sbottom mixing matrix
   1  1    -6.28849861E-03   # Re[R_sb(1,1)]
   1  2     9.99980227E-01   # Re[R_sb(1,2)]
   2  1    -9.99980227E-01   # Re[R_sb(2,1)]
   2  2    -6.28849861E-03   # Re[R_sb(2,2)]
Block staumix # stau mixing matrix
   1  1    -2.19559364E-01   # Re[R_sta(1,1)]
   1  2     9.75599142E-01   # Re[R_sta(1,2)]
   2  1    -9.75599142E-01   # Re[R_sta(2,1)]
   2  2    -2.19559364E-01   # Re[R_sta(2,2)]
Block Nmix # neutralino mixing matrix
   1  1    -9.96064071E-01   # Re[N(1,1)]
   1  2    -4.65068889E-04   # Re[N(1,2)]
   1  3     8.86231310E-02   # Re[N(1,3)]
   1  4    -1.44574812E-03   # Re[N(1,4)]
   2  1    -6.03429698E-02   # Re[N(2,1)]
   2  2    -2.61593647E-01   # Re[N(2,2)]
   2  3    -6.90543428E-01   # Re[N(2,3)]
   2  4    -6.71622858E-01   # Re[N(2,4)]
   3  1     6.34720538E-02   # Re[N(3,1)]
   3  2    -4.86553722E-02   # Re[N(3,2)]
   3  3     7.01576218E-01   # Re[N(3,3)]
   3  4    -7.08092342E-01   # Re[N(3,4)]
   4  1     1.36524801E-02   # Re[N(4,1)]
   4  2    -9.63950830E-01   # Re[N(4,2)]
   4  3     1.51942507E-01   # Re[N(4,3)]
   4  4     2.18004316E-01   # Re[N(4,4)]
Block Umix # chargino mixing matrix
   1  1    -2.14962138E-01   # Re[U(1,1)]
   1  2    -9.76622383E-01   # Re[U(1,2)]
   2  1     9.76622383E-01   # Re[U(2,1)]
   2  2    -2.14962138E-01   # Re[U(2,2)]
Block Vmix # chargino mixing matrix
   1  1    -3.08777214E-01   # Re[V(1,1)]
   1  2     9.51134392E-01   # Re[V(1,2)]
   2  1     9.51134392E-01   # Re[V(2,1)]
   2  2     3.08777214E-01   # Re[V(2,2)]
DECAY        23     2.49520000E+00   # Z
DECAY        24     2.08500000E+00   # W
DECAY   2000011     5.02915366E+01   # ~e^-_R
#    BR                NDA      ID1      ID2
     9.92183002E-01    2     1000022        11   # BR(~e^-_R -> chi^0_1 e^-)
     3.62410249E-03    2     1000023        11   # BR(~e^-_R -> chi^0_2 e^-)
     4.00828871E-03    2     1000025        11   # BR(~e^-_R -> chi^0_3 e^-)
     1.84526787E-04    2     1000035        11   # BR(~e^-_R -> chi^0_4 e^-)
DECAY   1000011     1.43626174E+02   # ~e^-_L
#    BR                NDA      ID1      ID2
     8.71079959E-02    2     1000022        11   # BR(~e^-_L -> chi^0_1 e^-)
     2.63879871E-02    2     1000023        11   # BR(~e^-_L -> chi^0_2 e^-)
     2.78241030E-01    2     1000035        11   # BR(~e^-_L -> chi^0_4 e^-)
     2.82461417E-02    2    -1000024        12   # BR(~e^-_L -> chi^-_1 nu_e)
     5.79950383E-01    2    -1000037        12   # BR(~e^-_L -> chi^-_2 nu_e)
#    BR                NDA      ID1      ID2       ID3
DECAY   2000013     5.06357109E+01   # ~mu^-_R
#    BR                NDA      ID1      ID2
     9.85467385E-01    2     1000022        13   # BR(~mu^-_R -> chi^0_1 mu^-)
     5.22012691E-03    2     1000023        13   # BR(~mu^-_R -> chi^0_2 mu^-)
     5.65331303E-03    2     1000025        13   # BR(~mu^-_R -> chi^0_3 mu^-)
     2.61319646E-04    2     1000035        13   # BR(~mu^-_R -> chi^0_4 mu^-)
     3.24163702E-03    2    -1000024        14   # BR(~mu^-_R -> chi^-_1 nu_mu)
     1.56218302E-04    2    -1000037        14   # BR(~mu^-_R -> chi^-_2 nu_mu)
DECAY   1000013     1.43798569E+02   # ~mu^-_L
#    BR                NDA      ID1      ID2
     8.70131057E-02    2     1000022        13   # BR(~mu^-_L -> chi^0_1 mu^-)
     2.69277381E-02    2     1000023        13   # BR(~mu^-_L -> chi^0_2 mu^-)
     6.55930577E-04    2     1000025        13   # BR(~mu^-_L -> chi^0_3 mu^-)
     2.77935241E-01    2     1000035        13   # BR(~mu^-_L -> chi^0_4 mu^-)
     2.82123063E-02    2    -1000024        14   # BR(~mu^-_L -> chi^-_1 nu_mu)
     5.79255678E-01    2    -1000037        14   # BR(~mu^-_L -> chi^-_2 nu_mu)
#    BR                NDA      ID1      ID2       ID3
DECAY   1000015     1.49885617E+02   # ~tau^-_1
#    BR                NDA      ID1      ID2
     3.29836190E-01    2     1000022        15   # BR(~tau^-_1 -> chi^0_1 tau^-)
     1.78235586E-01    2     1000023        15   # BR(~tau^-_1 -> chi^0_2 tau^-)
     1.53505005E-01    2     1000025        15   # BR(~tau^-_1 -> chi^0_3 tau^-)
     9.71635796E-04    2     1000035        15   # BR(~tau^-_1 -> chi^0_4 tau^-)
     3.35481102E-01    2    -1000024        16   # BR(~tau^-_1 -> chi^-_1 nu_tau)
     1.97048087E-03    2    -1000037        16   # BR(~tau^-_1 -> chi^-_2 nu_tau)
DECAY   2000015     1.90207211E+02   # ~tau^-_2
#    BR                NDA      ID1      ID2
     7.23771098E-02    2     1000022        15   # BR(~tau^-_2 -> chi^0_1 tau^-)
     1.24731543E-01    2     1000023        15   # BR(~tau^-_2 -> chi^0_2 tau^-)
     1.32242835E-01    2     1000025        15   # BR(~tau^-_2 -> chi^0_3 tau^-)
     2.21216027E-01    2     1000035        15   # BR(~tau^-_2 -> chi^0_4 tau^-)
     1.15230774E-03    2    -1000024        16   # BR(~tau^-_2 -> chi^-_1 nu_tau)
     4.48280177E-01    2    -1000037        16   # BR(~tau^-_2 -> chi^-_2 nu_tau)
#    BR                NDA      ID1      ID2       ID3
DECAY   1000012     1.43630886E+02   # ~nu_e
#    BR                NDA      ID1      ID2
     8.67944973E-02    2     1000022        12   # BR(~nu_e -> chi^0_1 nu_e)
     1.60764554E-02    2     1000023        12   # BR(~nu_e -> chi^0_2 nu_e)
     2.08251782E-03    2     1000025        12   # BR(~nu_e -> chi^0_3 nu_e)
     2.86758981E-01    2     1000035        12   # BR(~nu_e -> chi^0_4 nu_e)
     5.82744274E-02    2     1000024        11   # BR(~nu_e -> chi^+_1 e^-)
     5.50013121E-01    2     1000037        11   # BR(~nu_e -> chi^+_2 e^-)
#    BR                NDA      ID1      ID2       ID3
DECAY   1000014     1.43803246E+02   # ~nu_mu
#    BR                NDA      ID1      ID2
     8.66905393E-02    2     1000022        14   # BR(~nu_mu -> chi^0_1 nu_mu)
     1.60572000E-02    2     1000023        14   # BR(~nu_mu -> chi^0_2 nu_mu)
     2.08002350E-03    2     1000025        14   # BR(~nu_mu -> chi^0_3 nu_mu)
     2.86415521E-01    2     1000035        14   # BR(~nu_mu -> chi^0_4 nu_mu)
     5.93473131E-02    2     1000024        13   # BR(~nu_mu -> chi^+_1 mu^-)
     5.49409403E-01    2     1000037        13   # BR(~nu_mu -> chi^+_2 mu^-)
#    BR                NDA      ID1      ID2       ID3
DECAY   1000016     1.92398360E+02   # ~nu_tau
#    BR                NDA      ID1      ID2
     6.48103798E-02    2     1000022        16   # BR(~nu_tau -> chi^0_1 nu_tau)
     1.20044892E-02    2     1000023        16   # BR(~nu_tau -> chi^0_2 nu_tau)
     1.55504222E-03    2     1000025        16   # BR(~nu_tau -> chi^0_3 nu_tau)
     2.14127054E-01    2     1000035        16   # BR(~nu_tau -> chi^0_4 nu_tau)
     2.85158725E-01    2     1000024        15   # BR(~nu_tau -> chi^+_1 tau^-)
     4.22344310E-01    2     1000037        15   # BR(~nu_tau -> chi^+_2 tau^-)
#    BR                NDA      ID1      ID2       ID3
DECAY   2000001     5.85181792E+02   # ~d_R
#    BR                NDA      ID1      ID2
     9.54659543E-03    2     1000022         1   # BR(~d_R -> chi^0_1 d)
     9.90377733E-01    2     1000021         1   # BR(~d_R -> ~g d)
DECAY   1000001     7.15583824E+02   # ~d_L
#    BR                NDA      ID1      ID2
     1.94626453E-03    2     1000022         1   # BR(~d_L -> chi^0_1 d)
     3.89499514E-03    2     1000023         1   # BR(~d_L -> chi^0_2 d)
     2.22535714E-04    2     1000025         1   # BR(~d_L -> chi^0_3 d)
     5.75053643E-02    2     1000035         1   # BR(~d_L -> chi^0_4 d)
     5.72032861E-03    2    -1000024         2   # BR(~d_L -> chi^-_1 u)
     1.17460875E-01    2    -1000037         2   # BR(~d_L -> chi^-_2 u)
     8.13249637E-01    2     1000021         1   # BR(~d_L -> ~g d)
DECAY   2000003     5.85277983E+02   # ~s_R
#    BR                NDA      ID1      ID2
     9.54567598E-03    2     1000022         3   # BR(~s_R -> chi^0_1 s)
     9.90215493E-01    2     1000021         3   # BR(~s_R -> ~g s)
DECAY   1000003     7.15635723E+02   # ~s_L
#    BR                NDA      ID1      ID2
     1.94665380E-03    2     1000022         3   # BR(~s_L -> chi^0_1 s)
     3.92674610E-03    2     1000023         3   # BR(~s_L -> chi^0_2 s)
     2.55570674E-04    2     1000025         3   # BR(~s_L -> chi^0_3 s)
     5.75027458E-02    2     1000035         3   # BR(~s_L -> chi^0_4 s)
     5.72450325E-03    2    -1000024         4   # BR(~s_L -> chi^-_1 c)
     1.17452865E-01    2    -1000037         4   # BR(~s_L -> chi^-_2 c)
     8.13190915E-01    2     1000021         3   # BR(~s_L -> ~g s)
DECAY   1000005     8.87749182E+01   # ~b_1
#    BR                NDA      ID1      ID2
     2.58993003E-02    2     1000022         5   # BR(~b_1 -> chi^0_1 b)
     2.34971225E-01    2     1000023         5   # BR(~b_1 -> chi^0_2 b)
     2.41033412E-01    2     1000025         5   # BR(~b_1 -> chi^0_3 b)
     1.03460069E-02    2     1000035         5   # BR(~b_1 -> chi^0_4 b)
     4.67174502E-01    2    -1000024         6   # BR(~b_1 -> chi^-_1 t)
     2.05755541E-02    2    -1000037         6   # BR(~b_1 -> chi^-_2 t)
DECAY   2000005     2.48642328E+02   # ~b_2
#    BR                NDA      ID1      ID2
     4.34213471E-03    2     1000022         5   # BR(~b_2 -> chi^0_1 b)
     1.16727558E-01    2     1000023         5   # BR(~b_2 -> chi^0_2 b)
     1.15797153E-01    2     1000025         5   # BR(~b_2 -> chi^0_3 b)
     7.76213098E-02    2     1000035         5   # BR(~b_2 -> chi^0_4 b)
     3.37502807E-01    2    -1000024         6   # BR(~b_2 -> chi^-_1 t)
     1.83080609E-01    2    -1000037         6   # BR(~b_2 -> chi^-_2 t)
     1.20597099E-01    2     1000021         5   # BR(~b_2 -> ~g b)
     4.32839793E-02    2     1000006       -24   # BR(~b_2 -> ~t_1 W^-)
     3.88505892E-04    2     1000005        23   # BR(~b_2 -> ~b_1 Z)
     6.58844527E-04    2     1000005        25   # BR(~b_2 -> ~b_1 h^0)
DECAY   2000002     6.02339085E+02   # ~u_R
#    BR                NDA      ID1      ID2
     3.71085183E-02    2     1000022         2   # BR(~u_R -> chi^0_1 u)
     1.35553311E-04    2     1000023         2   # BR(~u_R -> chi^0_2 u)
     1.49924066E-04    2     1000025         2   # BR(~u_R -> chi^0_3 u)
     9.62599102E-01    2     1000021         2   # BR(~u_R -> ~g u)
DECAY   1000002     7.15568427E+02   # ~u_L
#    BR                NDA      ID1      ID2
     1.96675428E-03    2     1000022         2   # BR(~u_L -> chi^0_1 u)
     4.59080458E-03    2     1000023         2   # BR(~u_L -> chi^0_2 u)
     5.69272795E-02    2     1000035         2   # BR(~u_L -> chi^0_4 u)
     1.18028699E-02    2     1000024         1   # BR(~u_L -> chi^+_1 d)
     1.11408179E-01    2     1000037         1   # BR(~u_L -> chi^+_2 d)
     8.13217783E-01    2     1000021         2   # BR(~u_L -> ~g u)
DECAY   2000004     6.02346340E+02   # ~c_R
#    BR                NDA      ID1      ID2
     3.71080714E-02    2     1000022         4   # BR(~c_R -> chi^0_1 c)
     1.38267153E-04    2     1000023         4   # BR(~c_R -> chi^0_2 c)
     1.52938421E-04    2     1000025         4   # BR(~c_R -> chi^0_3 c)
     9.62587520E-01    2     1000021         4   # BR(~c_R -> ~g c)
DECAY   1000004     7.15620294E+02   # ~c_L
#    BR                NDA      ID1      ID2
     1.96661204E-03    2     1000022         4   # BR(~c_L -> chi^0_1 c)
     4.59275993E-03    2     1000023         4   # BR(~c_L -> chi^0_2 c)
     5.69234069E-02    2     1000035         4   # BR(~c_L -> chi^0_4 c)
     1.18660868E-02    2     1000024         3   # BR(~c_L -> chi^+_1 s)
     1.11403209E-01    2     1000037         3   # BR(~c_L -> chi^+_2 s)
     8.13159057E-01    2     1000021         4   # BR(~c_L -> ~g c)
DECAY   1000006     1.63085583E+02   # ~t_1
#    BR                NDA      ID1      ID2
     5.25564517E-02    2     1000022         6   # BR(~t_1 -> chi^0_1 t)
     2.19848188E-01    2     1000023         6   # BR(~t_1 -> chi^0_2 t)
     2.38783851E-01    2     1000025         6   # BR(~t_1 -> chi^0_3 t)
     1.41076745E-02    2     1000035         6   # BR(~t_1 -> chi^0_4 t)
     4.46100888E-01    2     1000024         5   # BR(~t_1 -> chi^+_1 b)
     2.85590658E-02    2     1000037         5   # BR(~t_1 -> chi^+_2 b)
#    BR                NDA      ID1      ID2       ID3
DECAY   2000006     2.49151104E+02   # ~t_2
#    BR                NDA      ID1      ID2
     2.91492571E-03    2     1000022         6   # BR(~t_2 -> chi^0_1 t)
     1.65905860E-01    2     1000023         6   # BR(~t_2 -> chi^0_2 t)
     1.81830189E-01    2     1000025         6   # BR(~t_2 -> chi^0_3 t)
     9.48955312E-02    2     1000035         6   # BR(~t_2 -> chi^0_4 t)
     2.26640674E-01    2     1000024         5   # BR(~t_2 -> chi^+_1 b)
     1.62050807E-01    2     1000037         5   # BR(~t_2 -> chi^+_2 b)
     1.13343663E-01    2     1000021         6   # BR(~t_2 -> ~g t)
     7.84019565E-04    2     1000005        24   # BR(~t_2 -> ~b_1 W^+)
     2.19320338E-02    2     1000006        23   # BR(~t_2 -> ~t_1 Z)
     2.97022962E-02    2     1000006        25   # BR(~t_2 -> ~t_1 h^0)
DECAY   1000024     2.99168768E-01   # chi^+_1
#    BR                NDA      ID1      ID2
     9.96350299E-01    2     1000022        24   # BR(chi^+_1 -> chi^0_1 W^+)
#    BR                NDA      ID1      ID2       ID3
     3.64965529E-03    3     1000022        -5         6   # BR(chi^+_1 -> chi^0_1 b_bar t)
DECAY   1000037     3.82713882E+00   # chi^+_2
#    BR                NDA      ID1      ID2
     1.23530173E-02    2     1000022        24   # BR(chi^+_2 -> chi^0_1 W^+)
     2.54298860E-01    2     1000023        24   # BR(chi^+_2 -> chi^0_2 W^+)
     3.18249232E-01    2     1000025        24   # BR(chi^+_2 -> chi^0_3 W^+)
     2.31672524E-01    2     1000024        23   # BR(chi^+_2 -> chi^+_1 Z)
     1.83245802E-01    2     1000024        25   # BR(chi^+_2 -> chi^+_1 h^0)
#    BR                NDA      ID1      ID2       ID3
     1.14517779E-04    3     1000022        -5         6   # BR(chi^+_2 -> chi^0_1 b_bar t)
DECAY   1000022     0.00000000E+00   # chi^0_1
DECAY   1000023     2.68444445E-01   # chi^0_2
#    BR                NDA      ID1      ID2
     5.70669635E-01    2     1000022        23   # BR(chi^0_2 -> chi^0_1 Z)
     4.28999539E-01    2     1000022        25   # BR(chi^0_2 -> chi^0_1 h^0)
#    BR                NDA      ID1      ID2       ID3
     3.25808280E-04    3     1000022         6        -6   # BR(chi^0_2 -> chi^0_1 t t_bar)
DECAY   1000025     3.10919881E-01   # chi^0_3
#    BR                NDA      ID1      ID2
     5.30532348E-01    2     1000022        23   # BR(chi^0_3 -> chi^0_1 Z)
     4.68877392E-01    2     1000022        25   # BR(chi^0_3 -> chi^0_1 h^0)
#    BR                NDA      ID1      ID2       ID3
     5.04685431E-04    3     1000022         6        -6   # BR(chi^0_3 -> chi^0_1 t t_bar)
DECAY   1000035     4.71996644E+00   # chi^0_4
#    BR                NDA      ID1      ID2
     2.04547092E-01    2     1000024       -24   # BR(chi^0_4 -> chi^+_1 W^-)
     2.04547092E-01    2    -1000024        24   # BR(chi^0_4 -> chi^-_1 W^+)
     4.90257258E-03    2     1000022        23   # BR(chi^0_4 -> chi^0_1 Z)
     7.84212115E-03    2     1000023        23   # BR(chi^0_4 -> chi^0_2 Z)
     2.59245511E-01    2     1000025        23   # BR(chi^0_4 -> chi^0_3 Z)
     4.30541251E-03    2     1000022        25   # BR(chi^0_4 -> chi^0_1 h^0)
     1.40386938E-01    2     1000023        25   # BR(chi^0_4 -> chi^0_2 h^0)
     1.74087296E-01    2     1000025        25   # BR(chi^0_4 -> chi^0_3 h^0)
#    BR                NDA      ID1      ID2       ID3
DECAY   1000021     5.04063250E+00   # ~g
#    BR                NDA      ID1      ID2
     4.06507640E-01    2     1000005        -5   # BR(~g -> ~b_1 b_bar)
     4.06507640E-01    2    -1000005         5   # BR(~g -> ~b^*_1 b)
     2.96854794E-04    2     1000023        21   # BR(~g -> chi^0_2 g)
     2.57364405E-04    2     1000025        21   # BR(~g -> chi^0_3 g)
#    BR                NDA      ID1      ID2       ID3
     5.04022012E-03    3     1000022         6        -6   # BR(~g -> chi^0_1 t t_bar)
     1.62361026E-04    3     1000022         5        -5   # BR(~g -> chi^0_1 b b_bar)
     3.27623778E-02    3     1000023         6        -6   # BR(~g -> chi^0_2 t t_bar)
     4.10290050E-03    3     1000023         5        -5   # BR(~g -> chi^0_2 b b_bar)
     3.62365051E-02    3     1000025         6        -6   # BR(~g -> chi^0_3 t t_bar)
     4.02777897E-03    3     1000025         5        -5   # BR(~g -> chi^0_3 b b_bar)
     6.52809651E-03    3     1000035         6        -6   # BR(~g -> chi^0_4 t t_bar)
     3.00545969E-03    3     1000035         5        -5   # BR(~g -> chi^0_4 b b_bar)
     3.72326143E-02    3     1000024         5        -6   # BR(~g -> chi^+_1 b t_bar)
     3.72326143E-02    3    -1000024        -5         6   # BR(~g -> chi^-_1 b_bar t)
     1.18119402E-04    3     1000037         1        -2   # BR(~g -> chi^+_2 d u_bar)
     1.18119402E-04    3    -1000037        -1         2   # BR(~g -> chi^-_2 d_bar u)
     1.18123689E-04    3     1000037         3        -4   # BR(~g -> chi^+_2 s c_bar)
     1.18123689E-04    3    -1000037        -3         4   # BR(~g -> chi^-_2 s_bar c)
     9.60319049E-03    3     1000037         5        -6   # BR(~g -> chi^+_2 b t_bar)
     9.60319049E-03    3    -1000037        -5         6   # BR(~g -> chi^-_2 b_bar t)
DECAY        25     3.80104204E-03   # Gamma(h0)
     2.34240269E-03   2        22        22   # BR(h0 -> photon photon)
     1.44623040E-03   2        22        23   # BR(h0 -> photon Z)
     2.61541813E-02   2        23        23   # BR(h0 -> Z Z)
     2.18681661E-01   2       -24        24   # BR(h0 -> W W)
     7.30377590E-02   2        21        21   # BR(h0 -> gluon gluon)
     5.21404398E-09   2       -11        11   # BR(h0 -> Electron electron)
     2.31929666E-04   2       -13        13   # BR(h0 -> Muon muon)
     6.68729636E-02   2       -15        15   # BR(h0 -> Tau tau)
     1.48427237E-07   2        -2         2   # BR(h0 -> Up up)
     2.88023618E-02   2        -4         4   # BR(h0 -> Charm charm)
     6.04118798E-07   2        -1         1   # BR(h0 -> Down down)
     2.18495811E-04   2        -3         3   # BR(h0 -> Strange strange)
     5.81368737E-01   2        -5         5   # BR(h0 -> Bottom bottom)
     8.42520060E-04   2   1000022   1000022   # BR(h0 -> neutralino1 neutralino1)
DECAY        35     1.76433710E+02   # Gamma(HH)
     2.57398217E-08   2        22        22   # BR(HH -> photon photon)
     5.84967890E-08   2        22        23   # BR(HH -> photon Z)
     3.86163014E-08   2        23        23   # BR(HH -> Z Z)
     8.02099037E-09   2       -24        24   # BR(HH -> W W)
     4.44663515E-06   2        21        21   # BR(HH -> gluon gluon)
     8.57730687E-09   2       -11        11   # BR(HH -> Electron electron)
     3.81934343E-04   2       -13        13   # BR(HH -> Muon muon)
     1.10312549E-01   2       -15        15   # BR(HH -> Tau tau)
     2.50448000E-14   2        -2         2   # BR(HH -> Up up)
     4.85899712E-09   2        -4         4   # BR(HH -> Charm charm)
     3.94764285E-04   2        -6         6   # BR(HH -> Top top)
     6.23472840E-07   2        -1         1   # BR(HH -> Down down)
     2.25508693E-04   2        -3         3   # BR(HH -> Strange strange)
     6.02540827E-01   2        -5         5   # BR(HH -> Bottom bottom)
     2.24042652E-02   2  -1000024   1000024   # BR(HH -> Chargino1 chargino1)
     7.01075360E-02   2  -1000024   1000037   # BR(HH -> Chargino1 chargino2)
     7.01075360E-02   2  -1000037   1000024   # BR(HH -> Chargino2 chargino1)
     1.07432051E-02   2  -1000037   1000037   # BR(HH -> Chargino2 chargino2)
     4.06913348E-04   2   1000022   1000022   # BR(HH -> neutralino1 neutralino1)
     1.43025771E-02   2   1000022   1000023   # BR(HH -> neutralino1 neutralino2)
     1.17564269E-02   2   1000022   1000025   # BR(HH -> neutralino1 neutralino3)
     3.98863262E-05   2   1000022   1000035   # BR(HH -> neutralino1 neutralino4)
     6.85572760E-03   2   1000023   1000023   # BR(HH -> neutralino2 neutralino2)
     1.74000110E-03   2   1000023   1000025   # BR(HH -> neutralino2 neutralino3)
     3.07296676E-02   2   1000023   1000035   # BR(HH -> neutralino2 neutralino4)
     5.81858248E-04   2   1000025   1000025   # BR(HH -> neutralino3 neutralino3)
     4.07731442E-02   2   1000025   1000035   # BR(HH -> neutralino3 neutralino4)
     5.59003464E-03   2   1000035   1000035   # BR(HH -> neutralino4 neutralino4)
     4.23273669E-07   2        25        25   # BR(HH -> h0 h0)
DECAY        36     1.65601931E+02   # Gamma(A0)
     6.80643894E-10   2        22        22   # BR(A0 -> photon photon)
     1.54662499E-08   2        22        23   # BR(A0 -> photon Z)
     7.53890190E-06   2        21        21   # BR(A0 -> gluon gluon)
     8.35028782E-09   2       -11        11   # BR(A0 -> Electron electron)
     3.71827285E-04   2       -13        13   # BR(A0 -> Muon muon)
     1.07393470E-01   2       -15        15   # BR(A0 -> Tau tau)
     2.31797398E-14   2        -2         2   # BR(A0 -> Up up)
     4.49707360E-09   2        -4         4   # BR(A0 -> Charm charm)
     3.69018167E-04   2        -6         6   # BR(A0 -> Top top)
     6.06936255E-07   2        -1         1   # BR(A0 -> Down down)
     2.19526817E-04   2        -3         3   # BR(A0 -> Strange strange)
     5.86576204E-01   2        -5         5   # BR(A0 -> Bottom bottom)
     2.38452646E-02   2  -1000024   1000024   # BR(A0 -> Chargino1 chargino1)
     7.47839665E-02   2  -1000024   1000037   # BR(A0 -> Chargino1 chargino2)
     7.47839665E-02   2  -1000037   1000024   # BR(A0 -> Chargino2 chargino1)
     1.14153028E-02   2  -1000037   1000037   # BR(A0 -> Chargino2 chargino2)
     4.34409981E-04   2   1000022   1000022   # BR(A0 -> neutralino1 neutralino1)
     1.41695708E-02   2   1000022   1000023   # BR(A0 -> neutralino1 neutralino2)
     1.36287667E-02   2   1000022   1000025   # BR(A0 -> neutralino1 neutralino3)
     2.27290067E-05   2   1000022   1000035   # BR(A0 -> neutralino1 neutralino4)
     7.14615533E-03   2   1000023   1000023   # BR(A0 -> neutralino2 neutralino2)
     2.02664179E-03   2   1000023   1000025   # BR(A0 -> neutralino2 neutralino3)
     3.28691950E-02   2   1000023   1000035   # BR(A0 -> neutralino2 neutralino4)
     7.16317894E-04   2   1000025   1000025   # BR(A0 -> neutralino3 neutralino3)
     4.32568329E-02   2   1000025   1000035   # BR(A0 -> neutralino3 neutralino4)
     5.96257073E-03   2   1000035   1000035   # BR(A0 -> neutralino4 neutralino4)
     8.82808884E-08   2        23        25   # BR(A0 -> Z h0)
     4.86155654E-13   2        23        35   # BR(A0 -> Z HH)
     7.52592779E-41   2        25        25   # BR(A0 -> h0 h0)
DECAY        37     1.75197413E+02   # Gamma(Hp)
     9.23101685E-09   2       -11        12   # BR(Hp -> Electron nu_e)
     3.94654801E-04   2       -13        14   # BR(Hp -> Muon nu_mu)
     1.11630855E-01   2       -15        16   # BR(Hp -> Tau nu_tau)
     5.78100741E-07   2        -1         2   # BR(Hp -> Down up)
     9.79020627E-06   2        -3         2   # BR(Hp -> Strange up)
     6.34207912E-06   2        -5         2   # BR(Hp -> Bottom up)
     2.73074846E-08   2        -1         4   # BR(Hp -> Down charm)
     2.08327798E-04   2        -3         4   # BR(Hp -> Strange charm)
     8.88118136E-04   2        -5         4   # BR(Hp -> Bottom charm)
     2.40476459E-08   2        -1         6   # BR(Hp -> Down top)
     8.34746411E-07   2        -3         6   # BR(Hp -> Strange top)
     5.98937583E-01   2        -5         6   # BR(Hp -> Bottom top)
     2.76257016E-02   2   1000022   1000024   # BR(Hp -> neutralino1 chargino1)
     6.34571389E-05   2   1000022   1000037   # BR(Hp -> neutralino1 chargino2)
     4.97153541E-04   2   1000023   1000024   # BR(Hp -> neutralino2 chargino1)
     9.10324695E-02   2   1000023   1000037   # BR(Hp -> neutralino2 chargino2)
     7.32984972E-03   2   1000024   1000025   # BR(Hp -> chargino1 neutralino3)
     7.84006141E-02   2   1000025   1000037   # BR(Hp -> neutralino3 chargino2)
     8.29714808E-02   2   1000024   1000035   # BR(Hp -> chargino1 neutralino4)
     2.04611054E-06   2   1000035   1000037   # BR(Hp -> neutralino4 chargino2)
     8.33073931E-08   2        24        25   # BR(Hp -> W h0)
DECAY         6     2.43000000E+00   # top
#    BR                NDA      ID1      ID2
     1.00000000E+00    2           5        24   # BR(t -> b W)
Block HiggsBoundsInputHiggsCouplingsFermions
# ScalarNormEffCoupSq PseudoSNormEffCoupSq NP IP1 IP2 IP2
    9.77065399E-01    0.00000000E+00        3  25   5   5  # h0-b-b eff. coupling^2, normalised to SM
    2.34874112E+03    0.00000000E+00        3  35   5   5  # H0-b-b eff. coupling^2, normalised to SM
    0.00000000E+00    2.34871819E+03        3  36   5   5  # A0-b-b eff. coupling^2, normalised to SM
#
    1.00000976E+00    0.00000000E+00        3  25   6   6  # h0-t-t eff. coupling^2, normalised to SM
    4.15999418E-04    0.00000000E+00        3  35   6   6  # H0-t-t eff. coupling^2, normalised to SM
    0.00000000E+00    4.25764149E-04        3  36   6   6  # A0-t-t eff. coupling^2, normalised to SM
#
    9.77065399E-01    0.00000000E+00        3  25  15  15  # h0-tau-tau eff. coupling^2, normalised to SM
    2.34874112E+03    0.00000000E+00        3  35  15  15  # H0-tau-tau eff. coupling^2, normalised to SM
    0.00000000E+00    2.34871819E+03        3  36  15  15  # A0-tau-tau eff. coupling^2, normalised to SM
#
Block HiggsBoundsInputHiggsCouplingsBosons
    9.99999943E-01        3  25  24  24  # h0-W-W eff. coupling^2, normalised to SM
    5.66386511E-08        3  35  24  24  # H0-W-W eff. coupling^2, normalised to SM
    0.00000000E+00        3  36  24  24  # A0-W-W eff. coupling^2, normalised to SM
#
    9.99999943E-01        3  25  23  23  # h0-Z-Z eff. coupling^2, normalised to SM
    5.66386511E-08        3  35  23  23  # H0-Z-Z eff. coupling^2, normalised to SM
    0.00000000E+00        3  36  23  23  # A0-Z-Z eff. coupling^2, normalised to SM
#
    1.26705033E+00        3  25  21  21  # h0-g-g eff. coupling^2, normalised to SM
    1.00393972E-02        3  35  21  21  # H0-g-g eff. coupling^2, normalised to SM
    1.31777345E-01        3  36  21  21  # A0-g-g eff. coupling^2, normalised to SM
#
    0.00000000E+00        3  25  25  23  # h0-h0-Z eff. coupling^2, normalised to SM
    0.00000000E+00        3  35  25  23  # H0-h0-Z eff. coupling^2, normalised to SM
    5.66386511E-08        3  36  25  23  # A0-h0-Z eff. coupling^2, normalised to SM
    0.00000000E+00        3  35  35  23  # H0-H0-Z eff. coupling^2, normalised to SM
    9.99999943E-01        3  36  35  23  # A0-H0-Z eff. coupling^2, normalised to SM
    0.00000000E+00        3  36  36  23  # A0-A0-Z eff. coupling^2, normalised to SM
#
    0.00000000E+00        4  25  21  21  23  # h0-g-g-Z eff. coupling^2, normalised to SM
    0.00000000E+00        4  35  21  21  23  # H0-g-g-Z eff. coupling^2, normalised to SM
    0.00000000E+00        4  36  21  21  23  # A0-g-g-Z eff. coupling^2, normalised to SM
Block SPhenoLowEnergy  # low energy observables
    1    3.33616850E-04   # BR(b -> s gamma)
    2    1.58879044E-06   # BR(b -> s mu+ mu-)
    3    3.52510566E-05   # BR(b -> s nu nu)
    4    1.75634876E-15   # BR(Bd -> e+ e-)
    5    7.50300594E-11   # BR(Bd -> mu+ mu-)
    6    1.57554154E-08   # BR(Bd -> tau+ tau-)
    7    5.98392456E-14   # BR(Bs -> e+ e-)
    8    2.55635982E-09   # BR(Bs -> mu+ mu-)
    9    5.43945634E-07   # BR(Bs -> tau+ tau-)
   10    9.59610953E-05   # BR(B_u -> tau nu)
   11    9.91241376E-01   # BR(B_u -> tau nu)/BR(B_u -> tau nu)_SM
   12    5.41966564E-01   # |Delta(M_Bd)| [ps^-1] 
   13    1.93565111E+01   # |Delta(M_Bs)| [ps^-1] 
   14    0.00000000E+00   # neutron EDM according to the chiral quark model
   15    0.00000000E+00   # neutron EDM according to the relativistic quark-parton model
   16    2.15740540E-03   # epsilon_K
   17    2.28165997E-15   # Delta(M_K)
   18    2.47980330E-11   # BR(K^0 -> pi^0 nu nu)
   19    8.29007041E-11   # BR(K^+ -> pi^+ nu nu)
   20   -4.04823119E-16   # Delta(g-2)_electron/2
   21   -1.73077280E-11   # Delta(g-2)_muon/2
   22   -4.91671109E-09   # Delta(g-2)_tau/2
   23    0.00000000E+00   # electric dipole moment of the electron
   24    0.00000000E+00   # electric dipole moment of the muon
   25    0.00000000E+00   # electric dipole moment of the tau
   26    0.00000000E+00   # Br(mu -> e gamma)
   27    0.00000000E+00   # Br(tau -> e gamma)
   28    0.00000000E+00   # Br(tau -> mu gamma)
   29    0.00000000E+00   # Br(mu -> 3 e)
   30    0.00000000E+00   # Br(tau -> 3 e)
   31    0.00000000E+00   # Br(tau -> 3 mu)
   39    6.91118746E-05   # Delta(rho_parameter)
   40    0.00000000E+00   # BR(Z -> e mu)
   41    0.00000000E+00   # BR(Z -> e tau)
   42    0.00000000E+00   # BR(Z -> mu tau)
Block FWCOEF Q=  1.60000000E+02  # Wilson coefficients at scale Q
#    id        order  M        value         comment
     0305 4422   00   0    -1.88819110E-01   # C7
     0305 4422   00   2    -2.04510517E-01   # C7
     0305 4322   00   2    -1.77388271E-04   # C7'
     0305 6421   00   0    -9.52278348E-02   # C8
     0305 6421   00   2    -1.05028821E-01   # C8
     0305 6321   00   2    -1.29300090E-04   # C8'
 03051111 4133   00   0     1.62951751E+00   # C9 e+e-
 03051111 4133   00   2     1.62976296E+00   # C9 e+e-
 03051111 4233   00   2     5.14712278E-04   # C9' e+e-
 03051111 4137   00   0    -4.45220961E+00   # C10 e+e-
 03051111 4137   00   2    -4.45052789E+00   # C10 e+e-
 03051111 4237   00   2    -3.79359122E-03   # C10' e+e-
 03051313 4133   00   0     1.62951751E+00   # C9 mu+mu-
 03051313 4133   00   2     1.62976274E+00   # C9 mu+mu-
 03051313 4233   00   2     5.14711857E-04   # C9' mu+mu-
 03051313 4137   00   0    -4.45220961E+00   # C10 mu+mu-
 03051313 4137   00   2    -4.45052810E+00   # C10 mu+mu-
 03051313 4237   00   2    -3.79359159E-03   # C10' mu+mu-
 03051212 4137   00   0     1.50535012E+00   # C11 nu_1 nu_1
 03051212 4137   00   2     1.50498813E+00   # C11 nu_1 nu_1
 03051212 4237   00   2     8.19795173E-04   # C11' nu_1 nu_1
 03051414 4137   00   0     1.50535012E+00   # C11 nu_2 nu_2
 03051414 4137   00   2     1.50498813E+00   # C11 nu_2 nu_2
 03051414 4237   00   2     8.19795221E-04   # C11' nu_2 nu_2
 03051616 4137   00   0     1.50535012E+00   # C11 nu_3 nu_3
 03051616 4137   00   2     1.50498813E+00   # C11 nu_3 nu_3
 03051616 4237   00   2     8.19808798E-04   # C11' nu_3 nu_3
Block IMFWCOEF Q=  1.60000000E+02  # Im(Wilson coefficients) at scale Q
#    id        order  M        value         comment
     0305 4422   00   0     3.85802669E-07   # C7
     0305 4422   00   2    -1.11597762E-05   # C7
     0305 4322   00   2    -1.71585798E-06   # C7'
     0305 6421   00   0     3.30465501E-07   # C8
     0305 6421   00   2     1.07055479E-05   # C8
     0305 6321   00   2    -3.98437815E-07   # C8'
 03051111 4133   00   2     4.45811256E-07   # C9 e+e-
 03051111 4233   00   2     9.85997346E-06   # C9' e+e-
 03051111 4137   00   2     2.11581573E-07   # C10 e+e-
 03051111 4237   00   2    -7.26739015E-05   # C10' e+e-
 03051313 4133   00   2     4.45806017E-07   # C9 mu+mu-
 03051313 4233   00   2     9.85996996E-06   # C9' mu+mu-
 03051313 4137   00   2     2.11586806E-07   # C10 mu+mu-
 03051313 4237   00   2    -7.26739120E-05   # C10' mu+mu-
 03051212 4137   00   2    -2.02647651E-08   # C11 nu_1 nu_1
 03051212 4237   00   2     1.57048334E-05   # C11' nu_1 nu_1
 03051414 4137   00   2    -2.02645054E-08   # C11 nu_2 nu_2
 03051414 4237   00   2     1.57048334E-05   # C11' nu_2 nu_2
 03051616 4137   00   2    -2.01924696E-08   # C11 nu_3 nu_3
 03051616 4237   00   2     1.57048334E-05   # C11' nu_3 nu_3
