# SUSY Les Houches Accord 2 - MSSM spectrum + Decays
# SPheno v4.0.5be
# W. Porod, Comput. Phys. Commun. 153 (2003) 275-315, hep-ph/0301101;
# W. Porod, F.~Staub, Comput. Phys. Commun. 183 (2012) 2458
#                     arXiv:1104.1573 [hep-ph] 
# in case of problems send email to porod@physik.uni-wuerzburg.de
# Created: 20.12.2022,  13:46
Block SPINFO         # Program information
     1   SPheno      # spectrum calculator
     2   v4.0.5be    # version number
#
Block SPhenoINFO     # SPheno specific information
    1      2         # using 2-loop RGEs
    2      2         # using pole masses for boundary conditions at mZ
Block MODSEL  # Model selection
    1    0    # general MSSM
Block MINPAR  # Input parameters
    3    5.89703547E+01  # tanb at m_Z    
    4    1.00000000E+00  # Sign(mu)
Block EXTPAR  # non-universal input parameters
    0    2.70688225E+03  # scale for input parameters
    1    1.93767784E+02  # M_1
    2    2.80784267E+02  # M_2
    3    4.11247130E+03  # M_3
   11   -1.63034424E+03  # A_t
   12   -1.12959560E+02  # A_b
   13    6.35522803E+01  # A_tau
   23    5.23323826E+02  # mu
   25    5.87997236E+01  # tan(beta)
   26    3.32629106E+03  # m_A, pole mass
   31    1.00000000E+04  # M_L11
   32    1.00000000E+04  # M_L22
   33    1.00000000E+04  # M_L33
   34    1.00000000E+04  # M_E11
   35    1.00000000E+04  # M_E22
   36    1.00000000E+04  # M_E33
   41    1.00000000E+04  # M_Q11
   42    1.00000000E+04  # M_Q22
   43    3.48100358E+03  # M_Q33
   44    1.00000000E+04  # M_U11
   45    1.00000000E+04  # M_U22
   46    2.00792984E+03  # M_U33
   47    1.00000000E+04  # M_D11
   48    1.00000000E+04  # M_D22
   49    2.36580545E+03  # M_D33
Block SMINPUTS  # SM parameters
         1     1.27908970E+02  # alpha_em^-1(MZ)^MSbar
         2     1.16637870E-05  # G_mu [GeV^-2]
         3     1.18400000E-01  # alpha_s(MZ)^MSbar
         4     9.11876000E+01  # m_Z(pole)
         5     4.18000000E+00  # m_b(m_b), MSbar
         6     1.73200000E+02  # m_t(pole)
         7     1.77700000E+00  # m_tau(pole)
         8     0.00000000E+00  # m_nu_3
        11     5.10998930E-04  # m_e(pole)
        12     0.00000000E+00  # m_nu_1
        13     1.05658372E-01  # m_muon(pole)
        14     0.00000000E+00  # m_nu_2
        21     5.00000000E-03  # m_d(2 GeV), MSbar
        22     2.50000000E-03  # m_u(2 GeV), MSbar
        23     9.50000000E-02  # m_s(2 GeV), MSbar
        24     1.27000000E+00  # m_c(m_c), MSbar
Block gauge Q=  2.70688225E+03  # (SUSY scale)
   1    3.55362975E-01  # g'(Q)^DRbar
   2    6.65198874E-01  # g(Q)^DRbar
   3    1.21977796E+00  # g3(Q)^DRbar
Block Yu Q=  2.70688225E+03  # (SUSY scale)
  1  1     8.38558457E-06   # Y_u(Q)^DRbar
  2  2     4.25987696E-03   # Y_c(Q)^DRbar
  3  3     1.01304597E+00   # Y_t(Q)^DRbar
Block Yd Q=  2.70688225E+03  # (SUSY scale)
  1  1     9.90806564E-04   # Y_d(Q)^DRbar
  2  2     1.88253247E-02   # Y_s(Q)^DRbar
  3  3     9.82569638E-01   # Y_b(Q)^DRbar
Block Ye Q=  2.70688225E+03  # (SUSY scale)
  1  1     1.72902991E-04   # Y_e(Q)^DRbar
  2  2     3.57508548E-02   # Y_mu(Q)^DRbar
  3  3     6.01270564E-01   # Y_tau(Q)^DRbar
Block Au Q=  2.70688225E+03  # (SUSY scale)
  1  1     0.00000000E+00   # A_u(Q)^DRbar
  2  2     0.00000000E+00   # A_c(Q)^DRbar
  3  3    -1.63034463E+03   # A_t(Q)^DRbar
Block Ad Q=  2.70688225E+03  # (SUSY scale)
  1  1     0.00000000E+00   # A_d(Q)^DRbar
  2  2     0.00000000E+00   # A_s(Q)^DRbar
  3  3    -1.12959523E+02   # A_b(Q)^DRbar
Block Ae Q=  2.70688225E+03  # (SUSY scale)
  1  1     0.00000000E+00   # A_e(Q)^DRbar
  2  2     0.00000000E+00   # A_mu(Q)^DRbar
  3  3     6.35522756E+01   # A_tau(Q)^DRbar
Block MSOFT Q=  2.70688225E+03  # soft SUSY breaking masses at Q
   1    1.93767784E+02  # M_1
   2    2.80784267E+02  # M_2
   3    4.11247130E+03  # M_3
  21    1.02944989E+07  # M^2_(H,d)
  22   -1.47911652E+05  # M^2_(H,u)
  31    1.00000000E+04  # M_(L,11)
  32    1.00000000E+04  # M_(L,22)
  33    1.00000000E+04  # M_(L,33)
  34    1.00000000E+04  # M_(E,11)
  35    1.00000000E+04  # M_(E,22)
  36    1.00000000E+04  # M_(E,33)
  41    1.00000000E+04  # M_(Q,11)
  42    1.00000000E+04  # M_(Q,22)
  43    3.48100358E+03  # M_(Q,33)
  44    1.00000000E+04  # M_(U,11)
  45    1.00000000E+04  # M_(U,22)
  46    2.00792984E+03  # M_(U,33)
  47    1.00000000E+04  # M_(D,11)
  48    1.00000000E+04  # M_(D,22)
  49    2.36580545E+03  # M_(D,33)
Block MASS  # Mass spectrum
#   PDG code      mass          particle
         6     1.73200000E+02  # m_t(pole)
        23     9.11876000E+01  # m_Z(pole)
        24     8.04299946E+01  # W+
        15     1.77700000E+00  # m_tau(pole)
        25     1.21144622E+02  # h0
        35     3.32307814E+03  # H0
        36     3.32629106E+03  # A0
        37     3.32531777E+03  # H+
   1000001     1.00782869E+04  # ~d_L
   2000001     1.00540434E+04  # ~d_R
   1000002     1.00780404E+04  # ~u_L
   2000002     1.00571287E+04  # ~u_R
   1000003     1.00783067E+04  # ~s_L
   2000003     1.00540792E+04  # ~s_R
   1000004     1.00780598E+04  # ~c_L
   2000004     1.00571307E+04  # ~c_R
   1000005     2.42372416E+03  # ~b_1
   2000005     3.54853287E+03  # ~b_2
   1000006     2.06291247E+03  # ~t_1
   2000006     3.55187707E+03  # ~t_2
   1000011     1.00214453E+04  # ~e_L-
   2000011     1.00087899E+04  # ~e_R-
   1000012     1.00206750E+04  # ~nu_eL
   1000013     1.00215425E+04  # ~mu_L-
   2000013     1.00089732E+04  # ~mu_R-
   1000014     1.00207700E+04  # ~nu_muL
   1000015     1.00478437E+04  # ~tau_1-
   2000015     1.00618643E+04  # ~tau_2-
   1000016     1.00476725E+04  # ~nu_tauL
   1000021     4.50612788E+03  # ~g
   1000022     1.94034888E+02  # ~chi_10
   1000023     3.00410433E+02  # ~chi_20
   1000025     5.36125544E+02  # ~chi_30
   1000035     5.48301637E+02  # ~chi_40
   1000024     3.00388828E+02  # ~chi_1+
   1000037     5.48924108E+02  # ~chi_2+
# Higgs mixing
Block alpha # Effective Higgs mixing angle
          -1.69940596E-02   # alpha
Block Hmix Q=  2.70688225E+03  # Higgs mixing parameters
   1    5.23323826E+02  # mu
   2    5.87997236E+01  # tan[beta](Q)
   3    2.43372633E+02  # v(Q)
   4    1.10642122E+07  # m^2_A(Q)
Block stopmix # stop mixing matrix
   1  1     2.88197283E-02   # Re[R_st(1,1)]
   1  2     9.99584625E-01   # Re[R_st(1,2)]
   2  1    -9.99584625E-01   # Re[R_st(2,1)]
   2  2     2.88197283E-02   # Re[R_st(2,2)]
Block sbotmix # sbottom mixing matrix
   1  1     1.00649294E-02   # Re[R_sb(1,1)]
   1  2     9.99949347E-01   # Re[R_sb(1,2)]
   2  1    -9.99949347E-01   # Re[R_sb(2,1)]
   2  2     1.00649294E-02   # Re[R_sb(2,2)]
Block staumix # stau mixing matrix
   1  1     9.80100046E-01   # Re[R_sta(1,1)]
   1  2     1.98504154E-01   # Re[R_sta(1,2)]
   2  1    -1.98504154E-01   # Re[R_sta(2,1)]
   2  2     9.80100046E-01   # Re[R_sta(2,2)]
Block Nmix # neutralino mixing matrix
   1  1    -9.93491486E-01   # Re[N(1,1)]
   1  2     2.80670530E-02   # Re[N(1,2)]
   1  3    -1.03108790E-01   # Re[N(1,3)]
   1  4     3.94396322E-02   # Re[N(1,4)]
   2  1    -5.38569355E-02   # Re[N(2,1)]
   2  2    -9.68984763E-01   # Re[N(2,2)]
   2  3     2.09381077E-01   # Re[N(2,3)]
   2  4    -1.19697636E-01   # Re[N(2,4)]
   3  1    -4.28025881E-02   # Re[N(3,1)]
   3  2     6.64506531E-02   # Re[N(3,2)]
   3  3     7.01445653E-01   # Re[N(3,3)]
   3  4     7.08326369E-01   # Re[N(3,4)]
   4  1    -9.07856571E-02   # Re[N(4,1)]
   4  2     2.36357949E-01   # Re[N(4,2)]
   4  3     6.73425674E-01   # Re[N(4,3)]
   4  4    -6.94543553E-01   # Re[N(4,4)]
Block Umix # chargino mixing matrix
   1  1    -9.53546057E-01   # Re[U(1,1)]
   1  2     3.01247269E-01   # Re[U(1,2)]
   2  1     3.01247269E-01   # Re[U(2,1)]
   2  2     9.53546057E-01   # Re[U(2,2)]
Block Vmix # chargino mixing matrix
   1  1    -9.84997611E-01   # Re[V(1,1)]
   1  2     1.72567978E-01   # Re[V(1,2)]
   2  1     1.72567978E-01   # Re[V(2,1)]
   2  2     9.84997611E-01   # Re[V(2,2)]
DECAY        23     2.49520000E+00   # Z
DECAY        24     2.08500000E+00   # W
DECAY   2000011     5.02499459E+01   # ~e^-_R
#    BR                NDA      ID1      ID2
     9.87079795E-01    2     1000022        11   # BR(~e^-_R -> chi^0_1 e^-)
     2.89768835E-03    2     1000023        11   # BR(~e^-_R -> chi^0_2 e^-)
     1.82309183E-03    2     1000025        11   # BR(~e^-_R -> chi^0_3 e^-)
     8.19930734E-03    2     1000035        11   # BR(~e^-_R -> chi^0_4 e^-)
DECAY   1000011     1.44628387E+02   # ~e^-_L
#    BR                NDA      ID1      ID2
     7.70072582E-02    2     1000022        11   # BR(~e^-_L -> chi^0_1 e^-)
     3.03073542E-01    2     1000023        11   # BR(~e^-_L -> chi^0_2 e^-)
     5.76066150E-04    2     1000025        11   # BR(~e^-_L -> chi^0_3 e^-)
     1.06988684E-02    2     1000035        11   # BR(~e^-_L -> chi^0_4 e^-)
     5.53621012E-01    2    -1000024        12   # BR(~e^-_L -> chi^-_1 nu_e)
     5.50232540E-02    2    -1000037        12   # BR(~e^-_L -> chi^-_2 nu_e)
#    BR                NDA      ID1      ID2       ID3
DECAY   2000013     5.07569990E+01   # ~mu^-_R
#    BR                NDA      ID1      ID2
     9.77290233E-01    2     1000022        13   # BR(~mu^-_R -> chi^0_1 mu^-)
     3.08821586E-03    2     1000023        13   # BR(~mu^-_R -> chi^0_2 mu^-)
     4.25781176E-03    2     1000025        13   # BR(~mu^-_R -> chi^0_3 mu^-)
     1.03778018E-02    2     1000035        13   # BR(~mu^-_R -> chi^0_4 mu^-)
     4.54213591E-04    2    -1000024        14   # BR(~mu^-_R -> chi^-_1 nu_mu)
     4.53172434E-03    2    -1000037        14   # BR(~mu^-_R -> chi^-_2 nu_mu)
DECAY   1000013     1.44883183E+02   # ~mu^-_L
#    BR                NDA      ID1      ID2
     7.68912629E-02    2     1000022        13   # BR(~mu^-_L -> chi^0_1 mu^-)
     3.02620453E-01    2     1000023        13   # BR(~mu^-_L -> chi^0_2 mu^-)
     1.43547548E-03    2     1000025        13   # BR(~mu^-_L -> chi^0_3 mu^-)
     1.14730033E-02    2     1000035        13   # BR(~mu^-_L -> chi^0_4 mu^-)
     5.52652777E-01    2    -1000024        14   # BR(~mu^-_L -> chi^-_1 nu_mu)
     5.49270276E-02    2    -1000037        14   # BR(~mu^-_L -> chi^-_2 nu_mu)
#    BR                NDA      ID1      ID2       ID3
DECAY   1000015     2.16041779E+02   # ~tau^-_1
#    BR                NDA      ID1      ID2
     6.81500572E-02    2     1000022        15   # BR(~tau^-_1 -> chi^0_1 tau^-)
     2.30085417E-01    2     1000023        15   # BR(~tau^-_1 -> chi^0_2 tau^-)
     1.57694625E-01    2     1000025        15   # BR(~tau^-_1 -> chi^0_3 tau^-)
     1.38355052E-01    2     1000035        15   # BR(~tau^-_1 -> chi^0_4 tau^-)
     3.99440933E-01    2    -1000024        16   # BR(~tau^-_1 -> chi^-_1 nu_tau)
     6.27391568E-03    2    -1000037        16   # BR(~tau^-_1 -> chi^-_2 nu_tau)
#    BR                NDA      ID1      ID2       ID3
DECAY   2000015     1.95282771E+02   # ~tau^-_2
#    BR                NDA      ID1      ID2
     2.44979494E-01    2     1000022        15   # BR(~tau^-_2 -> chi^0_1 tau^-)
     3.65082561E-03    2     1000023        15   # BR(~tau^-_2 -> chi^0_2 tau^-)
     1.88800938E-01    2     1000025        15   # BR(~tau^-_2 -> chi^0_3 tau^-)
     1.90927029E-01    2     1000035        15   # BR(~tau^-_2 -> chi^0_4 tau^-)
     2.72606834E-03    2    -1000024        16   # BR(~tau^-_2 -> chi^-_1 nu_tau)
     3.68915644E-01    2    -1000037        16   # BR(~tau^-_2 -> chi^-_2 nu_tau)
#    BR                NDA      ID1      ID2       ID3
DECAY   1000012     1.44633036E+02   # ~nu_e
#    BR                NDA      ID1      ID2
     9.51560400E-02    2     1000022        12   # BR(~nu_e -> chi^0_1 nu_e)
     2.69094240E-01    2     1000023        12   # BR(~nu_e -> chi^0_2 nu_e)
     2.41884427E-03    2     1000025        12   # BR(~nu_e -> chi^0_3 nu_e)
     2.45970827E-02    2     1000035        12   # BR(~nu_e -> chi^0_4 nu_e)
     5.90679786E-01    2     1000024        11   # BR(~nu_e -> chi^+_1 e^-)
     1.80540069E-02    2     1000037        11   # BR(~nu_e -> chi^+_2 e^-)
#    BR                NDA      ID1      ID2       ID3
DECAY   1000014     1.44887779E+02   # ~nu_mu
#    BR                NDA      ID1      ID2
     9.49896375E-02    2     1000022        14   # BR(~nu_mu -> chi^0_1 nu_mu)
     2.68623671E-01    2     1000023        14   # BR(~nu_mu -> chi^0_2 nu_mu)
     2.41461458E-03    2     1000025        14   # BR(~nu_mu -> chi^0_3 nu_mu)
     2.45540714E-02    2     1000035        14   # BR(~nu_mu -> chi^0_4 nu_mu)
     5.89806148E-01    2     1000024        13   # BR(~nu_mu -> chi^+_1 mu^-)
     1.96118569E-02    2     1000037        13   # BR(~nu_mu -> chi^+_2 mu^-)
#    BR                NDA      ID1      ID2       ID3
DECAY   1000016     2.16887046E+02   # ~nu_tau
#    BR                NDA      ID1      ID2
     6.36268602E-02    2     1000022        16   # BR(~nu_tau -> chi^0_1 nu_tau)
     1.79933066E-01    2     1000023        16   # BR(~nu_tau -> chi^0_2 nu_tau)
     1.61742322E-03    2     1000025        16   # BR(~nu_tau -> chi^0_3 nu_tau)
     1.64475033E-02    2     1000035        16   # BR(~nu_tau -> chi^0_4 nu_tau)
     4.25146354E-01    2     1000024        15   # BR(~nu_tau -> chi^+_1 tau^-)
     3.13228793E-01    2     1000037        15   # BR(~nu_tau -> chi^+_2 tau^-)
DECAY   2000001     5.12402252E+02   # ~d_R
#    BR                NDA      ID1      ID2
     1.08042991E-02    2     1000022         1   # BR(~d_R -> chi^0_1 d)
     9.89053519E-01    2     1000021         1   # BR(~d_R -> ~g d)
DECAY   1000001     6.43446666E+02   # ~d_L
#    BR                NDA      ID1      ID2
     2.89458019E-03    2     1000022         1   # BR(~d_L -> chi^0_1 d)
     6.33431372E-02    2     1000023         1   # BR(~d_L -> chi^0_2 d)
     3.76274326E-04    2     1000025         1   # BR(~d_L -> chi^0_3 d)
     4.37042126E-03    2     1000035         1   # BR(~d_L -> chi^0_4 d)
     1.25146496E-01    2    -1000024         2   # BR(~d_L -> chi^-_1 u)
     1.24386434E-02    2    -1000037         2   # BR(~d_L -> chi^-_2 u)
     7.91430447E-01    2     1000021         1   # BR(~d_L -> ~g d)
DECAY   2000003     5.12546481E+02   # ~s_R
#    BR                NDA      ID1      ID2
     1.08027623E-02    2     1000022         3   # BR(~s_R -> chi^0_1 s)
     1.52073518E-04    2     1000035         3   # BR(~s_R -> chi^0_4 s)
     1.25001284E-04    2    -1000037         4   # BR(~s_R -> chi^-_2 c)
     9.88782262E-01    2     1000021         3   # BR(~s_R -> ~g s)
DECAY   1000003     6.43523016E+02   # ~s_L
#    BR                NDA      ID1      ID2
     2.89541214E-03    2     1000022         3   # BR(~s_L -> chi^0_1 s)
     6.33405641E-02    2     1000023         3   # BR(~s_L -> chi^0_2 s)
     4.30102796E-04    2     1000025         3   # BR(~s_L -> chi^0_3 s)
     4.41955450E-03    2     1000035         3   # BR(~s_L -> chi^0_4 s)
     1.25132056E-01    2    -1000024         4   # BR(~s_L -> chi^-_1 c)
     1.24426528E-02    2    -1000037         4   # BR(~s_L -> chi^-_2 c)
     7.91339658E-01    2     1000021         3   # BR(~s_L -> ~g s)
DECAY   1000005     8.52389740E+01   # ~b_1
#    BR                NDA      ID1      ID2
     2.14932824E-02    2     1000022         5   # BR(~b_1 -> chi^0_1 b)
     2.42738172E-02    2     1000023         5   # BR(~b_1 -> chi^0_2 b)
     2.42787812E-01    2     1000025         5   # BR(~b_1 -> chi^0_3 b)
     2.22185742E-01    2     1000035         5   # BR(~b_1 -> chi^0_4 b)
     4.96047000E-02    2    -1000024         6   # BR(~b_1 -> chi^-_1 t)
     4.39654461E-01    2    -1000037         6   # BR(~b_1 -> chi^-_2 t)
DECAY   2000005     1.88500033E+02   # ~b_2
#    BR                NDA      ID1      ID2
     7.08199184E-03    2     1000022         5   # BR(~b_2 -> chi^0_1 b)
     9.01043109E-02    2     1000023         5   # BR(~b_2 -> chi^0_2 b)
     1.70523297E-01    2     1000025         5   # BR(~b_2 -> chi^0_3 b)
     1.61930401E-01    2     1000035         5   # BR(~b_2 -> chi^0_4 b)
     1.56958903E-01    2    -1000024         6   # BR(~b_2 -> chi^-_1 t)
     3.71392067E-01    2    -1000037         6   # BR(~b_2 -> chi^-_2 t)
     3.86853605E-02    2     1000006       -24   # BR(~b_2 -> ~t_1 W^-)
     1.22761066E-03    2     1000005        23   # BR(~b_2 -> ~b_1 Z)
     2.09605844E-03    2     1000005        25   # BR(~b_2 -> ~b_1 h^0)
DECAY   2000002     5.29546471E+02   # ~u_R
#    BR                NDA      ID1      ID2
     4.18308636E-02    2     1000022         2   # BR(~u_R -> chi^0_1 u)
     1.22800419E-04    2     1000023         2   # BR(~u_R -> chi^0_2 u)
     3.47488842E-04    2     1000035         2   # BR(~u_R -> chi^0_4 u)
     9.57621586E-01    2     1000021         2   # BR(~u_R -> ~g u)
DECAY   1000002     6.43443146E+02   # ~u_L
#    BR                NDA      ID1      ID2
     1.52626571E-03    2     1000022         2   # BR(~u_L -> chi^0_1 u)
     6.59000005E-02    2     1000023         2   # BR(~u_L -> chi^0_2 u)
     2.37238525E-04    2     1000025         2   # BR(~u_L -> chi^0_3 u)
     3.32273015E-03    2     1000035         2   # BR(~u_L -> chi^0_4 u)
     1.33535736E-01    2     1000024         1   # BR(~u_L -> chi^+_1 d)
     4.08195540E-03    2     1000037         1   # BR(~u_L -> chi^+_2 d)
     7.91396073E-01    2     1000021         2   # BR(~u_L -> ~g u)
DECAY   2000004     5.29553865E+02   # ~c_R
#    BR                NDA      ID1      ID2
     4.18302966E-02    2     1000022         4   # BR(~c_R -> chi^0_1 c)
     1.22896840E-04    2     1000023         4   # BR(~c_R -> chi^0_2 c)
     3.50772841E-04    2     1000035         4   # BR(~c_R -> chi^0_4 c)
     9.57608538E-01    2     1000021         4   # BR(~c_R -> ~g c)
DECAY   1000004     6.43519416E+02   # ~c_L
#    BR                NDA      ID1      ID2
     1.52609653E-03    2     1000022         4   # BR(~c_L -> chi^0_1 c)
     6.58923944E-02    2     1000023         4   # BR(~c_L -> chi^0_2 c)
     2.40030699E-04    2     1000025         4   # BR(~c_L -> chi^0_3 c)
     3.32505679E-03    2     1000035         4   # BR(~c_L -> chi^0_4 c)
     1.33530139E-01    2     1000024         3   # BR(~c_L -> chi^+_1 s)
     4.18100683E-03    2     1000037         3   # BR(~c_L -> chi^+_2 s)
     7.91305275E-01    2     1000021         4   # BR(~c_L -> ~g c)
DECAY   1000006     7.68968750E+01   # ~t_1
#    BR                NDA      ID1      ID2
     5.81402932E-02    2     1000022         6   # BR(~t_1 -> chi^0_1 t)
     9.26654613E-03    2     1000023         6   # BR(~t_1 -> chi^0_2 t)
     2.34875156E-01    2     1000025         6   # BR(~t_1 -> chi^0_3 t)
     2.22757799E-01    2     1000035         6   # BR(~t_1 -> chi^0_4 t)
     1.92064199E-02    2     1000024         5   # BR(~t_1 -> chi^+_1 b)
     4.55707105E-01    2     1000037         5   # BR(~t_1 -> chi^+_2 b)
#    BR                NDA      ID1      ID2       ID3
DECAY   2000006     1.89932935E+02   # ~t_2
#    BR                NDA      ID1      ID2
     2.20984194E-03    2     1000022         6   # BR(~t_2 -> chi^0_1 t)
     8.11601175E-02    2     1000023         6   # BR(~t_2 -> chi^0_2 t)
     1.81625744E-01    2     1000025         6   # BR(~t_2 -> chi^0_3 t)
     1.81280073E-01    2     1000035         6   # BR(~t_2 -> chi^0_4 t)
     1.86976974E-01    2     1000024         5   # BR(~t_2 -> chi^+_1 b)
     3.18249049E-01    2     1000037         5   # BR(~t_2 -> chi^+_2 b)
     2.45960152E-03    2     1000005        24   # BR(~t_2 -> ~b_1 W^+)
     1.92670730E-02    2     1000006        23   # BR(~t_2 -> ~t_1 Z)
     2.67715261E-02    2     1000006        25   # BR(~t_2 -> ~t_1 h^0)
DECAY   1000024     4.15080240E-03   # chi^+_1
#    BR                NDA      ID1      ID2
     9.99999177E-01    2     1000022        24   # BR(chi^+_1 -> chi^0_1 W^+)
#    BR                NDA      ID1      ID2       ID3
DECAY   1000037     2.97708128E+00   # chi^+_2
#    BR                NDA      ID1      ID2
     1.03137020E-01    2     1000022        24   # BR(chi^+_2 -> chi^0_1 W^+)
     3.39668385E-01    2     1000023        24   # BR(chi^+_2 -> chi^0_2 W^+)
     3.04014628E-01    2     1000024        23   # BR(chi^+_2 -> chi^+_1 Z)
     2.52709345E-01    2     1000024        25   # BR(chi^+_2 -> chi^+_1 h^0)
#    BR                NDA      ID1      ID2       ID3
     2.80301380E-04    3     1000022        -5         6   # BR(chi^+_2 -> chi^0_1 b_bar t)
     1.89545891E-04    3     1000023        -5         6   # BR(chi^+_2 -> chi^0_2 b_bar t)
DECAY   1000022     0.00000000E+00   # chi^0_1
DECAY   1000023     6.27392644E-04   # chi^0_2
#    BR                NDA      ID1      ID2
     9.99830082E-01    2     1000022        23   # BR(chi^0_2 -> chi^0_1 Z)
#    BR                NDA      ID1      ID2       ID3
DECAY   1000025     4.74529135E+00   # chi^0_3
#    BR                NDA      ID1      ID2
     2.43846195E-01    2     1000024       -24   # BR(chi^0_3 -> chi^+_1 W^-)
     2.43846195E-01    2    -1000024        24   # BR(chi^0_3 -> chi^-_1 W^+)
     7.83578057E-02    2     1000022        23   # BR(chi^0_3 -> chi^0_1 Z)
     2.25266301E-01    2     1000023        23   # BR(chi^0_3 -> chi^0_2 Z)
     5.54531297E-02    2     1000022        25   # BR(chi^0_3 -> chi^0_1 h^0)
     1.52924055E-01    2     1000023        25   # BR(chi^0_3 -> chi^0_2 h^0)
     1.04651206E-04    2     1000023        22   # BR(chi^0_3 -> chi^0_2 photon)
#    BR                NDA      ID1      ID2       ID3
DECAY   1000035     3.01297523E+00   # chi^0_4
#    BR                NDA      ID1      ID2
     3.20967060E-01    2     1000024       -24   # BR(chi^0_4 -> chi^+_1 W^-)
     3.20967060E-01    2    -1000024        24   # BR(chi^0_4 -> chi^-_1 W^+)
     2.35573494E-02    2     1000022        23   # BR(chi^0_4 -> chi^0_1 Z)
     2.48027325E-02    2     1000023        23   # BR(chi^0_4 -> chi^0_2 Z)
     8.48862212E-02    2     1000022        25   # BR(chi^0_4 -> chi^0_1 h^0)
     2.24446167E-01    2     1000023        25   # BR(chi^0_4 -> chi^0_2 h^0)
#    BR                NDA      ID1      ID2       ID3
     1.77987333E-04    3     1000024         5        -6   # BR(chi^0_4 -> chi^+_1 b t_bar)
     1.77987333E-04    3    -1000024        -5         6   # BR(chi^0_4 -> chi^-_1 b_bar t)
DECAY   1000021     1.88555240E+02   # ~g
#    BR                NDA      ID1      ID2
     2.19517972E-01    2     1000006        -6   # BR(~g -> ~t_1 t_bar)
     2.19517972E-01    2    -1000006         6   # BR(~g -> ~t^*_1 t)
     5.06453664E-02    2     2000006        -6   # BR(~g -> ~t_2 t_bar)
     5.06453664E-02    2    -2000006         6   # BR(~g -> ~t^*_2 t)
     1.78635228E-01    2     1000005        -5   # BR(~g -> ~b_1 b_bar)
     1.78635228E-01    2    -1000005         5   # BR(~g -> ~b^*_1 b)
     5.10399581E-02    2     2000005        -5   # BR(~g -> ~b_2 b_bar)
     5.10399581E-02    2    -2000005         5   # BR(~g -> ~b^*_2 b)
#    BR                NDA      ID1      ID2       ID3
DECAY        25     3.43434692E-03   # Gamma(h0)
     2.32858544E-03   2        22        22   # BR(h0 -> photon photon)
     1.17889505E-03   2        22        23   # BR(h0 -> photon Z)
     1.89545744E-02   2        23        23   # BR(h0 -> Z Z)
     1.69234955E-01   2       -24        24   # BR(h0 -> W W)
     7.50012700E-02   2        21        21   # BR(h0 -> gluon gluon)
     5.61580108E-09   2       -11        11   # BR(h0 -> Electron electron)
     2.49798511E-04   2       -13        13   # BR(h0 -> Muon muon)
     7.20201654E-02   2       -15        15   # BR(h0 -> Tau tau)
     1.60326141E-07   2        -2         2   # BR(h0 -> Up up)
     3.11093662E-02   2        -4         4   # BR(h0 -> Charm charm)
     6.53689203E-07   2        -1         1   # BR(h0 -> Down down)
     2.36424135E-04   2        -3         3   # BR(h0 -> Strange strange)
     6.29685147E-01   2        -5         5   # BR(h0 -> Bottom bottom)
DECAY        35     1.70987289E+02   # Gamma(HH)
     3.32824433E-09   2        22        22   # BR(HH -> photon photon)
     2.78347135E-08   2        22        23   # BR(HH -> photon Z)
     5.73988185E-08   2        23        23   # BR(HH -> Z Z)
     1.51867709E-08   2       -24        24   # BR(HH -> W W)
     6.96921194E-06   2        21        21   # BR(HH -> gluon gluon)
     1.05548550E-08   2       -11        11   # BR(HH -> Electron electron)
     4.69970760E-04   2       -13        13   # BR(HH -> Muon muon)
     1.35735493E-01   2       -15        15   # BR(HH -> Tau tau)
     1.64573953E-14   2        -2         2   # BR(HH -> Up up)
     3.19248869E-09   2        -4         4   # BR(HH -> Charm charm)
     1.92483096E-04   2        -6         6   # BR(HH -> Top top)
     7.41438242E-07   2        -1         1   # BR(HH -> Down down)
     2.68186123E-04   2        -3         3   # BR(HH -> Strange strange)
     6.18190190E-01   2        -5         5   # BR(HH -> Bottom bottom)
     1.20949301E-02   2  -1000024   1000024   # BR(HH -> Chargino1 chargino1)
     6.71845313E-02   2  -1000024   1000037   # BR(HH -> Chargino1 chargino2)
     6.71845313E-02   2  -1000037   1000024   # BR(HH -> Chargino2 chargino1)
     2.69150538E-03   2  -1000037   1000037   # BR(HH -> Chargino2 chargino2)
     5.13029598E-04   2   1000022   1000022   # BR(HH -> neutralino1 neutralino1)
     3.31342966E-03   2   1000022   1000023   # BR(HH -> neutralino1 neutralino2)
     1.20093164E-02   2   1000022   1000025   # BR(HH -> neutralino1 neutralino3)
     9.05362597E-03   2   1000022   1000035   # BR(HH -> neutralino1 neutralino4)
     5.26705785E-03   2   1000023   1000023   # BR(HH -> neutralino2 neutralino2)
     3.25517219E-02   2   1000023   1000025   # BR(HH -> neutralino2 neutralino3)
     2.36702090E-02   2   1000023   1000035   # BR(HH -> neutralino2 neutralino4)
     5.76005309E-04   2   1000025   1000025   # BR(HH -> neutralino3 neutralino3)
     4.76631176E-03   2   1000025   1000035   # BR(HH -> neutralino3 neutralino4)
     4.25949150E-03   2   1000035   1000035   # BR(HH -> neutralino4 neutralino4)
     1.51151342E-07   2        25        25   # BR(HH -> h0 h0)
DECAY        36     1.58431765E+02   # Gamma(A0)
     5.01533862E-08   2        22        22   # BR(A0 -> photon photon)
     9.09050537E-08   2        22        23   # BR(A0 -> photon Z)
     1.05461304E-05   2        21        21   # BR(A0 -> gluon gluon)
     1.02805989E-08   2       -11        11   # BR(A0 -> Electron electron)
     4.57758504E-04   2       -13        13   # BR(A0 -> Muon muon)
     1.32208574E-01   2       -15        15   # BR(A0 -> Tau tau)
     1.47111933E-14   2        -2         2   # BR(A0 -> Up up)
     2.85361408E-09   2        -4         4   # BR(A0 -> Charm charm)
     1.72214540E-04   2        -6         6   # BR(A0 -> Top top)
     7.22079660E-07   2        -1         1   # BR(A0 -> Down down)
     2.61182266E-04   2        -3         3   # BR(A0 -> Strange strange)
     6.02038093E-01   2        -5         5   # BR(A0 -> Bottom bottom)
     1.39031493E-02   2  -1000024   1000024   # BR(A0 -> Chargino1 chargino1)
     7.17691116E-02   2  -1000024   1000037   # BR(A0 -> Chargino1 chargino2)
     7.17691116E-02   2  -1000037   1000024   # BR(A0 -> Chargino2 chargino1)
     3.71001339E-03   2  -1000037   1000037   # BR(A0 -> Chargino2 chargino2)
     5.76474643E-04   2   1000022   1000022   # BR(A0 -> neutralino1 neutralino1)
     3.76508017E-03   2   1000022   1000023   # BR(A0 -> neutralino1 neutralino2)
     1.16391359E-02   2   1000022   1000025   # BR(A0 -> neutralino1 neutralino3)
     1.09396025E-02   2   1000022   1000035   # BR(A0 -> neutralino1 neutralino4)
     6.06139849E-03   2   1000023   1000023   # BR(A0 -> neutralino2 neutralino2)
     3.10289903E-02   2   1000023   1000025   # BR(A0 -> neutralino2 neutralino3)
     2.90622712E-02   2   1000023   1000035   # BR(A0 -> neutralino2 neutralino4)
     6.46453788E-04   2   1000025   1000025   # BR(A0 -> neutralino3 neutralino3)
     4.46356319E-03   2   1000025   1000035   # BR(A0 -> neutralino3 neutralino4)
     5.51629072E-03   2   1000035   1000035   # BR(A0 -> neutralino4 neutralino4)
     1.09457030E-07   2        23        25   # BR(A0 -> Z h0)
     2.37351655E-12   2        23        35   # BR(A0 -> Z HH)
     4.05622717E-40   2        25        25   # BR(A0 -> h0 h0)
DECAY        37     1.74774356E+02   # Gamma(Hp)
     1.09416686E-08   2       -11        12   # BR(Hp -> Electron nu_e)
     4.67790508E-04   2       -13        14   # BR(Hp -> Muon nu_mu)
     1.32317773E-01   2       -15        16   # BR(Hp -> Tau nu_tau)
     6.71043314E-07   2        -1         2   # BR(Hp -> Down up)
     1.13414760E-05   2        -3         2   # BR(Hp -> Strange up)
     6.63065956E-06   2        -5         2   # BR(Hp -> Bottom up)
     3.15021655E-08   2        -1         4   # BR(Hp -> Down charm)
     2.41864615E-04   2        -3         4   # BR(Hp -> Strange charm)
     9.28529637E-04   2        -5         4   # BR(Hp -> Bottom charm)
     1.39815947E-08   2        -1         6   # BR(Hp -> Down top)
     6.63819098E-07   2        -3         6   # BR(Hp -> Strange top)
     6.26274261E-01   2        -5         6   # BR(Hp -> Bottom top)
     5.97747088E-03   2   1000022   1000024   # BR(Hp -> neutralino1 chargino1)
     1.37672264E-02   2   1000022   1000037   # BR(Hp -> neutralino1 chargino2)
     2.60280061E-05   2   1000023   1000024   # BR(Hp -> neutralino2 chargino1)
     7.92773668E-02   2   1000023   1000037   # BR(Hp -> neutralino2 chargino2)
     6.77629362E-02   2   1000024   1000025   # BR(Hp -> chargino1 neutralino3)
     4.03199241E-03   2   1000025   1000037   # BR(Hp -> neutralino3 chargino2)
     6.80738803E-02   2   1000024   1000035   # BR(Hp -> chargino1 neutralino4)
     8.33417490E-04   2   1000035   1000037   # BR(Hp -> neutralino4 chargino2)
     9.91847113E-08   2        24        25   # BR(Hp -> W h0)
     4.38871356E-13   2        24        35   # BR(Hp -> W HH)
DECAY         6     2.43000000E+00   # top
#    BR                NDA      ID1      ID2
     1.00000000E+00    2           5        24   # BR(t -> b W)
Block HiggsBoundsInputHiggsCouplingsFermions
# ScalarNormEffCoupSq PseudoSNormEffCoupSq NP IP1 IP2 IP2
    9.98685236E-01    0.00000000E+00        3  25   5   5  # h0-b-b eff. coupling^2, normalised to SM
    3.45740881E+03    0.00000000E+00        3  35   5   5  # H0-b-b eff. coupling^2, normalised to SM
    0.00000000E+00    3.45740750E+03        3  36   5   5  # A0-b-b eff. coupling^2, normalised to SM
#
    1.00000038E+00    0.00000000E+00        3  25   6   6  # h0-t-t eff. coupling^2, normalised to SM
    2.88853784E-04    0.00000000E+00        3  35   6   6  # H0-t-t eff. coupling^2, normalised to SM
    0.00000000E+00    2.89234058E-04        3  36   6   6  # A0-t-t eff. coupling^2, normalised to SM
#
    9.98685236E-01    0.00000000E+00        3  25  15  15  # h0-tau-tau eff. coupling^2, normalised to SM
    3.45740881E+03    0.00000000E+00        3  35  15  15  # H0-tau-tau eff. coupling^2, normalised to SM
    0.00000000E+00    3.45740750E+03        3  36  15  15  # A0-tau-tau eff. coupling^2, normalised to SM
#
Block HiggsBoundsInputHiggsCouplingsBosons
    1.00000000E+00        3  25  24  24  # h0-W-W eff. coupling^2, normalised to SM
    1.25074988E-10        3  35  24  24  # H0-W-W eff. coupling^2, normalised to SM
    0.00000000E+00        3  36  24  24  # A0-W-W eff. coupling^2, normalised to SM
#
    1.00000000E+00        3  25  23  23  # h0-Z-Z eff. coupling^2, normalised to SM
    1.25074988E-10        3  35  23  23  # H0-Z-Z eff. coupling^2, normalised to SM
    0.00000000E+00        3  36  23  23  # A0-Z-Z eff. coupling^2, normalised to SM
#
    1.26175032E+00        3  25  21  21  # h0-g-g eff. coupling^2, normalised to SM
    1.88440846E-02        3  35  21  21  # H0-g-g eff. coupling^2, normalised to SM
    1.58978715E-01        3  36  21  21  # A0-g-g eff. coupling^2, normalised to SM
#
    0.00000000E+00        3  25  25  23  # h0-h0-Z eff. coupling^2, normalised to SM
    0.00000000E+00        3  35  25  23  # H0-h0-Z eff. coupling^2, normalised to SM
    1.25074988E-10        3  36  25  23  # A0-h0-Z eff. coupling^2, normalised to SM
    0.00000000E+00        3  35  35  23  # H0-H0-Z eff. coupling^2, normalised to SM
    1.00000000E+00        3  36  35  23  # A0-H0-Z eff. coupling^2, normalised to SM
    0.00000000E+00        3  36  36  23  # A0-A0-Z eff. coupling^2, normalised to SM
#
    0.00000000E+00        4  25  21  21  23  # h0-g-g-Z eff. coupling^2, normalised to SM
    0.00000000E+00        4  35  21  21  23  # H0-g-g-Z eff. coupling^2, normalised to SM
    0.00000000E+00        4  36  21  21  23  # A0-g-g-Z eff. coupling^2, normalised to SM
Block SPhenoLowEnergy  # low energy observables
    1    3.10446614E-04   # BR(b -> s gamma)
    2    1.59065761E-06   # BR(b -> s mu+ mu-)
    3    3.52281739E-05   # BR(b -> s nu nu)
    4    2.99790291E-15   # BR(Bd -> e+ e-)
    5    1.28063845E-10   # BR(Bd -> mu+ mu-)
    6    2.66283633E-08   # BR(Bd -> tau+ tau-)
    7    9.99216559E-14   # BR(Bs -> e+ e-)
    8    4.26855176E-09   # BR(Bs -> mu+ mu-)
    9    8.99718275E-07   # BR(Bs -> tau+ tau-)
   10    9.53326655E-05   # BR(B_u -> tau nu)
   11    9.84749937E-01   # BR(B_u -> tau nu)/BR(B_u -> tau nu)_SM
   12    5.42135321E-01   # |Delta(M_Bd)| [ps^-1] 
   13    1.93606009E+01   # |Delta(M_Bs)| [ps^-1] 
   14    0.00000000E+00   # neutron EDM according to the chiral quark model
   15    0.00000000E+00   # neutron EDM according to the relativistic quark-parton model
   16    2.15809024E-03   # epsilon_K
   17    2.28166792E-15   # Delta(M_K)
   18    2.47822825E-11   # BR(K^0 -> pi^0 nu nu)
   19    8.28630091E-11   # BR(K^+ -> pi^+ nu nu)
   20    3.70156161E-16   # Delta(g-2)_electron/2
   21    1.58256821E-11   # Delta(g-2)_muon/2
   22    4.50161329E-09   # Delta(g-2)_tau/2
   23    0.00000000E+00   # electric dipole moment of the electron
   24    0.00000000E+00   # electric dipole moment of the muon
   25    0.00000000E+00   # electric dipole moment of the tau
   26    0.00000000E+00   # Br(mu -> e gamma)
   27    0.00000000E+00   # Br(tau -> e gamma)
   28    0.00000000E+00   # Br(tau -> mu gamma)
   29    0.00000000E+00   # Br(mu -> 3 e)
   30    0.00000000E+00   # Br(tau -> 3 e)
   31    0.00000000E+00   # Br(tau -> 3 mu)
   39    7.57188634E-05   # Delta(rho_parameter)
   40    0.00000000E+00   # BR(Z -> e mu)
   41    0.00000000E+00   # BR(Z -> e tau)
   42    0.00000000E+00   # BR(Z -> mu tau)
Block FWCOEF Q=  1.60000000E+02  # Wilson coefficients at scale Q
#    id        order  M        value         comment
     0305 4422   00   0    -1.88819110E-01   # C7
     0305 4422   00   2    -1.75602826E-01   # C7
     0305 4322   00   2    -2.08298304E-06   # C7'
     0305 6421   00   0    -9.52278348E-02   # C8
     0305 6421   00   2    -9.45860421E-02   # C8
     0305 6321   00   2    -1.13131600E-04   # C8'
 03051111 4133   00   0     1.61414306E+00   # C9 e+e-
 03051111 4133   00   2     1.61455689E+00   # C9 e+e-
 03051111 4233   00   2     5.52560448E-04   # C9' e+e-
 03051111 4137   00   0    -4.43683517E+00   # C10 e+e-
 03051111 4137   00   2    -4.43292190E+00   # C10 e+e-
 03051111 4237   00   2    -4.16314865E-03   # C10' e+e-
 03051313 4133   00   0     1.61414306E+00   # C9 mu+mu-
 03051313 4133   00   2     1.61455657E+00   # C9 mu+mu-
 03051313 4233   00   2     5.52559154E-04   # C9' mu+mu-
 03051313 4137   00   0    -4.43683517E+00   # C10 mu+mu-
 03051313 4137   00   2    -4.43292222E+00   # C10 mu+mu-
 03051313 4237   00   2    -4.16314889E-03   # C10' mu+mu-
 03051212 4137   00   0     1.50535012E+00   # C11 nu_1 nu_1
 03051212 4137   00   2     1.50450286E+00   # C11 nu_1 nu_1
 03051212 4237   00   2     9.02774102E-04   # C11' nu_1 nu_1
 03051414 4137   00   0     1.50535012E+00   # C11 nu_2 nu_2
 03051414 4137   00   2     1.50450286E+00   # C11 nu_2 nu_2
 03051414 4237   00   2     9.02774298E-04   # C11' nu_2 nu_2
 03051616 4137   00   0     1.50535012E+00   # C11 nu_3 nu_3
 03051616 4137   00   2     1.50450286E+00   # C11 nu_3 nu_3
 03051616 4237   00   2     9.02829721E-04   # C11' nu_3 nu_3
Block IMFWCOEF Q=  1.60000000E+02  # Im(Wilson coefficients) at scale Q
#    id        order  M        value         comment
     0305 4422   00   0     3.85835676E-07   # C7
     0305 4422   00   2     1.11618146E-05   # C7
     0305 4322   00   2     1.91095930E-06   # C7'
     0305 6421   00   0     3.30493773E-07   # C8
     0305 6421   00   2    -5.22931143E-06   # C8
     0305 6321   00   2     5.09625222E-07   # C8'
 03051111 4133   00   2     6.66577872E-07   # C9 e+e-
 03051111 4233   00   2     1.11448746E-05   # C9' e+e-
 03051111 4137   00   2     4.95945201E-07   # C10 e+e-
 03051111 4237   00   2    -8.39772042E-05   # C10' e+e-
 03051313 4133   00   2     6.66571866E-07   # C9 mu+mu-
 03051313 4233   00   2     1.11448677E-05   # C9' mu+mu-
 03051313 4137   00   2     4.95951503E-07   # C10 mu+mu-
 03051313 4237   00   2    -8.39772249E-05   # C10' mu+mu-
 03051212 4137   00   2    -8.38753803E-08   # C11 nu_1 nu_1
 03051212 4237   00   2     1.82103644E-05   # C11' nu_1 nu_1
 03051414 4137   00   2    -8.38750679E-08   # C11 nu_2 nu_2
 03051414 4237   00   2     1.82103644E-05   # C11' nu_2 nu_2
 03051616 4137   00   2    -8.37892133E-08   # C11 nu_3 nu_3
 03051616 4237   00   2     1.82103643E-05   # C11' nu_3 nu_3
