# SUSY Les Houches Accord 2 - MSSM spectrum + Decays
# SPheno v4.0.5be
# W. Porod, Comput. Phys. Commun. 153 (2003) 275-315, hep-ph/0301101;
# W. Porod, F.~Staub, Comput. Phys. Commun. 183 (2012) 2458
#                     arXiv:1104.1573 [hep-ph] 
# in case of problems send email to porod@physik.uni-wuerzburg.de
# Created: 15.05.2022,  05:41
Block SPINFO         # Program information
     1   SPheno      # spectrum calculator
     2   v4.0.5be    # version number
#
Block SPhenoINFO     # SPheno specific information
    1      2         # using 2-loop RGEs
    2      2         # using pole masses for boundary conditions at mZ
Block MODSEL  # Model selection
    1    0    # general MSSM
Block MINPAR  # Input parameters
    3    4.79513631E+01  # tanb at m_Z    
    4    1.00000000E+00  # Sign(mu)
Block EXTPAR  # non-universal input parameters
    0    3.62452900E+03  # scale for input parameters
    1    3.54641513E+02  # M_1
    2   -4.20106238E+02  # M_2
    3    3.12844027E+03  # M_3
   11    7.86882522E+03  # A_t
   12   -9.65909639E+02  # A_b
   13   -1.95247678E+03  # A_tau
   23    1.22518735E+03  # mu
   25    4.66029671E+01  # tan(beta)
   26    4.38322818E+03  # m_A, pole mass
   31    3.51363511E+02  # M_L11
   32    3.51363511E+02  # M_L22
   33    1.20121515E+03  # M_L33
   34    7.35755905E+02  # M_E11
   35    7.35755905E+02  # M_E22
   36    1.60068688E+03  # M_E33
   41    1.00000000E+04  # M_Q11
   42    1.00000000E+04  # M_Q22
   43    3.82936085E+03  # M_Q33
   44    1.00000000E+04  # M_U11
   45    1.00000000E+04  # M_U22
   46    3.50497926E+03  # M_U33
   47    1.00000000E+04  # M_D11
   48    1.00000000E+04  # M_D22
   49    4.26123594E+03  # M_D33
Block SMINPUTS  # SM parameters
         1     1.27908970E+02  # alpha_em^-1(MZ)^MSbar
         2     1.16637870E-05  # G_mu [GeV^-2]
         3     1.18400000E-01  # alpha_s(MZ)^MSbar
         4     9.11876000E+01  # m_Z(pole)
         5     4.18000000E+00  # m_b(m_b), MSbar
         6     1.73200000E+02  # m_t(pole)
         7     1.77700000E+00  # m_tau(pole)
         8     0.00000000E+00  # m_nu_3
        11     5.10998930E-04  # m_e(pole)
        12     0.00000000E+00  # m_nu_1
        13     1.05658372E-01  # m_muon(pole)
        14     0.00000000E+00  # m_nu_2
        21     5.00000000E-03  # m_d(2 GeV), MSbar
        22     2.50000000E-03  # m_u(2 GeV), MSbar
        23     9.50000000E-02  # m_s(2 GeV), MSbar
        24     1.27000000E+00  # m_c(m_c), MSbar
Block gauge Q=  3.62452900E+03  # (SUSY scale)
   1    3.55362975E-01  # g'(Q)^DRbar
   2    6.65198874E-01  # g(Q)^DRbar
   3    1.21977796E+00  # g3(Q)^DRbar
Block Yu Q=  3.62452900E+03  # (SUSY scale)
  1  1     8.38630216E-06   # Y_u(Q)^DRbar
  2  2     4.26024150E-03   # Y_c(Q)^DRbar
  3  3     1.01313266E+00   # Y_t(Q)^DRbar
Block Yd Q=  3.62452900E+03  # (SUSY scale)
  1  1     7.85351941E-04   # Y_d(Q)^DRbar
  2  2     1.49216869E-02   # Y_s(Q)^DRbar
  3  3     7.78823032E-01   # Y_b(Q)^DRbar
Block Ye Q=  3.62452900E+03  # (SUSY scale)
  1  1     1.37049657E-04   # Y_e(Q)^DRbar
  2  2     2.83375224E-02   # Y_mu(Q)^DRbar
  3  3     4.76590509E-01   # Y_tau(Q)^DRbar
Block Au Q=  3.62452900E+03  # (SUSY scale)
  1  1     0.00000000E+00   # A_u(Q)^DRbar
  2  2     0.00000000E+00   # A_c(Q)^DRbar
  3  3     7.86882528E+03   # A_t(Q)^DRbar
Block Ad Q=  3.62452900E+03  # (SUSY scale)
  1  1     0.00000000E+00   # A_d(Q)^DRbar
  2  2     0.00000000E+00   # A_s(Q)^DRbar
  3  3    -9.65909600E+02   # A_b(Q)^DRbar
Block Ae Q=  3.62452900E+03  # (SUSY scale)
  1  1     0.00000000E+00   # A_e(Q)^DRbar
  2  2     0.00000000E+00   # A_mu(Q)^DRbar
  3  3    -1.95247679E+03   # A_tau(Q)^DRbar
Block MSOFT Q=  3.62452900E+03  # soft SUSY breaking masses at Q
   1    3.54641513E+02  # M_1
   2   -4.20106238E+02  # M_2
   3    3.12844027E+03  # M_3
  21    1.79683249E+07  # M^2_(H,d)
  22   -1.24183520E+06  # M^2_(H,u)
  31    3.51363511E+02  # M_(L,11)
  32    3.51363511E+02  # M_(L,22)
  33    1.20121515E+03  # M_(L,33)
  34    7.35755905E+02  # M_(E,11)
  35    7.35755905E+02  # M_(E,22)
  36    1.60068688E+03  # M_(E,33)
  41    1.00000000E+04  # M_(Q,11)
  42    1.00000000E+04  # M_(Q,22)
  43    3.82936085E+03  # M_(Q,33)
  44    1.00000000E+04  # M_(U,11)
  45    1.00000000E+04  # M_(U,22)
  46    3.50497926E+03  # M_(U,33)
  47    1.00000000E+04  # M_(D,11)
  48    1.00000000E+04  # M_(D,22)
  49    4.26123594E+03  # M_(D,33)
Block MASS  # Mass spectrum
#   PDG code      mass          particle
         6     1.73200000E+02  # m_t(pole)
        23     9.11876000E+01  # m_Z(pole)
        24     8.04299946E+01  # W+
        15     1.77700000E+00  # m_tau(pole)
        25     1.29546706E+02  # h0
        35     4.38198263E+03  # H0
        36     4.38322818E+03  # A0
        37     4.38272556E+03  # H+
   1000001     1.01075390E+04  # ~d_L
   2000001     1.00825008E+04  # ~d_R
   1000002     1.01071857E+04  # ~u_L
   2000002     1.00856837E+04  # ~u_R
   1000003     1.01075441E+04  # ~s_L
   2000003     1.00825083E+04  # ~s_R
   1000004     1.01071903E+04  # ~c_L
   2000004     1.00856845E+04  # ~c_R
   1000005     3.81603006E+03  # ~b_1
   2000005     4.33054355E+03  # ~b_2
   1000006     3.40251400E+03  # ~t_1
   2000006     3.86103055E+03  # ~t_2
   1000011     3.61947655E+02  # ~e_L-
   2000011     7.43320055E+02  # ~e_R-
   1000012     3.52966099E+02  # ~nu_eL
   1000013     3.61796069E+02  # ~mu_L-
   2000013     7.43294700E+02  # ~mu_R-
   1000014     3.52897249E+02  # ~nu_muL
   1000015     1.18914753E+03  # ~tau_1-
   2000015     1.58634305E+03  # ~tau_2-
   1000016     1.18975030E+03  # ~nu_tauL
   1000021     3.60710493E+03  # ~g
   1000022     3.49681614E+02  # ~chi_10
   1000023     4.50205850E+02  # ~chi_20
   1000025     1.24500164E+03  # ~chi_30
   1000035     1.24603812E+03  # ~chi_40
   1000024     4.50385214E+02  # ~chi_1+
   1000037     1.24739645E+03  # ~chi_2+
# Higgs mixing
Block alpha # Effective Higgs mixing angle
          -2.08734540E-02   # alpha
Block Hmix Q=  3.62452900E+03  # Higgs mixing parameters
   1    1.22518735E+03  # mu
   2    4.66029671E+01  # tan[beta](Q)
   3    2.43001069E+02  # v(Q)
   4    1.92126893E+07  # m^2_A(Q)
Block stopmix # stop mixing matrix
   1  1    -3.18392662E-01   # Re[R_st(1,1)]
   1  2     9.47958919E-01   # Re[R_st(1,2)]
   2  1    -9.47958919E-01   # Re[R_st(2,1)]
   2  2    -3.18392662E-01   # Re[R_st(2,2)]
Block sbotmix # sbottom mixing matrix
   1  1     9.99724587E-01   # Re[R_sb(1,1)]
   1  2     2.34680492E-02   # Re[R_sb(1,2)]
   2  1    -2.34680492E-02   # Re[R_sb(2,1)]
   2  2     9.99724587E-01   # Re[R_sb(2,2)]
Block staumix # stau mixing matrix
   1  1     9.95854998E-01   # Re[R_sta(1,1)]
   1  2     9.09550614E-02   # Re[R_sta(1,2)]
   2  1    -9.09550614E-02   # Re[R_sta(2,1)]
   2  2     9.95854998E-01   # Re[R_sta(2,2)]
Block Nmix # neutralino mixing matrix
   1  1    -9.99168827E-01   # Re[N(1,1)]
   1  2    -1.22831243E-03   # Re[N(1,2)]
   1  3    -3.90235265E-02   # Re[N(1,3)]
   1  4     1.17179873E-02   # Re[N(1,4)]
   2  1     1.31201499E-03   # Re[N(2,1)]
   2  2     9.97073266E-01   # Re[N(2,2)]
   2  3    -7.23688533E-02   # Re[N(2,3)]
   2  4    -2.46156525E-02   # Re[N(2,4)]
   3  1     3.58835420E-02   # Re[N(3,1)]
   3  2    -3.37869100E-02   # Re[N(3,2)]
   3  3    -7.05374530E-01   # Re[N(3,3)]
   3  4     7.07119218E-01   # Re[N(3,4)]
   4  1     1.92952230E-02   # Re[N(4,1)]
   4  2    -6.85699542E-02   # Re[N(4,2)]
   4  3    -7.04050201E-01   # Re[N(4,3)]
   4  4    -7.06568588E-01   # Re[N(4,4)]
Block Umix # chargino mixing matrix
   1  1    -9.94773348E-01   # Re[U(1,1)]
   1  2     1.02107716E-01   # Re[U(1,2)]
   2  1    -1.02107716E-01   # Re[U(2,1)]
   2  2    -9.94773348E-01   # Re[U(2,2)]
Block Vmix # chargino mixing matrix
   1  1     9.99395100E-01   # Re[V(1,1)]
   1  2     3.47769118E-02   # Re[V(1,2)]
   2  1     3.47769118E-02   # Re[V(2,1)]
   2  2    -9.99395100E-01   # Re[V(2,2)]
DECAY        23     2.49520000E+00   # Z
DECAY        24     2.08500000E+00   # W
DECAY   1000011     2.02450912E-03   # ~e^-_L
#    BR                NDA      ID1      ID2
     9.99949629E-01    2     1000022        11   # BR(~e^-_L -> chi^0_1 e^-)
#    BR                NDA      ID1      ID2       ID3
DECAY   2000011     2.26095490E+00   # ~e^-_R
#    BR                NDA      ID1      ID2
     9.99998740E-01    2     1000022        11   # BR(~e^-_R -> chi^0_1 e^-)
DECAY   1000013     1.97652781E-03   # ~mu^-_L
#    BR                NDA      ID1      ID2
     9.99950772E-01    2     1000022        13   # BR(~mu^-_L -> chi^0_1 mu^-)
#    BR                NDA      ID1      ID2       ID3
DECAY   2000013     2.27236658E+00   # ~mu^-_R
#    BR                NDA      ID1      ID2
     9.94908294E-01    2     1000022        13   # BR(~mu^-_R -> chi^0_1 mu^-)
     5.05777958E-03    2     1000013        25   # BR(~mu^-_R -> ~mu^-_L h^0)
DECAY   1000015     1.28072466E+01   # ~tau^-_1
#    BR                NDA      ID1      ID2
     1.01909907E-01    2     1000022        15   # BR(~tau^-_1 -> chi^0_1 tau^-)
     3.01638898E-01    2     1000023        15   # BR(~tau^-_1 -> chi^0_2 tau^-)
     5.96451194E-01    2    -1000024        16   # BR(~tau^-_1 -> chi^-_1 nu_tau)
DECAY   2000015     1.28106210E+01   # ~tau^-_2
#    BR                NDA      ID1      ID2
     5.57625727E-01    2     1000022        15   # BR(~tau^-_2 -> chi^0_1 tau^-)
     1.74731581E-04    2     1000023        15   # BR(~tau^-_2 -> chi^0_2 tau^-)
     4.17860897E-02    2     1000025        15   # BR(~tau^-_2 -> chi^0_3 tau^-)
     4.15870043E-02    2     1000035        15   # BR(~tau^-_2 -> chi^0_4 tau^-)
     2.86281737E-04    2    -1000024        16   # BR(~tau^-_2 -> chi^-_1 nu_tau)
     8.21058355E-02    2    -1000037        16   # BR(~tau^-_2 -> chi^-_2 nu_tau)
     1.37749221E-01    2     1000016       -24   # BR(~tau^-_2 -> ~nu_tau W^-)
     6.73096308E-02    2     1000015        23   # BR(~tau^-_2 -> ~tau^-_1 Z)
     7.13754785E-02    2     1000015        25   # BR(~tau^-_2 -> ~tau^-_1 h^0)
DECAY   1000012     1.51193121E-04   # ~nu_e
#    BR                NDA      ID1      ID2
     1.00000000E+00    2     1000022        12   # BR(~nu_e -> chi^0_1 nu_e)
DECAY   1000014     1.44977302E-04   # ~nu_mu
#    BR                NDA      ID1      ID2
     1.00000000E+00    2     1000022        14   # BR(~nu_mu -> chi^0_1 nu_mu)
DECAY   1000016     1.27762580E+01   # ~nu_tau
#    BR                NDA      ID1      ID2
     9.70287871E-02    2     1000022        16   # BR(~nu_tau -> chi^0_1 nu_tau)
     2.98722819E-01    2     1000023        16   # BR(~nu_tau -> chi^0_2 nu_tau)
     6.04248394E-01    2     1000024        15   # BR(~nu_tau -> chi^+_1 tau^-)
#    BR                NDA      ID1      ID2       ID3
DECAY   2000001     6.10775380E+02   # ~d_R
#    BR                NDA      ID1      ID2
     9.17869817E-03    2     1000022         1   # BR(~d_R -> chi^0_1 d)
     9.90806058E-01    2     1000021         1   # BR(~d_R -> ~g d)
DECAY   1000001     7.41855892E+02   # ~d_L
#    BR                NDA      ID1      ID2
     1.86787727E-03    2     1000022         1   # BR(~d_L -> chi^0_1 d)
     5.93546408E-02    2     1000023         1   # BR(~d_L -> chi^0_2 d)
     3.01633489E-04    2     1000035         1   # BR(~d_L -> chi^0_4 d)
     1.18217286E-01    2    -1000024         2   # BR(~d_L -> chi^-_1 u)
     1.21267721E-03    2    -1000037         2   # BR(~d_L -> chi^-_2 u)
     8.18951918E-01    2     1000021         1   # BR(~d_L -> ~g d)
DECAY   2000003     6.10862493E+02   # ~s_R
#    BR                NDA      ID1      ID2
     9.17750675E-03    2     1000022         3   # BR(~s_R -> chi^0_1 s)
     9.90665933E-01    2     1000021         3   # BR(~s_R -> ~g s)
DECAY   1000003     7.41903296E+02   # ~s_L
#    BR                NDA      ID1      ID2
     1.86785025E-03    2     1000022         3   # BR(~s_L -> chi^0_1 s)
     5.93511919E-02    2     1000023         3   # BR(~s_L -> chi^0_2 s)
     1.23002857E-04    2     1000025         3   # BR(~s_L -> chi^0_3 s)
     3.30546547E-04    2     1000035         3   # BR(~s_L -> chi^0_4 s)
     1.18209794E-01    2    -1000024         4   # BR(~s_L -> chi^-_1 c)
     1.21737038E-03    2    -1000037         4   # BR(~s_L -> chi^-_2 c)
     8.18900245E-01    2     1000021         3   # BR(~s_L -> ~g s)
DECAY   1000005     1.82703689E+02   # ~b_1
#    BR                NDA      ID1      ID2
     3.34990107E-03    2     1000022         5   # BR(~b_1 -> chi^0_1 b)
     9.05560765E-02    2     1000023         5   # BR(~b_1 -> chi^0_2 b)
     1.00035093E-01    2     1000025         5   # BR(~b_1 -> chi^0_3 b)
     9.97826379E-02    2     1000035         5   # BR(~b_1 -> chi^0_4 b)
     1.77355738E-01    2    -1000024         6   # BR(~b_1 -> chi^-_1 t)
     3.39798228E-01    2    -1000037         6   # BR(~b_1 -> chi^-_2 t)
     1.87130684E-02    2     1000021         5   # BR(~b_1 -> ~g b)
     1.70409257E-01    2     1000006       -24   # BR(~b_1 -> ~t_1 W^-)
DECAY   2000005     1.23390209E+02   # ~b_2
#    BR                NDA      ID1      ID2
     1.96884791E-02    2     1000022         5   # BR(~b_2 -> chi^0_1 b)
     1.40632966E-03    2     1000023         5   # BR(~b_2 -> chi^0_2 b)
     1.77733664E-01    2     1000025         5   # BR(~b_2 -> chi^0_3 b)
     1.77182889E-01    2     1000035         5   # BR(~b_2 -> chi^0_4 b)
     2.78790237E-03    2    -1000024         6   # BR(~b_2 -> chi^-_1 t)
     3.53223499E-01    2    -1000037         6   # BR(~b_2 -> chi^-_2 t)
     2.59668808E-01    2     1000021         5   # BR(~b_2 -> ~g b)
     1.38514834E-03    2     1000006       -24   # BR(~b_2 -> ~t_1 W^-)
     1.82797965E-03    2     2000006       -24   # BR(~b_2 -> ~t_2 W^-)
     1.31155647E-03    2     1000005        23   # BR(~b_2 -> ~b_1 Z)
     3.78374460E-03    2     1000005        25   # BR(~b_2 -> ~b_1 h^0)
DECAY   2000002     6.27931035E+02   # ~u_R
#    BR                NDA      ID1      ID2
     3.57230375E-02    2     1000022         2   # BR(~u_R -> chi^0_1 u)
     9.64219163E-01    2     1000021         2   # BR(~u_R -> ~g u)
DECAY   1000002     7.41841226E+02   # ~u_L
#    BR                NDA      ID1      ID2
     1.92014684E-03    2     1000022         2   # BR(~u_L -> chi^0_1 u)
     5.94093796E-02    2     1000023         2   # BR(~u_L -> chi^0_2 u)
     2.46737477E-04    2     1000035         2   # BR(~u_L -> chi^0_4 u)
     1.19316478E-01    2     1000024         1   # BR(~u_L -> chi^+_1 d)
     1.40830753E-04    2     1000037         1   # BR(~u_L -> chi^+_2 d)
     8.18922771E-01    2     1000021         2   # BR(~u_L -> ~g u)
DECAY   2000004     6.27938144E+02   # ~c_R
#    BR                NDA      ID1      ID2
     3.57226352E-02    2     1000022         4   # BR(~c_R -> chi^0_1 c)
     9.64208319E-01    2     1000021         4   # BR(~c_R -> ~g c)
DECAY   1000004     7.41888541E+02   # ~c_L
#    BR                NDA      ID1      ID2
     1.92002588E-03    2     1000022         4   # BR(~c_L -> chi^0_1 c)
     5.94056189E-02    2     1000023         4   # BR(~c_L -> chi^0_2 c)
     2.49101899E-04    2     1000035         4   # BR(~c_L -> chi^0_4 c)
     1.19309549E-01    2     1000024         3   # BR(~c_L -> chi^+_1 s)
     1.98573147E-04    2     1000037         3   # BR(~c_L -> chi^+_2 s)
     8.18871091E-01    2     1000021         4   # BR(~c_L -> ~g c)
DECAY   1000006     1.15054145E+02   # ~t_1
#    BR                NDA      ID1      ID2
     1.73426058E-04    2     1000022         4   # BR(~t_1 -> chi^0_1 c)
     5.70157798E-02    2     1000022         6   # BR(~t_1 -> chi^0_1 t)
     5.29908717E-03    2     1000023         4   # BR(~t_1 -> chi^0_2 c)
     1.69579810E-02    2     1000023         6   # BR(~t_1 -> chi^0_2 t)
     2.35926555E-01    2     1000025         6   # BR(~t_1 -> chi^0_3 t)
     2.23133937E-01    2     1000035         6   # BR(~t_1 -> chi^0_4 t)
     3.44732073E-02    2     1000024         5   # BR(~t_1 -> chi^+_1 b)
     4.26946751E-01    2     1000037         5   # BR(~t_1 -> chi^+_2 b)
#    BR                NDA      ID1      ID2       ID3
DECAY   2000006     1.93240132E+02   # ~t_2
#    BR                NDA      ID1      ID2
     7.71998411E-03    2     1000022         6   # BR(~t_2 -> chi^0_1 t)
     7.37719586E-02    2     1000023         6   # BR(~t_2 -> chi^0_2 t)
     1.56603797E-01    2     1000025         6   # BR(~t_2 -> chi^0_3 t)
     1.64412059E-01    2     1000035         6   # BR(~t_2 -> chi^0_4 t)
     1.50387749E-01    2     1000024         5   # BR(~t_2 -> chi^+_1 b)
     2.09653930E-01    2     1000037         5   # BR(~t_2 -> chi^+_2 b)
     2.57704273E-02    2     1000021         6   # BR(~t_2 -> ~g t)
     9.68622546E-02    2     1000006        23   # BR(~t_2 -> ~t_1 Z)
     1.14817840E-01    2     1000006        25   # BR(~t_2 -> ~t_1 h^0)
DECAY   1000024     8.36644895E-01   # chi^+_1
#    BR                NDA      ID1      ID2
     2.95001944E-01    2    -1000013        14   # BR(chi^+_1 -> ~mu^+_L nu_mu)
     3.52276302E-01    2     1000012       -11   # BR(chi^+_1 -> ~nu_e e^+)
     3.52716738E-01    2     1000014       -13   # BR(chi^+_1 -> ~nu_mu mu^+)
#    BR                NDA      ID1      ID2       ID3
DECAY   1000037     8.64169824E+00   # chi^+_2
#    BR                NDA      ID1      ID2
     5.55561836E-03    2    -1000011        12   # BR(chi^+_2 -> ~e^+_L nu_e)
     5.55647384E-03    2    -1000013        14   # BR(chi^+_2 -> ~mu^+_L nu_mu)
     4.74573798E-04    2    -2000013        14   # BR(chi^+_2 -> ~mu^+_R nu_mu)
     6.50305583E-04    2     1000012       -11   # BR(chi^+_2 -> ~nu_e e^+)
     1.61626707E-03    2     1000014       -13   # BR(chi^+_2 -> ~nu_mu mu^+)
     2.64422686E-03    2     1000016       -15   # BR(chi^+_2 -> ~nu_tau tau^+)
     9.85644973E-02    2     1000022        24   # BR(chi^+_2 -> chi^0_1 W^+)
     2.92611433E-01    2     1000023        24   # BR(chi^+_2 -> chi^0_2 W^+)
     2.86852172E-01    2     1000024        23   # BR(chi^+_2 -> chi^+_1 Z)
     2.91365639E-01    2     1000024        25   # BR(chi^+_2 -> chi^+_1 h^0)
#    BR                NDA      ID1      ID2       ID3
     5.64973833E-03    3     1000024         6        -6   # BR(chi^+_2 -> chi^+_1 t t_bar)
     2.03758321E-03    3     1000022        -5         6   # BR(chi^+_2 -> chi^0_1 b_bar t)
     6.36087564E-03    3     1000023        -5         6   # BR(chi^+_2 -> chi^0_2 b_bar t)
DECAY   1000022     0.00000000E+00   # chi^0_1
DECAY   1000023     1.07878752E+00   # chi^0_2
#    BR                NDA      ID1      ID2
     1.14354877E-01    2     1000011       -11   # BR(chi^0_2 -> ~e^-_L e^+)
     1.14354877E-01    2    -1000011        11   # BR(chi^0_2 -> ~e^+_L e^-)
     1.14708653E-01    2     1000013       -13   # BR(chi^0_2 -> ~mu^-_L mu^+)
     1.14708653E-01    2    -1000013        13   # BR(chi^0_2 -> ~mu^+_L mu^-)
     1.35379197E-01    2     1000012       -12   # BR(chi^0_2 -> ~nu_e nu_bar_e)
     1.35379197E-01    2    -1000012        12   # BR(chi^0_2 -> ~nu^*_e nu_e)
     1.35547731E-01    2     1000014       -14   # BR(chi^0_2 -> ~nu_mu nu_bar_mu)
     1.35547731E-01    2    -1000014        14   # BR(chi^0_2 -> ~nu^*_mu nu_mu)
#    BR                NDA      ID1      ID2       ID3
DECAY   1000025     1.02710788E+01   # chi^0_3
#    BR                NDA      ID1      ID2
     1.62398261E-04    2     2000011       -11   # BR(chi^0_3 -> ~e^-_R e^+)
     1.62398261E-04    2    -2000011        11   # BR(chi^0_3 -> ~e^+_R e^-)
     4.51541783E-04    2     1000013       -13   # BR(chi^0_3 -> ~mu^-_L mu^+)
     4.51541783E-04    2    -1000013        13   # BR(chi^0_3 -> ~mu^+_L mu^-)
     3.61837174E-04    2     2000013       -13   # BR(chi^0_3 -> ~mu^-_R mu^+)
     3.61837174E-04    2    -2000013        13   # BR(chi^0_3 -> ~mu^+_R mu^-)
     1.03901593E-03    2     1000015       -15   # BR(chi^0_3 -> ~tau^-_1 tau^+)
     1.03901593E-03    2    -1000015        15   # BR(chi^0_3 -> ~tau^+_1 tau^-)
     6.32686395E-04    2     1000012       -12   # BR(chi^0_3 -> ~nu_e nu_bar_e)
     6.32686395E-04    2    -1000012        12   # BR(chi^0_3 -> ~nu^*_e nu_e)
     6.32729537E-04    2     1000014       -14   # BR(chi^0_3 -> ~nu_mu nu_bar_mu)
     6.32729537E-04    2    -1000014        14   # BR(chi^0_3 -> ~nu^*_mu nu_mu)
     2.43012742E-01    2     1000024       -24   # BR(chi^0_3 -> chi^+_1 W^-)
     2.43012742E-01    2    -1000024        24   # BR(chi^0_3 -> chi^-_1 W^+)
     1.86856449E-02    2     1000022        23   # BR(chi^0_3 -> chi^0_1 Z)
     1.99690015E-01    2     1000023        23   # BR(chi^0_3 -> chi^0_2 Z)
     5.81375634E-02    2     1000022        25   # BR(chi^0_3 -> chi^0_1 h^0)
     2.18136010E-01    2     1000023        25   # BR(chi^0_3 -> chi^0_2 h^0)
#    BR                NDA      ID1      ID2       ID3
     7.38314938E-04    3     1000022         6        -6   # BR(chi^0_3 -> chi^0_1 t t_bar)
     2.05854965E-03    3     1000023         6        -6   # BR(chi^0_3 -> chi^0_2 t t_bar)
     4.91471930E-03    3     1000024         5        -6   # BR(chi^0_3 -> chi^+_1 b t_bar)
     4.91471930E-03    3    -1000024        -5         6   # BR(chi^0_3 -> chi^-_1 b_bar t)
DECAY   1000035     9.12130163E+00   # chi^0_4
#    BR                NDA      ID1      ID2
     8.55572954E-04    2     1000011       -11   # BR(chi^0_4 -> ~e^-_L e^+)
     8.55572954E-04    2    -1000011        11   # BR(chi^0_4 -> ~e^+_L e^-)
     1.30899280E-03    2     1000013       -13   # BR(chi^0_4 -> ~mu^-_L mu^+)
     1.30899280E-03    2    -1000013        13   # BR(chi^0_4 -> ~mu^+_L mu^-)
     2.77395175E-04    2     2000013       -13   # BR(chi^0_4 -> ~mu^-_R mu^+)
     2.77395175E-04    2    -2000013        13   # BR(chi^0_4 -> ~mu^+_R mu^-)
     1.20197762E-03    2     1000015       -15   # BR(chi^0_4 -> ~tau^-_1 tau^+)
     1.20197762E-03    2    -1000015        15   # BR(chi^0_4 -> ~tau^+_1 tau^-)
     1.58235817E-03    2     1000012       -12   # BR(chi^0_4 -> ~nu_e nu_bar_e)
     1.58235817E-03    2    -1000012        12   # BR(chi^0_4 -> ~nu^*_e nu_e)
     1.58246588E-03    2     1000014       -14   # BR(chi^0_4 -> ~nu_mu nu_bar_mu)
     1.58246588E-03    2    -1000014        14   # BR(chi^0_4 -> ~nu^*_mu nu_mu)
     2.78718694E-01    2     1000024       -24   # BR(chi^0_4 -> chi^+_1 W^-)
     2.78718694E-01    2    -1000024        24   # BR(chi^0_4 -> chi^-_1 W^+)
     7.28714513E-02    2     1000022        23   # BR(chi^0_4 -> chi^0_1 Z)
     5.42158624E-02    2     1000023        23   # BR(chi^0_4 -> chi^0_2 Z)
     6.07137637E-02    2     1000022        25   # BR(chi^0_4 -> chi^0_1 h^0)
     2.23857104E-01    2     1000023        25   # BR(chi^0_4 -> chi^0_2 h^0)
#    BR                NDA      ID1      ID2       ID3
     8.50976218E-04    3     1000022         6        -6   # BR(chi^0_4 -> chi^0_1 t t_bar)
     2.26420718E-03    3     1000023         6        -6   # BR(chi^0_4 -> chi^0_2 t t_bar)
     6.99229257E-03    3     1000024         5        -6   # BR(chi^0_4 -> chi^+_1 b t_bar)
     6.99229257E-03    3    -1000024        -5         6   # BR(chi^0_4 -> chi^-_1 b_bar t)
DECAY   1000021     1.60950975E+00   # ~g
#    BR                NDA      ID1      ID2
     1.70855777E-02    2     1000006        -4   # BR(~g -> ~t_1 c_bar)
     1.70855777E-02    2    -1000006         4   # BR(~g -> ~t^*_1 c)
     3.31675465E-01    2     1000006        -6   # BR(~g -> ~t_1 t_bar)
     3.31675465E-01    2    -1000006         6   # BR(~g -> ~t^*_1 t)
     1.36782705E-04    2     1000022        21   # BR(~g -> chi^0_1 g)
     3.36198543E-03    2     1000025        21   # BR(~g -> chi^0_3 g)
     3.50217119E-03    2     1000035        21   # BR(~g -> chi^0_4 g)
#    BR                NDA      ID1      ID2       ID3
     1.24687807E-03    3     1000022         6        -6   # BR(~g -> chi^0_1 t t_bar)
     1.97183728E-03    3     1000022         5        -5   # BR(~g -> chi^0_1 b b_bar)
     1.49019887E-04    3     1000023         2        -2   # BR(~g -> chi^0_2 u u_bar)
     1.49019620E-04    3     1000023         4        -4   # BR(~g -> chi^0_2 c c_bar)
     1.31974751E-02    3     1000023         6        -6   # BR(~g -> chi^0_2 t t_bar)
     1.48858220E-04    3     1000023         1        -1   # BR(~g -> chi^0_2 d d_bar)
     1.48859877E-04    3     1000023         3        -3   # BR(~g -> chi^0_2 s s_bar)
     2.24638843E-02    3     1000023         5        -5   # BR(~g -> chi^0_2 b b_bar)
     1.77424711E-02    3     1000025         6        -6   # BR(~g -> chi^0_3 t t_bar)
     3.02485719E-02    3     1000025         5        -5   # BR(~g -> chi^0_3 b b_bar)
     1.87605111E-02    3     1000035         6        -6   # BR(~g -> chi^0_4 t t_bar)
     3.01490067E-02    3     1000035         5        -5   # BR(~g -> chi^0_4 b b_bar)
     1.97631304E-04    3     1000024         1        -2   # BR(~g -> chi^+_1 d u_bar)
     1.97631304E-04    3    -1000024        -1         2   # BR(~g -> chi^-_1 d_bar u)
     1.97632885E-04    3     1000024         3        -4   # BR(~g -> chi^+_1 s c_bar)
     1.97632885E-04    3    -1000024        -3         4   # BR(~g -> chi^-_1 s_bar c)
     2.76503576E-02    3     1000024         5        -6   # BR(~g -> chi^+_1 b t_bar)
     2.76503576E-02    3    -1000024        -5         6   # BR(~g -> chi^-_1 b_bar t)
     5.13738181E-02    3     1000037         5        -6   # BR(~g -> chi^+_2 b t_bar)
     5.13738181E-02    3    -1000037        -5         6   # BR(~g -> chi^-_2 b_bar t)
DECAY        25     4.22829440E-03   # Gamma(h0)
     2.49636968E-03   2        22        22   # BR(h0 -> photon photon)
     2.01917204E-03   2        22        23   # BR(h0 -> photon Z)
     4.38034647E-02   2        23        23   # BR(h0 -> Z Z)
     3.32936178E-01   2       -24        24   # BR(h0 -> W W)
     7.38439157E-02   2        21        21   # BR(h0 -> gluon gluon)
     4.22635888E-09   2       -11        11   # BR(h0 -> Electron electron)
     1.88003621E-04   2       -13        13   # BR(h0 -> Muon muon)
     5.42324013E-02   2       -15        15   # BR(h0 -> Tau tau)
     1.19656902E-07   2        -2         2   # BR(h0 -> Up up)
     2.32253229E-02   2        -4         4   # BR(h0 -> Charm charm)
     4.86402561E-07   2        -1         1   # BR(h0 -> Down down)
     1.75920219E-04   2        -3         3   # BR(h0 -> Strange strange)
     4.67078641E-01   2        -5         5   # BR(h0 -> Bottom bottom)
DECAY        35     1.23497424E+02   # Gamma(HH)
     1.79081845E-08   2        22        22   # BR(HH -> photon photon)
     5.65921581E-08   2        22        23   # BR(HH -> photon Z)
     4.61175675E-08   2        23        23   # BR(HH -> Z Z)
     8.78259086E-09   2       -24        24   # BR(HH -> W W)
     2.96474621E-06   2        21        21   # BR(HH -> gluon gluon)
     7.46802376E-09   2       -11        11   # BR(HH -> Electron electron)
     3.32544228E-04   2       -13        13   # BR(HH -> Muon muon)
     1.21859672E-01   2       -15        15   # BR(HH -> Tau tau)
     2.36103816E-14   2        -2         2   # BR(HH -> Up up)
     4.58064192E-09   2        -4         4   # BR(HH -> Charm charm)
     2.34140184E-04   2        -6         6   # BR(HH -> Top top)
     7.23692711E-07   2        -1         1   # BR(HH -> Down down)
     2.61682664E-04   2        -3         3   # BR(HH -> Strange strange)
     4.57064724E-01   2        -5         5   # BR(HH -> Bottom bottom)
     2.98860910E-03   2  -1000024   1000024   # BR(HH -> Chargino1 chargino1)
     1.18847974E-01   2  -1000024   1000037   # BR(HH -> Chargino1 chargino2)
     1.18847974E-01   2  -1000037   1000024   # BR(HH -> Chargino2 chargino1)
     2.06558312E-04   2  -1000037   1000037   # BR(HH -> Chargino2 chargino2)
     1.15957207E-04   2   1000022   1000022   # BR(HH -> neutralino1 neutralino1)
     8.58449082E-04   2   1000022   1000023   # BR(HH -> neutralino1 neutralino2)
     1.54982282E-02   2   1000022   1000025   # BR(HH -> neutralino1 neutralino3)
     1.84487343E-02   2   1000022   1000035   # BR(HH -> neutralino1 neutralino4)
     1.49050821E-03   2   1000023   1000023   # BR(HH -> neutralino2 neutralino2)
     5.97418103E-02   2   1000023   1000025   # BR(HH -> neutralino2 neutralino3)
     5.72497300E-02   2   1000023   1000035   # BR(HH -> neutralino2 neutralino4)
     2.31212375E-04   2   1000025   1000025   # BR(HH -> neutralino3 neutralino3)
     1.04769327E-03   2   1000025   1000035   # BR(HH -> neutralino3 neutralino4)
     5.27537464E-04   2   1000035   1000035   # BR(HH -> neutralino4 neutralino4)
     5.17414665E-07   2        25        25   # BR(HH -> h0 h0)
     2.13363675E-08   2  -1000011   1000011   # BR(HH -> Selectron1 selectron1)
     2.23661259E-13   2  -2000011   1000011   # BR(HH -> Selectron2 selectron1)
     2.23661259E-13   2  -1000011   2000011   # BR(HH -> Selectron1 selectron2)
     1.31746042E-08   2  -2000011   2000011   # BR(HH -> Selectron2 selectron2)
     2.02559224E-08   2  -1000013   1000013   # BR(HH -> Smuon1 smuon1)
     9.55376924E-09   2  -2000013   1000013   # BR(HH -> Smuon2 smuon1)
     9.55376924E-09   2  -1000013   2000013   # BR(HH -> Smuon1 smuon2)
     1.36541809E-08   2  -2000013   2000013   # BR(HH -> Smuon2 smuon2)
     4.70103159E-04   2  -1000015   1000015   # BR(HH -> Stau1 stau1)
     1.16413897E-02   2  -2000015   1000015   # BR(HH -> Stau2 stau1)
     1.16413897E-02   2  -1000015   2000015   # BR(HH -> Stau1 stau2)
     3.88745200E-04   2  -2000015   2000015   # BR(HH -> Stau2 stau2)
DECAY        36     1.19115163E+02   # Gamma(A0)
     7.09582650E-10   2        22        22   # BR(A0 -> photon photon)
     1.64434804E-08   2        22        23   # BR(A0 -> photon Z)
     6.12224165E-06   2        21        21   # BR(A0 -> gluon gluon)
     7.26630508E-09   2       -11        11   # BR(A0 -> Electron electron)
     3.23562625E-04   2       -13        13   # BR(A0 -> Muon muon)
     1.18576108E-01   2       -15        15   # BR(A0 -> Tau tau)
     2.45206858E-14   2        -2         2   # BR(A0 -> Up up)
     4.75708657E-09   2        -4         4   # BR(A0 -> Charm charm)
     2.48727039E-04   2        -6         6   # BR(A0 -> Top top)
     7.04187498E-07   2        -1         1   # BR(A0 -> Down down)
     2.54629122E-04   2        -3         3   # BR(A0 -> Strange strange)
     4.44715795E-01   2        -5         5   # BR(A0 -> Bottom bottom)
     3.13164172E-03   2  -1000024   1000024   # BR(A0 -> Chargino1 chargino1)
     1.23240244E-01   2  -1000024   1000037   # BR(A0 -> Chargino1 chargino2)
     1.23240244E-01   2  -1000037   1000024   # BR(A0 -> Chargino2 chargino1)
     2.41364972E-04   2  -1000037   1000037   # BR(A0 -> Chargino2 chargino2)
     1.26699456E-04   2   1000022   1000022   # BR(A0 -> neutralino1 neutralino1)
     8.62029411E-04   2   1000022   1000023   # BR(A0 -> neutralino1 neutralino2)
     1.93044940E-02   2   1000022   1000025   # BR(A0 -> neutralino1 neutralino3)
     1.59210415E-02   2   1000022   1000035   # BR(A0 -> neutralino1 neutralino4)
     1.56162698E-03   2   1000023   1000023   # BR(A0 -> neutralino2 neutralino2)
     5.99461194E-02   2   1000023   1000025   # BR(A0 -> neutralino2 neutralino3)
     6.13907265E-02   2   1000023   1000035   # BR(A0 -> neutralino2 neutralino4)
     3.80272389E-04   2   1000025   1000025   # BR(A0 -> neutralino3 neutralino3)
     7.56596221E-04   2   1000025   1000035   # BR(A0 -> neutralino3 neutralino4)
     7.34532606E-04   2   1000035   1000035   # BR(A0 -> neutralino4 neutralino4)
     1.11972773E-07   2        23        25   # BR(A0 -> Z h0)
     2.76541533E-14   2        23        35   # BR(A0 -> Z HH)
     2.12910438E-35   2        25        25   # BR(A0 -> h0 h0)
     2.29356554E-13   2  -2000011   1000011   # BR(A0 -> Selectron2 selectron1)
     2.29356554E-13   2  -1000011   2000011   # BR(A0 -> Selectron1 selectron2)
     9.80571125E-09   2  -2000013   1000013   # BR(A0 -> Smuon2 smuon1)
     9.80571125E-09   2  -1000013   2000013   # BR(A0 -> Smuon1 smuon2)
     1.25182786E-02   2  -2000015   1000015   # BR(A0 -> Stau2 stau1)
     1.25182786E-02   2  -1000015   2000015   # BR(A0 -> Stau1 stau2)
DECAY        37     1.36383084E+02   # Gamma(Hp)
     1.22193007E-08   2       -11        12   # BR(Hp -> Electron nu_e)
     5.22413268E-04   2       -13        14   # BR(Hp -> Muon nu_mu)
     1.47768234E-01   2       -15        16   # BR(Hp -> Tau nu_tau)
     7.05103871E-07   2        -1         2   # BR(Hp -> Down up)
     1.19472001E-05   2        -3         2   # BR(Hp -> Strange up)
     4.97936354E-06   2        -5         2   # BR(Hp -> Bottom up)
     3.33827934E-08   2        -1         4   # BR(Hp -> Down charm)
     2.54017415E-04   2        -3         4   # BR(Hp -> Strange charm)
     6.97289191E-04   2        -5         4   # BR(Hp -> Bottom charm)
     3.46966439E-08   2        -1         6   # BR(Hp -> Down top)
     1.13552105E-06   2        -3         6   # BR(Hp -> Strange top)
     4.70341202E-01   2        -5         6   # BR(Hp -> Bottom top)
     1.53245660E-03   2   1000022   1000024   # BR(Hp -> neutralino1 chargino1)
     3.06834911E-02   2   1000022   1000037   # BR(Hp -> neutralino1 chargino2)
     2.27223856E-09   2   1000023   1000024   # BR(Hp -> neutralino2 chargino1)
     1.09593507E-01   2   1000023   1000037   # BR(Hp -> neutralino2 chargino2)
     1.07662133E-01   2   1000024   1000025   # BR(Hp -> chargino1 neutralino3)
     6.96924733E-04   2   1000025   1000037   # BR(Hp -> neutralino3 chargino2)
     1.08165159E-01   2   1000024   1000035   # BR(Hp -> chargino1 neutralino4)
     1.85769572E-04   2   1000035   1000037   # BR(Hp -> neutralino4 chargino2)
     9.77901863E-08   2        24        25   # BR(Hp -> W h0)
     7.59072970E-08   2  -1000011   1000012   # BR(Hp -> Selectron1 snu_e1)
     4.26016113E-13   2  -2000011   1000012   # BR(Hp -> Selectron2 snu_e1)
     7.45113168E-08   2  -1000013   1000014   # BR(Hp -> Smuon1 snu_mu1)
     1.82069895E-08   2  -2000013   1000014   # BR(Hp -> Smuon2 snu_mu1)
     2.19516169E-04   2  -1000015   1000016   # BR(Hp -> Stau1 snu_tau1)
     2.16587711E-02   2  -2000015   1000016   # BR(Hp -> Stau2 snu_tau1)
DECAY         6     2.43000000E+00   # top
#    BR                NDA      ID1      ID2
     1.00000000E+00    2           5        24   # BR(t -> b W)
Block HiggsBoundsInputHiggsCouplingsFermions
# ScalarNormEffCoupSq PseudoSNormEffCoupSq NP IP1 IP2 IP2
    9.46569747E-01    0.00000000E+00        3  25   5   5  # h0-b-b eff. coupling^2, normalised to SM
    2.17188997E+03    0.00000000E+00        3  35   5   5  # H0-b-b eff. coupling^2, normalised to SM
    0.00000000E+00    2.17183654E+03        3  36   5   5  # A0-b-b eff. coupling^2, normalised to SM
#
    1.00002460E+00    0.00000000E+00        3  25   6   6  # h0-t-t eff. coupling^2, normalised to SM
    4.35838392E-04    0.00000000E+00        3  35   6   6  # H0-t-t eff. coupling^2, normalised to SM
    0.00000000E+00    4.60439808E-04        3  36   6   6  # A0-t-t eff. coupling^2, normalised to SM
#
    9.46569747E-01    0.00000000E+00        3  25  15  15  # h0-tau-tau eff. coupling^2, normalised to SM
    2.17188997E+03    0.00000000E+00        3  35  15  15  # H0-tau-tau eff. coupling^2, normalised to SM
    0.00000000E+00    2.17183654E+03        3  36  15  15  # A0-tau-tau eff. coupling^2, normalised to SM
#
Block HiggsBoundsInputHiggsCouplingsBosons
    9.99999662E-01        3  25  24  24  # h0-W-W eff. coupling^2, normalised to SM
    3.37694336E-07        3  35  24  24  # H0-W-W eff. coupling^2, normalised to SM
    0.00000000E+00        3  36  24  24  # A0-W-W eff. coupling^2, normalised to SM
#
    9.99999662E-01        3  25  23  23  # h0-Z-Z eff. coupling^2, normalised to SM
    3.37694336E-07        3  35  23  23  # H0-Z-Z eff. coupling^2, normalised to SM
    0.00000000E+00        3  36  23  23  # A0-Z-Z eff. coupling^2, normalised to SM
#
    1.26341420E+00        3  25  21  21  # h0-g-g eff. coupling^2, normalised to SM
    7.90052306E-03        3  35  21  21  # H0-g-g eff. coupling^2, normalised to SM
    1.26420804E-01        3  36  21  21  # A0-g-g eff. coupling^2, normalised to SM
#
    0.00000000E+00        3  25  25  23  # h0-h0-Z eff. coupling^2, normalised to SM
    0.00000000E+00        3  35  25  23  # H0-h0-Z eff. coupling^2, normalised to SM
    3.37694336E-07        3  36  25  23  # A0-h0-Z eff. coupling^2, normalised to SM
    0.00000000E+00        3  35  35  23  # H0-H0-Z eff. coupling^2, normalised to SM
    9.99999662E-01        3  36  35  23  # A0-H0-Z eff. coupling^2, normalised to SM
    0.00000000E+00        3  36  36  23  # A0-A0-Z eff. coupling^2, normalised to SM
#
    0.00000000E+00        4  25  21  21  23  # h0-g-g-Z eff. coupling^2, normalised to SM
    0.00000000E+00        4  35  21  21  23  # H0-g-g-Z eff. coupling^2, normalised to SM
    0.00000000E+00        4  36  21  21  23  # A0-g-g-Z eff. coupling^2, normalised to SM
Block SPhenoLowEnergy  # low energy observables
    1    3.39901179E-04   # BR(b -> s gamma)
    2    1.58851168E-06   # BR(b -> s mu+ mu-)
    3    3.52573414E-05   # BR(b -> s nu nu)
    4    3.51947263E-15   # BR(Bd -> e+ e-)
    5    1.50348521E-10   # BR(Bd -> mu+ mu-)
    6    3.15075912E-08   # BR(Bd -> tau+ tau-)
    7    1.18156516E-13   # BR(Bs -> e+ e-)
    8    5.04766501E-09   # BR(Bs -> mu+ mu-)
    9    1.07184497E-06   # BR(Bs -> tau+ tau-)
   10    9.58688955E-05   # BR(B_u -> tau nu)
   11    9.90288987E-01   # BR(B_u -> tau nu)/BR(B_u -> tau nu)_SM
   12    5.42313134E-01   # |Delta(M_Bd)| [ps^-1] 
   13    1.93723517E+01   # |Delta(M_Bs)| [ps^-1] 
   14    0.00000000E+00   # neutron EDM according to the chiral quark model
   15    0.00000000E+00   # neutron EDM according to the relativistic quark-parton model
   16    2.15914162E-03   # epsilon_K
   17    2.28167745E-15   # Delta(M_K)
   18    2.48027645E-11   # BR(K^0 -> pi^0 nu nu)
   19    8.29117452E-11   # BR(K^+ -> pi^+ nu nu)
   20    3.90778319E-14   # Delta(g-2)_electron/2
   21    1.68996611E-09   # Delta(g-2)_muon/2
   22   -5.29483606E-08   # Delta(g-2)_tau/2
   23    0.00000000E+00   # electric dipole moment of the electron
   24    0.00000000E+00   # electric dipole moment of the muon
   25    0.00000000E+00   # electric dipole moment of the tau
   26    0.00000000E+00   # Br(mu -> e gamma)
   27    0.00000000E+00   # Br(tau -> e gamma)
   28    0.00000000E+00   # Br(tau -> mu gamma)
   29    0.00000000E+00   # Br(mu -> 3 e)
   30    0.00000000E+00   # Br(tau -> 3 e)
   31    0.00000000E+00   # Br(tau -> 3 mu)
   39    1.16054790E-04   # Delta(rho_parameter)
   40    0.00000000E+00   # BR(Z -> e mu)
   41    0.00000000E+00   # BR(Z -> e tau)
   42    0.00000000E+00   # BR(Z -> mu tau)
Block FWCOEF Q=  1.60000000E+02  # Wilson coefficients at scale Q
#    id        order  M        value         comment
     0305 4422   00   0    -1.88819110E-01   # C7
     0305 4422   00   2    -2.11088220E-01   # C7
     0305 4322   00   2    -1.93701644E-04   # C7'
     0305 6421   00   0    -9.52278348E-02   # C8
     0305 6421   00   2    -1.11231846E-01   # C8
     0305 6321   00   2    -1.66199609E-04   # C8'
 03051111 4133   00   0     1.62390675E+00   # C9 e+e-
 03051111 4133   00   2     1.62409869E+00   # C9 e+e-
 03051111 4233   00   2     5.80923651E-04   # C9' e+e-
 03051111 4137   00   0    -4.44659886E+00   # C10 e+e-
 03051111 4137   00   2    -4.44544758E+00   # C10 e+e-
 03051111 4237   00   2    -4.31720061E-03   # C10' e+e-
 03051313 4133   00   0     1.62390675E+00   # C9 mu+mu-
 03051313 4133   00   2     1.62409507E+00   # C9 mu+mu-
 03051313 4233   00   2     5.80922607E-04   # C9' mu+mu-
 03051313 4137   00   0    -4.44659886E+00   # C10 mu+mu-
 03051313 4137   00   2    -4.44545116E+00   # C10 mu+mu-
 03051313 4237   00   2    -4.31720321E-03   # C10' mu+mu-
 03051212 4137   00   0     1.50535012E+00   # C11 nu_1 nu_1
 03051212 4137   00   2     1.50512708E+00   # C11 nu_1 nu_1
 03051212 4237   00   2     9.34119438E-04   # C11' nu_1 nu_1
 03051414 4137   00   0     1.50535012E+00   # C11 nu_2 nu_2
 03051414 4137   00   2     1.50512708E+00   # C11 nu_2 nu_2
 03051414 4237   00   2     9.34119470E-04   # C11' nu_2 nu_2
 03051616 4137   00   0     1.50535012E+00   # C11 nu_3 nu_3
 03051616 4137   00   2     1.50512619E+00   # C11 nu_3 nu_3
 03051616 4237   00   2     9.34128639E-04   # C11' nu_3 nu_3
Block IMFWCOEF Q=  1.60000000E+02  # Im(Wilson coefficients) at scale Q
#    id        order  M        value         comment
     0305 4422   00   0     3.85701860E-07   # C7
     0305 4422   00   2    -4.53208373E-06   # C7
     0305 4322   00   2    -2.19955280E-06   # C7'
     0305 6421   00   0     3.30379151E-07   # C8
     0305 6421   00   2    -1.78616369E-05   # C8
     0305 6321   00   2    -1.30029166E-06   # C8'
 03051111 4133   00   2    -1.00965663E-06   # C9 e+e-
 03051111 4233   00   2     1.09036237E-05   # C9' e+e-
 03051111 4137   00   2     3.83990790E-06   # C10 e+e-
 03051111 4237   00   2    -8.10329772E-05   # C10' e+e-
 03051313 4133   00   2    -1.01002619E-06   # C9 mu+mu-
 03051313 4233   00   2     1.09036078E-05   # C9' mu+mu-
 03051313 4137   00   2     3.84026314E-06   # C10 mu+mu-
 03051313 4237   00   2    -8.10330263E-05   # C10' mu+mu-
 03051212 4137   00   2    -3.66934991E-07   # C11 nu_1 nu_1
 03051212 4237   00   2     1.75332375E-05   # C11' nu_1 nu_1
 03051414 4137   00   2    -3.66925863E-07   # C11 nu_2 nu_2
 03051414 4237   00   2     1.75332375E-05   # C11' nu_2 nu_2
 03051616 4137   00   2    -3.82884817E-07   # C11 nu_3 nu_3
 03051616 4237   00   2     1.75332429E-05   # C11' nu_3 nu_3
