# SUSY Les Houches Accord 2 - MSSM spectrum + Decays
# SPheno v4.0.5be
# W. Porod, Comput. Phys. Commun. 153 (2003) 275-315, hep-ph/0301101;
# W. Porod, F.~Staub, Comput. Phys. Commun. 183 (2012) 2458
#                     arXiv:1104.1573 [hep-ph] 
# in case of problems send email to porod@physik.uni-wuerzburg.de
# Created: 15.03.2021,  18:38
Block SPINFO         # Program information
     1   SPheno      # spectrum calculator
     2   v4.0.5be    # version number
#
Block SPhenoINFO     # SPheno specific information
    1      2         # using 2-loop RGEs
    2      2         # using pole masses for boundary conditions at mZ
Block MODSEL  # Model selection
    1    0    # general MSSM
Block MINPAR  # Input parameters
    3    4.19916604E+01  # tanb at m_Z    
    4    1.00000000E+00  # Sign(mu)
Block EXTPAR  # non-universal input parameters
    0    3.57403352E+03  # scale for input parameters
    1    1.29536113E+03  # M_1
    2    9.65521664E+02  # M_2
    3    2.15194130E+03  # M_3
   11   -6.62709935E+03  # A_t
   12    1.25681286E+03  # A_b
   13   -1.79187244E+03  # A_tau
   23    9.03770686E+01  # mu
   25    4.10375714E+01  # tan(beta)
   26    7.95990532E+02  # m_A, pole mass
   31    1.00000000E+04  # M_L11
   32    1.00000000E+04  # M_L22
   33    1.00000000E+04  # M_L33
   34    1.00000000E+04  # M_E11
   35    1.00000000E+04  # M_E22
   36    1.00000000E+04  # M_E33
   41    1.00000000E+04  # M_Q11
   42    1.00000000E+04  # M_Q22
   43    3.55440092E+03  # M_Q33
   44    1.00000000E+04  # M_U11
   45    1.00000000E+04  # M_U22
   46    3.70031801E+03  # M_U33
   47    1.00000000E+04  # M_D11
   48    1.00000000E+04  # M_D22
   49    2.65197132E+03  # M_D33
Block SMINPUTS  # SM parameters
         1     1.27908970E+02  # alpha_em^-1(MZ)^MSbar
         2     1.16637870E-05  # G_mu [GeV^-2]
         3     1.18400000E-01  # alpha_s(MZ)^MSbar
         4     9.11876000E+01  # m_Z(pole)
         5     4.18000000E+00  # m_b(m_b), MSbar
         6     1.73200000E+02  # m_t(pole)
         7     1.77700000E+00  # m_tau(pole)
         8     0.00000000E+00  # m_nu_3
        11     5.10998930E-04  # m_e(pole)
        12     0.00000000E+00  # m_nu_1
        13     1.05658372E-01  # m_muon(pole)
        14     0.00000000E+00  # m_nu_2
        21     5.00000000E-03  # m_d(2 GeV), MSbar
        22     2.50000000E-03  # m_u(2 GeV), MSbar
        23     9.50000000E-02  # m_s(2 GeV), MSbar
        24     1.27000000E+00  # m_c(m_c), MSbar
Block gauge Q=  3.57403352E+03  # (SUSY scale)
   1    3.55362975E-01  # g'(Q)^DRbar
   2    6.65198874E-01  # g(Q)^DRbar
   3    1.21977796E+00  # g3(Q)^DRbar
Block Yu Q=  3.57403352E+03  # (SUSY scale)
  1  1     8.38686106E-06   # Y_u(Q)^DRbar
  2  2     4.26052542E-03   # Y_c(Q)^DRbar
  3  3     1.01320018E+00   # Y_t(Q)^DRbar
Block Yd Q=  3.57403352E+03  # (SUSY scale)
  1  1     6.91610133E-04   # Y_d(Q)^DRbar
  2  2     1.31405925E-02   # Y_s(Q)^DRbar
  3  3     6.85860532E-01   # Y_b(Q)^DRbar
Block Ye Q=  3.57403352E+03  # (SUSY scale)
  1  1     1.20691026E-04   # Y_e(Q)^DRbar
  2  2     2.49550763E-02   # Y_mu(Q)^DRbar
  3  3     4.19703330E-01   # Y_tau(Q)^DRbar
Block Au Q=  3.57403352E+03  # (SUSY scale)
  1  1     0.00000000E+00   # A_u(Q)^DRbar
  2  2     0.00000000E+00   # A_c(Q)^DRbar
  3  3    -6.62709926E+03   # A_t(Q)^DRbar
Block Ad Q=  3.57403352E+03  # (SUSY scale)
  1  1     0.00000000E+00   # A_d(Q)^DRbar
  2  2     0.00000000E+00   # A_s(Q)^DRbar
  3  3     1.25681287E+03   # A_b(Q)^DRbar
Block Ae Q=  3.57403352E+03  # (SUSY scale)
  1  1     0.00000000E+00   # A_e(Q)^DRbar
  2  2     0.00000000E+00   # A_mu(Q)^DRbar
  3  3    -1.79187245E+03   # A_tau(Q)^DRbar
Block MSOFT Q=  3.57403352E+03  # soft SUSY breaking masses at Q
   1    1.29536113E+03  # M_1
   2    9.65521664E+02  # M_2
   3    2.15194130E+03  # M_3
  21    5.12596500E+05  # M^2_(H,d)
  22    2.59208494E+05  # M^2_(H,u)
  31    1.00000000E+04  # M_(L,11)
  32    1.00000000E+04  # M_(L,22)
  33    1.00000000E+04  # M_(L,33)
  34    1.00000000E+04  # M_(E,11)
  35    1.00000000E+04  # M_(E,22)
  36    1.00000000E+04  # M_(E,33)
  41    1.00000000E+04  # M_(Q,11)
  42    1.00000000E+04  # M_(Q,22)
  43    3.55440092E+03  # M_(Q,33)
  44    1.00000000E+04  # M_(U,11)
  45    1.00000000E+04  # M_(U,22)
  46    3.70031801E+03  # M_(U,33)
  47    1.00000000E+04  # M_(D,11)
  48    1.00000000E+04  # M_(D,22)
  49    2.65197132E+03  # M_(D,33)
Block MASS  # Mass spectrum
#   PDG code      mass          particle
         6     1.73200000E+02  # m_t(pole)
        23     9.11876000E+01  # m_Z(pole)
        24     8.04299946E+01  # W+
        15     1.77700000E+00  # m_tau(pole)
        25     1.28298857E+02  # h0
        35     7.96043450E+02  # H0
        36     7.95990532E+02  # A0
        37     8.07578075E+02  # H+
   1000001     1.01155767E+04  # ~d_L
   2000001     1.00907136E+04  # ~d_R
   1000002     1.01152168E+04  # ~u_L
   2000002     1.00939174E+04  # ~u_R
   1000003     1.01155811E+04  # ~s_L
   2000003     1.00907213E+04  # ~s_R
   1000004     1.01152212E+04  # ~c_L
   2000004     1.00939183E+04  # ~c_R
   1000005     2.71871204E+03  # ~b_1
   2000005     3.54597224E+03  # ~b_2
   1000006     3.44942847E+03  # ~t_1
   2000006     3.70313973E+03  # ~t_2
   1000011     1.00210871E+04  # ~e_L-
   2000011     1.00085680E+04  # ~e_R-
   1000012     1.00203214E+04  # ~nu_eL
   1000013     1.00211079E+04  # ~mu_L-
   2000013     1.00086084E+04  # ~mu_R-
   1000014     1.00203420E+04  # ~nu_muL
   1000015     1.00201694E+04  # ~tau_1-
   2000015     1.00270867E+04  # ~tau_2-
   1000016     1.00262811E+04  # ~nu_tauL
   1000021     2.57307098E+03  # ~g
   1000022     1.05185327E+02  # ~chi_10
   1000023     1.13126284E+02  # ~chi_20
   1000025     1.04283399E+03  # ~chi_30
   1000035     1.30504896E+03  # ~chi_40
   1000024     1.08889791E+02  # ~chi_1+
   1000037     1.04262865E+03  # ~chi_2+
# Higgs mixing
Block alpha # Effective Higgs mixing angle
          -2.47610877E-02   # alpha
Block Hmix Q=  3.57403352E+03  # Higgs mixing parameters
   1    9.03770686E+01  # mu
   2    4.10375714E+01  # tan[beta](Q)
   3    2.43015895E+02  # v(Q)
   4    6.33600927E+05  # m^2_A(Q)
Block stopmix # stop mixing matrix
   1  1     8.03084634E-01   # Re[R_st(1,1)]
   1  2     5.95864977E-01   # Re[R_st(1,2)]
   2  1    -5.95864977E-01   # Re[R_st(2,1)]
   2  2     8.03084634E-01   # Re[R_st(2,2)]
Block sbotmix # sbottom mixing matrix
   1  1     7.19684945E-04   # Re[R_sb(1,1)]
   1  2     9.99999741E-01   # Re[R_sb(1,2)]
   2  1    -9.99999741E-01   # Re[R_sb(2,1)]
   2  2     7.19684945E-04   # Re[R_sb(2,2)]
Block staumix # stau mixing matrix
   1  1     6.80530208E-02   # Re[R_sta(1,1)]
   1  2     9.97681706E-01   # Re[R_sta(1,2)]
   2  1    -9.97681706E-01   # Re[R_sta(2,1)]
   2  2     6.80530208E-02   # Re[R_sta(2,2)]
Block Nmix # neutralino mixing matrix
   1  1     2.63935546E-02   # Re[N(1,1)]
   1  2    -6.10037884E-02   # Re[N(1,2)]
   1  3     7.19389242E-01   # Re[N(1,3)]
   1  4    -6.91419581E-01   # Re[N(1,4)]
   2  1     2.20407916E-02   # Re[N(2,1)]
   2  2    -4.94503702E-02   # Re[N(2,2)]
   2  3    -6.94531342E-01   # Re[N(2,3)]
   2  4    -7.17422525E-01   # Re[N(2,4)]
   3  1    -1.26274003E-02   # Re[N(3,1)]
   3  2    -9.96862729E-01   # Re[N(3,2)]
   3  3    -9.53292455E-03   # Re[N(3,3)]
   3  4     7.75523852E-02   # Re[N(3,4)]
   4  1     9.99328841E-01   # Re[N(4,1)]
   4  2    -9.89439332E-03   # Re[N(4,2)]
   4  3    -3.80214655E-03   # Re[N(4,3)]
   4  4     3.50643996E-02   # Re[N(4,4)]
Block Umix # chargino mixing matrix
   1  1    -1.36250205E-02   # Re[U(1,1)]
   1  2     9.99907175E-01   # Re[U(1,2)]
   2  1     9.99907175E-01   # Re[U(2,1)]
   2  2     1.36250205E-02   # Re[U(2,2)]
Block Vmix # chargino mixing matrix
   1  1    -1.10813554E-01   # Re[V(1,1)]
   1  2     9.93841213E-01   # Re[V(1,2)]
   2  1     9.93841213E-01   # Re[V(2,1)]
   2  2     1.10813554E-01   # Re[V(2,2)]
DECAY        23     2.49520000E+00   # Z
DECAY        24     2.08500000E+00   # W
DECAY   2000011     4.85959509E+01   # ~e^-_R
#    BR                NDA      ID1      ID2
     7.20766823E-04    2     1000022        11   # BR(~e^-_R -> chi^0_1 e^-)
     5.02625625E-04    2     1000023        11   # BR(~e^-_R -> chi^0_2 e^-)
     1.61444384E-04    2     1000025        11   # BR(~e^-_R -> chi^0_3 e^-)
     9.98615103E-01    2     1000035        11   # BR(~e^-_R -> chi^0_4 e^-)
DECAY   1000011     1.41648746E+02   # ~e^-_L
#    BR                NDA      ID1      ID2
     6.84908358E-04    2     1000022        11   # BR(~e^-_L -> chi^0_1 e^-)
     4.41903558E-04    2     1000023        11   # BR(~e^-_L -> chi^0_2 e^-)
     3.06885554E-01    2     1000025        11   # BR(~e^-_L -> chi^0_3 e^-)
     8.26145908E-02    2     1000035        11   # BR(~e^-_L -> chi^0_4 e^-)
     1.15586477E-04    2    -1000024        12   # BR(~e^-_L -> chi^-_1 nu_e)
     6.09257456E-01    2    -1000037        12   # BR(~e^-_L -> chi^-_2 nu_e)
#    BR                NDA      ID1      ID2       ID3
DECAY   2000013     4.88440952E+01   # ~mu^-_R
#    BR                NDA      ID1      ID2
     2.03061142E-03    2     1000022        13   # BR(~mu^-_R -> chi^0_1 mu^-)
     1.72433023E-03    2     1000023        13   # BR(~mu^-_R -> chi^0_2 mu^-)
     1.60850563E-04    2     1000025        13   # BR(~mu^-_R -> chi^0_3 mu^-)
     9.93546129E-01    2     1000035        13   # BR(~mu^-_R -> chi^0_4 mu^-)
     2.53761731E-03    2    -1000024        14   # BR(~mu^-_R -> chi^-_1 nu_mu)
DECAY   1000013     1.41773176E+02   # ~mu^-_L
#    BR                NDA      ID1      ID2
     1.13740588E-03    2     1000022        13   # BR(~mu^-_L -> chi^0_1 mu^-)
     8.63827901E-04    2     1000023        13   # BR(~mu^-_L -> chi^0_2 mu^-)
     3.06616954E-01    2     1000025        13   # BR(~mu^-_L -> chi^0_3 mu^-)
     8.25422778E-02    2     1000035        13   # BR(~mu^-_L -> chi^0_4 mu^-)
     1.15485270E-04    2    -1000024        14   # BR(~mu^-_L -> chi^-_1 nu_mu)
     6.08724050E-01    2    -1000037        14   # BR(~mu^-_L -> chi^-_2 nu_mu)
#    BR                NDA      ID1      ID2       ID3
DECAY   1000015     1.19140710E+02   # ~tau^-_1
#    BR                NDA      ID1      ID2
     1.55216673E-01    2     1000022        15   # BR(~tau^-_1 -> chi^0_1 tau^-)
     1.40435477E-01    2     1000023        15   # BR(~tau^-_1 -> chi^0_2 tau^-)
     1.36721418E-03    2     1000025        15   # BR(~tau^-_1 -> chi^0_3 tau^-)
     4.06308934E-01    2     1000035        15   # BR(~tau^-_1 -> chi^0_4 tau^-)
     2.94109646E-01    2    -1000024        16   # BR(~tau^-_1 -> chi^-_1 nu_tau)
     2.56205526E-03    2    -1000037        16   # BR(~tau^-_1 -> chi^-_2 nu_tau)
DECAY   2000015     1.76596075E+02   # ~tau^-_2
#    BR                NDA      ID1      ID2
     1.01865829E-01    2     1000022        15   # BR(~tau^-_2 -> chi^0_1 tau^-)
     9.75991996E-02    2     1000023        15   # BR(~tau^-_2 -> chi^0_2 tau^-)
     2.45465505E-01    2     1000025        15   # BR(~tau^-_2 -> chi^0_3 tau^-)
     6.73385232E-02    2     1000035        15   # BR(~tau^-_2 -> chi^0_4 tau^-)
     4.30181392E-04    2    -1000024        16   # BR(~tau^-_2 -> chi^-_1 nu_tau)
     4.87300761E-01    2    -1000037        16   # BR(~tau^-_2 -> chi^-_2 nu_tau)
#    BR                NDA      ID1      ID2       ID3
DECAY   1000012     1.41654304E+02   # ~nu_e
#    BR                NDA      ID1      ID2
     1.75583136E-03    2     1000022        12   # BR(~nu_e -> chi^0_1 nu_e)
     1.16681537E-03    2     1000023        12   # BR(~nu_e -> chi^0_2 nu_e)
     2.98654472E-01    2     1000025        12   # BR(~nu_e -> chi^0_3 nu_e)
     8.89619124E-02    2     1000035        12   # BR(~nu_e -> chi^0_4 nu_e)
     7.64485738E-03    2     1000024        11   # BR(~nu_e -> chi^+_1 e^-)
     6.01816112E-01    2     1000037        11   # BR(~nu_e -> chi^+_2 e^-)
#    BR                NDA      ID1      ID2       ID3
DECAY   1000014     1.41778721E+02   # ~nu_mu
#    BR                NDA      ID1      ID2
     1.75429415E-03    2     1000022        14   # BR(~nu_mu -> chi^0_1 nu_mu)
     1.16579383E-03    2     1000023        14   # BR(~nu_mu -> chi^0_2 nu_mu)
     2.98393029E-01    2     1000025        14   # BR(~nu_mu -> chi^0_3 nu_mu)
     8.88840397E-02    2     1000035        14   # BR(~nu_mu -> chi^0_4 nu_mu)
     8.51340101E-03    2     1000024        13   # BR(~nu_mu -> chi^+_1 mu^-)
     6.01289442E-01    2     1000037        13   # BR(~nu_mu -> chi^+_2 mu^-)
#    BR                NDA      ID1      ID2       ID3
DECAY   1000016     1.76870168E+02   # ~nu_tau
#    BR                NDA      ID1      ID2
     1.40707202E-03    2     1000022        16   # BR(~nu_tau -> chi^0_1 nu_tau)
     9.35051828E-04    2     1000023        16   # BR(~nu_tau -> chi^0_2 nu_tau)
     2.39339145E-01    2     1000025        16   # BR(~nu_tau -> chi^0_3 nu_tau)
     7.12943861E-02    2     1000035        16   # BR(~nu_tau -> chi^0_4 nu_tau)
     2.04697687E-01    2     1000024        15   # BR(~nu_tau -> chi^+_1 tau^-)
     4.82326657E-01    2     1000037        15   # BR(~nu_tau -> chi^+_2 tau^-)
#    BR                NDA      ID1      ID2       ID3
DECAY   2000001     7.01729134E+02   # ~d_R
#    BR                NDA      ID1      ID2
     7.75139214E-03    2     1000035         1   # BR(~d_R -> chi^0_4 d)
     9.92237591E-01    2     1000021         1   # BR(~d_R -> ~g d)
DECAY   1000001     8.30593373E+02   # ~d_L
#    BR                NDA      ID1      ID2
     2.31422034E-04    2     1000022         1   # BR(~d_L -> chi^0_1 d)
     1.52733935E-04    2     1000023         1   # BR(~d_L -> chi^0_2 d)
     5.19079495E-02    2     1000025         1   # BR(~d_L -> chi^0_3 d)
     1.82911716E-03    2     1000035         1   # BR(~d_L -> chi^0_4 d)
     1.04924684E-01    2    -1000037         2   # BR(~d_L -> chi^-_2 u)
     8.40934196E-01    2     1000021         1   # BR(~d_L -> ~g d)
DECAY   2000003     7.01798937E+02   # ~s_R
#    BR                NDA      ID1      ID2
     7.75062818E-03    2     1000035         3   # BR(~s_R -> chi^0_4 s)
     9.92139867E-01    2     1000021         3   # BR(~s_R -> ~g s)
DECAY   1000003     8.30632117E+02   # ~s_L
#    BR                NDA      ID1      ID2
     2.52997236E-04    2     1000022         3   # BR(~s_L -> chi^0_1 s)
     1.72846217E-04    2     1000023         3   # BR(~s_L -> chi^0_2 s)
     5.19055556E-02    2     1000025         3   # BR(~s_L -> chi^0_3 s)
     1.82903329E-03    2     1000035         3   # BR(~s_L -> chi^0_4 s)
     1.04919890E-01    2    -1000037         4   # BR(~s_L -> chi^-_2 c)
     8.40895438E-01    2     1000021         3   # BR(~s_L -> ~g s)
DECAY   1000005     5.37454392E+01   # ~b_1
#    BR                NDA      ID1      ID2
     2.44301702E-01    2     1000022         5   # BR(~b_1 -> chi^0_1 b)
     2.27556257E-01    2     1000023         5   # BR(~b_1 -> chi^0_2 b)
     1.67076957E-02    2     1000035         5   # BR(~b_1 -> chi^0_4 b)
     4.67953330E-01    2    -1000024         6   # BR(~b_1 -> chi^-_1 t)
     4.33927473E-02    2     1000021         5   # BR(~b_1 -> ~g b)
DECAY   2000005     2.08218151E+02   # ~b_2
#    BR                NDA      ID1      ID2
     8.26480414E-02    2     1000022         5   # BR(~b_2 -> chi^0_1 b)
     7.69418136E-02    2     1000023         5   # BR(~b_2 -> chi^0_2 b)
     6.18953745E-02    2     1000025         5   # BR(~b_2 -> chi^0_3 b)
     1.97912014E-03    2     1000035         5   # BR(~b_2 -> chi^0_4 b)
     3.41254917E-01    2    -1000024         6   # BR(~b_2 -> chi^-_1 t)
     1.29247679E-01    2    -1000037         6   # BR(~b_2 -> chi^-_2 t)
     3.01323047E-01    2     1000021         5   # BR(~b_2 -> ~g b)
     2.46363220E-03    2     1000006       -24   # BR(~b_2 -> ~t_1 W^-)
     1.11781687E-03    2     1000005        36   # BR(~b_2 -> ~b_1 A^0)
     1.11692418E-03    2     1000005        35   # BR(~b_2 -> ~b_1 H^0)
DECAY   2000002     7.18359636E+02   # ~u_R
#    BR                NDA      ID1      ID2
     3.02980396E-02    2     1000035         2   # BR(~u_R -> chi^0_4 u)
     9.69659969E-01    2     1000021         2   # BR(~u_R -> ~g u)
DECAY   1000002     8.30581185E+02   # ~u_L
#    BR                NDA      ID1      ID2
     1.69893861E-04    2     1000022         2   # BR(~u_L -> chi^0_1 u)
     1.11070027E-04    2     1000023         2   # BR(~u_L -> chi^0_2 u)
     5.23772459E-02    2     1000025         2   # BR(~u_L -> chi^0_3 u)
     1.46400693E-03    2     1000035         2   # BR(~u_L -> chi^0_4 u)
     1.31628396E-03    2     1000024         1   # BR(~u_L -> chi^+_1 d)
     1.03653163E-01    2     1000037         1   # BR(~u_L -> chi^+_2 d)
     8.40908336E-01    2     1000021         2   # BR(~u_L -> ~g u)
DECAY   2000004     7.18366974E+02   # ~c_R
#    BR                NDA      ID1      ID2
     3.02977389E-02    2     1000035         4   # BR(~c_R -> chi^0_4 c)
     9.69650132E-01    2     1000021         4   # BR(~c_R -> ~g c)
DECAY   1000004     8.30619898E+02   # ~c_L
#    BR                NDA      ID1      ID2
     1.71987826E-04    2     1000022         4   # BR(~c_L -> chi^0_1 c)
     1.13327715E-04    2     1000023         4   # BR(~c_L -> chi^0_2 c)
     5.23748545E-02    2     1000025         4   # BR(~c_L -> chi^0_3 c)
     1.46394435E-03    2     1000035         4   # BR(~c_L -> chi^0_4 c)
     1.35792401E-03    2     1000024         3   # BR(~c_L -> chi^+_1 s)
     1.03648387E-01    2     1000037         3   # BR(~c_L -> chi^+_2 s)
     8.40869574E-01    2     1000021         4   # BR(~c_L -> ~g c)
DECAY   1000006     2.09710538E+02   # ~t_1
#    BR                NDA      ID1      ID2
     1.66841110E-01    2     1000022         6   # BR(~t_1 -> chi^0_1 t)
     1.77698968E-01    2     1000023         6   # BR(~t_1 -> chi^0_2 t)
     3.08907727E-02    2     1000025         6   # BR(~t_1 -> chi^0_3 t)
     8.99219149E-03    2     1000035         6   # BR(~t_1 -> chi^0_4 t)
     2.40960326E-01    2     1000024         5   # BR(~t_1 -> chi^+_1 b)
     5.81881857E-02    2     1000037         5   # BR(~t_1 -> chi^+_2 b)
     1.06250175E-02    2     1000021         4   # BR(~t_1 -> ~g c)
     2.89367977E-01    2     1000021         6   # BR(~t_1 -> ~g t)
#    BR                NDA      ID1      ID2       ID3
     1.64173224E-02    3     1000022        24         5   # BR(~t_1 -> chi^0_1 W^+ b)
DECAY   2000006     2.34708278E+02   # ~t_2
#    BR                NDA      ID1      ID2
     1.46198549E-01    2     1000022         6   # BR(~t_2 -> chi^0_1 t)
     1.59062524E-01    2     1000023         6   # BR(~t_2 -> chi^0_2 t)
     3.18908697E-02    2     1000025         6   # BR(~t_2 -> chi^0_3 t)
     2.01249920E-02    2     1000035         6   # BR(~t_2 -> chi^0_4 t)
     2.35594649E-01    2     1000024         5   # BR(~t_2 -> chi^+_1 b)
     6.23675868E-02    2     1000037         5   # BR(~t_2 -> chi^+_2 b)
     2.88067434E-01    2     1000021         6   # BR(~t_2 -> ~g t)
     1.90051930E-02    2     2000005        24   # BR(~t_2 -> ~b_2 W^+)
     1.05095827E-03    2     1000005        37   # BR(~t_2 -> ~b_1 H^+)
     3.17328730E-02    2     1000006        23   # BR(~t_2 -> ~t_1 Z)
     4.90174584E-03    2     1000006        25   # BR(~t_2 -> ~t_1 h^0)
DECAY   1000024     7.36283285E-10   # chi^+_1
#    BR                NDA      ID1      ID2       ID3
     4.27126875E-01    3     1000022        -1         2   # BR(chi^+_1 -> chi^0_1 d_bar u)
     2.42434734E-01    3     1000022        -3         4   # BR(chi^+_1 -> chi^0_1 s_bar c)
     1.42375707E-01    3     1000022       -11        12   # BR(chi^+_1 -> chi^0_1 e^+ nu_e)
     1.41799629E-01    3     1000022       -13        14   # BR(chi^+_1 -> chi^0_1 mu^+ nu_mu)
     4.62630551E-02    3     1000022       -15        16   # BR(chi^+_1 -> chi^0_1 tau^+ nu_tau)
DECAY   1000037     1.06169373E+01   # chi^+_2
#    BR                NDA      ID1      ID2
     2.08647962E-01    2     1000022        24   # BR(chi^+_2 -> chi^0_1 W^+)
     2.24614222E-01    2     1000023        24   # BR(chi^+_2 -> chi^0_2 W^+)
     3.20575708E-02    2          37   1000022   # BR(chi^+_2 -> H^+ chi^0_1)
     3.08145978E-02    2          37   1000023   # BR(chi^+_2 -> H^+ chi^0_2)
     2.16087276E-01    2     1000024        23   # BR(chi^+_2 -> chi^+_1 Z)
     3.33700272E-02    2     1000024        36   # BR(chi^+_2 -> chi^+_1 A^0)
     2.08904648E-01    2     1000024        25   # BR(chi^+_2 -> chi^+_1 h^0)
     3.32516569E-02    2     1000024        35   # BR(chi^+_2 -> chi^+_1 H^0)
#    BR                NDA      ID1      ID2       ID3
     4.04187822E-03    3     1000024         6        -6   # BR(chi^+_2 -> chi^+_1 t t_bar)
     4.01353488E-03    3     1000022        -5         6   # BR(chi^+_2 -> chi^0_1 b_bar t)
     4.19428351E-03    3     1000023        -5         6   # BR(chi^+_2 -> chi^0_2 b_bar t)
DECAY   1000022     0.00000000E+00   # chi^0_1
DECAY   1000023     1.23891508E-07   # chi^0_2
#    BR                NDA      ID1      ID2
     2.96229258E-01    2     1000022        22   # BR(chi^0_2 -> chi^0_1 photon)
#    BR                NDA      ID1      ID2       ID3
     9.42306219E-02    3     1000022         2        -2   # BR(chi^0_2 -> chi^0_1 u u_bar)
     6.67731218E-02    3     1000022         4        -4   # BR(chi^0_2 -> chi^0_1 c c_bar)
     1.20822435E-01    3     1000022         1        -1   # BR(chi^0_2 -> chi^0_1 d d_bar)
     1.20621370E-01    3     1000022         3        -3   # BR(chi^0_2 -> chi^0_1 s s_bar)
     2.72661967E-02    3     1000022        11       -11   # BR(chi^0_2 -> chi^0_1 e^- e^+)
     2.71947931E-02    3     1000022        13       -13   # BR(chi^0_2 -> chi^0_1 mu^- mu^+)
     1.27303419E-02    3     1000022        15       -15   # BR(chi^0_2 -> chi^0_1 tau^- tau^+)
     1.61574452E-01    3     1000022        12       -12   # BR(chi^0_2 -> chi^0_1 nu_e nu_bar_e)
     1.47618278E-02    3     1000024         1        -2   # BR(chi^0_2 -> chi^+_1 d u_bar)
     1.47618278E-02    3    -1000024        -1         2   # BR(chi^0_2 -> chi^-_1 d_bar u)
     9.58144501E-03    3     1000024         3        -4   # BR(chi^0_2 -> chi^+_1 s c_bar)
     9.58144501E-03    3    -1000024        -3         4   # BR(chi^0_2 -> chi^-_1 s_bar c)
     4.92063249E-03    3     1000024        11       -12   # BR(chi^0_2 -> chi^+_1 e^- nu_bar_e)
     4.92063249E-03    3    -1000024       -11        12   # BR(chi^0_2 -> chi^-_1 e^+ nu_e)
     4.90541098E-03    3     1000024        13       -14   # BR(chi^0_2 -> chi^+_1 mu^- nu_bar_mu)
     4.90541098E-03    3    -1000024       -13        14   # BR(chi^0_2 -> chi^-_1 mu^+ nu_mu)
     2.10938825E-03    3     1000024        15       -16   # BR(chi^0_2 -> chi^+_1 tau^- nu_bar_tau)
     2.10938825E-03    3    -1000024       -15        16   # BR(chi^0_2 -> chi^-_1 tau^+ nu_tau)
DECAY   1000025     1.10995321E+01   # chi^0_3
#    BR                NDA      ID1      ID2
     2.13633392E-01    2     1000024       -24   # BR(chi^0_3 -> chi^+_1 W^-)
     2.13633392E-01    2    -1000024        24   # BR(chi^0_3 -> chi^-_1 W^+)
     2.95850235E-02    2          37  -1000024   # BR(chi^0_3 -> H^+ chi^-_1)
     2.95850235E-02    2         -37   1000024   # BR(chi^0_3 -> H^- chi^+_1)
     7.40487659E-02    2     1000022        23   # BR(chi^0_3 -> chi^0_1 Z)
     1.30667198E-01    2     1000023        23   # BR(chi^0_3 -> chi^0_2 Z)
     9.32588484E-03    2     1000022        36   # BR(chi^0_3 -> chi^0_1 A^0)
     7.31105116E-03    2     1000023        36   # BR(chi^0_3 -> chi^0_2 A^0)
     1.16855979E-01    2     1000022        25   # BR(chi^0_3 -> chi^0_1 h^0)
     1.15648151E-01    2     1000023        25   # BR(chi^0_3 -> chi^0_2 h^0)
     2.36525576E-02    2     1000022        35   # BR(chi^0_3 -> chi^0_1 H^0)
     2.46121282E-02    2     1000023        35   # BR(chi^0_3 -> chi^0_2 H^0)
#    BR                NDA      ID1      ID2       ID3
     1.66135792E-03    3     1000022         6        -6   # BR(chi^0_3 -> chi^0_1 t t_bar)
     1.74461756E-03    3     1000023         6        -6   # BR(chi^0_3 -> chi^0_2 t t_bar)
     4.01360436E-03    3     1000024         5        -6   # BR(chi^0_3 -> chi^+_1 b t_bar)
     4.01360436E-03    3    -1000024        -5         6   # BR(chi^0_3 -> chi^-_1 b_bar t)
DECAY   1000035     4.88689960E+00   # chi^0_4
#    BR                NDA      ID1      ID2
     1.69900403E-01    2     1000024       -24   # BR(chi^0_4 -> chi^+_1 W^-)
     1.69900403E-01    2    -1000024        24   # BR(chi^0_4 -> chi^-_1 W^+)
     3.26454137E-03    2     1000037       -24   # BR(chi^0_4 -> chi^+_2 W^-)
     3.26454137E-03    2    -1000037        24   # BR(chi^0_4 -> chi^-_2 W^+)
     5.97409857E-02    2          37  -1000024   # BR(chi^0_4 -> H^+ chi^-_1)
     5.97409857E-02    2         -37   1000024   # BR(chi^0_4 -> H^- chi^+_1)
     7.03612362E-02    2     1000022        23   # BR(chi^0_4 -> chi^0_1 Z)
     1.17172146E-01    2     1000023        23   # BR(chi^0_4 -> chi^0_2 Z)
     2.72924976E-02    2     1000022        36   # BR(chi^0_4 -> chi^0_1 A^0)
     2.25276226E-02    2     1000023        36   # BR(chi^0_4 -> chi^0_2 A^0)
     9.81545154E-02    2     1000022        25   # BR(chi^0_4 -> chi^0_1 h^0)
     9.68951522E-02    2     1000023        25   # BR(chi^0_4 -> chi^0_2 h^0)
     3.54747954E-03    2     1000025        25   # BR(chi^0_4 -> chi^0_3 h^0)
     4.17650176E-02    2     1000022        35   # BR(chi^0_4 -> chi^0_1 H^0)
     4.36083557E-02    2     1000023        35   # BR(chi^0_4 -> chi^0_2 H^0)
#    BR                NDA      ID1      ID2       ID3
     2.32714541E-03    3     1000022         6        -6   # BR(chi^0_4 -> chi^0_1 t t_bar)
     2.46592040E-03    3     1000023         6        -6   # BR(chi^0_4 -> chi^0_2 t t_bar)
     3.99726092E-03    3     1000024         5        -6   # BR(chi^0_4 -> chi^+_1 b t_bar)
     3.99726092E-03    3    -1000024        -5         6   # BR(chi^0_4 -> chi^-_1 b_bar t)
DECAY   1000021     2.70341672E-01   # ~g
#    BR                NDA      ID1      ID2
     1.22195986E-03    2     1000022        21   # BR(~g -> chi^0_1 g)
     1.82932657E-03    2     1000023        21   # BR(~g -> chi^0_2 g)
#    BR                NDA      ID1      ID2       ID3
     8.53309619E-02    3     1000022         6        -6   # BR(~g -> chi^0_1 t t_bar)
     1.52942318E-01    3     1000022         5        -5   # BR(~g -> chi^0_1 b b_bar)
     9.18309792E-02    3     1000023         6        -6   # BR(~g -> chi^0_2 t t_bar)
     1.42431993E-01    3     1000023         5        -5   # BR(~g -> chi^0_2 b b_bar)
     7.61018596E-03    3     1000025         6        -6   # BR(~g -> chi^0_3 t t_bar)
     7.70497375E-03    3     1000025         5        -5   # BR(~g -> chi^0_3 b b_bar)
     1.73450782E-03    3     1000035         6        -6   # BR(~g -> chi^0_4 t t_bar)
     4.31679036E-03    3     1000035         5        -5   # BR(~g -> chi^0_4 b b_bar)
     2.35701049E-01    3     1000024         5        -6   # BR(~g -> chi^+_1 b t_bar)
     2.35701049E-01    3    -1000024        -5         6   # BR(~g -> chi^-_1 b_bar t)
     1.27249390E-04    3     1000037         1        -2   # BR(~g -> chi^+_2 d u_bar)
     1.27249390E-04    3    -1000037        -1         2   # BR(~g -> chi^-_2 d_bar u)
     1.27249239E-04    3     1000037         3        -4   # BR(~g -> chi^+_2 s c_bar)
     1.27249239E-04    3    -1000037        -3         4   # BR(~g -> chi^-_2 s_bar c)
     1.54057198E-02    3     1000037         5        -6   # BR(~g -> chi^+_2 b t_bar)
     1.54057198E-02    3    -1000037        -5         6   # BR(~g -> chi^-_2 b_bar t)
DECAY        25     4.17285887E-03   # Gamma(h0)
     2.44626701E-03   2        22        22   # BR(h0 -> photon photon)
     1.85199634E-03   2        22        23   # BR(h0 -> photon Z)
     3.83756263E-02   2        23        23   # BR(h0 -> Z Z)
     2.97905964E-01   2       -24        24   # BR(h0 -> W W)
     7.24959906E-02   2        21        21   # BR(h0 -> gluon gluon)
     4.54581685E-09   2       -11        11   # BR(h0 -> Electron electron)
     2.02207656E-04   2       -13        13   # BR(h0 -> Muon muon)
     5.83067981E-02   2       -15        15   # BR(h0 -> Tau tau)
     1.19274969E-07   2        -2         2   # BR(h0 -> Up up)
     2.31506921E-02   2        -4         4   # BR(h0 -> Charm charm)
     5.23701566E-07   2        -1         1   # BR(h0 -> Down down)
     1.89411711E-04   2        -3         3   # BR(h0 -> Strange strange)
     5.05074399E-01   2        -5         5   # BR(h0 -> Bottom bottom)
DECAY        35     1.91439577E+01   # Gamma(HH)
     4.57155779E-08   2        22        22   # BR(HH -> photon photon)
     4.02173125E-08   2        22        23   # BR(HH -> photon Z)
     4.44189929E-06   2        23        23   # BR(HH -> Z Z)
     7.45464782E-06   2       -24        24   # BR(HH -> W W)
     8.71445524E-05   2        21        21   # BR(HH -> gluon gluon)
     1.02424837E-08   2       -11        11   # BR(HH -> Electron electron)
     4.55858222E-04   2       -13        13   # BR(HH -> Muon muon)
     1.31627304E-01   2       -15        15   # BR(HH -> Tau tau)
     6.41184638E-14   2        -2         2   # BR(HH -> Up up)
     1.24336593E-08   2        -4         4   # BR(HH -> Charm charm)
     7.14576178E-04   2        -6         6   # BR(HH -> Top top)
     8.90486242E-07   2        -1         1   # BR(HH -> Down down)
     3.22097867E-04   2        -3         3   # BR(HH -> Strange strange)
     8.60742592E-01   2        -5         5   # BR(HH -> Bottom bottom)
     4.36752168E-03   2  -1000024   1000024   # BR(HH -> Chargino1 chargino1)
     9.55218961E-04   2   1000022   1000022   # BR(HH -> neutralino1 neutralino1)
     1.43315855E-05   2   1000022   1000023   # BR(HH -> neutralino1 neutralino2)
     6.64245725E-04   2   1000023   1000023   # BR(HH -> neutralino2 neutralino2)
     3.62128506E-05   2        25        25   # BR(HH -> h0 h0)
DECAY        36     1.87141880E+01   # Gamma(A0)
     2.39477026E-07   2        22        22   # BR(A0 -> photon photon)
     1.17229131E-07   2        22        23   # BR(A0 -> photon Z)
     1.20050140E-04   2        21        21   # BR(A0 -> gluon gluon)
     1.02354910E-08   2       -11        11   # BR(A0 -> Electron electron)
     4.55546793E-04   2       -13        13   # BR(A0 -> Muon muon)
     1.31540110E-01   2       -15        15   # BR(A0 -> Tau tau)
     5.90752144E-14   2        -2         2   # BR(A0 -> Up up)
     1.14559465E-08   2        -4         4   # BR(A0 -> Charm charm)
     8.20181831E-04   2        -6         6   # BR(A0 -> Top top)
     8.89886054E-07   2        -1         1   # BR(A0 -> Down down)
     3.21880777E-04   2        -3         3   # BR(A0 -> Strange strange)
     8.60197846E-01   2        -5         5   # BR(A0 -> Bottom bottom)
     4.75839303E-03   2  -1000024   1000024   # BR(A0 -> Chargino1 chargino1)
     1.12417508E-03   2   1000022   1000022   # BR(A0 -> neutralino1 neutralino1)
     3.11814963E-06   2   1000022   1000023   # BR(A0 -> neutralino1 neutralino2)
     6.50344534E-04   2   1000023   1000023   # BR(A0 -> neutralino2 neutralino2)
     7.08552747E-06   2        23        25   # BR(A0 -> Z h0)
     6.60108221E-39   2        25        25   # BR(A0 -> h0 h0)
DECAY        37     1.97586509E+01   # Gamma(Hp)
     1.19182912E-08   2       -11        12   # BR(Hp -> Electron nu_e)
     5.09544156E-04   2       -13        14   # BR(Hp -> Muon nu_mu)
     1.44126772E-01   2       -15        16   # BR(Hp -> Tau nu_tau)
     9.01163026E-07   2        -1         2   # BR(Hp -> Down up)
     1.49575425E-05   2        -3         2   # BR(Hp -> Strange up)
     9.68581175E-06   2        -5         2   # BR(Hp -> Bottom up)
     4.20162300E-08   2        -1         4   # BR(Hp -> Down charm)
     3.24791276E-04   2        -3         4   # BR(Hp -> Strange charm)
     1.35635398E-03   2        -5         4   # BR(Hp -> Bottom charm)
     6.37013529E-08   2        -1         6   # BR(Hp -> Down top)
     1.82204544E-06   2        -3         6   # BR(Hp -> Strange top)
     8.52947096E-01   2        -5         6   # BR(Hp -> Bottom top)
     2.17158427E-04   2   1000022   1000024   # BR(Hp -> neutralino1 chargino1)
     4.83672205E-04   2   1000023   1000024   # BR(Hp -> neutralino2 chargino1)
     7.09955686E-06   2        24        25   # BR(Hp -> W h0)
     1.39393574E-08   2        24        35   # BR(Hp -> W HH)
     1.42622218E-08   2        24        36   # BR(Hp -> W A0)
DECAY         6     2.43000000E+00   # top
#    BR                NDA      ID1      ID2
     1.00000000E+00    2           5        24   # BR(t -> b W)
Block HiggsBoundsInputHiggsCouplingsFermions
# ScalarNormEffCoupSq PseudoSNormEffCoupSq NP IP1 IP2 IP2
    1.03293213E+00    0.00000000E+00        3  25   5   5  # h0-b-b eff. coupling^2, normalised to SM
    1.68404933E+03    0.00000000E+00        3  35   5   5  # H0-b-b eff. coupling^2, normalised to SM
    0.00000000E+00    1.68408227E+03        3  36   5   5  # A0-b-b eff. coupling^2, normalised to SM
#
    9.99980445E-01    0.00000000E+00        3  25   6   6  # h0-t-t eff. coupling^2, normalised to SM
    6.13350161E-04    0.00000000E+00        3  35   6   6  # H0-t-t eff. coupling^2, normalised to SM
    0.00000000E+00    5.93795220E-04        3  36   6   6  # A0-t-t eff. coupling^2, normalised to SM
#
    1.03293213E+00    0.00000000E+00        3  25  15  15  # h0-tau-tau eff. coupling^2, normalised to SM
    1.68404933E+03    0.00000000E+00        3  35  15  15  # H0-tau-tau eff. coupling^2, normalised to SM
    0.00000000E+00    1.68408227E+03        3  36  15  15  # A0-tau-tau eff. coupling^2, normalised to SM
#
Block HiggsBoundsInputHiggsCouplingsBosons
    9.99999842E-01        3  25  24  24  # h0-W-W eff. coupling^2, normalised to SM
    1.58400350E-07        3  35  24  24  # H0-W-W eff. coupling^2, normalised to SM
    0.00000000E+00        3  36  24  24  # A0-W-W eff. coupling^2, normalised to SM
#
    9.99999842E-01        3  25  23  23  # h0-Z-Z eff. coupling^2, normalised to SM
    1.58400350E-07        3  35  23  23  # H0-Z-Z eff. coupling^2, normalised to SM
    0.00000000E+00        3  36  23  23  # A0-Z-Z eff. coupling^2, normalised to SM
#
    1.25782665E+00        3  25  21  21  # h0-g-g eff. coupling^2, normalised to SM
    2.93358073E-02        3  35  21  21  # H0-g-g eff. coupling^2, normalised to SM
    1.67925459E-01        3  36  21  21  # A0-g-g eff. coupling^2, normalised to SM
#
    0.00000000E+00        3  25  25  23  # h0-h0-Z eff. coupling^2, normalised to SM
    0.00000000E+00        3  35  25  23  # H0-h0-Z eff. coupling^2, normalised to SM
    1.58400350E-07        3  36  25  23  # A0-h0-Z eff. coupling^2, normalised to SM
    0.00000000E+00        3  35  35  23  # H0-H0-Z eff. coupling^2, normalised to SM
    9.99999842E-01        3  36  35  23  # A0-H0-Z eff. coupling^2, normalised to SM
    0.00000000E+00        3  36  36  23  # A0-A0-Z eff. coupling^2, normalised to SM
#
    0.00000000E+00        4  25  21  21  23  # h0-g-g-Z eff. coupling^2, normalised to SM
    0.00000000E+00        4  35  21  21  23  # H0-g-g-Z eff. coupling^2, normalised to SM
    0.00000000E+00        4  36  21  21  23  # A0-g-g-Z eff. coupling^2, normalised to SM
Block SPhenoLowEnergy  # low energy observables
    1    3.44446426E-04   # BR(b -> s gamma)
    2    1.58876234E-06   # BR(b -> s mu+ mu-)
    3    3.52703791E-05   # BR(b -> s nu nu)
    4    4.38969231E-15   # BR(Bd -> e+ e-)
    5    1.87513524E-10   # BR(Bd -> mu+ mu-)
    6    3.87248132E-08   # BR(Bd -> tau+ tau-)
    7    1.46115079E-13   # BR(Bs -> e+ e-)
    8    6.24174363E-09   # BR(Bs -> mu+ mu-)
    9    1.30705062E-06   # BR(Bs -> tau+ tau-)
   10    8.25295945E-05   # BR(B_u -> tau nu)
   11    8.52499115E-01   # BR(B_u -> tau nu)/BR(B_u -> tau nu)_SM
   12    5.41867837E-01   # |Delta(M_Bd)| [ps^-1] 
   13    1.92853163E+01   # |Delta(M_Bs)| [ps^-1] 
   14    0.00000000E+00   # neutron EDM according to the chiral quark model
   15    0.00000000E+00   # neutron EDM according to the relativistic quark-parton model
   16    2.15753330E-03   # epsilon_K
   17    2.28167892E-15   # Delta(M_K)
   18    2.48094595E-11   # BR(K^0 -> pi^0 nu nu)
   19    8.29279246E-11   # BR(K^+ -> pi^+ nu nu)
   20    3.57616113E-16   # Delta(g-2)_electron/2
   21    1.52892614E-11   # Delta(g-2)_muon/2
   22    4.32986026E-09   # Delta(g-2)_tau/2
   23    0.00000000E+00   # electric dipole moment of the electron
   24    0.00000000E+00   # electric dipole moment of the muon
   25    0.00000000E+00   # electric dipole moment of the tau
   26    0.00000000E+00   # Br(mu -> e gamma)
   27    0.00000000E+00   # Br(tau -> e gamma)
   28    0.00000000E+00   # Br(tau -> mu gamma)
   29    0.00000000E+00   # Br(mu -> 3 e)
   30    0.00000000E+00   # Br(tau -> 3 e)
   31    0.00000000E+00   # Br(tau -> 3 mu)
   39    6.99345344E-05   # Delta(rho_parameter)
   40    0.00000000E+00   # BR(Z -> e mu)
   41    0.00000000E+00   # BR(Z -> e tau)
   42    0.00000000E+00   # BR(Z -> mu tau)
Block FWCOEF Q=  1.60000000E+02  # Wilson coefficients at scale Q
#    id        order  M        value         comment
     0305 4422   00   0    -1.88819110E-01   # C7
     0305 4422   00   2    -2.09179132E-01   # C7
     0305 4322   00   2    -7.82950303E-04   # C7'
     0305 6421   00   0    -9.52278348E-02   # C8
     0305 6421   00   2    -1.36937967E-01   # C8
     0305 6321   00   2    -1.04510600E-03   # C8'
 03051111 4133   00   0     1.62316074E+00   # C9 e+e-
 03051111 4133   00   2     1.62365293E+00   # C9 e+e-
 03051111 4233   00   2     2.24136079E-04   # C9' e+e-
 03051111 4137   00   0    -4.44585284E+00   # C10 e+e-
 03051111 4137   00   2    -4.44599321E+00   # C10 e+e-
 03051111 4237   00   2    -1.66517587E-03   # C10' e+e-
 03051313 4133   00   0     1.62316074E+00   # C9 mu+mu-
 03051313 4133   00   2     1.62365272E+00   # C9 mu+mu-
 03051313 4233   00   2     2.24101800E-04   # C9' mu+mu-
 03051313 4137   00   0    -4.44585284E+00   # C10 mu+mu-
 03051313 4137   00   2    -4.44599341E+00   # C10 mu+mu-
 03051313 4237   00   2    -1.66514213E-03   # C10' mu+mu-
 03051212 4137   00   0     1.50535012E+00   # C11 nu_1 nu_1
 03051212 4137   00   2     1.50538236E+00   # C11 nu_1 nu_1
 03051212 4237   00   2     3.60358863E-04   # C11' nu_1 nu_1
 03051414 4137   00   0     1.50535012E+00   # C11 nu_2 nu_2
 03051414 4137   00   2     1.50538236E+00   # C11 nu_2 nu_2
 03051414 4237   00   2     3.60366254E-04   # C11' nu_2 nu_2
 03051616 4137   00   0     1.50535012E+00   # C11 nu_3 nu_3
 03051616 4137   00   2     1.50538237E+00   # C11 nu_3 nu_3
 03051616 4237   00   2     3.62449200E-04   # C11' nu_3 nu_3
Block IMFWCOEF Q=  1.60000000E+02  # Im(Wilson coefficients) at scale Q
#    id        order  M        value         comment
     0305 4422   00   0     3.85825237E-07   # C7
     0305 4422   00   2     2.36908551E-05   # C7
     0305 4322   00   2     2.85173972E-06   # C7'
     0305 6421   00   0     3.30484832E-07   # C8
     0305 6421   00   2    -3.53223564E-05   # C8
     0305 6321   00   2     5.74449681E-07   # C8'
 03051111 4133   00   2     3.60808499E-07   # C9 e+e-
 03051111 4233   00   2     9.52803398E-06   # C9' e+e-
 03051111 4137   00   2     2.26821595E-06   # C10 e+e-
 03051111 4237   00   2    -7.08596358E-05   # C10' e+e-
 03051313 4133   00   2     3.60803631E-07   # C9 mu+mu-
 03051313 4233   00   2     9.52803154E-06   # C9' mu+mu-
 03051313 4137   00   2     2.26822034E-06   # C10 mu+mu-
 03051313 4237   00   2    -7.08596431E-05   # C10' mu+mu-
 03051212 4137   00   2    -4.57714925E-07   # C11 nu_1 nu_1
 03051212 4237   00   2     1.53346701E-05   # C11' nu_1 nu_1
 03051414 4137   00   2    -4.57714733E-07   # C11 nu_2 nu_2
 03051414 4237   00   2     1.53346701E-05   # C11' nu_2 nu_2
 03051616 4137   00   2    -4.57660565E-07   # C11 nu_3 nu_3
 03051616 4237   00   2     1.53346700E-05   # C11' nu_3 nu_3
