# SUSY Les Houches Accord 2 - MSSM spectrum + Decays
# SPheno v4.0.5be
# W. Porod, Comput. Phys. Commun. 153 (2003) 275-315, hep-ph/0301101;
# W. Porod, F.~Staub, Comput. Phys. Commun. 183 (2012) 2458
#                     arXiv:1104.1573 [hep-ph] 
# in case of problems send email to porod@physik.uni-wuerzburg.de
# Created: 07.09.2021,  21:31
Block SPINFO         # Program information
     1   SPheno      # spectrum calculator
     2   v4.0.5be    # version number
#
Block SPhenoINFO     # SPheno specific information
    1      2         # using 2-loop RGEs
    2      2         # using pole masses for boundary conditions at mZ
Block MODSEL  # Model selection
    1    0    # general MSSM
Block MINPAR  # Input parameters
    3    1.72352840E+01  # tanb at m_Z    
    4   -1.00000000E+00  # Sign(mu)
Block EXTPAR  # non-universal input parameters
    0    3.26161012E+03  # scale for input parameters
    1    1.96959711E+02  # M_1
    2    1.60190116E+03  # M_2
    3    1.50170569E+03  # M_3
   11   -3.62610047E+03  # A_t
   12   -1.27546062E+03  # A_b
   13   -1.01848047E+03  # A_tau
   23   -1.94602350E+02  # mu
   25    1.64716760E+01  # tan(beta)
   26    2.54916832E+03  # m_A, pole mass
   31    1.00000000E+04  # M_L11
   32    1.00000000E+04  # M_L22
   33    1.00000000E+04  # M_L33
   34    1.00000000E+04  # M_E11
   35    1.00000000E+04  # M_E22
   36    1.00000000E+04  # M_E33
   41    1.00000000E+04  # M_Q11
   42    1.00000000E+04  # M_Q22
   43    2.54966910E+03  # M_Q33
   44    1.00000000E+04  # M_U11
   45    1.00000000E+04  # M_U22
   46    4.13526018E+03  # M_U33
   47    1.00000000E+04  # M_D11
   48    1.00000000E+04  # M_D22
   49    2.14800488E+03  # M_D33
Block SMINPUTS  # SM parameters
         1     1.27908970E+02  # alpha_em^-1(MZ)^MSbar
         2     1.16637870E-05  # G_mu [GeV^-2]
         3     1.18400000E-01  # alpha_s(MZ)^MSbar
         4     9.11876000E+01  # m_Z(pole)
         5     4.18000000E+00  # m_b(m_b), MSbar
         6     1.73200000E+02  # m_t(pole)
         7     1.77700000E+00  # m_tau(pole)
         8     0.00000000E+00  # m_nu_3
        11     5.10998930E-04  # m_e(pole)
        12     0.00000000E+00  # m_nu_1
        13     1.05658372E-01  # m_muon(pole)
        14     0.00000000E+00  # m_nu_2
        21     5.00000000E-03  # m_d(2 GeV), MSbar
        22     2.50000000E-03  # m_u(2 GeV), MSbar
        23     9.50000000E-02  # m_s(2 GeV), MSbar
        24     1.27000000E+00  # m_c(m_c), MSbar
Block gauge Q=  3.26161012E+03  # (SUSY scale)
   1    3.55362975E-01  # g'(Q)^DRbar
   2    6.65198874E-01  # g(Q)^DRbar
   3    1.21977796E+00  # g3(Q)^DRbar
Block Yu Q=  3.26161012E+03  # (SUSY scale)
  1  1     8.39980922E-06   # Y_u(Q)^DRbar
  2  2     4.26710308E-03   # Y_c(Q)^DRbar
  3  3     1.01476442E+00   # Y_t(Q)^DRbar
Block Yd Q=  3.26161012E+03  # (SUSY scale)
  1  1     2.78027312E-04   # Y_d(Q)^DRbar
  2  2     5.28251893E-03   # Y_s(Q)^DRbar
  3  3     2.75715972E-01   # Y_b(Q)^DRbar
Block Ye Q=  3.26161012E+03  # (SUSY scale)
  1  1     4.85177990E-05   # Y_e(Q)^DRbar
  2  2     1.00319421E-02   # Y_mu(Q)^DRbar
  3  3     1.68720762E-01   # Y_tau(Q)^DRbar
Block Au Q=  3.26161012E+03  # (SUSY scale)
  1  1     0.00000000E+00   # A_u(Q)^DRbar
  2  2     0.00000000E+00   # A_c(Q)^DRbar
  3  3    -3.62610299E+03   # A_t(Q)^DRbar
Block Ad Q=  3.26161012E+03  # (SUSY scale)
  1  1     0.00000000E+00   # A_d(Q)^DRbar
  2  2     0.00000000E+00   # A_s(Q)^DRbar
  3  3    -1.27546033E+03   # A_b(Q)^DRbar
Block Ae Q=  3.26161012E+03  # (SUSY scale)
  1  1     0.00000000E+00   # A_e(Q)^DRbar
  2  2     0.00000000E+00   # A_mu(Q)^DRbar
  3  3    -1.01848025E+03   # A_tau(Q)^DRbar
Block MSOFT Q=  3.26161012E+03  # soft SUSY breaking masses at Q
   1    1.96959711E+02  # M_1
   2    1.60190116E+03  # M_2
   3    1.50170569E+03  # M_3
  21    6.37777559E+06  # M^2_(H,d)
  22    1.49028956E+05  # M^2_(H,u)
  31    1.00000000E+04  # M_(L,11)
  32    1.00000000E+04  # M_(L,22)
  33    1.00000000E+04  # M_(L,33)
  34    1.00000000E+04  # M_(E,11)
  35    1.00000000E+04  # M_(E,22)
  36    1.00000000E+04  # M_(E,33)
  41    1.00000000E+04  # M_(Q,11)
  42    1.00000000E+04  # M_(Q,22)
  43    2.54966910E+03  # M_(Q,33)
  44    1.00000000E+04  # M_(U,11)
  45    1.00000000E+04  # M_(U,22)
  46    4.13526018E+03  # M_(U,33)
  47    1.00000000E+04  # M_(D,11)
  48    1.00000000E+04  # M_(D,22)
  49    2.14800488E+03  # M_(D,33)
Block MASS  # Mass spectrum
#   PDG code      mass          particle
         6     1.73200000E+02  # m_t(pole)
        23     9.11876000E+01  # m_Z(pole)
        24     8.04299946E+01  # W+
        15     1.77700000E+00  # m_tau(pole)
        25     1.23635585E+02  # h0
        35     2.54903953E+03  # H0
        36     2.54916832E+03  # A0
        37     2.55113359E+03  # H+
   1000001     1.01192804E+04  # ~d_L
   2000001     1.00954431E+04  # ~d_R
   1000002     1.01189188E+04  # ~u_L
   2000002     1.00986043E+04  # ~u_R
   1000003     1.01192818E+04  # ~s_L
   2000003     1.00954448E+04  # ~s_R
   1000004     1.01189203E+04  # ~c_L
   2000004     1.00986055E+04  # ~c_R
   1000005     2.20911113E+03  # ~b_1
   2000005     2.58749780E+03  # ~b_2
   1000006     2.58525864E+03  # ~t_1
   2000006     4.11490766E+03  # ~t_2
   1000011     1.00201070E+04  # ~e_L-
   2000011     1.00089540E+04  # ~e_R-
   1000012     1.00193433E+04  # ~nu_eL
   1000013     1.00201116E+04  # ~mu_L-
   2000013     1.00089628E+04  # ~mu_R-
   1000014     1.00193479E+04  # ~nu_muL
   1000015     1.00114708E+04  # ~tau_1-
   2000015     1.00214024E+04  # ~tau_2-
   1000016     1.00206330E+04  # ~nu_tauL
   1000021     1.84948410E+03  # ~g
   1000022     1.74640291E+02  # ~chi_10
   1000023     2.12513639E+02  # ~chi_20
   1000025     2.32803399E+02  # ~chi_30
   1000035     1.70316819E+03  # ~chi_40
   1000024     2.08044547E+02  # ~chi_1+
   1000037     1.70313431E+03  # ~chi_2+
# Higgs mixing
Block alpha # Effective Higgs mixing angle
          -5.81568996E-02   # alpha
Block Hmix Q=  3.26161012E+03  # Higgs mixing parameters
   1   -1.94602350E+02  # mu
   2    1.64716760E+01  # tan[beta](Q)
   3    2.43145358E+02  # v(Q)
   4    6.49825912E+06  # m^2_A(Q)
Block stopmix # stop mixing matrix
   1  1     9.98722479E-01   # Re[R_st(1,1)]
   1  2     5.05312828E-02   # Re[R_st(1,2)]
   2  1    -5.05312828E-02   # Re[R_st(2,1)]
   2  2     9.98722479E-01   # Re[R_st(2,2)]
Block sbotmix # sbottom mixing matrix
   1  1    -1.87241932E-03   # Re[R_sb(1,1)]
   1  2     9.99998247E-01   # Re[R_sb(1,2)]
   2  1    -9.99998247E-01   # Re[R_sb(2,1)]
   2  2    -1.87241932E-03   # Re[R_sb(2,2)]
Block staumix # stau mixing matrix
   1  1    -1.90584916E-02   # Re[R_sta(1,1)]
   1  2     9.99818370E-01   # Re[R_sta(1,2)]
   2  1    -9.99818370E-01   # Re[R_sta(2,1)]
   2  2    -1.90584916E-02   # Re[R_sta(2,2)]
Block Nmix # neutralino mixing matrix
   1  1    -7.30495477E-01   # Re[N(1,1)]
   1  2     2.11859112E-02   # Re[N(1,2)]
   1  3     5.27270874E-01   # Re[N(1,3)]
   1  4     4.33489262E-01   # Re[N(1,4)]
   2  1     8.05254295E-02   # Re[N(2,1)]
   2  2    -3.19417265E-02   # Re[N(2,2)]
   2  3     6.97586396E-01   # Re[N(2,3)]
   2  4    -7.11244404E-01   # Re[N(2,4)]
   3  1    -6.78151872E-01   # Re[N(3,1)]
   3  2    -2.87238823E-02   # Re[N(3,2)]
   3  3    -4.85129525E-01   # Re[N(3,3)]
   3  4    -5.51302387E-01   # Re[N(3,4)]
   4  1     1.43246508E-03   # Re[N(4,1)]
   4  2    -9.98852252E-01   # Re[N(4,2)]
   4  3     2.82664768E-03   # Re[N(4,3)]
   4  4     4.77926380E-02   # Re[N(4,4)]
Block Umix # chargino mixing matrix
   1  1    -4.01418697E-03   # Re[U(1,1)]
   1  2    -9.99991943E-01   # Re[U(1,2)]
   2  1     9.99991943E-01   # Re[U(2,1)]
   2  2    -4.01418697E-03   # Re[U(2,2)]
Block Vmix # chargino mixing matrix
   1  1    -6.76229204E-02   # Re[V(1,1)]
   1  2     9.97710950E-01   # Re[V(1,2)]
   2  1     9.97710950E-01   # Re[V(2,1)]
   2  2     6.76229204E-02   # Re[V(2,2)]
DECAY        23     2.49520000E+00   # Z
DECAY        24     2.08500000E+00   # W
DECAY   2000011     5.02496822E+01   # ~e^-_R
#    BR                NDA      ID1      ID2
     5.33740863E-01    2     1000022        11   # BR(~e^-_R -> chi^0_1 e^-)
     6.48387469E-03    2     1000023        11   # BR(~e^-_R -> chi^0_2 e^-)
     4.59773316E-01    2     1000025        11   # BR(~e^-_R -> chi^0_3 e^-)
DECAY   1000011     1.37362138E+02   # ~e^-_L
#    BR                NDA      ID1      ID2
     4.37057137E-02    2     1000022        11   # BR(~e^-_L -> chi^0_1 e^-)
     4.90351723E-02    2     1000025        11   # BR(~e^-_L -> chi^0_3 e^-)
     3.01634331E-01    2     1000035        11   # BR(~e^-_L -> chi^0_4 e^-)
     6.05575084E-01    2    -1000037        12   # BR(~e^-_L -> chi^-_2 nu_e)
#    BR                NDA      ID1      ID2       ID3
DECAY   2000013     5.02897700E+01   # ~mu^-_R
#    BR                NDA      ID1      ID2
     5.33426588E-01    2     1000022        13   # BR(~mu^-_R -> chi^0_1 mu^-)
     6.67244394E-03    2     1000023        13   # BR(~mu^-_R -> chi^0_2 mu^-)
     4.59500892E-01    2     1000025        13   # BR(~mu^-_R -> chi^0_3 mu^-)
     3.98132148E-04    2    -1000024        14   # BR(~mu^-_R -> chi^-_1 nu_mu)
DECAY   1000013     1.37382252E+02   # ~mu^-_L
#    BR                NDA      ID1      ID2
     4.37399067E-02    2     1000022        13   # BR(~mu^-_L -> chi^0_1 mu^-)
     1.10350432E-04    2     1000023        13   # BR(~mu^-_L -> chi^0_2 mu^-)
     4.90623473E-02    2     1000025        13   # BR(~mu^-_L -> chi^0_3 mu^-)
     3.01590325E-01    2     1000035        13   # BR(~mu^-_L -> chi^0_4 mu^-)
     6.05486734E-01    2    -1000037        14   # BR(~mu^-_L -> chi^-_2 nu_mu)
#    BR                NDA      ID1      ID2       ID3
DECAY   1000015     6.16219182E+01   # ~tau^-_1
#    BR                NDA      ID1      ID2
     4.62911405E-01    2     1000022        15   # BR(~tau^-_1 -> chi^0_1 tau^-)
     4.95094504E-02    2     1000023        15   # BR(~tau^-_1 -> chi^0_2 tau^-)
     3.94969972E-01    2     1000025        15   # BR(~tau^-_1 -> chi^0_3 tau^-)
     2.20218036E-04    2     1000035        15   # BR(~tau^-_1 -> chi^0_4 tau^-)
     9.19500417E-02    2    -1000024        16   # BR(~tau^-_1 -> chi^-_1 nu_tau)
     4.38913007E-04    2    -1000037        16   # BR(~tau^-_1 -> chi^-_2 nu_tau)
DECAY   2000015     1.43022420E+02   # ~tau^-_2
#    BR                NDA      ID1      ID2
     5.21455210E-02    2     1000022        15   # BR(~tau^-_2 -> chi^0_1 tau^-)
     1.95517592E-02    2     1000023        15   # BR(~tau^-_2 -> chi^0_2 tau^-)
     5.71532103E-02    2     1000025        15   # BR(~tau^-_2 -> chi^0_3 tau^-)
     2.89644940E-01    2     1000035        15   # BR(~tau^-_2 -> chi^0_4 tau^-)
     5.81504155E-01    2    -1000037        16   # BR(~tau^-_2 -> chi^-_2 nu_tau)
#    BR                NDA      ID1      ID2       ID3
DECAY   1000012     1.37366278E+02   # ~nu_e
#    BR                NDA      ID1      ID2
     5.43117521E-02    2     1000022        12   # BR(~nu_e -> chi^0_1 nu_e)
     1.80231812E-03    2     1000023        12   # BR(~nu_e -> chi^0_2 nu_e)
     3.56810941E-02    2     1000025        12   # BR(~nu_e -> chi^0_3 nu_e)
     3.02525193E-01    2     1000035        12   # BR(~nu_e -> chi^0_4 nu_e)
     2.93363484E-03    2     1000024        11   # BR(~nu_e -> chi^+_1 e^-)
     6.02746008E-01    2     1000037        11   # BR(~nu_e -> chi^+_2 e^-)
#    BR                NDA      ID1      ID2       ID3
DECAY   1000014     1.37386391E+02   # ~nu_mu
#    BR                NDA      ID1      ID2
     5.43038261E-02    2     1000022        14   # BR(~nu_mu -> chi^0_1 nu_mu)
     1.80205510E-03    2     1000023        14   # BR(~nu_mu -> chi^0_2 nu_mu)
     3.56758870E-02    2     1000025        14   # BR(~nu_mu -> chi^0_3 nu_mu)
     3.02481060E-01    2     1000035        14   # BR(~nu_mu -> chi^0_4 nu_mu)
     3.07909012E-03    2     1000024        13   # BR(~nu_mu -> chi^+_1 mu^-)
     6.02658081E-01    2     1000037        13   # BR(~nu_mu -> chi^+_2 mu^-)
#    BR                NDA      ID1      ID2       ID3
DECAY   1000016     1.43055931E+02   # ~nu_tau
#    BR                NDA      ID1      ID2
     5.21583740E-02    2     1000022        16   # BR(~nu_tau -> chi^0_1 nu_tau)
     1.73085909E-03    2     1000023        16   # BR(~nu_tau -> chi^0_2 nu_tau)
     3.42663973E-02    2     1000025        16   # BR(~nu_tau -> chi^0_3 nu_tau)
     2.90534935E-01    2     1000035        16   # BR(~nu_tau -> chi^0_4 nu_tau)
     4.24521190E-02    2     1000024        15   # BR(~nu_tau -> chi^+_1 tau^-)
     5.78857315E-01    2     1000037        15   # BR(~nu_tau -> chi^+_2 tau^-)
#    BR                NDA      ID1      ID2       ID3
DECAY   2000001     7.49907019E+02   # ~d_R
#    BR                NDA      ID1      ID2
     4.00825804E-03    2     1000022         1   # BR(~d_R -> chi^0_1 d)
     3.45280838E-03    2     1000025         1   # BR(~d_R -> chi^0_3 d)
     9.92490196E-01    2     1000021         1   # BR(~d_R -> ~g d)
DECAY   1000001     8.73850215E+02   # ~d_L
#    BR                NDA      ID1      ID2
     1.16560680E-03    2     1000022         1   # BR(~d_L -> chi^0_1 d)
     1.09087719E-04    2     1000023         1   # BR(~d_L -> chi^0_2 d)
     4.31305849E-04    2     1000025         1   # BR(~d_L -> chi^0_3 d)
     4.80373974E-02    2     1000035         1   # BR(~d_L -> chi^0_4 d)
     9.62452222E-02    2    -1000037         2   # BR(~d_L -> chi^-_2 u)
     8.54009739E-01    2     1000021         1   # BR(~d_L -> ~g d)
DECAY   2000003     7.49918330E+02   # ~s_R
#    BR                NDA      ID1      ID2
     4.01026914E-03    2     1000022         3   # BR(~s_R -> chi^0_1 s)
     3.45450887E-03    2     1000025         3   # BR(~s_R -> chi^0_3 s)
     9.92475415E-01    2     1000021         3   # BR(~s_R -> ~g s)
DECAY   1000003     8.73859611E+02   # ~s_L
#    BR                NDA      ID1      ID2
     1.16737574E-03    2     1000022         3   # BR(~s_L -> chi^0_1 s)
     1.12203466E-04    2     1000023         3   # BR(~s_L -> chi^0_2 s)
     4.32808419E-04    2     1000025         3   # BR(~s_L -> chi^0_3 s)
     4.80368884E-02    2     1000035         3   # BR(~s_L -> chi^0_4 s)
     9.62442205E-02    2    -1000037         4   # BR(~s_L -> chi^-_2 c)
     8.54000690E-01    2     1000021         3   # BR(~s_L -> ~g s)
DECAY   1000005     2.33307473E+01   # ~b_1
#    BR                NDA      ID1      ID2
     6.73890786E-02    2     1000022         5   # BR(~b_1 -> chi^0_1 b)
     6.86865801E-02    2     1000023         5   # BR(~b_1 -> chi^0_2 b)
     5.65633713E-02    2     1000025         5   # BR(~b_1 -> chi^0_3 b)
     1.38893438E-01    2    -1000024         6   # BR(~b_1 -> chi^-_1 t)
     6.68467498E-01    2     1000021         5   # BR(~b_1 -> ~g b)
DECAY   2000005     1.15777375E+02   # ~b_2
#    BR                NDA      ID1      ID2
     1.14973425E-02    2     1000022         5   # BR(~b_2 -> chi^0_1 b)
     1.64444782E-02    2     1000023         5   # BR(~b_2 -> chi^0_2 b)
     8.67910057E-03    2     1000025         5   # BR(~b_2 -> chi^0_3 b)
     3.15377553E-02    2     1000035         5   # BR(~b_2 -> chi^0_4 b)
     4.45774409E-01    2    -1000024         6   # BR(~b_2 -> chi^-_1 t)
     6.40676813E-02    2    -1000037         6   # BR(~b_2 -> chi^-_2 t)
     4.21986689E-01    2     1000021         5   # BR(~b_2 -> ~g b)
DECAY   2000002     7.67074350E+02   # ~u_R
#    BR                NDA      ID1      ID2
     1.56791000E-02    2     1000022         2   # BR(~u_R -> chi^0_1 u)
     1.90470296E-04    2     1000023         2   # BR(~u_R -> chi^0_2 u)
     1.35063523E-02    2     1000025         2   # BR(~u_R -> chi^0_3 u)
     9.70624020E-01    2     1000021         2   # BR(~u_R -> ~g u)
DECAY   1000002     8.73839352E+02   # ~u_L
#    BR                NDA      ID1      ID2
     6.04047181E-04    2     1000022         2   # BR(~u_L -> chi^0_1 u)
     1.13773163E-03    2     1000025         2   # BR(~u_L -> chi^0_3 u)
     4.79870336E-02    2     1000035         2   # BR(~u_L -> chi^0_4 u)
     4.65771451E-04    2     1000024         1   # BR(~u_L -> chi^+_1 d)
     9.58040183E-02    2     1000037         1   # BR(~u_L -> chi^+_2 d)
     8.53985619E-01    2     1000021         2   # BR(~u_L -> ~g u)
DECAY   2000004     7.67081730E+02   # ~c_R
#    BR                NDA      ID1      ID2
     1.56798449E-02    2     1000022         4   # BR(~c_R -> chi^0_1 c)
     1.92878507E-04    2     1000023         4   # BR(~c_R -> chi^0_2 c)
     1.35076731E-02    2     1000025         4   # BR(~c_R -> chi^0_3 c)
     9.70614773E-01    2     1000021         4   # BR(~c_R -> ~g c)
DECAY   1000004     8.73848727E+02   # ~c_L
#    BR                NDA      ID1      ID2
     6.04828730E-04    2     1000022         4   # BR(~c_L -> chi^0_1 c)
     1.13899260E-03    2     1000025         4   # BR(~c_L -> chi^0_3 c)
     4.79865359E-02    2     1000035         4   # BR(~c_L -> chi^0_4 c)
     4.72171803E-04    2     1000024         3   # BR(~c_L -> chi^+_1 s)
     9.58030063E-02    2     1000037         3   # BR(~c_L -> chi^+_2 s)
     8.53976567E-01    2     1000021         4   # BR(~c_L -> ~g c)
DECAY   1000006     1.15265002E+02   # ~t_1
#    BR                NDA      ID1      ID2
     8.98644715E-02    2     1000022         6   # BR(~t_1 -> chi^0_1 t)
     2.28057739E-01    2     1000023         6   # BR(~t_1 -> chi^0_2 t)
     1.33918550E-01    2     1000025         6   # BR(~t_1 -> chi^0_3 t)
     3.15660957E-02    2     1000035         6   # BR(~t_1 -> chi^0_4 t)
     3.74688843E-02    2     1000024         5   # BR(~t_1 -> chi^+_1 b)
     6.21446423E-02    2     1000037         5   # BR(~t_1 -> chi^+_2 b)
     3.12418416E-04    2     1000021         4   # BR(~t_1 -> ~g c)
     4.14129350E-01    2     1000021         6   # BR(~t_1 -> ~g t)
#    BR                NDA      ID1      ID2       ID3
     2.53043789E-03    3     1000022        24         5   # BR(~t_1 -> chi^0_1 W^+ b)
DECAY   2000006     4.40091974E+02   # ~t_2
#    BR                NDA      ID1      ID2
     4.50557422E-02    2     1000022         6   # BR(~t_2 -> chi^0_1 t)
     9.57096466E-02    2     1000023         6   # BR(~t_2 -> chi^0_2 t)
     6.90062982E-02    2     1000025         6   # BR(~t_2 -> chi^0_3 t)
     6.65277150E-04    2     1000035         6   # BR(~t_2 -> chi^0_4 t)
     1.88399211E-01    2     1000024         5   # BR(~t_2 -> chi^+_1 b)
     1.33084731E-03    2     1000037         5   # BR(~t_2 -> chi^+_2 b)
     4.65106860E-01    2     1000021         6   # BR(~t_2 -> ~g t)
     6.05227517E-02    2     2000005        24   # BR(~t_2 -> ~b_2 W^+)
     3.02493406E-02    2     1000006        23   # BR(~t_2 -> ~t_1 Z)
     4.39536789E-02    2     1000006        25   # BR(~t_2 -> ~t_1 h^0)
DECAY   1000024     2.42326622E-05   # chi^+_1
#    BR                NDA      ID1      ID2       ID3
     3.34598212E-01    3     1000022        -1         2   # BR(chi^+_1 -> chi^0_1 d_bar u)
     3.32350124E-01    3     1000022        -3         4   # BR(chi^+_1 -> chi^0_1 s_bar c)
     1.11532951E-01    3     1000022       -11        12   # BR(chi^+_1 -> chi^0_1 e^+ nu_e)
     1.11532233E-01    3     1000022       -13        14   # BR(chi^+_1 -> chi^0_1 mu^+ nu_mu)
     1.09986481E-01    3     1000022       -15        16   # BR(chi^+_1 -> chi^0_1 tau^+ nu_tau)
DECAY   1000037     1.50349493E+01   # chi^+_2
#    BR                NDA      ID1      ID2
     8.39938882E-02    2     1000022        24   # BR(chi^+_2 -> chi^0_1 W^+)
     2.46451316E-01    2     1000023        24   # BR(chi^+_2 -> chi^0_2 W^+)
     1.59057354E-01    2     1000025        24   # BR(chi^+_2 -> chi^0_3 W^+)
     2.43990919E-01    2     1000024        23   # BR(chi^+_2 -> chi^+_1 Z)
     2.38541359E-01    2     1000024        25   # BR(chi^+_2 -> chi^+_1 h^0)
#    BR                NDA      ID1      ID2       ID3
     1.08418102E-02    3     1000024         6        -6   # BR(chi^+_2 -> chi^+_1 t t_bar)
     2.87228911E-03    3     1000022        -5         6   # BR(chi^+_2 -> chi^0_1 b_bar t)
     8.91101375E-03    3     1000023        -5         6   # BR(chi^+_2 -> chi^0_2 b_bar t)
     5.28825726E-03    3     1000025        -5         6   # BR(chi^+_2 -> chi^0_3 b_bar t)
DECAY   1000022     0.00000000E+00   # chi^0_1
DECAY   1000023     1.11250531E-04   # chi^0_2
#    BR                NDA      ID1      ID2
     2.19164979E-02    2     1000022        22   # BR(chi^0_2 -> chi^0_1 photon)
#    BR                NDA      ID1      ID2       ID3
     1.18524971E-01    3     1000022         2        -2   # BR(chi^0_2 -> chi^0_1 u u_bar)
     1.16875502E-01    3     1000022         4        -4   # BR(chi^0_2 -> chi^0_1 c c_bar)
     1.51972192E-01    3     1000022         1        -1   # BR(chi^0_2 -> chi^0_1 d d_bar)
     1.51961985E-01    3     1000022         3        -3   # BR(chi^0_2 -> chi^0_1 s s_bar)
     1.33540263E-01    3     1000022         5        -5   # BR(chi^0_2 -> chi^0_1 b b_bar)
     3.42954829E-02    3     1000022        11       -11   # BR(chi^0_2 -> chi^0_1 e^- e^+)
     3.42918204E-02    3     1000022        13       -13   # BR(chi^0_2 -> chi^0_1 mu^- mu^+)
     3.32799420E-02    3     1000022        15       -15   # BR(chi^0_2 -> chi^0_1 tau^- tau^+)
     2.03231859E-01    3     1000022        12       -12   # BR(chi^0_2 -> chi^0_1 nu_e nu_bar_e)
DECAY   1000025     1.96737729E-05   # chi^0_3
#    BR                NDA      ID1      ID2
     5.12398523E-03    2     1000022        22   # BR(chi^0_3 -> chi^0_1 photon)
     3.05261610E-02    2     1000023        22   # BR(chi^0_3 -> chi^0_2 photon)
#    BR                NDA      ID1      ID2       ID3
     4.22823828E-03    3     1000022         2        -2   # BR(chi^0_3 -> chi^0_1 u u_bar)
     4.20654098E-03    3     1000022         4        -4   # BR(chi^0_3 -> chi^0_1 c c_bar)
     5.41586404E-03    3     1000022         1        -1   # BR(chi^0_3 -> chi^0_1 d d_bar)
     5.41573422E-03    3     1000022         3        -3   # BR(chi^0_3 -> chi^0_1 s s_bar)
     5.23876367E-03    3     1000022         5        -5   # BR(chi^0_3 -> chi^0_1 b b_bar)
     1.21763584E-03    3     1000022        11       -11   # BR(chi^0_3 -> chi^0_1 e^- e^+)
     1.21759220E-03    3     1000022        13       -13   # BR(chi^0_3 -> chi^0_1 mu^- mu^+)
     1.20539178E-03    3     1000022        15       -15   # BR(chi^0_3 -> chi^0_1 tau^- tau^+)
     7.24969817E-03    3     1000022        12       -12   # BR(chi^0_3 -> chi^0_1 nu_e nu_bar_e)
     3.52752281E-02    3     1000023         2        -2   # BR(chi^0_3 -> chi^0_2 u u_bar)
     3.35004243E-02    3     1000023         4        -4   # BR(chi^0_3 -> chi^0_2 c c_bar)
     4.52300446E-02    3     1000023         1        -1   # BR(chi^0_3 -> chi^0_2 d d_bar)
     4.52187361E-02    3     1000023         3        -3   # BR(chi^0_3 -> chi^0_2 s s_bar)
     2.75793495E-02    3     1000023         5        -5   # BR(chi^0_3 -> chi^0_2 b b_bar)
     1.02072303E-02    3     1000023        11       -11   # BR(chi^0_3 -> chi^0_2 e^- e^+)
     1.02031978E-02    3     1000023        13       -13   # BR(chi^0_3 -> chi^0_2 mu^- mu^+)
     9.13846538E-03    3     1000023        15       -15   # BR(chi^0_3 -> chi^0_2 tau^- tau^+)
     6.04852273E-02    3     1000023        12       -12   # BR(chi^0_3 -> chi^0_2 nu_e nu_bar_e)
     1.09450816E-01    3     1000024         1        -2   # BR(chi^0_3 -> chi^+_1 d u_bar)
     1.09450816E-01    3    -1000024        -1         2   # BR(chi^0_3 -> chi^-_1 d_bar u)
     1.08073539E-01    3     1000024         3        -4   # BR(chi^0_3 -> chi^+_1 s c_bar)
     1.08073539E-01    3    -1000024        -3         4   # BR(chi^0_3 -> chi^-_1 s_bar c)
     3.64834906E-02    3     1000024        11       -12   # BR(chi^0_3 -> chi^+_1 e^- nu_bar_e)
     3.64834906E-02    3    -1000024       -11        12   # BR(chi^0_3 -> chi^-_1 e^+ nu_e)
     3.64831931E-02    3     1000024        13       -14   # BR(chi^0_3 -> chi^+_1 mu^- nu_bar_mu)
     3.64831931E-02    3    -1000024       -13        14   # BR(chi^0_3 -> chi^-_1 mu^+ nu_mu)
     3.55672065E-02    3     1000024        15       -16   # BR(chi^0_3 -> chi^+_1 tau^- nu_bar_tau)
     3.55672065E-02    3    -1000024       -15        16   # BR(chi^0_3 -> chi^-_1 tau^+ nu_tau)
DECAY   1000035     1.60224225E+01   # chi^0_4
#    BR                NDA      ID1      ID2
     2.30260863E-01    2     1000024       -24   # BR(chi^0_4 -> chi^+_1 W^-)
     2.30260863E-01    2    -1000024        24   # BR(chi^0_4 -> chi^-_1 W^+)
     3.76365579E-02    2     1000022        23   # BR(chi^0_4 -> chi^0_1 Z)
     1.29724418E-01    2     1000023        23   # BR(chi^0_4 -> chi^0_2 Z)
     6.19911954E-02    2     1000025        23   # BR(chi^0_4 -> chi^0_3 Z)
     4.07440069E-02    2     1000022        25   # BR(chi^0_4 -> chi^0_1 h^0)
     1.60893007E-01    2     1000023        25   # BR(chi^0_4 -> chi^0_2 h^0)
     8.49739747E-02    2     1000025        25   # BR(chi^0_4 -> chi^0_3 h^0)
#    BR                NDA      ID1      ID2       ID3
     1.58831057E-03    3     1000022         6        -6   # BR(chi^0_4 -> chi^0_1 t t_bar)
     4.76569882E-03    3     1000023         6        -6   # BR(chi^0_4 -> chi^0_2 t t_bar)
     2.88540896E-03    3     1000025         6        -6   # BR(chi^0_4 -> chi^0_3 t t_bar)
     7.11125633E-03    3     1000024         5        -6   # BR(chi^0_4 -> chi^+_1 b t_bar)
     7.11125633E-03    3    -1000024        -5         6   # BR(chi^0_4 -> chi^-_1 b_bar t)
DECAY   1000021     3.99082940E-02   # ~g
#    BR                NDA      ID1      ID2
     3.37857710E-03    2     1000022        21   # BR(~g -> chi^0_1 g)
     5.25889078E-03    2     1000023        21   # BR(~g -> chi^0_2 g)
     2.41589474E-03    2     1000025        21   # BR(~g -> chi^0_3 g)
#    BR                NDA      ID1      ID2       ID3
     6.87284317E-02    3     1000022         6        -6   # BR(~g -> chi^0_1 t t_bar)
     4.63732655E-02    3     1000022         5        -5   # BR(~g -> chi^0_1 b b_bar)
     1.77822990E-01    3     1000023         6        -6   # BR(~g -> chi^0_2 t t_bar)
     5.40128396E-02    3     1000023         5        -5   # BR(~g -> chi^0_2 b b_bar)
     1.09998587E-01    3     1000025         6        -6   # BR(~g -> chi^0_3 t t_bar)
     3.65494875E-02    3     1000025         5        -5   # BR(~g -> chi^0_3 b b_bar)
     2.47584434E-01    3     1000024         5        -6   # BR(~g -> chi^+_1 b t_bar)
     2.47584434E-01    3    -1000024        -5         6   # BR(~g -> chi^-_1 b_bar t)
DECAY        25     3.25763777E-03   # Gamma(h0)
     2.66081652E-03   2        22        22   # BR(h0 -> photon photon)
     1.57302657E-03   2        22        23   # BR(h0 -> photon Z)
     2.77111840E-02   2        23        23   # BR(h0 -> Z Z)
     2.35258135E-01   2       -24        24   # BR(h0 -> W W)
     8.37472327E-02   2        21        21   # BR(h0 -> gluon gluon)
     4.99930800E-09   2       -11        11   # BR(h0 -> Electron electron)
     2.22377428E-04   2       -13        13   # BR(h0 -> Muon muon)
     6.41176898E-02   2       -15        15   # BR(h0 -> Tau tau)
     1.41921168E-07   2        -2         2   # BR(h0 -> Up up)
     2.75443748E-02   2        -4         4   # BR(h0 -> Charm charm)
     5.79776847E-07   2        -1         1   # BR(h0 -> Down down)
     2.09691184E-04   2        -3         3   # BR(h0 -> Strange strange)
     5.56954745E-01   2        -5         5   # BR(h0 -> Bottom bottom)
DECAY        35     2.24129820E+01   # Gamma(HH)
     3.46362635E-09   2        22        22   # BR(HH -> photon photon)
     2.55847499E-08   2        22        23   # BR(HH -> photon Z)
     6.60993952E-06   2        23        23   # BR(HH -> Z Z)
     2.48698792E-06   2       -24        24   # BR(HH -> W W)
     2.05348250E-06   2        21        21   # BR(HH -> gluon gluon)
     4.41332968E-09   2       -11        11   # BR(HH -> Electron electron)
     1.96492232E-04   2       -13        13   # BR(HH -> Muon muon)
     5.67478691E-02   2       -15        15   # BR(HH -> Tau tau)
     8.37279622E-13   2        -2         2   # BR(HH -> Up up)
     1.62415685E-07   2        -4         4   # BR(HH -> Charm charm)
     1.20392020E-02   2        -6         6   # BR(HH -> Top top)
     3.31666500E-07   2        -1         1   # BR(HH -> Down down)
     1.19961885E-04   2        -3         3   # BR(HH -> Strange strange)
     3.15071910E-01   2        -5         5   # BR(HH -> Bottom bottom)
     4.57549743E-03   2  -1000024   1000024   # BR(HH -> Chargino1 chargino1)
     1.59978822E-01   2  -1000024   1000037   # BR(HH -> Chargino1 chargino2)
     1.59978822E-01   2  -1000037   1000024   # BR(HH -> Chargino2 chargino1)
     4.69251156E-02   2   1000022   1000022   # BR(HH -> neutralino1 neutralino1)
     1.86778156E-02   2   1000022   1000023   # BR(HH -> neutralino1 neutralino2)
     1.10357079E-03   2   1000022   1000025   # BR(HH -> neutralino1 neutralino3)
     5.09469361E-02   2   1000022   1000035   # BR(HH -> neutralino1 neutralino4)
     2.28937944E-03   2   1000023   1000023   # BR(HH -> neutralino2 neutralino2)
     3.56892026E-02   2   1000023   1000025   # BR(HH -> neutralino2 neutralino3)
     8.16480086E-02   2   1000023   1000035   # BR(HH -> neutralino2 neutralino4)
     2.59114753E-02   2   1000025   1000025   # BR(HH -> neutralino3 neutralino3)
     2.80524093E-02   2   1000025   1000035   # BR(HH -> neutralino3 neutralino4)
     3.58325442E-05   2        25        25   # BR(HH -> h0 h0)
DECAY        36     2.21801322E+01   # Gamma(A0)
     1.03917021E-08   2        22        22   # BR(A0 -> photon photon)
     2.42740931E-08   2        22        23   # BR(A0 -> photon Z)
     2.52201353E-05   2        21        21   # BR(A0 -> gluon gluon)
     4.33832656E-09   2       -11        11   # BR(A0 -> Electron electron)
     1.93152990E-04   2       -13        13   # BR(A0 -> Muon muon)
     5.57836000E-02   2       -15        15   # BR(A0 -> Tau tau)
     8.01006750E-13   2        -2         2   # BR(A0 -> Up up)
     1.55369738E-07   2        -4         4   # BR(A0 -> Charm charm)
     1.17471110E-02   2        -6         6   # BR(A0 -> Top top)
     3.26027011E-07   2        -1         1   # BR(A0 -> Down down)
     1.17922317E-04   2        -3         3   # BR(A0 -> Strange strange)
     3.09716862E-01   2        -5         5   # BR(A0 -> Bottom bottom)
     4.66474885E-03   2  -1000024   1000024   # BR(A0 -> Chargino1 chargino1)
     1.61690707E-01   2  -1000024   1000037   # BR(A0 -> Chargino1 chargino2)
     1.61690707E-01   2  -1000037   1000024   # BR(A0 -> Chargino2 chargino1)
     3.96410111E-02   2   1000022   1000022   # BR(A0 -> neutralino1 neutralino1)
     2.56046889E-02   2   1000022   1000023   # BR(A0 -> neutralino1 neutralino2)
     1.20253354E-03   2   1000022   1000025   # BR(A0 -> neutralino1 neutralino3)
     5.62925593E-02   2   1000022   1000035   # BR(A0 -> neutralino1 neutralino4)
     3.00800894E-03   2   1000023   1000023   # BR(A0 -> neutralino2 neutralino2)
     4.19701980E-02   2   1000023   1000025   # BR(A0 -> neutralino2 neutralino3)
     7.49206691E-02   2   1000023   1000035   # BR(A0 -> neutralino2 neutralino4)
     2.05569622E-02   2   1000025   1000025   # BR(A0 -> neutralino3 neutralino3)
     3.11629883E-02   2   1000025   1000035   # BR(A0 -> neutralino3 neutralino4)
     9.82939450E-06   2        23        25   # BR(A0 -> Z h0)
     8.90579026E-38   2        25        25   # BR(A0 -> h0 h0)
DECAY        37     2.39835028E+01   # Gamma(Hp)
     5.22538317E-09   2       -11        12   # BR(Hp -> Electron nu_e)
     2.23401451E-04   2       -13        14   # BR(Hp -> Muon nu_mu)
     6.31906169E-02   2       -15        16   # BR(Hp -> Tau nu_tau)
     3.40402231E-07   2        -1         2   # BR(Hp -> Down up)
     5.73501382E-06   2        -3         2   # BR(Hp -> Strange up)
     3.67284067E-06   2        -5         2   # BR(Hp -> Bottom up)
     2.44380607E-08   2        -1         4   # BR(Hp -> Down charm)
     1.22857162E-04   2        -3         4   # BR(Hp -> Strange charm)
     5.14329314E-04   2        -5         4   # BR(Hp -> Bottom charm)
     9.35288225E-07   2        -1         6   # BR(Hp -> Down top)
     2.05731965E-05   2        -3         6   # BR(Hp -> Strange top)
     3.60888516E-01   2        -5         6   # BR(Hp -> Bottom top)
     4.69447206E-02   2   1000022   1000024   # BR(Hp -> neutralino1 chargino1)
     1.00100315E-01   2   1000022   1000037   # BR(Hp -> neutralino1 chargino2)
     2.36342346E-05   2   1000023   1000024   # BR(Hp -> neutralino2 chargino1)
     1.46104704E-01   2   1000023   1000037   # BR(Hp -> neutralino2 chargino2)
     7.64391137E-02   2   1000024   1000025   # BR(Hp -> chargino1 neutralino3)
     5.52900220E-02   2   1000025   1000037   # BR(Hp -> neutralino3 chargino2)
     1.50117364E-01   2   1000024   1000035   # BR(Hp -> chargino1 neutralino4)
     9.11934784E-06   2        24        25   # BR(Hp -> W h0)
     2.28481996E-12   2        24        35   # BR(Hp -> W HH)
     1.66353994E-12   2        24        36   # BR(Hp -> W A0)
DECAY         6     2.43000000E+00   # top
#    BR                NDA      ID1      ID2
     1.00000000E+00    2           5        24   # BR(t -> b W)
Block HiggsBoundsInputHiggsCouplingsFermions
# ScalarNormEffCoupSq PseudoSNormEffCoupSq NP IP1 IP2 IP2
    9.19996434E-01    0.00000000E+00        3  25   5   5  # h0-b-b eff. coupling^2, normalised to SM
    2.71396114E+02    0.00000000E+00        3  35   5   5  # H0-b-b eff. coupling^2, normalised to SM
    0.00000000E+00    2.71316110E+02        3  36   5   5  # A0-b-b eff. coupling^2, normalised to SM
#
    1.00029487E+00    0.00000000E+00        3  25   6   6  # h0-t-t eff. coupling^2, normalised to SM
    3.39086549E-03    0.00000000E+00        3  35   6   6  # H0-t-t eff. coupling^2, normalised to SM
    0.00000000E+00    3.68573764E-03        3  36   6   6  # A0-t-t eff. coupling^2, normalised to SM
#
    9.19996434E-01    0.00000000E+00        3  25  15  15  # h0-tau-tau eff. coupling^2, normalised to SM
    2.71396114E+02    0.00000000E+00        3  35  15  15  # H0-tau-tau eff. coupling^2, normalised to SM
    0.00000000E+00    2.71316110E+02        3  36  15  15  # A0-tau-tau eff. coupling^2, normalised to SM
#
Block HiggsBoundsInputHiggsCouplingsBosons
    9.99993855E-01        3  25  24  24  # h0-W-W eff. coupling^2, normalised to SM
    6.14519917E-06        3  35  24  24  # H0-W-W eff. coupling^2, normalised to SM
    0.00000000E+00        3  36  24  24  # A0-W-W eff. coupling^2, normalised to SM
#
    9.99993855E-01        3  25  23  23  # h0-Z-Z eff. coupling^2, normalised to SM
    6.14519917E-06        3  35  23  23  # H0-Z-Z eff. coupling^2, normalised to SM
    0.00000000E+00        3  36  23  23  # A0-Z-Z eff. coupling^2, normalised to SM
#
    1.26735951E+00        3  25  21  21  # h0-g-g eff. coupling^2, normalised to SM
    1.28219376E-03        3  35  21  21  # H0-g-g eff. coupling^2, normalised to SM
    9.95755069E-02        3  36  21  21  # A0-g-g eff. coupling^2, normalised to SM
#
    0.00000000E+00        3  25  25  23  # h0-h0-Z eff. coupling^2, normalised to SM
    0.00000000E+00        3  35  25  23  # H0-h0-Z eff. coupling^2, normalised to SM
    6.14519917E-06        3  36  25  23  # A0-h0-Z eff. coupling^2, normalised to SM
    0.00000000E+00        3  35  35  23  # H0-H0-Z eff. coupling^2, normalised to SM
    9.99993855E-01        3  36  35  23  # A0-H0-Z eff. coupling^2, normalised to SM
    0.00000000E+00        3  36  36  23  # A0-A0-Z eff. coupling^2, normalised to SM
#
    0.00000000E+00        4  25  21  21  23  # h0-g-g-Z eff. coupling^2, normalised to SM
    0.00000000E+00        4  35  21  21  23  # H0-g-g-Z eff. coupling^2, normalised to SM
    0.00000000E+00        4  36  21  21  23  # A0-g-g-Z eff. coupling^2, normalised to SM
Block SPhenoLowEnergy  # low energy observables
    1    3.36813533E-04   # BR(b -> s gamma)
    2    1.58911444E-06   # BR(b -> s mu+ mu-)
    3    3.52632020E-05   # BR(b -> s nu nu)
    4    2.31178029E-15   # BR(Bd -> e+ e-)
    5    9.87566883E-11   # BR(Bd -> mu+ mu-)
    6    2.06771858E-08   # BR(Bd -> tau+ tau-)
    7    7.82282343E-14   # BR(Bs -> e+ e-)
    8    3.34190957E-09   # BR(Bs -> mu+ mu-)
    9    7.08961134E-07   # BR(Bs -> tau+ tau-)
   10    9.65289432E-05   # BR(B_u -> tau nu)
   11    9.97107027E-01   # BR(B_u -> tau nu)/BR(B_u -> tau nu)_SM
   12    5.42118091E-01   # |Delta(M_Bd)| [ps^-1] 
   13    1.93688830E+01   # |Delta(M_Bs)| [ps^-1] 
   14    0.00000000E+00   # neutron EDM according to the chiral quark model
   15    0.00000000E+00   # neutron EDM according to the relativistic quark-parton model
   16    2.15787106E-03   # epsilon_K
   17    2.28166403E-15   # Delta(M_K)
   18    2.48018185E-11   # BR(K^0 -> pi^0 nu nu)
   19    8.29104308E-11   # BR(K^+ -> pi^+ nu nu)
   20   -1.98907440E-16   # Delta(g-2)_electron/2
   21   -8.50392411E-12   # Delta(g-2)_muon/2
   22   -2.40615677E-09   # Delta(g-2)_tau/2
   23    0.00000000E+00   # electric dipole moment of the electron
   24    0.00000000E+00   # electric dipole moment of the muon
   25    0.00000000E+00   # electric dipole moment of the tau
   26    0.00000000E+00   # Br(mu -> e gamma)
   27    0.00000000E+00   # Br(tau -> e gamma)
   28    0.00000000E+00   # Br(tau -> mu gamma)
   29    0.00000000E+00   # Br(mu -> 3 e)
   30    0.00000000E+00   # Br(tau -> 3 e)
   31    0.00000000E+00   # Br(tau -> 3 mu)
   39    4.26006641E-05   # Delta(rho_parameter)
   40    0.00000000E+00   # BR(Z -> e mu)
   41    0.00000000E+00   # BR(Z -> e tau)
   42    0.00000000E+00   # BR(Z -> mu tau)
Block FWCOEF Q=  1.60000000E+02  # Wilson coefficients at scale Q
#    id        order  M        value         comment
     0305 4422   00   0    -1.88819110E-01   # C7
     0305 4422   00   2    -2.07510120E-01   # C7
     0305 4322   00   2    -2.21769566E-04   # C7'
     0305 6421   00   0    -9.52278348E-02   # C8
     0305 6421   00   2    -1.09327810E-01   # C8
     0305 6321   00   2    -2.06422651E-04   # C8'
 03051111 4133   00   0     1.61919082E+00   # C9 e+e-
 03051111 4133   00   2     1.61979366E+00   # C9 e+e-
 03051111 4233   00   2     9.30852407E-05   # C9' e+e-
 03051111 4137   00   0    -4.44188292E+00   # C10 e+e-
 03051111 4137   00   2    -4.44127891E+00   # C10 e+e-
 03051111 4237   00   2    -6.93475697E-04   # C10' e+e-
 03051313 4133   00   0     1.61919082E+00   # C9 mu+mu-
 03051313 4133   00   2     1.61979364E+00   # C9 mu+mu-
 03051313 4233   00   2     9.30852166E-05   # C9' mu+mu-
 03051313 4137   00   0    -4.44188292E+00   # C10 mu+mu-
 03051313 4137   00   2    -4.44127894E+00   # C10 mu+mu-
 03051313 4237   00   2    -6.93475694E-04   # C10' mu+mu-
 03051212 4137   00   0     1.50535012E+00   # C11 nu_1 nu_1
 03051212 4137   00   2     1.50522079E+00   # C11 nu_1 nu_1
 03051212 4237   00   2     1.50207246E-04   # C11' nu_1 nu_1
 03051414 4137   00   0     1.50535012E+00   # C11 nu_2 nu_2
 03051414 4137   00   2     1.50522079E+00   # C11 nu_2 nu_2
 03051414 4237   00   2     1.50207250E-04   # C11' nu_2 nu_2
 03051616 4137   00   0     1.50535012E+00   # C11 nu_3 nu_3
 03051616 4137   00   2     1.50522080E+00   # C11 nu_3 nu_3
 03051616 4237   00   2     1.50208392E-04   # C11' nu_3 nu_3
Block IMFWCOEF Q=  1.60000000E+02  # Im(Wilson coefficients) at scale Q
#    id        order  M        value         comment
     0305 4422   00   0     3.85818832E-07   # C7
     0305 4422   00   2    -1.55882825E-05   # C7
     0305 4322   00   2    -8.90579358E-07   # C7'
     0305 6421   00   0     3.30479345E-07   # C8
     0305 6421   00   2     2.79173296E-05   # C8
     0305 6321   00   2     2.32066794E-07   # C8'
 03051111 4133   00   2     7.69532024E-07   # C9 e+e-
 03051111 4233   00   2     1.83698137E-06   # C9' e+e-
 03051111 4137   00   2    -8.63014370E-07   # C10 e+e-
 03051111 4237   00   2    -1.36915567E-05   # C10' e+e-
 03051313 4133   00   2     7.69531374E-07   # C9 mu+mu-
 03051313 4233   00   2     1.83698127E-06   # C9' mu+mu-
 03051313 4137   00   2    -8.63013783E-07   # C10 mu+mu-
 03051313 4237   00   2    -1.36915569E-05   # C10' mu+mu-
 03051212 4137   00   2     2.13645196E-07   # C11 nu_1 nu_1
 03051212 4237   00   2     2.96560201E-06   # C11' nu_1 nu_1
 03051414 4137   00   2     2.13645218E-07   # C11 nu_2 nu_2
 03051414 4237   00   2     2.96560201E-06   # C11' nu_2 nu_2
 03051616 4137   00   2     2.13651387E-07   # C11 nu_3 nu_3
 03051616 4237   00   2     2.96560200E-06   # C11' nu_3 nu_3
