# SUSY Les Houches Accord 2 - MSSM spectrum + Decays
# SPheno v4.0.5be
# W. Porod, Comput. Phys. Commun. 153 (2003) 275-315, hep-ph/0301101;
# W. Porod, F.~Staub, Comput. Phys. Commun. 183 (2012) 2458
#                     arXiv:1104.1573 [hep-ph] 
# in case of problems send email to porod@physik.uni-wuerzburg.de
# Created: 22.11.2021,  15:02
Block SPINFO         # Program information
     1   SPheno      # spectrum calculator
     2   v4.0.5be    # version number
#
Block SPhenoINFO     # SPheno specific information
    1      2         # using 2-loop RGEs
    2      2         # using pole masses for boundary conditions at mZ
Block MODSEL  # Model selection
    1    0    # general MSSM
Block MINPAR  # Input parameters
    3    1.87807008E+01  # tanb at m_Z    
    4    1.00000000E+00  # Sign(mu)
Block EXTPAR  # non-universal input parameters
    0    4.57235312E+03  # scale for input parameters
    1   -1.07278459E+02  # M_1
    2    1.37729898E+03  # M_2
    3    2.91418701E+03  # M_3
   11    2.89243741E+03  # A_t
   12   -1.37876381E+03  # A_b
   13    1.37417490E+03  # A_tau
   23    1.11090609E+03  # mu
   25    1.78852484E+01  # tan(beta)
   26    3.11069729E+03  # m_A, pole mass
   31    1.10691655E+03  # M_L11
   32    1.10691655E+03  # M_L22
   33    3.07197433E+02  # M_L33
   34    6.19973457E+02  # M_E11
   35    6.19973457E+02  # M_E22
   36    3.85635476E+02  # M_E33
   41    1.00000000E+04  # M_Q11
   42    1.00000000E+04  # M_Q22
   43    4.80094784E+03  # M_Q33
   44    1.00000000E+04  # M_U11
   45    1.00000000E+04  # M_U22
   46    4.27480654E+03  # M_U33
   47    1.00000000E+04  # M_D11
   48    1.00000000E+04  # M_D22
   49    3.16386651E+03  # M_D33
Block SMINPUTS  # SM parameters
         1     1.27908970E+02  # alpha_em^-1(MZ)^MSbar
         2     1.16637870E-05  # G_mu [GeV^-2]
         3     1.18400000E-01  # alpha_s(MZ)^MSbar
         4     9.11876000E+01  # m_Z(pole)
         5     4.18000000E+00  # m_b(m_b), MSbar
         6     1.73200000E+02  # m_t(pole)
         7     1.77700000E+00  # m_tau(pole)
         8     0.00000000E+00  # m_nu_3
        11     5.10998930E-04  # m_e(pole)
        12     0.00000000E+00  # m_nu_1
        13     1.05658372E-01  # m_muon(pole)
        14     0.00000000E+00  # m_nu_2
        21     5.00000000E-03  # m_d(2 GeV), MSbar
        22     2.50000000E-03  # m_u(2 GeV), MSbar
        23     9.50000000E-02  # m_s(2 GeV), MSbar
        24     1.27000000E+00  # m_c(m_c), MSbar
Block gauge Q=  4.57235312E+03  # (SUSY scale)
   1    3.55362975E-01  # g'(Q)^DRbar
   2    6.65198874E-01  # g(Q)^DRbar
   3    1.21977796E+00  # g3(Q)^DRbar
Block Yu Q=  4.57235312E+03  # (SUSY scale)
  1  1     8.39746732E-06   # Y_u(Q)^DRbar
  2  2     4.26591340E-03   # Y_c(Q)^DRbar
  3  3     1.01448150E+00   # Y_t(Q)^DRbar
Block Yd Q=  4.57235312E+03  # (SUSY scale)
  1  1     3.01802996E-04   # Y_d(Q)^DRbar
  2  2     5.73425691E-03   # Y_s(Q)^DRbar
  3  3     2.99294000E-01   # Y_b(Q)^DRbar
Block Ye Q=  4.57235312E+03  # (SUSY scale)
  1  1     5.26668297E-05   # Y_e(Q)^DRbar
  2  2     1.08898300E-02   # Y_mu(Q)^DRbar
  3  3     1.83149026E-01   # Y_tau(Q)^DRbar
Block Au Q=  4.57235312E+03  # (SUSY scale)
  1  1     0.00000000E+00   # A_u(Q)^DRbar
  2  2     0.00000000E+00   # A_c(Q)^DRbar
  3  3     2.89243736E+03   # A_t(Q)^DRbar
Block Ad Q=  4.57235312E+03  # (SUSY scale)
  1  1     0.00000000E+00   # A_d(Q)^DRbar
  2  2     0.00000000E+00   # A_s(Q)^DRbar
  3  3    -1.37876394E+03   # A_b(Q)^DRbar
Block Ae Q=  4.57235312E+03  # (SUSY scale)
  1  1     0.00000000E+00   # A_e(Q)^DRbar
  2  2     0.00000000E+00   # A_mu(Q)^DRbar
  3  3     1.37417486E+03   # A_tau(Q)^DRbar
Block MSOFT Q=  4.57235312E+03  # soft SUSY breaking masses at Q
   1   -1.07278459E+02  # M_1
   2    1.37729898E+03  # M_2
   3    2.91418701E+03  # M_3
  21    8.40482424E+06  # M^2_(H,d)
  22   -7.71124715E+05  # M^2_(H,u)
  31    1.10691655E+03  # M_(L,11)
  32    1.10691655E+03  # M_(L,22)
  33    3.07197433E+02  # M_(L,33)
  34    6.19973457E+02  # M_(E,11)
  35    6.19973457E+02  # M_(E,22)
  36    3.85635476E+02  # M_(E,33)
  41    1.00000000E+04  # M_(Q,11)
  42    1.00000000E+04  # M_(Q,22)
  43    4.80094784E+03  # M_(Q,33)
  44    1.00000000E+04  # M_(U,11)
  45    1.00000000E+04  # M_(U,22)
  46    4.27480654E+03  # M_(U,33)
  47    1.00000000E+04  # M_(D,11)
  48    1.00000000E+04  # M_(D,22)
  49    3.16386651E+03  # M_(D,33)
Block MASS  # Mass spectrum
#   PDG code      mass          particle
         6     1.73200000E+02  # m_t(pole)
        23     9.11876000E+01  # m_Z(pole)
        24     8.04299946E+01  # W+
        15     1.77700000E+00  # m_tau(pole)
        25     1.22720514E+02  # h0
        35     3.11044246E+03  # H0
        36     3.11069729E+03  # A0
        37     3.11315625E+03  # H+
   1000001     1.01148590E+04  # ~d_L
   2000001     1.00904579E+04  # ~d_R
   1000002     1.01145036E+04  # ~u_L
   2000002     1.00928816E+04  # ~u_R
   1000003     1.01148592E+04  # ~s_L
   2000003     1.00904578E+04  # ~s_R
   1000004     1.01145037E+04  # ~c_L
   2000004     1.00928817E+04  # ~c_R
   1000005     3.29187103E+03  # ~b_1
   2000005     4.86006427E+03  # ~b_2
   1000006     4.29802664E+03  # ~t_1
   2000006     4.86418881E+03  # ~t_2
   1000011     1.13082845E+03  # ~e_L-
   2000011     6.39095330E+02  # ~e_R-
   1000012     1.12761912E+03  # ~nu_eL
   1000013     1.13082310E+03  # ~mu_L-
   2000013     6.39067516E+02  # ~mu_R-
   1000014     1.12761049E+03  # ~nu_muL
   1000015     3.31209659E+02  # ~tau_1-
   2000015     4.31791385E+02  # ~tau_2-
   1000016     3.55135342E+02  # ~nu_tauL
   1000021     3.41299644E+03  # ~g
   1000022     1.05616054E+02  # ~chi_10
   1000023     1.11636171E+03  # ~chi_20
   1000025     1.12770277E+03  # ~chi_30
   1000035     1.45008622E+03  # ~chi_40
   1000024     1.11643185E+03  # ~chi_1+
   1000037     1.44991697E+03  # ~chi_2+
# Higgs mixing
Block alpha # Effective Higgs mixing angle
          -5.33264118E-02   # alpha
Block Hmix Q=  4.57235312E+03  # Higgs mixing parameters
   1    1.11090609E+03  # mu
   2    1.78852484E+01  # tan[beta](Q)
   3    2.42807710E+02  # v(Q)
   4    9.67643763E+06  # m^2_A(Q)
Block stopmix # stop mixing matrix
   1  1    -6.69454582E-02   # Re[R_st(1,1)]
   1  2     9.97756636E-01   # Re[R_st(1,2)]
   2  1    -9.97756636E-01   # Re[R_st(2,1)]
   2  2    -6.69454582E-02   # Re[R_st(2,2)]
Block sbotmix # sbottom mixing matrix
   1  1     3.51642391E-03   # Re[R_sb(1,1)]
   1  2     9.99993817E-01   # Re[R_sb(1,2)]
   2  1    -9.99993817E-01   # Re[R_sb(2,1)]
   2  2     3.51642391E-03   # Re[R_sb(2,2)]
Block staumix # stau mixing matrix
   1  1     8.36822890E-01   # Re[R_sta(1,1)]
   1  2     5.47473699E-01   # Re[R_sta(1,2)]
   2  1    -5.47473699E-01   # Re[R_sta(2,1)]
   2  2     8.36822890E-01   # Re[R_sta(2,2)]
Block Nmix # neutralino mixing matrix
   1  1     9.99218004E-01   # Re[N(1,1)]
   1  2    -1.65416867E-05   # Re[N(1,2)]
   1  3     3.95099434E-02   # Re[N(1,3)]
   1  4     1.53092771E-03   # Re[N(1,4)]
   2  1     2.65336922E-02   # Re[N(2,1)]
   2  2     1.82037992E-01   # Re[N(2,2)]
   2  3    -6.97792780E-01   # Re[N(2,3)]
   2  4     6.92274056E-01   # Re[N(2,4)]
   3  1    -2.89991071E-02   # Re[N(3,1)]
   3  2     2.05973294E-02   # Re[N(3,2)]
   3  3     7.05997311E-01   # Re[N(3,3)]
   3  4     7.07320719E-01   # Re[N(3,4)]
   4  1     4.28889345E-03   # Re[N(4,1)]
   4  2    -9.83075744E-01   # Re[N(4,2)]
   4  3    -1.14420268E-01   # Re[N(4,3)]
   4  4     1.43009399E-01   # Re[N(4,4)]
Block Umix # chargino mixing matrix
   1  1    -1.60848549E-01   # Re[U(1,1)]
   1  2     9.86979100E-01   # Re[U(1,2)]
   2  1     9.86979100E-01   # Re[U(2,1)]
   2  2     1.60848549E-01   # Re[U(2,2)]
Block Vmix # chargino mixing matrix
   1  1    -2.01342141E-01   # Re[V(1,1)]
   1  2     9.79520976E-01   # Re[V(1,2)]
   2  1     9.79520976E-01   # Re[V(2,1)]
   2  2     2.01342141E-01   # Re[V(2,2)]
DECAY        23     2.49520000E+00   # Z
DECAY        24     2.08500000E+00   # W
DECAY   2000011     3.03346617E+00   # ~e^-_R
#    BR                NDA      ID1      ID2
     1.00000000E+00    2     1000022        11   # BR(~e^-_R -> chi^0_1 e^-)
#    BR                NDA      ID1      ID2       ID3
DECAY   1000011     1.39384613E+00   # ~e^-_L
#    BR                NDA      ID1      ID2
     9.99792855E-01    2     1000022        11   # BR(~e^-_L -> chi^0_1 e^-)
     1.18273942E-04    2    -1000024        12   # BR(~e^-_L -> chi^-_1 nu_e)
#    BR                NDA      ID1      ID2       ID3
DECAY   2000013     3.03332108E+00   # ~mu^-_R
#    BR                NDA      ID1      ID2
     1.00000000E+00    2     1000022        13   # BR(~mu^-_R -> chi^0_1 mu^-)
DECAY   1000013     1.39468800E+00   # ~mu^-_L
#    BR                NDA      ID1      ID2
     9.99187441E-01    2     1000022        13   # BR(~mu^-_L -> chi^0_1 mu^-)
     1.18115828E-04    2    -1000024        14   # BR(~mu^-_L -> chi^-_1 nu_mu)
     6.05182849E-04    2     2000013        25   # BR(~mu^-_L -> ~mu^-_R h^0)
#    BR                NDA      ID1      ID2       ID3
DECAY   1000015     6.48054491E-01   # ~tau^-_1
#    BR                NDA      ID1      ID2
     1.00000000E+00    2     1000022        15   # BR(~tau^-_1 -> chi^0_1 tau^-)
DECAY   2000015     1.50258000E+00   # ~tau^-_2
#    BR                NDA      ID1      ID2
     9.78365951E-01    2     1000022        15   # BR(~tau^-_2 -> chi^0_1 tau^-)
     1.96213188E-02    2     1000015        23   # BR(~tau^-_2 -> ~tau^-_1 Z)
#    BR                NDA      ID1      ID2       ID3
     1.00661052E-03    3     1000016         1        -2   # BR(~tau^-_2 -> ~nu_tau d u_bar)
     1.00612001E-03    3     1000016         3        -4   # BR(~tau^-_2 -> ~nu_tau s c_bar)
DECAY   1000012     1.38984734E+00   # ~nu_e
#    BR                NDA      ID1      ID2
     9.99847417E-01    2     1000022        12   # BR(~nu_e -> chi^0_1 nu_e)
     1.12865666E-04    2     1000024        11   # BR(~nu_e -> chi^+_1 e^-)
DECAY   1000014     1.38983677E+00   # ~nu_mu
#    BR                NDA      ID1      ID2
     9.99847098E-01    2     1000022        14   # BR(~nu_mu -> chi^0_1 nu_mu)
     1.13244701E-04    2     1000024        13   # BR(~nu_mu -> chi^+_1 mu^-)
DECAY   1000016     3.70137661E-01   # ~nu_tau
#    BR                NDA      ID1      ID2
     9.99973581E-01    2     1000022        16   # BR(~nu_tau -> chi^0_1 nu_tau)
#    BR                NDA      ID1      ID2       ID3
DECAY   2000001     6.30287214E+02   # ~d_R
#    BR                NDA      ID1      ID2
     8.92194828E-03    2     1000022         1   # BR(~d_R -> chi^0_1 d)
     9.91064368E-01    2     1000021         1   # BR(~d_R -> ~g d)
DECAY   1000001     7.56548008E+02   # ~d_L
#    BR                NDA      ID1      ID2
     1.86308163E-03    2     1000022         1   # BR(~d_L -> chi^0_1 d)
     1.80536576E-03    2     1000023         1   # BR(~d_L -> chi^0_2 d)
     5.46433331E-02    2     1000035         1   # BR(~d_L -> chi^0_4 d)
     2.97128301E-03    2    -1000024         2   # BR(~d_L -> chi^-_1 u)
     1.09986365E-01    2    -1000037         2   # BR(~d_L -> chi^-_2 u)
     8.28692471E-01    2     1000021         1   # BR(~d_L -> ~g d)
DECAY   2000003     6.30300043E+02   # ~s_R
#    BR                NDA      ID1      ID2
     8.92178288E-03    2     1000022         3   # BR(~s_R -> chi^0_1 s)
     9.91044180E-01    2     1000021         3   # BR(~s_R -> ~g s)
DECAY   1000003     7.56558036E+02   # ~s_L
#    BR                NDA      ID1      ID2
     1.86307058E-03    2     1000022         3   # BR(~s_L -> chi^0_1 s)
     1.80948486E-03    2     1000023         3   # BR(~s_L -> chi^0_2 s)
     5.46427205E-02    2     1000035         3   # BR(~s_L -> chi^0_4 s)
     2.97576793E-03    2    -1000024         4   # BR(~s_L -> chi^-_1 c)
     1.09985105E-01    2    -1000037         4   # BR(~s_L -> chi^-_2 c)
     8.28681511E-01    2     1000021         3   # BR(~s_L -> ~g s)
DECAY   1000005     1.09491359E+01   # ~b_1
#    BR                NDA      ID1      ID2
     1.68199255E-01    2     1000022         5   # BR(~b_1 -> chi^0_1 b)
     2.04967756E-01    2     1000023         5   # BR(~b_1 -> chi^0_2 b)
     2.08049323E-01    2     1000025         5   # BR(~b_1 -> chi^0_3 b)
     4.13514733E-03    2     1000035         5   # BR(~b_1 -> chi^0_4 b)
     4.06568663E-01    2    -1000024         6   # BR(~b_1 -> chi^-_1 t)
     8.07985551E-03    2    -1000037         6   # BR(~b_1 -> chi^-_2 t)
DECAY   2000005     2.52917249E+02   # ~b_2
#    BR                NDA      ID1      ID2
     2.72131578E-03    2     1000022         5   # BR(~b_2 -> chi^0_1 b)
     1.73020210E-02    2     1000023         5   # BR(~b_2 -> chi^0_2 b)
     1.53397226E-02    2     1000025         5   # BR(~b_2 -> chi^0_3 b)
     6.83530190E-02    2     1000035         5   # BR(~b_2 -> chi^0_4 b)
     3.40332975E-01    2    -1000024         6   # BR(~b_2 -> chi^-_1 t)
     1.51586957E-01    2    -1000037         6   # BR(~b_2 -> chi^-_2 t)
     3.89633206E-01    2     1000021         5   # BR(~b_2 -> ~g b)
     1.38829251E-02    2     1000006       -24   # BR(~b_2 -> ~t_1 W^-)
     3.01108260E-04    2     1000005        23   # BR(~b_2 -> ~b_1 Z)
     5.46749721E-04    2     1000005        25   # BR(~b_2 -> ~b_1 h^0)
DECAY   2000002     6.47416095E+02   # ~u_R
#    BR                NDA      ID1      ID2
     3.47519393E-02    2     1000022         2   # BR(~u_R -> chi^0_1 u)
     9.65194982E-01    2     1000021         2   # BR(~u_R -> ~g u)
DECAY   1000002     7.56533421E+02   # ~u_L
#    BR                NDA      ID1      ID2
     1.86235936E-03    2     1000022         2   # BR(~u_L -> chi^0_1 u)
     2.00287960E-03    2     1000023         2   # BR(~u_L -> chi^0_2 u)
     5.44727652E-02    2     1000035         2   # BR(~u_L -> chi^0_4 u)
     4.65557781E-03    2     1000024         1   # BR(~u_L -> chi^+_1 d)
     1.08328381E-01    2     1000037         1   # BR(~u_L -> chi^+_2 d)
     8.28664367E-01    2     1000021         2   # BR(~u_L -> ~g u)
DECAY   2000004     6.47423199E+02   # ~c_R
#    BR                NDA      ID1      ID2
     3.47515571E-02    2     1000022         4   # BR(~c_R -> chi^0_1 c)
     9.65184359E-01    2     1000021         4   # BR(~c_R -> ~g c)
DECAY   1000004     7.56543407E+02   # ~c_L
#    BR                NDA      ID1      ID2
     1.86233473E-03    2     1000022         4   # BR(~c_L -> chi^0_1 c)
     2.00511237E-03    2     1000023         4   # BR(~c_L -> chi^0_2 c)
     5.44721454E-02    2     1000035         4   # BR(~c_L -> chi^0_4 c)
     4.66380451E-03    2     1000024         3   # BR(~c_L -> chi^+_1 s)
     1.08327171E-01    2     1000037         3   # BR(~c_L -> chi^+_2 s)
     8.28653401E-01    2     1000021         4   # BR(~c_L -> ~g c)
DECAY   1000006     2.05786401E+02   # ~t_1
#    BR                NDA      ID1      ID2
     4.61867242E-02    2     1000022         6   # BR(~t_1 -> chi^0_1 t)
     1.75557850E-01    2     1000023         6   # BR(~t_1 -> chi^0_2 t)
     1.84705620E-01    2     1000025         6   # BR(~t_1 -> chi^0_3 t)
     1.01094052E-02    2     1000035         6   # BR(~t_1 -> chi^0_4 t)
     3.48951465E-01    2     1000024         5   # BR(~t_1 -> chi^+_1 b)
     1.99799516E-02    2     1000037         5   # BR(~t_1 -> chi^+_2 b)
     2.14503266E-01    2     1000021         6   # BR(~t_1 -> ~g t)
#    BR                NDA      ID1      ID2       ID3
DECAY   2000006     2.55686173E+02   # ~t_2
#    BR                NDA      ID1      ID2
     2.80228186E-03    2     1000022         6   # BR(~t_2 -> chi^0_1 t)
     1.71057166E-01    2     1000023         6   # BR(~t_2 -> chi^0_2 t)
     1.74093655E-01    2     1000025         6   # BR(~t_2 -> chi^0_3 t)
     7.13049602E-02    2     1000035         6   # BR(~t_2 -> chi^0_4 t)
     4.30942568E-02    2     1000024         5   # BR(~t_2 -> chi^+_1 b)
     1.28006120E-01    2     1000037         5   # BR(~t_2 -> chi^+_2 b)
     3.88262721E-01    2     1000021         6   # BR(~t_2 -> ~g t)
     5.97822465E-04    2     1000005        24   # BR(~t_2 -> ~b_1 W^+)
     6.92033848E-03    2     1000006        23   # BR(~t_2 -> ~t_1 Z)
     1.38606778E-02    2     1000006        25   # BR(~t_2 -> ~t_1 h^0)
DECAY   1000024     1.57011356E+00   # chi^+_1
#    BR                NDA      ID1      ID2
     3.69344669E-04    2    -2000013        14   # BR(chi^+_1 -> ~mu^+_R nu_mu)
     2.09028322E-01    2    -1000015        16   # BR(chi^+_1 -> ~tau^+_1 nu_tau)
     4.39471509E-02    2    -2000015        16   # BR(chi^+_1 -> ~tau^+_2 nu_tau)
     2.90186160E-01    2     1000016       -15   # BR(chi^+_1 -> ~nu_tau tau^+)
     4.47098475E-01    2     1000022        24   # BR(chi^+_1 -> chi^0_1 W^+)
#    BR                NDA      ID1      ID2       ID3
     9.30342515E-03    3     1000022        -5         6   # BR(chi^+_1 -> chi^0_1 b_bar t)
DECAY   1000037     2.30129568E+01   # chi^+_2
#    BR                NDA      ID1      ID2
     4.14505160E-02    2    -1000011        12   # BR(chi^+_2 -> ~e^+_L nu_e)
     4.14517341E-02    2    -1000013        14   # BR(chi^+_2 -> ~mu^+_L nu_mu)
     1.60113202E-01    2    -1000015        16   # BR(chi^+_2 -> ~tau^+_1 nu_tau)
     7.67838157E-02    2    -2000015        16   # BR(chi^+_2 -> ~tau^+_2 nu_tau)
     4.15482893E-02    2     1000012       -11   # BR(chi^+_2 -> ~nu_e e^+)
     4.15504523E-02    2     1000014       -13   # BR(chi^+_2 -> ~nu_mu mu^+)
     2.35530942E-01    2     1000016       -15   # BR(chi^+_2 -> ~nu_tau tau^+)
     1.78313065E-03    2     1000022        24   # BR(chi^+_2 -> chi^0_1 W^+)
     9.16652704E-02    2     1000023        24   # BR(chi^+_2 -> chi^0_2 W^+)
     1.00176703E-01    2     1000025        24   # BR(chi^+_2 -> chi^0_3 W^+)
     8.71191733E-02    2     1000024        23   # BR(chi^+_2 -> chi^+_1 Z)
     8.02205033E-02    2     1000024        25   # BR(chi^+_2 -> chi^+_1 h^0)
#    BR                NDA      ID1      ID2       ID3
     3.06177269E-04    3     1000023        -5         6   # BR(chi^+_2 -> chi^0_2 b_bar t)
     2.50171323E-04    3     1000025        -5         6   # BR(chi^+_2 -> chi^0_3 b_bar t)
DECAY   1000022     0.00000000E+00   # chi^0_1
DECAY   1000023     1.67544895E+00   # chi^0_2
#    BR                NDA      ID1      ID2
     5.32634469E-04    2     2000011       -11   # BR(chi^0_2 -> ~e^-_R e^+)
     5.32634469E-04    2    -2000011        11   # BR(chi^0_2 -> ~e^+_R e^-)
     7.05481644E-04    2     2000013       -13   # BR(chi^0_2 -> ~mu^-_R mu^+)
     7.05481644E-04    2    -2000013        13   # BR(chi^0_2 -> ~mu^+_R mu^-)
     1.74739272E-01    2     1000015       -15   # BR(chi^0_2 -> ~tau^-_1 tau^+)
     1.74739272E-01    2    -1000015        15   # BR(chi^0_2 -> ~tau^+_1 tau^-)
     4.66380255E-02    2     2000015       -15   # BR(chi^0_2 -> ~tau^-_2 tau^+)
     4.66380255E-02    2    -2000015        15   # BR(chi^0_2 -> ~tau^+_2 tau^-)
     3.33798455E-02    2     1000016       -16   # BR(chi^0_2 -> ~nu_tau nu_bar_tau)
     3.33798455E-02    2    -1000016        16   # BR(chi^0_2 -> ~nu^*_tau nu_tau)
     2.26223037E-01    2     1000022        23   # BR(chi^0_2 -> chi^0_1 Z)
     2.57557673E-01    2     1000022        25   # BR(chi^0_2 -> chi^0_1 h^0)
#    BR                NDA      ID1      ID2       ID3
     4.16229595E-03    3     1000022         6        -6   # BR(chi^0_2 -> chi^0_1 t t_bar)
DECAY   1000025     1.31282470E+00   # chi^0_3
#    BR                NDA      ID1      ID2
     8.36276497E-04    2     2000011       -11   # BR(chi^0_3 -> ~e^-_R e^+)
     8.36276497E-04    2    -2000011        11   # BR(chi^0_3 -> ~e^+_R e^-)
     1.06884519E-03    2     2000013       -13   # BR(chi^0_3 -> ~mu^-_R mu^+)
     1.06884519E-03    2    -2000013        13   # BR(chi^0_3 -> ~mu^+_R mu^-)
     1.05748903E-01    2     1000015       -15   # BR(chi^0_3 -> ~tau^-_1 tau^+)
     1.05748903E-01    2    -1000015        15   # BR(chi^0_3 -> ~tau^+_1 tau^-)
     1.17073509E-01    2     2000015       -15   # BR(chi^0_3 -> ~tau^-_2 tau^+)
     1.17073509E-01    2    -2000015        15   # BR(chi^0_3 -> ~tau^+_2 tau^-)
     1.99801385E-03    2     1000016       -16   # BR(chi^0_3 -> ~nu_tau nu_bar_tau)
     1.99801385E-03    2    -1000016        16   # BR(chi^0_3 -> ~nu^*_tau nu_tau)
     2.61105800E-01    2     1000022        23   # BR(chi^0_3 -> chi^0_1 Z)
     2.79346493E-01    2     1000022        25   # BR(chi^0_3 -> chi^0_1 h^0)
#    BR                NDA      ID1      ID2       ID3
     6.08053605E-03    3     1000022         6        -6   # BR(chi^0_3 -> chi^0_1 t t_bar)
DECAY   1000035     2.46060011E+01   # chi^0_4
#    BR                NDA      ID1      ID2
     1.91570268E-02    2     1000011       -11   # BR(chi^0_4 -> ~e^-_L e^+)
     1.91570268E-02    2    -1000011        11   # BR(chi^0_4 -> ~e^+_L e^-)
     1.91576899E-02    2     1000013       -13   # BR(chi^0_4 -> ~mu^-_L mu^+)
     1.91576899E-02    2    -1000013        13   # BR(chi^0_4 -> ~mu^+_L mu^-)
     7.40161094E-02    2     1000015       -15   # BR(chi^0_4 -> ~tau^-_1 tau^+)
     7.40161094E-02    2    -1000015        15   # BR(chi^0_4 -> ~tau^+_1 tau^-)
     3.55954879E-02    2     2000015       -15   # BR(chi^0_4 -> ~tau^-_2 tau^+)
     3.55954879E-02    2    -2000015        15   # BR(chi^0_4 -> ~tau^+_2 tau^-)
     1.96781382E-02    2     1000012       -12   # BR(chi^0_4 -> ~nu_e nu_bar_e)
     1.96781382E-02    2    -1000012        12   # BR(chi^0_4 -> ~nu^*_e nu_e)
     1.96790598E-02    2     1000014       -14   # BR(chi^0_4 -> ~nu_mu nu_bar_mu)
     1.96790598E-02    2    -1000014        14   # BR(chi^0_4 -> ~nu^*_mu nu_mu)
     1.11274830E-01    2     1000016       -16   # BR(chi^0_4 -> ~nu_tau nu_bar_tau)
     1.11274830E-01    2    -1000016        16   # BR(chi^0_4 -> ~nu^*_tau nu_tau)
     8.31142223E-02    2     1000024       -24   # BR(chi^0_4 -> chi^+_1 W^-)
     8.31142223E-02    2    -1000024        24   # BR(chi^0_4 -> chi^-_1 W^+)
     9.33638690E-04    2     1000022        23   # BR(chi^0_4 -> chi^0_1 Z)
     1.15408913E-03    2     1000023        23   # BR(chi^0_4 -> chi^0_2 Z)
     9.56625213E-02    2     1000025        23   # BR(chi^0_4 -> chi^0_3 Z)
     9.12362654E-04    2     1000022        25   # BR(chi^0_4 -> chi^0_1 h^0)
     7.36116755E-02    2     1000023        25   # BR(chi^0_4 -> chi^0_2 h^0)
     6.37558252E-02    2     1000025        25   # BR(chi^0_4 -> chi^0_3 h^0)
#    BR                NDA      ID1      ID2       ID3
     2.87845567E-04    3     1000024         5        -6   # BR(chi^0_4 -> chi^+_1 b t_bar)
     2.87845567E-04    3    -1000024        -5         6   # BR(chi^0_4 -> chi^-_1 b_bar t)
DECAY   1000021     6.05091014E-01   # ~g
#    BR                NDA      ID1      ID2
     4.05440943E-01    2     1000005        -5   # BR(~g -> ~b_1 b_bar)
     4.05440943E-01    2    -1000005         5   # BR(~g -> ~b^*_1 b)
     6.00251003E-04    2     1000023        21   # BR(~g -> chi^0_2 g)
     7.42172236E-04    2     1000025        21   # BR(~g -> chi^0_3 g)
#    BR                NDA      ID1      ID2       ID3
     1.58467992E-04    3     1000022         2        -2   # BR(~g -> chi^0_1 u u_bar)
     1.58467986E-04    3     1000022         4        -4   # BR(~g -> chi^0_1 c c_bar)
     7.89397596E-03    3     1000022         6        -6   # BR(~g -> chi^0_1 t t_bar)
     2.59119294E-04    3     1000022         5        -5   # BR(~g -> chi^0_1 b b_bar)
     3.65756697E-02    3     1000023         6        -6   # BR(~g -> chi^0_2 t t_bar)
     9.43454973E-04    3     1000023         5        -5   # BR(~g -> chi^0_2 b b_bar)
     3.85350589E-02    3     1000025         6        -6   # BR(~g -> chi^0_3 t t_bar)
     7.95351711E-04    3     1000025         5        -5   # BR(~g -> chi^0_3 b b_bar)
     1.07092754E-04    3     1000035         2        -2   # BR(~g -> chi^0_4 u u_bar)
     1.07093145E-04    3     1000035         4        -4   # BR(~g -> chi^0_4 c c_bar)
     5.33582304E-03    3     1000035         6        -6   # BR(~g -> chi^0_4 t t_bar)
     1.07409199E-04    3     1000035         1        -1   # BR(~g -> chi^0_4 d d_bar)
     1.07409646E-04    3     1000035         3        -3   # BR(~g -> chi^0_4 s s_bar)
     3.37590732E-03    3     1000035         5        -5   # BR(~g -> chi^0_4 b b_bar)
     3.73768291E-02    3     1000024         5        -6   # BR(~g -> chi^+_1 b t_bar)
     3.73768291E-02    3    -1000024        -5         6   # BR(~g -> chi^-_1 b_bar t)
     2.14639856E-04    3     1000037         1        -2   # BR(~g -> chi^+_2 d u_bar)
     2.14639856E-04    3    -1000037        -1         2   # BR(~g -> chi^-_2 d_bar u)
     2.14640686E-04    3     1000037         3        -4   # BR(~g -> chi^+_2 s c_bar)
     2.14640686E-04    3    -1000037        -3         4   # BR(~g -> chi^-_2 s_bar c)
     8.72128279E-03    3     1000037         5        -6   # BR(~g -> chi^+_2 b t_bar)
     8.72128279E-03    3    -1000037        -5         6   # BR(~g -> chi^-_2 b_bar t)
DECAY        25     3.37652626E-03   # Gamma(h0)
     2.50595651E-03   2        22        22   # BR(h0 -> photon photon)
     1.39553684E-03   2        22        23   # BR(h0 -> photon Z)
     2.37516620E-02   2        23        23   # BR(h0 -> Z Z)
     2.05414767E-01   2       -24        24   # BR(h0 -> W W)
     7.90206565E-02   2        21        21   # BR(h0 -> gluon gluon)
     5.29134009E-09   2       -11        11   # BR(h0 -> Electron electron)
     2.35366940E-04   2       -13        13   # BR(h0 -> Muon muon)
     6.78002122E-02   2       -15        15   # BR(h0 -> Tau tau)
     1.50619609E-07   2        -2         2   # BR(h0 -> Up up)
     2.92294994E-02   2        -4         4   # BR(h0 -> Charm charm)
     6.14165509E-07   2        -1         1   # BR(h0 -> Down down)
     2.22128969E-04   2        -3         3   # BR(h0 -> Strange strange)
     5.90423444E-01   2        -5         5   # BR(h0 -> Bottom bottom)
DECAY        35     3.22664937E+01   # Gamma(HH)
     1.17465085E-07   2        22        22   # BR(HH -> photon photon)
     2.48687825E-07   2        22        23   # BR(HH -> photon Z)
     3.09830929E-06   2        23        23   # BR(HH -> Z Z)
     8.92311757E-07   2       -24        24   # BR(HH -> W W)
     1.18470555E-06   2        21        21   # BR(HH -> gluon gluon)
     5.41643086E-09   2       -11        11   # BR(HH -> Electron electron)
     2.41167135E-04   2       -13        13   # BR(HH -> Muon muon)
     7.48523552E-02   2       -15        15   # BR(HH -> Tau tau)
     5.96401384E-13   2        -2         2   # BR(HH -> Up up)
     1.15700080E-07   2        -4         4   # BR(HH -> Charm charm)
     8.30766190E-03   2        -6         6   # BR(HH -> Top top)
     3.57086418E-07   2        -1         1   # BR(HH -> Down down)
     1.29158234E-04   2        -3         3   # BR(HH -> Strange strange)
     3.14420529E-01   2        -5         5   # BR(HH -> Bottom bottom)
     1.30583023E-02   2  -1000024   1000024   # BR(HH -> Chargino1 chargino1)
     1.60178642E-01   2  -1000024   1000037   # BR(HH -> Chargino1 chargino2)
     1.60178642E-01   2  -1000037   1000024   # BR(HH -> Chargino2 chargino1)
     2.05557158E-03   2  -1000037   1000037   # BR(HH -> Chargino2 chargino2)
     3.38982769E-04   2   1000022   1000022   # BR(HH -> neutralino1 neutralino1)
     3.99409329E-02   2   1000022   1000023   # BR(HH -> neutralino1 neutralino2)
     4.55656068E-02   2   1000022   1000025   # BR(HH -> neutralino1 neutralino3)
     2.09183109E-04   2   1000022   1000035   # BR(HH -> neutralino1 neutralino4)
     4.59705107E-03   2   1000023   1000023   # BR(HH -> neutralino2 neutralino2)
     4.04192777E-03   2   1000023   1000025   # BR(HH -> neutralino2 neutralino3)
     3.24554597E-02   2   1000023   1000035   # BR(HH -> neutralino2 neutralino4)
     2.02217843E-04   2   1000025   1000025   # BR(HH -> neutralino3 neutralino3)
     1.24079312E-01   2   1000025   1000035   # BR(HH -> neutralino3 neutralino4)
     1.04203550E-03   2   1000035   1000035   # BR(HH -> neutralino4 neutralino4)
     2.44708026E-05   2        25        25   # BR(HH -> h0 h0)
     4.49252576E-07   2  -1000011   1000011   # BR(HH -> Selectron1 selectron1)
     8.35217651E-13   2  -2000011   1000011   # BR(HH -> Selectron2 selectron1)
     8.35217651E-13   2  -1000011   2000011   # BR(HH -> Selectron1 selectron2)
     5.31535298E-07   2  -2000011   2000011   # BR(HH -> Selectron2 selectron2)
     4.46896232E-07   2  -1000013   1000013   # BR(HH -> Smuon1 smuon1)
     3.57071881E-08   2  -2000013   1000013   # BR(HH -> Smuon2 smuon1)
     3.57071881E-08   2  -1000013   2000013   # BR(HH -> Smuon1 smuon2)
     5.31960640E-07   2  -2000013   2000013   # BR(HH -> Smuon2 smuon2)
     4.34063821E-03   2  -1000015   1000015   # BR(HH -> Stau1 stau1)
     2.65961010E-03   2  -2000015   1000015   # BR(HH -> Stau2 stau1)
     2.65961010E-03   2  -1000015   2000015   # BR(HH -> Stau1 stau2)
     4.40699129E-03   2  -2000015   2000015   # BR(HH -> Stau2 stau2)
DECAY        36     3.18313491E+01   # Gamma(A0)
     2.68537228E-07   2        22        22   # BR(A0 -> photon photon)
     5.17225496E-07   2        22        23   # BR(A0 -> photon Z)
     1.56409306E-05   2        21        21   # BR(A0 -> gluon gluon)
     5.32399696E-09   2       -11        11   # BR(A0 -> Electron electron)
     2.37051664E-04   2       -13        13   # BR(A0 -> Muon muon)
     7.35718882E-02   2       -15        15   # BR(A0 -> Tau tau)
     5.66269945E-13   2        -2         2   # BR(A0 -> Up up)
     1.09849327E-07   2        -4         4   # BR(A0 -> Charm charm)
     7.97887291E-03   2        -6         6   # BR(A0 -> Top top)
     3.50998601E-07   2        -1         1   # BR(A0 -> Down down)
     1.26956653E-04   2        -3         3   # BR(A0 -> Strange strange)
     3.09062662E-01   2        -5         5   # BR(A0 -> Bottom bottom)
     3.14444777E-02   2  -1000024   1000024   # BR(A0 -> Chargino1 chargino1)
     1.47054686E-01   2  -1000024   1000037   # BR(A0 -> Chargino1 chargino2)
     1.47054686E-01   2  -1000037   1000024   # BR(A0 -> Chargino2 chargino1)
     1.35881364E-02   2  -1000037   1000037   # BR(A0 -> Chargino2 chargino2)
     3.42100660E-04   2   1000022   1000022   # BR(A0 -> neutralino1 neutralino1)
     4.71017450E-02   2   1000022   1000023   # BR(A0 -> neutralino1 neutralino2)
     3.94462101E-02   2   1000022   1000025   # BR(A0 -> neutralino1 neutralino3)
     3.49265696E-04   2   1000022   1000035   # BR(A0 -> neutralino1 neutralino4)
     1.15002495E-02   2   1000023   1000023   # BR(A0 -> neutralino2 neutralino2)
     1.48392587E-03   2   1000023   1000025   # BR(A0 -> neutralino2 neutralino3)
     1.12004712E-01   2   1000023   1000035   # BR(A0 -> neutralino2 neutralino4)
     3.39274427E-04   2   1000025   1000025   # BR(A0 -> neutralino3 neutralino3)
     3.61636635E-02   2   1000025   1000035   # BR(A0 -> neutralino3 neutralino4)
     6.87029825E-03   2   1000035   1000035   # BR(A0 -> neutralino4 neutralino4)
     5.24627907E-06   2        23        25   # BR(A0 -> Z h0)
     1.17980462E-36   2        25        25   # BR(A0 -> h0 h0)
     8.46071783E-13   2  -2000011   1000011   # BR(A0 -> Selectron2 selectron1)
     8.46071783E-13   2  -1000011   2000011   # BR(A0 -> Selectron1 selectron2)
     3.61722167E-08   2  -2000013   1000013   # BR(A0 -> Smuon2 smuon1)
     3.61722167E-08   2  -1000013   2000013   # BR(A0 -> Smuon1 smuon2)
     7.12846302E-03   2  -2000015   1000015   # BR(A0 -> Stau2 stau1)
     7.12846302E-03   2  -1000015   2000015   # BR(A0 -> Stau1 stau2)
DECAY        37     3.28917947E+01   # Gamma(Hp)
     5.52074389E-09   2       -11        12   # BR(Hp -> Electron nu_e)
     2.36029044E-04   2       -13        14   # BR(Hp -> Muon nu_mu)
     6.67624386E-02   2       -15        16   # BR(Hp -> Tau nu_tau)
     3.47789259E-07   2        -1         2   # BR(Hp -> Down up)
     5.87296751E-06   2        -3         2   # BR(Hp -> Strange up)
     3.50729040E-06   2        -5         2   # BR(Hp -> Bottom up)
     2.25332640E-08   2        -1         4   # BR(Hp -> Down charm)
     1.25470889E-04   2        -3         4   # BR(Hp -> Strange charm)
     4.91146361E-04   2        -5         4   # BR(Hp -> Bottom charm)
     6.87878094E-07   2        -1         6   # BR(Hp -> Down top)
     1.51837573E-05   2        -3         6   # BR(Hp -> Strange top)
     3.41696617E-01   2        -5         6   # BR(Hp -> Bottom top)
     8.47105178E-02   2   1000022   1000024   # BR(Hp -> neutralino1 chargino1)
     5.44632301E-04   2   1000022   1000037   # BR(Hp -> neutralino1 chargino2)
     2.35684140E-04   2   1000023   1000024   # BR(Hp -> neutralino2 chargino1)
     1.66247450E-01   2   1000023   1000037   # BR(Hp -> neutralino2 chargino2)
     7.99778553E-03   2   1000024   1000025   # BR(Hp -> chargino1 neutralino3)
     1.55252904E-01   2   1000025   1000037   # BR(Hp -> neutralino3 chargino2)
     1.61867010E-01   2   1000024   1000035   # BR(Hp -> chargino1 neutralino4)
     1.20511389E-07   2   1000035   1000037   # BR(Hp -> neutralino4 chargino2)
     5.09218152E-06   2        24        25   # BR(Hp -> W h0)
     6.09101543E-12   2        24        35   # BR(Hp -> W HH)
     3.72022089E-12   2        24        36   # BR(Hp -> W A0)
     1.58856813E-12   2  -1000011   1000012   # BR(Hp -> Selectron1 snu_e1)
     2.04821079E-06   2  -2000011   1000012   # BR(Hp -> Selectron2 snu_e1)
     6.79165081E-08   2  -1000013   1000014   # BR(Hp -> Smuon1 snu_mu1)
     2.04877858E-06   2  -2000013   1000014   # BR(Hp -> Smuon2 snu_mu1)
     2.54044111E-03   2  -1000015   1000016   # BR(Hp -> Stau1 snu_tau1)
     1.12568684E-02   2  -2000015   1000016   # BR(Hp -> Stau2 snu_tau1)
DECAY         6     2.43000000E+00   # top
#    BR                NDA      ID1      ID2
     1.00000000E+00    2           5        24   # BR(t -> b W)
Block HiggsBoundsInputHiggsCouplingsFermions
# ScalarNormEffCoupSq PseudoSNormEffCoupSq NP IP1 IP2 IP2
    9.11629818E-01    0.00000000E+00        3  25   5   5  # h0-b-b eff. coupling^2, normalised to SM
    3.19970481E+02    0.00000000E+00        3  35   5   5  # H0-b-b eff. coupling^2, normalised to SM
    0.00000000E+00    3.19882110E+02        3  36   5   5  # A0-b-b eff. coupling^2, normalised to SM
#
    1.00027626E+00    0.00000000E+00        3  25   6   6  # h0-t-t eff. coupling^2, normalised to SM
    2.84989310E-03    0.00000000E+00        3  35   6   6  # H0-t-t eff. coupling^2, normalised to SM
    0.00000000E+00    3.12615169E-03        3  36   6   6  # A0-t-t eff. coupling^2, normalised to SM
#
    9.11629818E-01    0.00000000E+00        3  25  15  15  # h0-tau-tau eff. coupling^2, normalised to SM
    3.19970481E+02    0.00000000E+00        3  35  15  15  # H0-tau-tau eff. coupling^2, normalised to SM
    0.00000000E+00    3.19882110E+02        3  36  15  15  # A0-tau-tau eff. coupling^2, normalised to SM
#
Block HiggsBoundsInputHiggsCouplingsBosons
    9.99993612E-01        3  25  24  24  # h0-W-W eff. coupling^2, normalised to SM
    6.38790716E-06        3  35  24  24  # H0-W-W eff. coupling^2, normalised to SM
    0.00000000E+00        3  36  24  24  # A0-W-W eff. coupling^2, normalised to SM
#
    9.99993612E-01        3  25  23  23  # h0-Z-Z eff. coupling^2, normalised to SM
    6.38790716E-06        3  35  23  23  # H0-Z-Z eff. coupling^2, normalised to SM
    0.00000000E+00        3  36  23  23  # A0-Z-Z eff. coupling^2, normalised to SM
#
    1.27346213E+00        3  25  21  21  # h0-g-g eff. coupling^2, normalised to SM
    9.19483077E-04        3  35  21  21  # H0-g-g eff. coupling^2, normalised to SM
    9.68625911E-02        3  36  21  21  # A0-g-g eff. coupling^2, normalised to SM
#
    0.00000000E+00        3  25  25  23  # h0-h0-Z eff. coupling^2, normalised to SM
    0.00000000E+00        3  35  25  23  # H0-h0-Z eff. coupling^2, normalised to SM
    6.38790716E-06        3  36  25  23  # A0-h0-Z eff. coupling^2, normalised to SM
    0.00000000E+00        3  35  35  23  # H0-H0-Z eff. coupling^2, normalised to SM
    9.99993612E-01        3  36  35  23  # A0-H0-Z eff. coupling^2, normalised to SM
    0.00000000E+00        3  36  36  23  # A0-A0-Z eff. coupling^2, normalised to SM
#
    0.00000000E+00        4  25  21  21  23  # h0-g-g-Z eff. coupling^2, normalised to SM
    0.00000000E+00        4  35  21  21  23  # H0-g-g-Z eff. coupling^2, normalised to SM
    0.00000000E+00        4  36  21  21  23  # A0-g-g-Z eff. coupling^2, normalised to SM
Block SPhenoLowEnergy  # low energy observables
    1    3.27197811E-04   # BR(b -> s gamma)
    2    1.58936107E-06   # BR(b -> s mu+ mu-)
    3    3.52519001E-05   # BR(b -> s nu nu)
    4    2.57697286E-15   # BR(Bd -> e+ e-)
    5    1.10085390E-10   # BR(Bd -> mu+ mu-)
    6    2.30476773E-08   # BR(Bd -> tau+ tau-)
    7    8.66008182E-14   # BR(Bs -> e+ e-)
    8    3.69958546E-09   # BR(Bs -> mu+ mu-)
    9    7.84800783E-07   # BR(Bs -> tau+ tau-)
   10    9.65777659E-05   # BR(B_u -> tau nu)
   11    9.97611347E-01   # BR(B_u -> tau nu)/BR(B_u -> tau nu)_SM
   12    5.42018732E-01   # |Delta(M_Bd)| [ps^-1] 
   13    1.93655364E+01   # |Delta(M_Bs)| [ps^-1] 
   14    0.00000000E+00   # neutron EDM according to the chiral quark model
   15    0.00000000E+00   # neutron EDM according to the relativistic quark-parton model
   16    2.15738931E-03   # epsilon_K
   17    2.28165907E-15   # Delta(M_K)
   18    2.47987562E-11   # BR(K^0 -> pi^0 nu nu)
   19    8.29020204E-11   # BR(K^+ -> pi^+ nu nu)
   20    3.57288022E-16   # Delta(g-2)_electron/2
   21    1.52543452E-11   # Delta(g-2)_muon/2
   22   -6.05826925E-07   # Delta(g-2)_tau/2
   23    0.00000000E+00   # electric dipole moment of the electron
   24    0.00000000E+00   # electric dipole moment of the muon
   25    0.00000000E+00   # electric dipole moment of the tau
   26    0.00000000E+00   # Br(mu -> e gamma)
   27    0.00000000E+00   # Br(tau -> e gamma)
   28    0.00000000E+00   # Br(tau -> mu gamma)
   29    0.00000000E+00   # Br(mu -> 3 e)
   30    0.00000000E+00   # Br(tau -> 3 e)
   31    0.00000000E+00   # Br(tau -> 3 mu)
   39    1.29284507E-04   # Delta(rho_parameter)
   40    0.00000000E+00   # BR(Z -> e mu)
   41    0.00000000E+00   # BR(Z -> e tau)
   42    0.00000000E+00   # BR(Z -> mu tau)
Block FWCOEF Q=  1.60000000E+02  # Wilson coefficients at scale Q
#    id        order  M        value         comment
     0305 4422   00   0    -1.88819110E-01   # C7
     0305 4422   00   2    -1.95966769E-01   # C7
     0305 4322   00   2    -1.31571698E-04   # C7'
     0305 6421   00   0    -9.52278348E-02   # C8
     0305 6421   00   2    -1.04292417E-01   # C8
     0305 6321   00   2    -1.74478212E-04   # C8'
 03051111 4133   00   0     1.63100471E+00   # C9 e+e-
 03051111 4133   00   2     1.63119381E+00   # C9 e+e-
 03051111 4233   00   2     7.36621980E-05   # C9' e+e-
 03051111 4137   00   0    -4.45369681E+00   # C10 e+e-
 03051111 4137   00   2    -4.45194951E+00   # C10 e+e-
 03051111 4237   00   2    -5.41427854E-04   # C10' e+e-
 03051313 4133   00   0     1.63100471E+00   # C9 mu+mu-
 03051313 4133   00   2     1.63119349E+00   # C9 mu+mu-
 03051313 4233   00   2     7.36621603E-05   # C9' mu+mu-
 03051313 4137   00   0    -4.45369681E+00   # C10 mu+mu-
 03051313 4137   00   2    -4.45194982E+00   # C10 mu+mu-
 03051313 4237   00   2    -5.41427903E-04   # C10' mu+mu-
 03051212 4137   00   0     1.50535012E+00   # C11 nu_1 nu_1
 03051212 4137   00   2     1.50497822E+00   # C11 nu_1 nu_1
 03051212 4237   00   2     1.16949682E-04   # C11' nu_1 nu_1
 03051414 4137   00   0     1.50535012E+00   # C11 nu_2 nu_2
 03051414 4137   00   2     1.50497822E+00   # C11 nu_2 nu_2
 03051414 4237   00   2     1.16949684E-04   # C11' nu_2 nu_2
 03051616 4137   00   0     1.50535012E+00   # C11 nu_3 nu_3
 03051616 4137   00   2     1.50497827E+00   # C11 nu_3 nu_3
 03051616 4237   00   2     1.16949025E-04   # C11' nu_3 nu_3
Block IMFWCOEF Q=  1.60000000E+02  # Im(Wilson coefficients) at scale Q
#    id        order  M        value         comment
     0305 4422   00   0     3.85814179E-07   # C7
     0305 4422   00   2     4.84000434E-06   # C7
     0305 4322   00   2    -6.56584326E-08   # C7'
     0305 6421   00   0     3.30475360E-07   # C8
     0305 6421   00   2    -4.67798130E-06   # C8
     0305 6321   00   2    -1.62051123E-07   # C8'
 03051111 4133   00   2    -1.28877680E-07   # C9 e+e-
 03051111 4233   00   2     1.47049358E-06   # C9' e+e-
 03051111 4137   00   2     7.17632780E-07   # C10 e+e-
 03051111 4237   00   2    -1.08097031E-05   # C10' e+e-
 03051313 4133   00   2    -1.28878433E-07   # C9 mu+mu-
 03051313 4233   00   2     1.47049314E-06   # C9' mu+mu-
 03051313 4137   00   2     7.17634821E-07   # C10 mu+mu-
 03051313 4237   00   2    -1.08097042E-05   # C10' mu+mu-
 03051212 4137   00   2    -5.57615273E-08   # C11 nu_1 nu_1
 03051212 4237   00   2     2.33495072E-06   # C11' nu_1 nu_1
 03051414 4137   00   2    -5.57615417E-08   # C11 nu_2 nu_2
 03051414 4237   00   2     2.33495072E-06   # C11' nu_2 nu_2
 03051616 4137   00   2    -5.80006351E-08   # C11 nu_3 nu_3
 03051616 4237   00   2     2.33492474E-06   # C11' nu_3 nu_3
