# SUSY Les Houches Accord 2 - MSSM spectrum + Decays
# SPheno v4.0.5be
# W. Porod, Comput. Phys. Commun. 153 (2003) 275-315, hep-ph/0301101;
# W. Porod, F.~Staub, Comput. Phys. Commun. 183 (2012) 2458
#                     arXiv:1104.1573 [hep-ph] 
# in case of problems send email to porod@physik.uni-wuerzburg.de
# Created: 20.12.2022,  18:35
Block SPINFO         # Program information
     1   SPheno      # spectrum calculator
     2   v4.0.5be    # version number
#
Block SPhenoINFO     # SPheno specific information
    1      2         # using 2-loop RGEs
    2      2         # using pole masses for boundary conditions at mZ
Block MODSEL  # Model selection
    1    0    # general MSSM
Block MINPAR  # Input parameters
    3    4.80599089E+01  # tanb at m_Z    
    4    1.00000000E+00  # Sign(mu)
Block EXTPAR  # non-universal input parameters
    0    2.12430791E+03  # scale for input parameters
    1   -1.02535884E+02  # M_1
    2   -8.37283171E+02  # M_2
    3    2.85214733E+03  # M_3
   11   -4.00243393E+03  # A_t
   12    5.66502361E+02  # A_b
   13   -1.02762031E+03  # A_tau
   23    1.39814835E+03  # mu
   25    4.72870548E+01  # tan(beta)
   26    3.97314932E+03  # m_A, pole mass
   31    1.00000000E+04  # M_L11
   32    1.00000000E+04  # M_L22
   33    1.00000000E+04  # M_L33
   34    1.00000000E+04  # M_E11
   35    1.00000000E+04  # M_E22
   36    1.00000000E+04  # M_E33
   41    1.00000000E+04  # M_Q11
   42    1.00000000E+04  # M_Q22
   43    2.07482218E+03  # M_Q33
   44    1.00000000E+04  # M_U11
   45    1.00000000E+04  # M_U22
   46    2.12656607E+03  # M_U33
   47    1.00000000E+04  # M_D11
   48    1.00000000E+04  # M_D22
   49    3.41334952E+03  # M_D33
Block SMINPUTS  # SM parameters
         1     1.27908970E+02  # alpha_em^-1(MZ)^MSbar
         2     1.16637870E-05  # G_mu [GeV^-2]
         3     1.18400000E-01  # alpha_s(MZ)^MSbar
         4     9.11876000E+01  # m_Z(pole)
         5     4.18000000E+00  # m_b(m_b), MSbar
         6     1.73200000E+02  # m_t(pole)
         7     1.77700000E+00  # m_tau(pole)
         8     0.00000000E+00  # m_nu_3
        11     5.10998930E-04  # m_e(pole)
        12     0.00000000E+00  # m_nu_1
        13     1.05658372E-01  # m_muon(pole)
        14     0.00000000E+00  # m_nu_2
        21     5.00000000E-03  # m_d(2 GeV), MSbar
        22     2.50000000E-03  # m_u(2 GeV), MSbar
        23     9.50000000E-02  # m_s(2 GeV), MSbar
        24     1.27000000E+00  # m_c(m_c), MSbar
Block gauge Q=  2.12430791E+03  # (SUSY scale)
   1    3.55362975E-01  # g'(Q)^DRbar
   2    6.65198874E-01  # g(Q)^DRbar
   3    1.21977796E+00  # g3(Q)^DRbar
Block Yu Q=  2.12430791E+03  # (SUSY scale)
  1  1     8.38624673E-06   # Y_u(Q)^DRbar
  2  2     4.26021334E-03   # Y_c(Q)^DRbar
  3  3     1.01312596E+00   # Y_t(Q)^DRbar
Block Yd Q=  2.12430791E+03  # (SUSY scale)
  1  1     7.96874902E-04   # Y_d(Q)^DRbar
  2  2     1.51406231E-02   # Y_s(Q)^DRbar
  3  3     7.90250198E-01   # Y_b(Q)^DRbar
Block Ye Q=  2.12430791E+03  # (SUSY scale)
  1  1     1.39060498E-04   # Y_e(Q)^DRbar
  2  2     2.87533005E-02   # Y_mu(Q)^DRbar
  3  3     4.83583212E-01   # Y_tau(Q)^DRbar
Block Au Q=  2.12430791E+03  # (SUSY scale)
  1  1     0.00000000E+00   # A_u(Q)^DRbar
  2  2     0.00000000E+00   # A_c(Q)^DRbar
  3  3    -4.00243387E+03   # A_t(Q)^DRbar
Block Ad Q=  2.12430791E+03  # (SUSY scale)
  1  1     0.00000000E+00   # A_d(Q)^DRbar
  2  2     0.00000000E+00   # A_s(Q)^DRbar
  3  3     5.66502361E+02   # A_b(Q)^DRbar
Block Ae Q=  2.12430791E+03  # (SUSY scale)
  1  1     0.00000000E+00   # A_e(Q)^DRbar
  2  2     0.00000000E+00   # A_mu(Q)^DRbar
  3  3    -1.02762031E+03   # A_tau(Q)^DRbar
Block MSOFT Q=  2.12430791E+03  # soft SUSY breaking masses at Q
   1   -1.02535884E+02  # M_1
   2   -8.37283171E+02  # M_2
   3    2.85214733E+03  # M_3
  21    1.32888859E+07  # M^2_(H,d)
  22   -1.89693662E+06  # M^2_(H,u)
  31    1.00000000E+04  # M_(L,11)
  32    1.00000000E+04  # M_(L,22)
  33    1.00000000E+04  # M_(L,33)
  34    1.00000000E+04  # M_(E,11)
  35    1.00000000E+04  # M_(E,22)
  36    1.00000000E+04  # M_(E,33)
  41    1.00000000E+04  # M_(Q,11)
  42    1.00000000E+04  # M_(Q,22)
  43    2.07482218E+03  # M_(Q,33)
  44    1.00000000E+04  # M_(U,11)
  45    1.00000000E+04  # M_(U,22)
  46    2.12656607E+03  # M_(U,33)
  47    1.00000000E+04  # M_(D,11)
  48    1.00000000E+04  # M_(D,22)
  49    3.41334952E+03  # M_(D,33)
Block MASS  # Mass spectrum
#   PDG code      mass          particle
         6     1.73200000E+02  # m_t(pole)
        23     9.11876000E+01  # m_Z(pole)
        24     8.04299946E+01  # W+
        15     1.77700000E+00  # m_tau(pole)
        25     1.24880984E+02  # h0
        35     3.97024194E+03  # H0
        36     3.97314932E+03  # A0
        37     3.97245949E+03  # H+
   1000001     1.00941217E+04  # ~d_L
   2000001     1.00699887E+04  # ~d_R
   1000002     1.00937561E+04  # ~u_L
   2000002     1.00734216E+04  # ~u_R
   1000003     1.00941402E+04  # ~s_L
   2000003     1.00700202E+04  # ~s_R
   1000004     1.00937739E+04  # ~c_L
   2000004     1.00734243E+04  # ~c_R
   1000005     2.12696111E+03  # ~b_1
   2000005     3.46275823E+03  # ~b_2
   1000006     1.99923703E+03  # ~t_1
   2000006     2.25720313E+03  # ~t_2
   1000011     1.00208161E+04  # ~e_L-
   2000011     1.00084940E+04  # ~e_R-
   1000012     1.00200585E+04  # ~nu_eL
   1000013     1.00209102E+04  # ~mu_L-
   2000013     1.00086493E+04  # ~mu_R-
   1000014     1.00201429E+04  # ~nu_muL
   1000015     1.00422058E+04  # ~tau_1-
   2000015     1.00579616E+04  # ~tau_2-
   1000016     1.00441506E+04  # ~nu_tauL
   1000021     3.21915893E+03  # ~g
   1000022     1.04294815E+02  # ~chi_10
   1000023     9.01204162E+02  # ~chi_20
   1000025     1.41341922E+03  # ~chi_30
   1000035     1.41840881E+03  # ~chi_40
   1000024     9.00948893E+02  # ~chi_1+
   1000037     1.41925781E+03  # ~chi_2+
# Higgs mixing
Block alpha # Effective Higgs mixing angle
          -2.08231374E-02   # alpha
Block Hmix Q=  2.12430791E+03  # Higgs mixing parameters
   1    1.39814835E+03  # mu
   2    4.72870548E+01  # tan[beta](Q)
   3    2.43622477E+02  # v(Q)
   4    1.57859155E+07  # m^2_A(Q)
Block stopmix # stop mixing matrix
   1  1     7.19346452E-01   # Re[R_st(1,1)]
   1  2     6.94651482E-01   # Re[R_st(1,2)]
   2  1    -6.94651482E-01   # Re[R_st(2,1)]
   2  2     7.19346452E-01   # Re[R_st(2,2)]
Block sbotmix # sbottom mixing matrix
   1  1     9.99847432E-01   # Re[R_sb(1,1)]
   1  2     1.74674904E-02   # Re[R_sb(1,2)]
   2  1    -1.74674904E-02   # Re[R_sb(2,1)]
   2  2     9.99847432E-01   # Re[R_sb(2,2)]
Block staumix # stau mixing matrix
   1  1     9.14357710E-01   # Re[R_sta(1,1)]
   1  2     4.04907369E-01   # Re[R_sta(1,2)]
   2  1    -4.04907369E-01   # Re[R_sta(2,1)]
   2  2     9.14357710E-01   # Re[R_sta(2,2)]
Block Nmix # neutralino mixing matrix
   1  1    -9.99491807E-01   # Re[N(1,1)]
   1  2     1.08689313E-05   # Re[N(1,2)]
   1  3    -3.18365136E-02   # Re[N(1,3)]
   1  4    -1.60124357E-03   # Re[N(1,4)]
   2  1    -2.98985688E-03   # Re[N(2,1)]
   2  2    -9.94320279E-01   # Re[N(2,2)]
   2  3     9.07316081E-02   # Re[N(2,3)]
   2  4     5.55519389E-02   # Re[N(2,4)]
   3  1     2.13634789E-02   # Re[N(3,1)]
   3  2    -2.50021324E-02   # Re[N(3,2)]
   3  3    -7.06272515E-01   # Re[N(3,3)]
   3  4     7.07175812E-01   # Re[N(3,4)]
   4  1    -2.34689204E-02   # Re[N(4,1)]
   4  2     1.03450834E-01   # Re[N(4,2)]
   4  3     7.01379602E-01   # Re[N(4,3)]
   4  4     7.04850189E-01   # Re[N(4,4)]
Block Umix # chargino mixing matrix
   1  1    -9.91585309E-01   # Re[U(1,1)]
   1  2     1.29454915E-01   # Re[U(1,2)]
   2  1    -1.29454915E-01   # Re[U(2,1)]
   2  2    -9.91585309E-01   # Re[U(2,2)]
Block Vmix # chargino mixing matrix
   1  1     9.96802170E-01   # Re[V(1,1)]
   1  2     7.99089102E-02   # Re[V(1,2)]
   2  1     7.99089102E-02   # Re[V(2,1)]
   2  2    -9.96802170E-01   # Re[V(2,2)]
DECAY        23     2.49520000E+00   # Z
DECAY        24     2.08500000E+00   # W
DECAY   2000011     5.02761087E+01   # ~e^-_R
#    BR                NDA      ID1      ID2
     9.99023545E-01    2     1000022        11   # BR(~e^-_R -> chi^0_1 e^-)
     4.38524603E-04    2     1000025        11   # BR(~e^-_R -> chi^0_3 e^-)
     5.29059564E-04    2     1000035        11   # BR(~e^-_R -> chi^0_4 e^-)
DECAY   1000011     1.42730770E+02   # ~e^-_L
#    BR                NDA      ID1      ID2
     8.80798754E-02    2     1000022        11   # BR(~e^-_L -> chi^0_1 e^-)
     3.01565528E-01    2     1000023        11   # BR(~e^-_L -> chi^0_2 e^-)
     2.45282250E-03    2     1000035        11   # BR(~e^-_L -> chi^0_4 e^-)
     5.97900785E-01    2    -1000024        12   # BR(~e^-_L -> chi^-_1 nu_e)
     9.94615663E-03    2    -1000037        12   # BR(~e^-_L -> chi^-_2 nu_e)
#    BR                NDA      ID1      ID2       ID3
DECAY   2000013     5.05931479E+01   # ~mu^-_R
#    BR                NDA      ID1      ID2
     9.92781926E-01    2     1000022        13   # BR(~mu^-_R -> chi^0_1 mu^-)
     1.99471824E-03    2     1000025        13   # BR(~mu^-_R -> chi^0_3 mu^-)
     2.06272029E-03    2     1000035        13   # BR(~mu^-_R -> chi^0_4 mu^-)
     3.07189098E-03    2    -1000037        14   # BR(~mu^-_R -> chi^-_2 nu_mu)
DECAY   1000013     1.42890491E+02   # ~mu^-_L
#    BR                NDA      ID1      ID2
     8.79834161E-02    2     1000022        13   # BR(~mu^-_L -> chi^0_1 mu^-)
     3.01240698E-01    2     1000023        13   # BR(~mu^-_L -> chi^0_2 mu^-)
     6.07472404E-04    2     1000025        13   # BR(~mu^-_L -> chi^0_3 mu^-)
     2.99502505E-03    2     1000035        13   # BR(~mu^-_L -> chi^0_4 mu^-)
     5.97238249E-01    2    -1000024        14   # BR(~mu^-_L -> chi^-_1 nu_mu)
     9.93513984E-03    2    -1000037        14   # BR(~mu^-_L -> chi^-_2 nu_mu)
#    BR                NDA      ID1      ID2       ID3
DECAY   1000015     1.80349923E+02   # ~tau^-_1
#    BR                NDA      ID1      ID2
     1.07650662E-01    2     1000022        15   # BR(~tau^-_1 -> chi^0_1 tau^-)
     2.18606152E-01    2     1000023        15   # BR(~tau^-_1 -> chi^0_2 tau^-)
     1.19592986E-01    2     1000025        15   # BR(~tau^-_1 -> chi^0_3 tau^-)
     1.09471000E-01    2     1000035        15   # BR(~tau^-_1 -> chi^0_4 tau^-)
     4.30505478E-01    2    -1000024        16   # BR(~tau^-_1 -> chi^-_1 nu_tau)
     1.41737215E-02    2    -1000037        16   # BR(~tau^-_1 -> chi^-_2 nu_tau)
DECAY   2000015     1.48058514E+02   # ~tau^-_2
#    BR                NDA      ID1      ID2
     2.95445805E-01    2     1000022        15   # BR(~tau^-_2 -> chi^0_1 tau^-)
     3.02329518E-02    2     1000023        15   # BR(~tau^-_2 -> chi^0_2 tau^-)
     1.57250131E-01    2     1000025        15   # BR(~tau^-_2 -> chi^0_3 tau^-)
     1.67685627E-01    2     1000035        15   # BR(~tau^-_2 -> chi^0_4 tau^-)
     5.85560722E-02    2    -1000024        16   # BR(~tau^-_2 -> chi^-_1 nu_tau)
     2.90829411E-01    2    -1000037        16   # BR(~tau^-_2 -> chi^-_2 nu_tau)
#    BR                NDA      ID1      ID2       ID3
DECAY   1000012     1.42734714E+02   # ~nu_e
#    BR                NDA      ID1      ID2
     8.80779508E-02    2     1000022        12   # BR(~nu_e -> chi^0_1 nu_e)
     2.99602367E-01    2     1000023        12   # BR(~nu_e -> chi^0_2 nu_e)
     3.93591739E-04    2     1000025        12   # BR(~nu_e -> chi^0_3 nu_e)
     3.99200602E-03    2     1000035        12   # BR(~nu_e -> chi^0_4 nu_e)
     6.04144740E-01    2     1000024        11   # BR(~nu_e -> chi^+_1 e^-)
     3.78934388E-03    2     1000037        11   # BR(~nu_e -> chi^+_2 e^-)
#    BR                NDA      ID1      ID2       ID3
DECAY   1000014     1.42894276E+02   # ~nu_mu
#    BR                NDA      ID1      ID2
     8.79803404E-02    2     1000022        14   # BR(~nu_mu -> chi^0_1 nu_mu)
     2.99270421E-01    2     1000023        14   # BR(~nu_mu -> chi^0_2 nu_mu)
     3.93155817E-04    2     1000025        14   # BR(~nu_mu -> chi^0_3 nu_mu)
     3.98758471E-03    2     1000035        14   # BR(~nu_mu -> chi^0_4 nu_mu)
     6.03494404E-01    2     1000024        13   # BR(~nu_mu -> chi^+_1 mu^-)
     4.87409437E-03    2     1000037        13   # BR(~nu_mu -> chi^+_2 mu^-)
#    BR                NDA      ID1      ID2       ID3
DECAY   1000016     1.87988219E+02   # ~nu_tau
#    BR                NDA      ID1      ID2
     6.70362306E-02    2     1000022        16   # BR(~nu_tau -> chi^0_1 nu_tau)
     2.28045294E-01    2     1000023        16   # BR(~nu_tau -> chi^0_2 nu_tau)
     2.99621101E-04    2     1000025        16   # BR(~nu_tau -> chi^0_3 nu_tau)
     3.03891266E-03    2     1000035        16   # BR(~nu_tau -> chi^0_4 nu_tau)
     4.63952426E-01    2     1000024        15   # BR(~nu_tau -> chi^+_1 tau^-)
     2.37627516E-01    2     1000037        15   # BR(~nu_tau -> chi^+_2 tau^-)
#    BR                NDA      ID1      ID2       ID3
DECAY   2000001     6.46319895E+02   # ~d_R
#    BR                NDA      ID1      ID2
     8.68777879E-03    2     1000022         1   # BR(~d_R -> chi^0_1 d)
     9.91303349E-01    2     1000021         1   # BR(~d_R -> ~g d)
DECAY   1000001     7.75467172E+02   # ~d_L
#    BR                NDA      ID1      ID2
     1.81478817E-03    2     1000022         1   # BR(~d_L -> chi^0_1 d)
     5.56857995E-02    2     1000023         1   # BR(~d_L -> chi^0_2 d)
     6.37831465E-04    2     1000035         1   # BR(~d_L -> chi^0_4 d)
     1.10879482E-01    2    -1000024         2   # BR(~d_L -> chi^-_1 u)
     1.84515222E-03    2    -1000037         2   # BR(~d_L -> chi^-_2 u)
     8.29091171E-01    2     1000021         1   # BR(~d_L -> ~g d)
DECAY   2000003     6.46410859E+02   # ~s_R
#    BR                NDA      ID1      ID2
     8.68665519E-03    2     1000022         3   # BR(~s_R -> chi^0_1 s)
     9.91168363E-01    2     1000021         3   # BR(~s_R -> ~g s)
DECAY   1000003     7.75516767E+02   # ~s_L
#    BR                NDA      ID1      ID2
     1.81473541E-03    2     1000022         3   # BR(~s_L -> chi^0_1 s)
     5.56828219E-02    2     1000023         3   # BR(~s_L -> chi^0_2 s)
     6.65775436E-04    2     1000035         3   # BR(~s_L -> chi^0_4 s)
     1.10872623E-01    2    -1000024         4   # BR(~s_L -> chi^-_1 c)
     1.84953197E-03    2    -1000037         4   # BR(~s_L -> chi^-_2 c)
     8.29040357E-01    2     1000021         3   # BR(~s_L -> ~g s)
DECAY   1000005     4.26509407E+01   # ~b_1
#    BR                NDA      ID1      ID2
     7.76897180E-03    2     1000022         5   # BR(~b_1 -> chi^0_1 b)
     1.50006259E-01    2     1000023         5   # BR(~b_1 -> chi^0_2 b)
     9.63258581E-02    2     1000025         5   # BR(~b_1 -> chi^0_3 b)
     9.45036568E-02    2     1000035         5   # BR(~b_1 -> chi^0_4 b)
     2.84730282E-01    2    -1000024         6   # BR(~b_1 -> chi^-_1 t)
     3.07849202E-01    2    -1000037         6   # BR(~b_1 -> chi^-_2 t)
     5.88157708E-02    2     1000006       -24   # BR(~b_1 -> ~t_1 W^-)
DECAY   2000005     7.18748277E+01   # ~b_2
#    BR                NDA      ID1      ID2
     2.72087776E-02    2     1000022         5   # BR(~b_2 -> chi^0_1 b)
     3.36423402E-03    2     1000023         5   # BR(~b_2 -> chi^0_2 b)
     2.07612669E-01    2     1000025         5   # BR(~b_2 -> chi^0_3 b)
     2.04652749E-01    2     1000035         5   # BR(~b_2 -> chi^0_4 b)
     6.83125500E-03    2    -1000024         6   # BR(~b_2 -> chi^-_1 t)
     4.06994758E-01    2    -1000037         6   # BR(~b_2 -> chi^-_2 t)
     7.00226747E-02    2     1000021         5   # BR(~b_2 -> ~g b)
     1.82978583E-02    2     1000006       -24   # BR(~b_2 -> ~t_1 W^-)
     1.09301044E-02    2     2000006       -24   # BR(~b_2 -> ~t_2 W^-)
     1.43680402E-02    2     1000005        23   # BR(~b_2 -> ~b_1 Z)
     2.97168801E-02    2     1000005        25   # BR(~b_2 -> ~b_1 h^0)
DECAY   2000002     6.63506893E+02   # ~u_R
#    BR                NDA      ID1      ID2
     3.38624918E-02    2     1000022         2   # BR(~u_R -> chi^0_1 u)
     9.66104398E-01    2     1000021         2   # BR(~u_R -> ~g u)
DECAY   1000002     7.75452007E+02   # ~u_L
#    BR                NDA      ID1      ID2
     1.81431450E-03    2     1000022         2   # BR(~u_L -> chi^0_1 u)
     5.58042003E-02    2     1000023         2   # BR(~u_L -> chi^0_2 u)
     5.42535248E-04    2     1000035         2   # BR(~u_L -> chi^0_4 u)
     1.12047259E-01    2     1000024         1   # BR(~u_L -> chi^+_1 d)
     7.03190383E-04    2     1000037         1   # BR(~u_L -> chi^+_2 d)
     8.29063755E-01    2     1000021         2   # BR(~u_L -> ~g u)
DECAY   2000004     6.63514107E+02   # ~c_R
#    BR                NDA      ID1      ID2
     3.38621314E-02    2     1000022         4   # BR(~c_R -> chi^0_1 c)
     9.66094224E-01    2     1000021         4   # BR(~c_R -> ~g c)
DECAY   1000004     7.75501492E+02   # ~c_L
#    BR                NDA      ID1      ID2
     1.81420187E-03    2     1000022         4   # BR(~c_L -> chi^0_1 c)
     5.58007545E-02    2     1000023         4   # BR(~c_L -> chi^0_2 c)
     5.44742379E-04    2     1000035         4   # BR(~c_L -> chi^0_4 c)
     1.12041292E-01    2     1000024         3   # BR(~c_L -> chi^+_1 s)
     7.59068472E-04    2     1000037         3   # BR(~c_L -> chi^+_2 s)
     8.29012937E-01    2     1000021         4   # BR(~c_L -> ~g c)
DECAY   1000006     2.61427206E+01   # ~t_1
#    BR                NDA      ID1      ID2
     2.30720092E-03    2     1000022         4   # BR(~t_1 -> chi^0_1 c)
     8.58318881E-02    2     1000022         6   # BR(~t_1 -> chi^0_1 t)
     4.60221759E-02    2     1000023         4   # BR(~t_1 -> chi^0_2 c)
     8.73719076E-02    2     1000023         6   # BR(~t_1 -> chi^0_2 t)
     1.34664716E-01    2     1000025         6   # BR(~t_1 -> chi^0_3 t)
     1.45042220E-01    2     1000035         6   # BR(~t_1 -> chi^0_4 t)
     1.76417105E-01    2     1000024         5   # BR(~t_1 -> chi^+_1 b)
     3.21862539E-01    2     1000037         5   # BR(~t_1 -> chi^+_2 b)
#    BR                NDA      ID1      ID2       ID3
     4.80247292E-04    3     1000022        24         5   # BR(~t_1 -> chi^0_1 W^+ b)
DECAY   2000006     5.75418283E+01   # ~t_2
#    BR                NDA      ID1      ID2
     4.73180224E-02    2     1000022         6   # BR(~t_2 -> chi^0_1 t)
     7.43731386E-02    2     1000023         6   # BR(~t_2 -> chi^0_2 t)
     1.70183166E-01    2     1000025         6   # BR(~t_2 -> chi^0_3 t)
     1.51586768E-01    2     1000035         6   # BR(~t_2 -> chi^0_4 t)
     1.51331733E-01    2     1000024         5   # BR(~t_2 -> chi^+_1 b)
     2.21040824E-01    2     1000037         5   # BR(~t_2 -> chi^+_2 b)
     4.49081983E-02    2     1000005        24   # BR(~t_2 -> ~b_1 W^+)
     1.39003985E-01    2     1000006        23   # BR(~t_2 -> ~t_1 Z)
     2.54164478E-04    2     1000006        25   # BR(~t_2 -> ~t_1 h^0)
DECAY   1000024     4.16474619E-03   # chi^+_1
#    BR                NDA      ID1      ID2
     9.83035316E-01    2     1000022        24   # BR(chi^+_1 -> chi^0_1 W^+)
#    BR                NDA      ID1      ID2       ID3
     1.69512973E-02    3     1000022        -5         6   # BR(chi^+_1 -> chi^0_1 b_bar t)
DECAY   1000037     8.11749081E+00   # chi^+_2
#    BR                NDA      ID1      ID2
     1.17775993E-01    2     1000022        24   # BR(chi^+_2 -> chi^0_1 W^+)
     3.07575770E-01    2     1000023        24   # BR(chi^+_2 -> chi^0_2 W^+)
     2.79495218E-01    2     1000024        23   # BR(chi^+_2 -> chi^+_1 Z)
     2.86487728E-01    2     1000024        25   # BR(chi^+_2 -> chi^+_1 h^0)
#    BR                NDA      ID1      ID2       ID3
     1.66297541E-03    3     1000024         6        -6   # BR(chi^+_2 -> chi^+_1 t t_bar)
     3.24681741E-03    3     1000022        -5         6   # BR(chi^+_2 -> chi^0_1 b_bar t)
     3.73683258E-03    3     1000023        -5         6   # BR(chi^+_2 -> chi^0_2 b_bar t)
DECAY   1000022     0.00000000E+00   # chi^0_1
DECAY   1000023     3.96840128E-03   # chi^0_2
#    BR                NDA      ID1      ID2
     4.75563107E-01    2     1000022        23   # BR(chi^0_2 -> chi^0_1 Z)
     5.18165844E-01    2     1000022        25   # BR(chi^0_2 -> chi^0_1 h^0)
#    BR                NDA      ID1      ID2       ID3
     5.63535173E-03    3     1000022         6        -6   # BR(chi^0_2 -> chi^0_1 t t_bar)
     5.78313532E-04    3     1000022         5        -5   # BR(chi^0_2 -> chi^0_1 b b_bar)
DECAY   1000025     1.03419502E+01   # chi^0_3
#    BR                NDA      ID1      ID2
     2.18359558E-01    2     1000024       -24   # BR(chi^0_3 -> chi^+_1 W^-)
     2.18359558E-01    2    -1000024        24   # BR(chi^0_3 -> chi^-_1 W^+)
     5.10608827E-02    2     1000022        23   # BR(chi^0_3 -> chi^0_1 Z)
     2.16552298E-01    2     1000023        23   # BR(chi^0_3 -> chi^0_2 Z)
     5.04823850E-02    2     1000022        25   # BR(chi^0_3 -> chi^0_1 h^0)
     2.38568907E-01    2     1000023        25   # BR(chi^0_3 -> chi^0_2 h^0)
#    BR                NDA      ID1      ID2       ID3
     1.29872414E-03    3     1000022         6        -6   # BR(chi^0_3 -> chi^0_1 t t_bar)
     3.70142086E-04    3     1000023         6        -6   # BR(chi^0_3 -> chi^0_2 t t_bar)
     2.45326452E-03    3     1000024         5        -6   # BR(chi^0_3 -> chi^+_1 b t_bar)
     2.45326452E-03    3    -1000024        -5         6   # BR(chi^0_3 -> chi^-_1 b_bar t)
DECAY   1000035     7.99165715E+00   # chi^0_4
#    BR                NDA      ID1      ID2
     2.91020437E-01    2     1000024       -24   # BR(chi^0_4 -> chi^+_1 W^-)
     2.91020437E-01    2    -1000024        24   # BR(chi^0_4 -> chi^-_1 W^+)
     5.38172317E-02    2     1000022        23   # BR(chi^0_4 -> chi^0_1 Z)
     1.61040538E-02    2     1000023        23   # BR(chi^0_4 -> chi^0_2 Z)
     5.98717245E-02    2     1000022        25   # BR(chi^0_4 -> chi^0_1 h^0)
     2.77365649E-01    2     1000023        25   # BR(chi^0_4 -> chi^0_2 h^0)
#    BR                NDA      ID1      ID2       ID3
     1.80469765E-03    3     1000022         6        -6   # BR(chi^0_4 -> chi^0_1 t t_bar)
     4.61309128E-04    3     1000023         6        -6   # BR(chi^0_4 -> chi^0_2 t t_bar)
     4.25548632E-03    3     1000024         5        -6   # BR(chi^0_4 -> chi^+_1 b t_bar)
     4.25548632E-03    3    -1000024        -5         6   # BR(chi^0_4 -> chi^-_1 b_bar t)
DECAY   1000021     9.71297020E+01   # ~g
#    BR                NDA      ID1      ID2
     4.02765555E-02    2     1000006        -4   # BR(~g -> ~t_1 c_bar)
     4.02765555E-02    2    -1000006         4   # BR(~g -> ~t^*_1 c)
     1.51934213E-01    2     1000006        -6   # BR(~g -> ~t_1 t_bar)
     1.51934213E-01    2    -1000006         6   # BR(~g -> ~t^*_1 t)
     1.51698213E-01    2     2000006        -6   # BR(~g -> ~t_2 t_bar)
     1.51698213E-01    2    -2000006         6   # BR(~g -> ~t^*_2 t)
     1.55700673E-01    2     1000005        -5   # BR(~g -> ~b_1 b_bar)
     1.55700673E-01    2    -1000005         5   # BR(~g -> ~b^*_1 b)
#    BR                NDA      ID1      ID2       ID3
     1.42530278E-04    3     1000025         5        -5   # BR(~g -> chi^0_3 b b_bar)
     1.39866894E-04    3     1000035         5        -5   # BR(~g -> chi^0_4 b b_bar)
     1.36304746E-04    3     1000037         5        -6   # BR(~g -> chi^+_2 b t_bar)
     1.36304746E-04    3    -1000037        -5         6   # BR(~g -> chi^-_2 b_bar t)
DECAY        25     3.85491582E-03   # Gamma(h0)
     2.35057751E-03   2        22        22   # BR(h0 -> photon photon)
     1.49116063E-03   2        22        23   # BR(h0 -> photon Z)
     2.74221325E-02   2        23        23   # BR(h0 -> Z Z)
     2.27063010E-01   2       -24        24   # BR(h0 -> W W)
     7.26484353E-02   2        21        21   # BR(h0 -> gluon gluon)
     5.14299136E-09   2       -11        11   # BR(h0 -> Electron electron)
     2.28769397E-04   2       -13        13   # BR(h0 -> Muon muon)
     6.59624093E-02   2       -15        15   # BR(h0 -> Tau tau)
     1.46385437E-07   2        -2         2   # BR(h0 -> Up up)
     2.84065031E-02   2        -4         4   # BR(h0 -> Charm charm)
     5.95414438E-07   2        -1         1   # BR(h0 -> Down down)
     2.15348004E-04   2        -3         3   # BR(h0 -> Strange strange)
     5.74210907E-01   2        -5         5   # BR(h0 -> Bottom bottom)
DECAY        35     1.22470219E+02   # Gamma(HH)
     5.62011062E-08   2        22        22   # BR(HH -> photon photon)
     7.87517156E-08   2        22        23   # BR(HH -> photon Z)
     2.81393659E-08   2        23        23   # BR(HH -> Z Z)
     5.99543207E-09   2       -24        24   # BR(HH -> W W)
     1.21051249E-05   2        21        21   # BR(HH -> gluon gluon)
     1.13182803E-08   2       -11        11   # BR(HH -> Electron electron)
     5.03990317E-04   2       -13        13   # BR(HH -> Muon muon)
     1.45564965E-01   2       -15        15   # BR(HH -> Tau tau)
     7.41089280E-14   2        -2         2   # BR(HH -> Up up)
     1.43745600E-08   2        -4         4   # BR(HH -> Charm charm)
     4.37260751E-04   2        -6         6   # BR(HH -> Top top)
     7.61208430E-07   2        -1         1   # BR(HH -> Down down)
     2.75341343E-04   2        -3         3   # BR(HH -> Strange strange)
     5.55444467E-01   2        -5         5   # BR(HH -> Bottom bottom)
     3.08453617E-03   2  -1000024   1000024   # BR(HH -> Chargino1 chargino1)
     8.78027650E-02   2  -1000024   1000037   # BR(HH -> Chargino1 chargino2)
     8.78027650E-02   2  -1000037   1000024   # BR(HH -> Chargino2 chargino1)
     5.11461875E-04   2  -1000037   1000037   # BR(HH -> Chargino2 chargino2)
     7.24418343E-05   2   1000022   1000022   # BR(HH -> neutralino1 neutralino1)
     7.30009033E-04   2   1000022   1000023   # BR(HH -> neutralino1 neutralino2)
     1.41128585E-02   2   1000022   1000025   # BR(HH -> neutralino1 neutralino3)
     1.43464363E-02   2   1000022   1000035   # BR(HH -> neutralino1 neutralino4)
     1.53300369E-03   2   1000023   1000023   # BR(HH -> neutralino2 neutralino2)
     4.96680407E-02   2   1000023   1000025   # BR(HH -> neutralino2 neutralino3)
     3.64582727E-02   2   1000023   1000035   # BR(HH -> neutralino2 neutralino4)
     6.18336425E-05   2   1000025   1000025   # BR(HH -> neutralino3 neutralino3)
     9.88974779E-04   2   1000025   1000035   # BR(HH -> neutralino3 neutralino4)
     5.82934617E-04   2   1000035   1000035   # BR(HH -> neutralino4 neutralino4)
     4.58083263E-06   2        25        25   # BR(HH -> h0 h0)
DECAY        36     1.16531871E+02   # Gamma(A0)
     2.40283464E-09   2        22        22   # BR(A0 -> photon photon)
     2.06937401E-08   2        22        23   # BR(A0 -> photon Z)
     8.79562319E-06   2        21        21   # BR(A0 -> gluon gluon)
     1.10701787E-08   2       -11        11   # BR(A0 -> Electron electron)
     4.92939124E-04   2       -13        13   # BR(A0 -> Muon muon)
     1.42373248E-01   2       -15        15   # BR(A0 -> Tau tau)
     4.46005050E-14   2        -2         2   # BR(A0 -> Up up)
     8.65028921E-09   2        -4         4   # BR(A0 -> Charm charm)
     2.01129758E-04   2        -6         6   # BR(A0 -> Top top)
     7.44433484E-07   2        -1         1   # BR(A0 -> Down down)
     2.69275159E-04   2        -3         3   # BR(A0 -> Strange strange)
     5.43305654E-01   2        -5         5   # BR(A0 -> Bottom bottom)
     3.75315008E-03   2  -1000024   1000024   # BR(A0 -> Chargino1 chargino1)
     9.19496544E-02   2  -1000024   1000037   # BR(A0 -> Chargino1 chargino2)
     9.19496544E-02   2  -1000037   1000024   # BR(A0 -> Chargino2 chargino1)
     9.34354594E-04   2  -1000037   1000037   # BR(A0 -> Chargino2 chargino2)
     7.60592744E-05   2   1000022   1000022   # BR(A0 -> neutralino1 neutralino1)
     7.61485910E-04   2   1000022   1000023   # BR(A0 -> neutralino1 neutralino2)
     1.54871933E-02   2   1000022   1000025   # BR(A0 -> neutralino1 neutralino3)
     1.44649018E-02   2   1000022   1000035   # BR(A0 -> neutralino1 neutralino4)
     1.86482784E-03   2   1000023   1000023   # BR(A0 -> neutralino2 neutralino2)
     3.96825237E-02   2   1000023   1000025   # BR(A0 -> neutralino2 neutralino3)
     5.06095191E-02   2   1000023   1000035   # BR(A0 -> neutralino2 neutralino4)
     1.40799301E-04   2   1000025   1000025   # BR(A0 -> neutralino3 neutralino3)
     5.44401349E-04   2   1000025   1000035   # BR(A0 -> neutralino3 neutralino4)
     1.12958386E-03   2   1000035   1000035   # BR(A0 -> neutralino4 neutralino4)
     6.19823708E-08   2        23        25   # BR(A0 -> Z h0)
     1.95836443E-12   2        23        35   # BR(A0 -> Z HH)
     1.20194920E-35   2        25        25   # BR(A0 -> h0 h0)
DECAY        37     1.36010720E+02   # Gamma(Hp)
     1.11561118E-08   2       -11        12   # BR(Hp -> Electron nu_e)
     4.76958624E-04   2       -13        14   # BR(Hp -> Muon nu_mu)
     1.34911061E-01   2       -15        16   # BR(Hp -> Tau nu_tau)
     6.42760523E-07   2        -1         2   # BR(Hp -> Down up)
     1.08882099E-05   2        -3         2   # BR(Hp -> Strange up)
     6.30235473E-06   2        -5         2   # BR(Hp -> Bottom up)
     3.04000848E-08   2        -1         4   # BR(Hp -> Down charm)
     2.31746905E-04   2        -3         4   # BR(Hp -> Strange charm)
     8.82555293E-04   2        -5         4   # BR(Hp -> Bottom charm)
     3.16977225E-08   2        -1         6   # BR(Hp -> Down top)
     1.03630439E-06   2        -3         6   # BR(Hp -> Strange top)
     5.95347971E-01   2        -5         6   # BR(Hp -> Bottom top)
     1.30677316E-03   2   1000022   1000024   # BR(Hp -> neutralino1 chargino1)
     2.52178141E-02   2   1000022   1000037   # BR(Hp -> neutralino1 chargino2)
     1.39867464E-08   2   1000023   1000024   # BR(Hp -> neutralino2 chargino1)
     8.12432053E-02   2   1000023   1000037   # BR(Hp -> neutralino2 chargino2)
     7.96209827E-02   2   1000024   1000025   # BR(Hp -> chargino1 neutralino3)
     7.41480268E-04   2   1000025   1000037   # BR(Hp -> neutralino3 chargino2)
     7.99101624E-02   2   1000024   1000035   # BR(Hp -> chargino1 neutralino4)
     9.02792889E-05   2   1000035   1000037   # BR(Hp -> neutralino4 chargino2)
     5.30965618E-08   2        24        25   # BR(Hp -> W h0)
     5.36787924E-13   2        24        35   # BR(Hp -> W HH)
DECAY         6     2.43000000E+00   # top
#    BR                NDA      ID1      ID2
     1.00000000E+00    2           5        24   # BR(t -> b W)
Block HiggsBoundsInputHiggsCouplingsFermions
# ScalarNormEffCoupSq PseudoSNormEffCoupSq NP IP1 IP2 IP2
    9.69858259E-01    0.00000000E+00        3  25   5   5  # h0-b-b eff. coupling^2, normalised to SM
    2.23609569E+03    0.00000000E+00        3  35   5   5  # H0-b-b eff. coupling^2, normalised to SM
    0.00000000E+00    2.23606555E+03        3  36   5   5  # A0-b-b eff. coupling^2, normalised to SM
#
    1.00001348E+00    0.00000000E+00        3  25   6   6  # h0-t-t eff. coupling^2, normalised to SM
    4.33734270E-04    0.00000000E+00        3  35   6   6  # H0-t-t eff. coupling^2, normalised to SM
    0.00000000E+00    4.47214081E-04        3  36   6   6  # A0-t-t eff. coupling^2, normalised to SM
#
    9.69858259E-01    0.00000000E+00        3  25  15  15  # h0-tau-tau eff. coupling^2, normalised to SM
    2.23609569E+03    0.00000000E+00        3  35  15  15  # H0-tau-tau eff. coupling^2, normalised to SM
    0.00000000E+00    2.23606555E+03        3  36  15  15  # A0-tau-tau eff. coupling^2, normalised to SM
#
Block HiggsBoundsInputHiggsCouplingsBosons
    9.99999897E-01        3  25  24  24  # h0-W-W eff. coupling^2, normalised to SM
    1.03135847E-07        3  35  24  24  # H0-W-W eff. coupling^2, normalised to SM
    0.00000000E+00        3  36  24  24  # A0-W-W eff. coupling^2, normalised to SM
#
    9.99999897E-01        3  25  23  23  # h0-Z-Z eff. coupling^2, normalised to SM
    1.03135847E-07        3  35  23  23  # H0-Z-Z eff. coupling^2, normalised to SM
    0.00000000E+00        3  36  23  23  # A0-Z-Z eff. coupling^2, normalised to SM
#
    1.24989625E+00        3  25  21  21  # h0-g-g eff. coupling^2, normalised to SM
    3.99562445E-02        3  35  21  21  # H0-g-g eff. coupling^2, normalised to SM
    1.30037737E-01        3  36  21  21  # A0-g-g eff. coupling^2, normalised to SM
#
    0.00000000E+00        3  25  25  23  # h0-h0-Z eff. coupling^2, normalised to SM
    0.00000000E+00        3  35  25  23  # H0-h0-Z eff. coupling^2, normalised to SM
    1.03135847E-07        3  36  25  23  # A0-h0-Z eff. coupling^2, normalised to SM
    0.00000000E+00        3  35  35  23  # H0-H0-Z eff. coupling^2, normalised to SM
    9.99999897E-01        3  36  35  23  # A0-H0-Z eff. coupling^2, normalised to SM
    0.00000000E+00        3  36  36  23  # A0-A0-Z eff. coupling^2, normalised to SM
#
    0.00000000E+00        4  25  21  21  23  # h0-g-g-Z eff. coupling^2, normalised to SM
    0.00000000E+00        4  35  21  21  23  # H0-g-g-Z eff. coupling^2, normalised to SM
    0.00000000E+00        4  36  21  21  23  # A0-g-g-Z eff. coupling^2, normalised to SM
Block SPhenoLowEnergy  # low energy observables
    1    2.82004504E-04   # BR(b -> s gamma)
    2    1.59750879E-06   # BR(b -> s mu+ mu-)
    3    3.52459594E-05   # BR(b -> s nu nu)
    4    2.50142536E-15   # BR(Bd -> e+ e-)
    5    1.06855371E-10   # BR(Bd -> mu+ mu-)
    6    2.22142091E-08   # BR(Bd -> tau+ tau-)
    7    8.37876442E-14   # BR(Bs -> e+ e-)
    8    3.57931844E-09   # BR(Bs -> mu+ mu-)
    9    7.54107460E-07   # BR(Bs -> tau+ tau-)
   10    9.63049402E-05   # BR(B_u -> tau nu)
   11    9.94793162E-01   # BR(B_u -> tau nu)/BR(B_u -> tau nu)_SM
   12    5.41908018E-01   # |Delta(M_Bd)| [ps^-1] 
   13    1.93576056E+01   # |Delta(M_Bs)| [ps^-1] 
   14    0.00000000E+00   # neutron EDM according to the chiral quark model
   15    0.00000000E+00   # neutron EDM according to the relativistic quark-parton model
   16    2.15703237E-03   # epsilon_K
   17    2.28165599E-15   # Delta(M_K)
   18    2.48062871E-11   # BR(K^0 -> pi^0 nu nu)
   19    8.29176954E-11   # BR(K^+ -> pi^+ nu nu)
   20   -4.90202377E-16   # Delta(g-2)_electron/2
   21   -2.09579270E-11   # Delta(g-2)_muon/2
   22   -5.94708852E-09   # Delta(g-2)_tau/2
   23    0.00000000E+00   # electric dipole moment of the electron
   24    0.00000000E+00   # electric dipole moment of the muon
   25    0.00000000E+00   # electric dipole moment of the tau
   26    0.00000000E+00   # Br(mu -> e gamma)
   27    0.00000000E+00   # Br(tau -> e gamma)
   28    0.00000000E+00   # Br(tau -> mu gamma)
   29    0.00000000E+00   # Br(mu -> 3 e)
   30    0.00000000E+00   # Br(tau -> 3 e)
   31    0.00000000E+00   # Br(tau -> 3 mu)
   39    7.61315291E-05   # Delta(rho_parameter)
   40    0.00000000E+00   # BR(Z -> e mu)
   41    0.00000000E+00   # BR(Z -> e tau)
   42    0.00000000E+00   # BR(Z -> mu tau)
Block FWCOEF Q=  1.60000000E+02  # Wilson coefficients at scale Q
#    id        order  M        value         comment
     0305 4422   00   0    -1.88819110E-01   # C7
     0305 4422   00   2    -1.41552614E-01   # C7
     0305 4322   00   2     6.13957183E-05   # C7'
     0305 6421   00   0    -9.52278349E-02   # C8
     0305 6421   00   2    -7.08298187E-02   # C8
     0305 6321   00   2    -5.54042708E-05   # C8'
 03051111 4133   00   0     1.60498634E+00   # C9 e+e-
 03051111 4133   00   2     1.60549210E+00   # C9 e+e-
 03051111 4233   00   2     5.13145618E-04   # C9' e+e-
 03051111 4137   00   0    -4.42767844E+00   # C10 e+e-
 03051111 4137   00   2    -4.42551005E+00   # C10 e+e-
 03051111 4237   00   2    -3.91969175E-03   # C10' e+e-
 03051313 4133   00   0     1.60498634E+00   # C9 mu+mu-
 03051313 4133   00   2     1.60549180E+00   # C9 mu+mu-
 03051313 4233   00   2     5.13145188E-04   # C9' mu+mu-
 03051313 4137   00   0    -4.42767844E+00   # C10 mu+mu-
 03051313 4137   00   2    -4.42551034E+00   # C10 mu+mu-
 03051313 4237   00   2    -3.91969218E-03   # C10' mu+mu-
 03051212 4137   00   0     1.50535012E+00   # C11 nu_1 nu_1
 03051212 4137   00   2     1.50488058E+00   # C11 nu_1 nu_1
 03051212 4237   00   2     8.51738697E-04   # C11' nu_1 nu_1
 03051414 4137   00   0     1.50535012E+00   # C11 nu_2 nu_2
 03051414 4137   00   2     1.50488058E+00   # C11 nu_2 nu_2
 03051414 4237   00   2     8.51738744E-04   # C11' nu_2 nu_2
 03051616 4137   00   0     1.50535012E+00   # C11 nu_3 nu_3
 03051616 4137   00   2     1.50488058E+00   # C11 nu_3 nu_3
 03051616 4237   00   2     8.51751915E-04   # C11' nu_3 nu_3
Block IMFWCOEF Q=  1.60000000E+02  # Im(Wilson coefficients) at scale Q
#    id        order  M        value         comment
     0305 4422   00   0     3.85907012E-07   # C7
     0305 4422   00   2    -1.44736340E-05   # C7
     0305 4322   00   2     2.52252538E-06   # C7'
     0305 6421   00   0     3.30554878E-07   # C8
     0305 6421   00   2    -2.22799085E-05   # C8
     0305 6321   00   2     8.89661926E-07   # C8'
 03051111 4133   00   2    -2.06553756E-07   # C9 e+e-
 03051111 4233   00   2     9.80175951E-06   # C9' e+e-
 03051111 4137   00   2     7.73289828E-06   # C10 e+e-
 03051111 4237   00   2    -7.48748782E-05   # C10' e+e-
 03051313 4133   00   2    -2.06558004E-07   # C9 mu+mu-
 03051313 4233   00   2     9.80175570E-06   # C9' mu+mu-
 03051313 4137   00   2     7.73290394E-06   # C10 mu+mu-
 03051313 4237   00   2    -7.48748897E-05   # C10' mu+mu-
 03051212 4137   00   2    -1.65057097E-06   # C11 nu_1 nu_1
 03051212 4237   00   2     1.62701148E-05   # C11' nu_1 nu_1
 03051414 4137   00   2    -1.65057075E-06   # C11 nu_2 nu_2
 03051414 4237   00   2     1.62701148E-05   # C11' nu_2 nu_2
 03051616 4137   00   2    -1.65050856E-06   # C11 nu_3 nu_3
 03051616 4237   00   2     1.62701148E-05   # C11' nu_3 nu_3
