# SUSY Les Houches Accord 2 - MSSM spectrum + Decays
# SPheno v4.0.5be
# W. Porod, Comput. Phys. Commun. 153 (2003) 275-315, hep-ph/0301101;
# W. Porod, F.~Staub, Comput. Phys. Commun. 183 (2012) 2458
#                     arXiv:1104.1573 [hep-ph] 
# in case of problems send email to porod@physik.uni-wuerzburg.de
# Created: 12.05.2022,  14:18
Block SPINFO         # Program information
     1   SPheno      # spectrum calculator
     2   v4.0.5be    # version number
#
Block SPhenoINFO     # SPheno specific information
    1      2         # using 2-loop RGEs
    2      2         # using pole masses for boundary conditions at mZ
Block MODSEL  # Model selection
    1    0    # general MSSM
Block MINPAR  # Input parameters
    3    4.33628793E+01  # tanb at m_Z    
    4   -1.00000000E+00  # Sign(mu)
Block EXTPAR  # non-universal input parameters
    0    2.99741007E+03  # scale for input parameters
    1   -3.33412561E+01  # M_1
    2    1.16227177E+03  # M_2
    3    4.56581037E+03  # M_3
   11   -7.34109774E+03  # A_t
   12   -2.35441827E+00  # A_b
   13   -7.06962626E+01  # A_tau
   23   -7.55241251E+02  # mu
   25    4.25545959E+01  # tan(beta)
   26    4.59691306E+03  # m_A, pole mass
   31    1.00000000E+04  # M_L11
   32    1.00000000E+04  # M_L22
   33    1.00000000E+04  # M_L33
   34    1.00000000E+04  # M_E11
   35    1.00000000E+04  # M_E22
   36    1.00000000E+04  # M_E33
   41    1.00000000E+04  # M_Q11
   42    1.00000000E+04  # M_Q22
   43    2.00671340E+03  # M_Q33
   44    1.00000000E+04  # M_U11
   45    1.00000000E+04  # M_U22
   46    4.37713671E+03  # M_U33
   47    1.00000000E+04  # M_D11
   48    1.00000000E+04  # M_D22
   49    2.57023506E+03  # M_D33
Block SMINPUTS  # SM parameters
         1     1.27908970E+02  # alpha_em^-1(MZ)^MSbar
         2     1.16637870E-05  # G_mu [GeV^-2]
         3     1.18400000E-01  # alpha_s(MZ)^MSbar
         4     9.11876000E+01  # m_Z(pole)
         5     4.18000000E+00  # m_b(m_b), MSbar
         6     1.73200000E+02  # m_t(pole)
         7     1.77700000E+00  # m_tau(pole)
         8     0.00000000E+00  # m_nu_3
        11     5.10998930E-04  # m_e(pole)
        12     0.00000000E+00  # m_nu_1
        13     1.05658372E-01  # m_muon(pole)
        14     0.00000000E+00  # m_nu_2
        21     5.00000000E-03  # m_d(2 GeV), MSbar
        22     2.50000000E-03  # m_u(2 GeV), MSbar
        23     9.50000000E-02  # m_s(2 GeV), MSbar
        24     1.27000000E+00  # m_c(m_c), MSbar
Block gauge Q=  2.99741007E+03  # (SUSY scale)
   1    3.55362975E-01  # g'(Q)^DRbar
   2    6.65198874E-01  # g(Q)^DRbar
   3    1.21977796E+00  # g3(Q)^DRbar
Block Yu Q=  2.99741007E+03  # (SUSY scale)
  1  1     8.38668680E-06   # Y_u(Q)^DRbar
  2  2     4.26043689E-03   # Y_c(Q)^DRbar
  3  3     1.01317913E+00   # Y_t(Q)^DRbar
Block Yd Q=  2.99741007E+03  # (SUSY scale)
  1  1     7.17161790E-04   # Y_d(Q)^DRbar
  2  2     1.36260740E-02   # Y_s(Q)^DRbar
  3  3     7.11199770E-01   # Y_b(Q)^DRbar
Block Ye Q=  2.99741007E+03  # (SUSY scale)
  1  1     1.25149977E-04   # Y_e(Q)^DRbar
  2  2     2.58770460E-02   # Y_mu(Q)^DRbar
  3  3     4.35209343E-01   # Y_tau(Q)^DRbar
Block Au Q=  2.99741007E+03  # (SUSY scale)
  1  1     0.00000000E+00   # A_u(Q)^DRbar
  2  2     0.00000000E+00   # A_c(Q)^DRbar
  3  3    -7.34109875E+03   # A_t(Q)^DRbar
Block Ad Q=  2.99741007E+03  # (SUSY scale)
  1  1     0.00000000E+00   # A_d(Q)^DRbar
  2  2     0.00000000E+00   # A_s(Q)^DRbar
  3  3    -2.35441941E+00   # A_b(Q)^DRbar
Block Ae Q=  2.99741007E+03  # (SUSY scale)
  1  1     0.00000000E+00   # A_e(Q)^DRbar
  2  2     0.00000000E+00   # A_mu(Q)^DRbar
  3  3    -7.06962619E+01   # A_tau(Q)^DRbar
Block MSOFT Q=  2.99741007E+03  # soft SUSY breaking masses at Q
   1   -3.33412561E+01  # M_1
   2    1.16227177E+03  # M_2
   3    4.56581037E+03  # M_3
  21    2.04010375E+07  # M^2_(H,d)
  22   -6.13180390E+05  # M^2_(H,u)
  31    1.00000000E+04  # M_(L,11)
  32    1.00000000E+04  # M_(L,22)
  33    1.00000000E+04  # M_(L,33)
  34    1.00000000E+04  # M_(E,11)
  35    1.00000000E+04  # M_(E,22)
  36    1.00000000E+04  # M_(E,33)
  41    1.00000000E+04  # M_(Q,11)
  42    1.00000000E+04  # M_(Q,22)
  43    2.00671340E+03  # M_(Q,33)
  44    1.00000000E+04  # M_(U,11)
  45    1.00000000E+04  # M_(U,22)
  46    4.37713671E+03  # M_(U,33)
  47    1.00000000E+04  # M_(D,11)
  48    1.00000000E+04  # M_(D,22)
  49    2.57023506E+03  # M_(D,33)
Block MASS  # Mass spectrum
#   PDG code      mass          particle
         6     1.73200000E+02  # m_t(pole)
        23     9.11876000E+01  # m_Z(pole)
        24     8.04299946E+01  # W+
        15     1.77700000E+00  # m_tau(pole)
        25     1.27720999E+02  # h0
        35     4.59449673E+03  # H0
        36     4.59691306E+03  # A0
        37     4.59597714E+03  # H+
   1000001     1.00767324E+04  # ~d_L
   2000001     1.00536371E+04  # ~d_R
   1000002     1.00764099E+04  # ~u_L
   2000002     1.00572415E+04  # ~u_R
   1000003     1.00767440E+04  # ~s_L
   2000003     1.00536526E+04  # ~s_R
   1000004     1.00764202E+04  # ~c_L
   2000004     1.00572431E+04  # ~c_R
   1000005     2.07582845E+03  # ~b_1
   2000005     2.65439318E+03  # ~b_2
   1000006     2.06093559E+03  # ~t_1
   2000006     4.35941189E+03  # ~t_2
   1000011     1.00208060E+04  # ~e_L-
   2000011     1.00083440E+04  # ~e_R-
   1000012     1.00200512E+04  # ~nu_eL
   1000013     1.00208475E+04  # ~mu_L-
   2000013     1.00084183E+04  # ~mu_R-
   1000014     1.00200903E+04  # ~nu_muL
   1000015     1.00279531E+04  # ~tau_1-
   2000015     1.00338903E+04  # ~tau_2-
   1000016     1.00311407E+04  # ~nu_tauL
   1000021     4.97246952E+03  # ~g
   1000022     3.33723923E+01  # ~chi_10
   1000023     7.64022966E+02  # ~chi_20
   1000025     7.72737860E+02  # ~chi_30
   1000035     1.25128537E+03  # ~chi_40
   1000024     7.64988230E+02  # ~chi_1+
   1000037     1.25031032E+03  # ~chi_2+
# Higgs mixing
Block alpha # Effective Higgs mixing angle
          -2.30783633E-02   # alpha
Block Hmix Q=  2.99741007E+03  # Higgs mixing parameters
   1   -7.55241251E+02  # mu
   2    4.25545959E+01  # tan[beta](Q)
   3    2.43226925E+02  # v(Q)
   4    2.11316097E+07  # m^2_A(Q)
Block stopmix # stop mixing matrix
   1  1     9.97480262E-01   # Re[R_st(1,1)]
   1  2     7.09445373E-02   # Re[R_st(1,2)]
   2  1    -7.09445373E-02   # Re[R_st(2,1)]
   2  2     9.97480262E-01   # Re[R_st(2,2)]
Block sbotmix # sbottom mixing matrix
   1  1    -9.99644529E-01   # Re[R_sb(1,1)]
   1  2     2.66611299E-02   # Re[R_sb(1,2)]
   2  1    -2.66611299E-02   # Re[R_sb(2,1)]
   2  2    -9.99644529E-01   # Re[R_sb(2,2)]
Block staumix # stau mixing matrix
   1  1    -5.85424646E-01   # Re[R_sta(1,1)]
   1  2     8.10726825E-01   # Re[R_sta(1,2)]
   2  1    -8.10726825E-01   # Re[R_sta(2,1)]
   2  2    -5.85424646E-01   # Re[R_sta(2,2)]
Block Nmix # neutralino mixing matrix
   1  1    -9.98356129E-01   # Re[N(1,1)]
   1  2    -3.27109219E-04   # Re[N(1,2)]
   1  3     5.71953251E-02   # Re[N(1,3)]
   1  4    -3.69140872E-03   # Re[N(1,4)]
   2  1     3.77314517E-02   # Re[N(2,1)]
   2  2     1.16889873E-01   # Re[N(2,2)]
   2  3     7.04398686E-01   # Re[N(2,3)]
   2  4     6.99096264E-01   # Re[N(2,4)]
   3  1    -4.30006894E-02   # Re[N(3,1)]
   3  2     2.91390614E-02   # Re[N(3,2)]
   3  3    -7.04753785E-01   # Re[N(3,3)]
   3  4     7.07547848E-01   # Re[N(3,4)]
   4  1     3.50955551E-03   # Re[N(4,1)]
   4  2    -9.92717264E-01   # Re[N(4,2)]
   4  3     6.22357462E-02   # Re[N(4,3)]
   4  4     1.03086513E-01   # Re[N(4,4)]
Block Umix # chargino mixing matrix
   1  1    -8.77821954E-02   # Re[U(1,1)]
   1  2    -9.96139692E-01   # Re[U(1,2)]
   2  1     9.96139692E-01   # Re[U(2,1)]
   2  2    -8.77821954E-02   # Re[U(2,2)]
Block Vmix # chargino mixing matrix
   1  1    -1.45638224E-01   # Re[V(1,1)]
   1  2     9.89337914E-01   # Re[V(1,2)]
   2  1     9.89337914E-01   # Re[V(2,1)]
   2  2     1.45638224E-01   # Re[V(2,2)]
DECAY        23     2.49520000E+00   # Z
DECAY        24     2.08500000E+00   # W
DECAY   2000011     5.02852077E+01   # ~e^-_R
#    BR                NDA      ID1      ID2
     9.96753548E-01    2     1000022        11   # BR(~e^-_R -> chi^0_1 e^-)
     1.40723396E-03    2     1000023        11   # BR(~e^-_R -> chi^0_2 e^-)
     1.82722126E-03    2     1000025        11   # BR(~e^-_R -> chi^0_3 e^-)
DECAY   1000011     1.40846338E+02   # ~e^-_L
#    BR                NDA      ID1      ID2
     8.91857566E-02    2     1000022        11   # BR(~e^-_L -> chi^0_1 e^-)
     5.81346285E-03    2     1000023        11   # BR(~e^-_L -> chi^0_2 e^-)
     2.97933611E-01    2     1000035        11   # BR(~e^-_L -> chi^0_4 e^-)
     4.77008767E-03    2    -1000024        12   # BR(~e^-_L -> chi^-_1 nu_e)
     6.02285302E-01    2    -1000037        12   # BR(~e^-_L -> chi^-_2 nu_e)
#    BR                NDA      ID1      ID2       ID3
DECAY   2000013     5.05490875E+01   # ~mu^-_R
#    BR                NDA      ID1      ID2
     9.91566217E-01    2     1000022        13   # BR(~mu^-_R -> chi^0_1 mu^-)
     2.69338112E-03    2     1000023        13   # BR(~mu^-_R -> chi^0_2 mu^-)
     3.11213472E-03    2     1000025        13   # BR(~mu^-_R -> chi^0_3 mu^-)
     2.58679957E-03    2    -1000024        14   # BR(~mu^-_R -> chi^-_1 nu_mu)
DECAY   1000013     1.40978876E+02   # ~mu^-_L
#    BR                NDA      ID1      ID2
     8.91053770E-02    2     1000022        13   # BR(~mu^-_L -> chi^0_1 mu^-)
     6.27240681E-03    2     1000023        13   # BR(~mu^-_L -> chi^0_2 mu^-)
     4.76492123E-04    2     1000025        13   # BR(~mu^-_L -> chi^0_3 mu^-)
     2.97658374E-01    2     1000035        13   # BR(~mu^-_L -> chi^0_4 mu^-)
     4.76562338E-03    2    -1000024        14   # BR(~mu^-_L -> chi^-_1 nu_mu)
     6.01721726E-01    2    -1000037        14   # BR(~mu^-_L -> chi^-_2 nu_mu)
#    BR                NDA      ID1      ID2       ID3
DECAY   1000015     1.43464508E+02   # ~tau^-_1
#    BR                NDA      ID1      ID2
     2.69210544E-01    2     1000022        15   # BR(~tau^-_1 -> chi^0_1 tau^-)
     1.49658579E-01    2     1000023        15   # BR(~tau^-_1 -> chi^0_2 tau^-)
     1.19892087E-01    2     1000025        15   # BR(~tau^-_1 -> chi^0_3 tau^-)
     8.51027131E-02    2     1000035        15   # BR(~tau^-_1 -> chi^0_4 tau^-)
     2.04424924E-01    2    -1000024        16   # BR(~tau^-_1 -> chi^-_1 nu_tau)
     1.71711154E-01    2    -1000037        16   # BR(~tau^-_1 -> chi^-_2 nu_tau)
DECAY   2000015     1.59998673E+02   # ~tau^-_2
#    BR                NDA      ID1      ID2
     1.52689568E-01    2     1000022        15   # BR(~tau^-_2 -> chi^0_1 tau^-)
     1.03085135E-01    2     1000023        15   # BR(~tau^-_2 -> chi^0_2 tau^-)
     1.24980257E-01    2     1000025        15   # BR(~tau^-_2 -> chi^0_3 tau^-)
     1.88054340E-01    2     1000035        15   # BR(~tau^-_2 -> chi^0_4 tau^-)
     5.25634923E-02    2    -1000024        16   # BR(~tau^-_2 -> chi^-_1 nu_tau)
     3.78627207E-01    2    -1000037        16   # BR(~tau^-_2 -> chi^-_2 nu_tau)
#    BR                NDA      ID1      ID2       ID3
DECAY   1000012     1.40851341E+02   # ~nu_e
#    BR                NDA      ID1      ID2
     8.89573660E-02    2     1000022        12   # BR(~nu_e -> chi^0_1 nu_e)
     2.89598503E-03    2     1000023        12   # BR(~nu_e -> chi^0_2 nu_e)
     8.40210918E-04    2     1000025        12   # BR(~nu_e -> chi^0_3 nu_e)
     3.00158178E-01    2     1000035        12   # BR(~nu_e -> chi^0_4 nu_e)
     1.31285284E-02    2     1000024        11   # BR(~nu_e -> chi^+_1 e^-)
     5.94019732E-01    2     1000037        11   # BR(~nu_e -> chi^+_2 e^-)
#    BR                NDA      ID1      ID2       ID3
DECAY   1000014     1.40983832E+02   # ~nu_mu
#    BR                NDA      ID1      ID2
     8.88741142E-02    2     1000022        14   # BR(~nu_mu -> chi^0_1 nu_mu)
     2.89327504E-03    2     1000023        14   # BR(~nu_mu -> chi^0_2 nu_mu)
     8.39424674E-04    2     1000025        14   # BR(~nu_mu -> chi^0_3 nu_mu)
     2.99877345E-01    2     1000035        14   # BR(~nu_mu -> chi^0_4 nu_mu)
     1.40448245E-02    2     1000024        13   # BR(~nu_mu -> chi^+_1 mu^-)
     5.93471016E-01    2     1000037        13   # BR(~nu_mu -> chi^+_2 mu^-)
#    BR                NDA      ID1      ID2       ID3
DECAY   1000016     1.78370829E+02   # ~nu_tau
#    BR                NDA      ID1      ID2
     7.03233372E-02    2     1000022        16   # BR(~nu_tau -> chi^0_1 nu_tau)
     2.28941789E-03    2     1000023        16   # BR(~nu_tau -> chi^0_2 nu_tau)
     6.64228246E-04    2     1000025        16   # BR(~nu_tau -> chi^0_3 nu_tau)
     2.37300210E-01    2     1000035        16   # BR(~nu_tau -> chi^0_4 nu_tau)
     2.18220345E-01    2     1000024        15   # BR(~nu_tau -> chi^+_1 tau^-)
     4.71202462E-01    2     1000037        15   # BR(~nu_tau -> chi^+_2 tau^-)
#    BR                NDA      ID1      ID2       ID3
DECAY   2000001     4.58417303E+02   # ~d_R
#    BR                NDA      ID1      ID2
     1.22035342E-02    2     1000022         1   # BR(~d_R -> chi^0_1 d)
     9.87756273E-01    2     1000021         1   # BR(~d_R -> ~g d)
DECAY   1000001     5.85613677E+02   # ~d_L
#    BR                NDA      ID1      ID2
     2.38491236E-03    2     1000022         1   # BR(~d_L -> chi^0_1 d)
     9.08822446E-04    2     1000023         1   # BR(~d_L -> chi^0_2 d)
     1.01430432E-04    2     1000025         1   # BR(~d_L -> chi^0_3 d)
     7.24455705E-02    2     1000035         1   # BR(~d_L -> chi^0_4 d)
     1.15380960E-03    2    -1000024         2   # BR(~d_L -> chi^-_1 u)
     1.45715489E-01    2    -1000037         2   # BR(~d_L -> chi^-_2 u)
     7.77289965E-01    2     1000021         1   # BR(~d_L -> ~g d)
DECAY   2000003     4.58492114E+02   # ~s_R
#    BR                NDA      ID1      ID2
     1.22018260E-02    2     1000022         3   # BR(~s_R -> chi^0_1 s)
     9.87598597E-01    2     1000021         3   # BR(~s_R -> ~g s)
DECAY   1000003     5.85655316E+02   # ~s_L
#    BR                NDA      ID1      ID2
     2.38495288E-03    2     1000022         3   # BR(~s_L -> chi^0_1 s)
     9.39846745E-04    2     1000023         3   # BR(~s_L -> chi^0_2 s)
     1.32532731E-04    2     1000025         3   # BR(~s_L -> chi^0_3 s)
     7.24407448E-02    2     1000035         3   # BR(~s_L -> chi^0_4 s)
     1.15973684E-03    2    -1000024         4   # BR(~s_L -> chi^-_1 c)
     1.45705439E-01    2    -1000037         4   # BR(~s_L -> chi^-_2 c)
     7.77236747E-01    2     1000021         3   # BR(~s_L -> ~g s)
DECAY   1000005     5.77598030E+01   # ~b_1
#    BR                NDA      ID1      ID2
     6.56055840E-03    2     1000022         5   # BR(~b_1 -> chi^0_1 b)
     1.36259491E-01    2     1000023         5   # BR(~b_1 -> chi^0_2 b)
     1.33093757E-01    2     1000025         5   # BR(~b_1 -> chi^0_3 b)
     6.34194046E-02    2     1000035         5   # BR(~b_1 -> chi^0_4 b)
     5.23452936E-01    2    -1000024         6   # BR(~b_1 -> chi^-_1 t)
     1.37213853E-01    2    -1000037         6   # BR(~b_1 -> chi^-_2 t)
DECAY   2000005     4.73384622E+01   # ~b_2
#    BR                NDA      ID1      ID2
     3.24150216E-02    2     1000022         5   # BR(~b_2 -> chi^0_1 b)
     2.34375169E-01    2     1000023         5   # BR(~b_2 -> chi^0_2 b)
     2.35396857E-01    2     1000025         5   # BR(~b_2 -> chi^0_3 b)
     2.17158660E-03    2     1000035         5   # BR(~b_2 -> chi^0_4 b)
     4.65716441E-01    2    -1000024         6   # BR(~b_2 -> chi^-_1 t)
     4.31363675E-03    2    -1000037         6   # BR(~b_2 -> chi^-_2 t)
     1.15787465E-02    2     1000006       -24   # BR(~b_2 -> ~t_1 W^-)
     5.38451844E-03    2     1000005        23   # BR(~b_2 -> ~b_1 Z)
     8.64802243E-03    2     1000005        25   # BR(~b_2 -> ~b_1 h^0)
DECAY   2000002     4.75635361E+02   # ~u_R
#    BR                NDA      ID1      ID2
     4.70639240E-02    2     1000022         2   # BR(~u_R -> chi^0_1 u)
     9.52782776E-01    2     1000021         2   # BR(~u_R -> ~g u)
DECAY   1000002     5.85600990E+02   # ~u_L
#    BR                NDA      ID1      ID2
     2.40250426E-03    2     1000022         2   # BR(~u_L -> chi^0_1 u)
     1.14392688E-03    2     1000023         2   # BR(~u_L -> chi^0_2 u)
     7.22624766E-02    2     1000035         2   # BR(~u_L -> chi^0_4 u)
     3.17607558E-03    2     1000024         1   # BR(~u_L -> chi^+_1 d)
     1.43730580E-01    2     1000037         1   # BR(~u_L -> chi^+_2 d)
     7.77249897E-01    2     1000021         2   # BR(~u_L -> ~g u)
DECAY   2000004     4.75642675E+02   # ~c_R
#    BR                NDA      ID1      ID2
     4.70632060E-02    2     1000022         4   # BR(~c_R -> chi^0_1 c)
     9.52768407E-01    2     1000021         4   # BR(~c_R -> ~g c)
DECAY   1000004     5.85642445E+02   # ~c_L
#    BR                NDA      ID1      ID2
     2.40233664E-03    2     1000022         4   # BR(~c_L -> chi^0_1 c)
     1.14684632E-03    2     1000023         4   # BR(~c_L -> chi^0_2 c)
     7.22575058E-02    2     1000035         4   # BR(~c_L -> chi^0_4 c)
     3.23802422E-03    2     1000024         3   # BR(~c_L -> chi^+_1 s)
     1.43721032E-01    2     1000037         3   # BR(~c_L -> chi^+_2 s)
     7.77196644E-01    2     1000021         4   # BR(~c_L -> ~g c)
DECAY   1000006     5.72877551E+01   # ~t_1
#    BR                NDA      ID1      ID2
     2.08917191E-03    2     1000022         4   # BR(~t_1 -> chi^0_1 c)
     5.24463708E-03    2     1000022         6   # BR(~t_1 -> chi^0_1 t)
     7.49069886E-04    2     1000023         4   # BR(~t_1 -> chi^0_2 c)
     2.60417343E-01    2     1000023         6   # BR(~t_1 -> chi^0_2 t)
     2.64466629E-01    2     1000025         6   # BR(~t_1 -> chi^0_3 t)
     6.50156554E-02    2     1000035         6   # BR(~t_1 -> chi^0_4 t)
     2.80903455E-01    2     1000024         5   # BR(~t_1 -> chi^+_1 b)
     1.20284564E-01    2     1000037         5   # BR(~t_1 -> chi^+_2 b)
#    BR                NDA      ID1      ID2       ID3
     8.29474642E-04    3     1000022        24         5   # BR(~t_1 -> chi^0_1 W^+ b)
DECAY   2000006     4.68451873E+02   # ~t_2
#    BR                NDA      ID1      ID2
     2.05752502E-02    2     1000022         6   # BR(~t_2 -> chi^0_1 t)
     8.64321989E-02    2     1000023         6   # BR(~t_2 -> chi^0_2 t)
     8.86944562E-02    2     1000025         6   # BR(~t_2 -> chi^0_3 t)
     2.94770913E-03    2     1000035         6   # BR(~t_2 -> chi^0_4 t)
     1.71909444E-01    2     1000024         5   # BR(~t_2 -> chi^+_1 b)
     5.86395039E-03    2     1000037         5   # BR(~t_2 -> chi^+_2 b)
     2.79242856E-01    2     1000005        24   # BR(~t_2 -> ~b_1 W^+)
     1.06887035E-04    2     2000005        24   # BR(~t_2 -> ~b_2 W^+)
     1.40693184E-01    2     1000006        23   # BR(~t_2 -> ~t_1 Z)
     2.03534065E-01    2     1000006        25   # BR(~t_2 -> ~t_1 h^0)
DECAY   1000024     4.98543958E-01   # chi^+_1
#    BR                NDA      ID1      ID2
     9.88805428E-01    2     1000022        24   # BR(chi^+_1 -> chi^0_1 W^+)
#    BR                NDA      ID1      ID2       ID3
     1.11944408E-02    3     1000022        -5         6   # BR(chi^+_1 -> chi^0_1 b_bar t)
DECAY   1000037     8.96497778E+00   # chi^+_2
#    BR                NDA      ID1      ID2
     2.22432165E-03    2     1000022        24   # BR(chi^+_2 -> chi^0_1 W^+)
     2.53582931E-01    2     1000023        24   # BR(chi^+_2 -> chi^0_2 W^+)
     2.62135351E-01    2     1000025        24   # BR(chi^+_2 -> chi^0_3 W^+)
     2.46644812E-01    2     1000024        23   # BR(chi^+_2 -> chi^+_1 Z)
     2.29417298E-01    2     1000024        25   # BR(chi^+_2 -> chi^+_1 h^0)
#    BR                NDA      ID1      ID2       ID3
     9.23002658E-04    3     1000024         6        -6   # BR(chi^+_2 -> chi^+_1 t t_bar)
     2.33794841E-03    3     1000023        -5         6   # BR(chi^+_2 -> chi^0_2 b_bar t)
     2.67287337E-03    3     1000025        -5         6   # BR(chi^+_2 -> chi^0_3 b_bar t)
DECAY   1000022     0.00000000E+00   # chi^0_1
DECAY   1000023     5.08443442E-01   # chi^0_2
#    BR                NDA      ID1      ID2
     5.46952629E-01    2     1000022        23   # BR(chi^0_2 -> chi^0_1 Z)
     4.49569433E-01    2     1000022        25   # BR(chi^0_2 -> chi^0_1 h^0)
#    BR                NDA      ID1      ID2       ID3
     3.46709023E-03    3     1000022         6        -6   # BR(chi^0_2 -> chi^0_1 t t_bar)
DECAY   1000025     4.84774764E-01   # chi^0_3
#    BR                NDA      ID1      ID2
     4.58951198E-01    2     1000022        23   # BR(chi^0_3 -> chi^0_1 Z)
     5.36727465E-01    2     1000022        25   # BR(chi^0_3 -> chi^0_1 h^0)
#    BR                NDA      ID1      ID2       ID3
     4.28989419E-03    3     1000022         6        -6   # BR(chi^0_3 -> chi^0_1 t t_bar)
DECAY   1000035     1.10739795E+01   # chi^0_4
#    BR                NDA      ID1      ID2
     2.03521074E-01    2     1000024       -24   # BR(chi^0_4 -> chi^+_1 W^-)
     2.03521074E-01    2    -1000024        24   # BR(chi^0_4 -> chi^-_1 W^+)
     9.33097183E-04    2     1000022        23   # BR(chi^0_4 -> chi^0_1 Z)
     1.23988730E-02    2     1000023        23   # BR(chi^0_4 -> chi^0_2 Z)
     2.04060414E-01    2     1000025        23   # BR(chi^0_4 -> chi^0_3 Z)
     8.97867635E-04    2     1000022        25   # BR(chi^0_4 -> chi^0_1 h^0)
     1.73753835E-01    2     1000023        25   # BR(chi^0_4 -> chi^0_2 h^0)
     1.96800337E-01    2     1000025        25   # BR(chi^0_4 -> chi^0_3 h^0)
#    BR                NDA      ID1      ID2       ID3
     1.95322382E-04    3     1000023         6        -6   # BR(chi^0_4 -> chi^0_2 t t_bar)
     1.89518656E-04    3     1000025         6        -6   # BR(chi^0_4 -> chi^0_3 t t_bar)
     1.83818703E-03    3     1000024         5        -6   # BR(chi^0_4 -> chi^+_1 b t_bar)
     1.83818703E-03    3    -1000024        -5         6   # BR(chi^0_4 -> chi^-_1 b_bar t)
DECAY   1000021     3.25269186E+02   # ~g
#    BR                NDA      ID1      ID2
     6.45813987E-02    2     1000006        -4   # BR(~g -> ~t_1 c_bar)
     6.45813987E-02    2    -1000006         4   # BR(~g -> ~t^*_1 c)
     1.53256222E-01    2     1000006        -6   # BR(~g -> ~t_1 t_bar)
     1.53256222E-01    2    -1000006         6   # BR(~g -> ~t^*_1 t)
     1.21732703E-02    2     2000006        -6   # BR(~g -> ~t_2 t_bar)
     1.21732703E-02    2    -2000006         6   # BR(~g -> ~t^*_2 t)
     1.54279157E-01    2     1000005        -5   # BR(~g -> ~b_1 b_bar)
     1.54279157E-01    2    -1000005         5   # BR(~g -> ~b^*_1 b)
     1.15663133E-01    2     2000005        -5   # BR(~g -> ~b_2 b_bar)
     1.15663133E-01    2    -2000005         5   # BR(~g -> ~b^*_2 b)
#    BR                NDA      ID1      ID2       ID3
DECAY        25     3.72880837E-03   # Gamma(h0)
     2.67453055E-03   2        22        22   # BR(h0 -> photon photon)
     1.97249111E-03   2        22        23   # BR(h0 -> photon Z)
     4.01043264E-02   2        23        23   # BR(h0 -> Z Z)
     3.14550817E-01   2       -24        24   # BR(h0 -> W W)
     8.01322589E-02   2        21        21   # BR(h0 -> gluon gluon)
     4.33097918E-09   2       -11        11   # BR(h0 -> Electron electron)
     1.92650959E-04   2       -13        13   # BR(h0 -> Muon muon)
     5.55511496E-02   2       -15        15   # BR(h0 -> Tau tau)
     1.22886604E-07   2        -2         2   # BR(h0 -> Up up)
     2.38530747E-02   2        -4         4   # BR(h0 -> Charm charm)
     4.99365850E-07   2        -1         1   # BR(h0 -> Down down)
     1.80608472E-04   2        -3         3   # BR(h0 -> Strange strange)
     4.79472391E-01   2        -5         5   # BR(h0 -> Bottom bottom)
     1.31507500E-03   2   1000022   1000022   # BR(h0 -> neutralino1 neutralino1)
DECAY        35     1.37921505E+02   # Gamma(HH)
     2.31565306E-08   2        22        22   # BR(HH -> photon photon)
     5.87719818E-08   2        22        23   # BR(HH -> photon Z)
     4.18675718E-08   2        23        23   # BR(HH -> Z Z)
     7.57074320E-09   2       -24        24   # BR(HH -> W W)
     3.53710800E-06   2        21        21   # BR(HH -> gluon gluon)
     7.60727851E-09   2       -11        11   # BR(HH -> Electron electron)
     3.38763270E-04   2       -13        13   # BR(HH -> Muon muon)
     9.78454250E-02   2       -15        15   # BR(HH -> Tau tau)
     2.82563475E-14   2        -2         2   # BR(HH -> Up up)
     5.48188507E-09   2        -4         4   # BR(HH -> Charm charm)
     5.16464824E-04   2        -6         6   # BR(HH -> Top top)
     5.55955121E-07   2        -1         1   # BR(HH -> Down down)
     2.01017166E-04   2        -3         3   # BR(HH -> Strange strange)
     5.28847769E-01   2        -5         5   # BR(HH -> Bottom bottom)
     6.20452508E-03   2  -1000024   1000024   # BR(HH -> Chargino1 chargino1)
     1.07641782E-01   2  -1000024   1000037   # BR(HH -> Chargino1 chargino2)
     1.07641782E-01   2  -1000037   1000024   # BR(HH -> Chargino2 chargino1)
     1.91437106E-03   2  -1000037   1000037   # BR(HH -> Chargino2 chargino2)
     2.52166036E-04   2   1000022   1000022   # BR(HH -> neutralino1 neutralino1)
     1.97714327E-02   2   1000022   1000023   # BR(HH -> neutralino1 neutralino2)
     1.71156198E-02   2   1000022   1000025   # BR(HH -> neutralino1 neutralino3)
     3.21496995E-05   2   1000022   1000035   # BR(HH -> neutralino1 neutralino4)
     1.50472276E-03   2   1000023   1000023   # BR(HH -> neutralino2 neutralino2)
     1.95749895E-04   2   1000023   1000025   # BR(HH -> neutralino2 neutralino3)
     5.07000318E-02   2   1000023   1000035   # BR(HH -> neutralino2 neutralino4)
     3.08526725E-04   2   1000025   1000025   # BR(HH -> neutralino3 neutralino3)
     5.77417246E-02   2   1000025   1000035   # BR(HH -> neutralino3 neutralino4)
     9.64748945E-04   2   1000035   1000035   # BR(HH -> neutralino4 neutralino4)
     1.19393607E-07   2        25        25   # BR(HH -> h0 h0)
     2.55962937E-04   2  -1000006   1000006   # BR(HH -> Stop1 stop1)
     2.41241515E-08   2  -1000005   1000005   # BR(HH -> Sbottom1 sbottom1)
     4.41952584E-07   2  -2000005   1000005   # BR(HH -> Sbottom2 sbottom1)
     4.41952584E-07   2  -1000005   2000005   # BR(HH -> Sbottom1 sbottom2)
DECAY        36     1.31199669E+02   # Gamma(A0)
     1.12846853E-09   2        22        22   # BR(A0 -> photon photon)
     1.41350231E-08   2        22        23   # BR(A0 -> photon Z)
     6.97654728E-06   2        21        21   # BR(A0 -> gluon gluon)
     7.37573651E-09   2       -11        11   # BR(A0 -> Electron electron)
     3.28448036E-04   2       -13        13   # BR(A0 -> Muon muon)
     9.48661355E-02   2       -15        15   # BR(A0 -> Tau tau)
     2.94747673E-14   2        -2         2   # BR(A0 -> Up up)
     5.71806794E-09   2        -4         4   # BR(A0 -> Charm charm)
     5.37096148E-04   2        -6         6   # BR(A0 -> Top top)
     5.38995847E-07   2        -1         1   # BR(A0 -> Down down)
     1.94886436E-04   2        -3         3   # BR(A0 -> Strange strange)
     5.12729134E-01   2        -5         5   # BR(A0 -> Bottom bottom)
     6.89380773E-03   2  -1000024   1000024   # BR(A0 -> Chargino1 chargino1)
     1.12891249E-01   2  -1000024   1000037   # BR(A0 -> Chargino1 chargino2)
     1.12891249E-01   2  -1000037   1000024   # BR(A0 -> Chargino2 chargino1)
     2.34842957E-03   2  -1000037   1000037   # BR(A0 -> Chargino2 chargino2)
     2.66921883E-04   2   1000022   1000022   # BR(A0 -> neutralino1 neutralino1)
     1.89177614E-02   2   1000022   1000023   # BR(A0 -> neutralino1 neutralino2)
     1.98618886E-02   2   1000022   1000025   # BR(A0 -> neutralino1 neutralino3)
     4.69849125E-05   2   1000022   1000035   # BR(A0 -> neutralino1 neutralino4)
     1.61613409E-03   2   1000023   1000023   # BR(A0 -> neutralino2 neutralino2)
     2.37994985E-04   2   1000023   1000025   # BR(A0 -> neutralino2 neutralino3)
     5.85109396E-02   2   1000023   1000035   # BR(A0 -> neutralino2 neutralino4)
     3.99578659E-04   2   1000025   1000025   # BR(A0 -> neutralino3 neutralino3)
     5.52678560E-02   2   1000025   1000035   # BR(A0 -> neutralino3 neutralino4)
     1.18486500E-03   2   1000035   1000035   # BR(A0 -> neutralino4 neutralino4)
     1.09341393E-07   2        23        25   # BR(A0 -> Z h0)
     6.89825468E-13   2        23        35   # BR(A0 -> Z HH)
     1.11088446E-37   2        25        25   # BR(A0 -> h0 h0)
     4.92919506E-07   2  -2000005   1000005   # BR(A0 -> Sbottom2 sbottom1)
     4.92919506E-07   2  -1000005   2000005   # BR(A0 -> Sbottom1 sbottom2)
DECAY        37     1.56005481E+02   # Gamma(Hp)
     9.16083141E-09   2       -11        12   # BR(Hp -> Electron nu_e)
     3.91654155E-04   2       -13        14   # BR(Hp -> Muon nu_mu)
     1.10782111E-01   2       -15        16   # BR(Hp -> Tau nu_tau)
     5.71227472E-07   2        -1         2   # BR(Hp -> Down up)
     9.68370884E-06   2        -3         2   # BR(Hp -> Strange up)
     5.91872652E-06   2        -5         2   # BR(Hp -> Bottom up)
     2.71543974E-08   2        -1         4   # BR(Hp -> Down charm)
     2.05789728E-04   2        -3         4   # BR(Hp -> Strange charm)
     8.28833655E-04   2        -5         4   # BR(Hp -> Bottom charm)
     3.86994656E-08   2        -1         6   # BR(Hp -> Down top)
     1.15107468E-06   2        -3         6   # BR(Hp -> Strange top)
     5.58908890E-01   2        -5         6   # BR(Hp -> Bottom top)
     3.33697760E-02   2   1000022   1000024   # BR(Hp -> neutralino1 chargino1)
     6.77428549E-05   2   1000022   1000037   # BR(Hp -> neutralino1 chargino2)
     2.64730533E-04   2   1000023   1000024   # BR(Hp -> neutralino2 chargino1)
     9.97030751E-02   2   1000023   1000037   # BR(Hp -> neutralino2 chargino2)
     1.28980970E-03   2   1000024   1000025   # BR(Hp -> chargino1 neutralino3)
     9.66723826E-02   2   1000025   1000037   # BR(Hp -> neutralino3 chargino2)
     9.74483972E-02   2   1000024   1000035   # BR(Hp -> chargino1 neutralino4)
     1.60492924E-08   2   1000035   1000037   # BR(Hp -> neutralino4 chargino2)
     9.19234254E-08   2        24        25   # BR(Hp -> W h0)
     6.20634131E-14   2        24        35   # BR(Hp -> W HH)
     4.92999638E-05   2  -1000005   1000006   # BR(Hp -> Sbottom1 stop1)
DECAY         6     2.43000000E+00   # top
#    BR                NDA      ID1      ID2
     1.00000000E+00    2           5        24   # BR(t -> b W)
Block HiggsBoundsInputHiggsCouplingsFermions
# ScalarNormEffCoupSq PseudoSNormEffCoupSq NP IP1 IP2 IP2
    9.64862895E-01    0.00000000E+00        3  25   5   5  # h0-b-b eff. coupling^2, normalised to SM
    1.81092877E+03    0.00000000E+00        3  35   5   5  # H0-b-b eff. coupling^2, normalised to SM
    0.00000000E+00    1.81089363E+03        3  36   5   5  # A0-b-b eff. coupling^2, normalised to SM
#
    1.00001940E+00    0.00000000E+00        3  25   6   6  # h0-t-t eff. coupling^2, normalised to SM
    5.32810364E-04    0.00000000E+00        3  35   6   6  # H0-t-t eff. coupling^2, normalised to SM
    0.00000000E+00    5.52213549E-04        3  36   6   6  # A0-t-t eff. coupling^2, normalised to SM
#
    9.64862895E-01    0.00000000E+00        3  25  15  15  # h0-tau-tau eff. coupling^2, normalised to SM
    1.81092877E+03    0.00000000E+00        3  35  15  15  # H0-tau-tau eff. coupling^2, normalised to SM
    0.00000000E+00    1.81089363E+03        3  36  15  15  # A0-tau-tau eff. coupling^2, normalised to SM
#
Block HiggsBoundsInputHiggsCouplingsBosons
    9.99999826E-01        3  25  24  24  # h0-W-W eff. coupling^2, normalised to SM
    1.73503098E-07        3  35  24  24  # H0-W-W eff. coupling^2, normalised to SM
    0.00000000E+00        3  36  24  24  # A0-W-W eff. coupling^2, normalised to SM
#
    9.99999826E-01        3  25  23  23  # h0-Z-Z eff. coupling^2, normalised to SM
    1.73503098E-07        3  35  23  23  # H0-Z-Z eff. coupling^2, normalised to SM
    0.00000000E+00        3  36  23  23  # A0-Z-Z eff. coupling^2, normalised to SM
#
    1.25439042E+00        3  25  21  21  # h0-g-g eff. coupling^2, normalised to SM
    6.21101796E-03        3  35  21  21  # H0-g-g eff. coupling^2, normalised to SM
    1.18086495E-01        3  36  21  21  # A0-g-g eff. coupling^2, normalised to SM
#
    0.00000000E+00        3  25  25  23  # h0-h0-Z eff. coupling^2, normalised to SM
    0.00000000E+00        3  35  25  23  # H0-h0-Z eff. coupling^2, normalised to SM
    1.73503098E-07        3  36  25  23  # A0-h0-Z eff. coupling^2, normalised to SM
    0.00000000E+00        3  35  35  23  # H0-H0-Z eff. coupling^2, normalised to SM
    9.99999826E-01        3  36  35  23  # A0-H0-Z eff. coupling^2, normalised to SM
    0.00000000E+00        3  36  36  23  # A0-A0-Z eff. coupling^2, normalised to SM
#
    0.00000000E+00        4  25  21  21  23  # h0-g-g-Z eff. coupling^2, normalised to SM
    0.00000000E+00        4  35  21  21  23  # H0-g-g-Z eff. coupling^2, normalised to SM
    0.00000000E+00        4  36  21  21  23  # A0-g-g-Z eff. coupling^2, normalised to SM
Block SPhenoLowEnergy  # low energy observables
    1    3.41649635E-04   # BR(b -> s gamma)
    2    1.58923220E-06   # BR(b -> s mu+ mu-)
    3    3.52728858E-05   # BR(b -> s nu nu)
    4    1.37454661E-15   # BR(Bd -> e+ e-)
    5    5.87198188E-11   # BR(Bd -> mu+ mu-)
    6    1.23366118E-08   # BR(Bd -> tau+ tau-)
    7    4.73051919E-14   # BR(Bs -> e+ e-)
    8    2.02090407E-09   # BR(Bs -> mu+ mu-)
    9    4.30309898E-07   # BR(Bs -> tau+ tau-)
   10    9.61463873E-05   # BR(B_u -> tau nu)
   11    9.93155371E-01   # BR(B_u -> tau nu)/BR(B_u -> tau nu)_SM
   12    5.41975960E-01   # |Delta(M_Bd)| [ps^-1] 
   13    1.93530295E+01   # |Delta(M_Bs)| [ps^-1] 
   14    0.00000000E+00   # neutron EDM according to the chiral quark model
   15    0.00000000E+00   # neutron EDM according to the relativistic quark-parton model
   16    2.15754556E-03   # epsilon_K
   17    2.28166096E-15   # Delta(M_K)
   18    2.48118340E-11   # BR(K^0 -> pi^0 nu nu)
   19    8.29337138E-11   # BR(K^+ -> pi^+ nu nu)
   20   -3.78286572E-16   # Delta(g-2)_electron/2
   21   -1.61730899E-11   # Delta(g-2)_muon/2
   22   -4.58668222E-09   # Delta(g-2)_tau/2
   23    0.00000000E+00   # electric dipole moment of the electron
   24    0.00000000E+00   # electric dipole moment of the muon
   25    0.00000000E+00   # electric dipole moment of the tau
   26    0.00000000E+00   # Br(mu -> e gamma)
   27    0.00000000E+00   # Br(tau -> e gamma)
   28    0.00000000E+00   # Br(tau -> mu gamma)
   29    0.00000000E+00   # Br(mu -> 3 e)
   30    0.00000000E+00   # Br(tau -> 3 e)
   31    0.00000000E+00   # Br(tau -> 3 mu)
   39    6.65038790E-05   # Delta(rho_parameter)
   40    0.00000000E+00   # BR(Z -> e mu)
   41    0.00000000E+00   # BR(Z -> e tau)
   42    0.00000000E+00   # BR(Z -> mu tau)
Block FWCOEF Q=  1.60000000E+02  # Wilson coefficients at scale Q
#    id        order  M        value         comment
     0305 4422   00   0    -1.88819110E-01   # C7
     0305 4422   00   2    -2.13611598E-01   # C7
     0305 4322   00   2    -1.93733112E-04   # C7'
     0305 6421   00   0    -9.52278348E-02   # C8
     0305 6421   00   2    -1.10656070E-01   # C8
     0305 6321   00   2    -1.27504965E-04   # C8'
 03051111 4133   00   0     1.61701821E+00   # C9 e+e-
 03051111 4133   00   2     1.61741591E+00   # C9 e+e-
 03051111 4233   00   2     5.79020184E-04   # C9' e+e-
 03051111 4137   00   0    -4.43971031E+00   # C10 e+e-
 03051111 4137   00   2    -4.44020279E+00   # C10 e+e-
 03051111 4237   00   2    -4.34629108E-03   # C10' e+e-
 03051313 4133   00   0     1.61701821E+00   # C9 mu+mu-
 03051313 4133   00   2     1.61741575E+00   # C9 mu+mu-
 03051313 4233   00   2     5.79019946E-04   # C9' mu+mu-
 03051313 4137   00   0    -4.43971031E+00   # C10 mu+mu-
 03051313 4137   00   2    -4.44020296E+00   # C10 mu+mu-
 03051313 4237   00   2    -4.34629145E-03   # C10' mu+mu-
 03051212 4137   00   0     1.50535012E+00   # C11 nu_1 nu_1
 03051212 4137   00   2     1.50545884E+00   # C11 nu_1 nu_1
 03051212 4237   00   2     9.41878097E-04   # C11' nu_1 nu_1
 03051414 4137   00   0     1.50535012E+00   # C11 nu_2 nu_2
 03051414 4137   00   2     1.50545884E+00   # C11 nu_2 nu_2
 03051414 4237   00   2     9.41878116E-04   # C11' nu_2 nu_2
 03051616 4137   00   0     1.50535012E+00   # C11 nu_3 nu_3
 03051616 4137   00   2     1.50545884E+00   # C11 nu_3 nu_3
 03051616 4237   00   2     9.41883413E-04   # C11' nu_3 nu_3
Block IMFWCOEF Q=  1.60000000E+02  # Im(Wilson coefficients) at scale Q
#    id        order  M        value         comment
     0305 4422   00   0     3.85735966E-07   # C7
     0305 4422   00   2    -2.01900563E-05   # C7
     0305 4322   00   2    -2.30750355E-06   # C7'
     0305 6421   00   0     3.30408365E-07   # C8
     0305 6421   00   2     7.95599322E-06   # C8
     0305 6321   00   2    -7.51283198E-07   # C8'
 03051111 4133   00   2     3.87332417E-07   # C9 e+e-
 03051111 4233   00   2     1.07473201E-05   # C9' e+e-
 03051111 4137   00   2     1.79412235E-06   # C10 e+e-
 03051111 4237   00   2    -8.06737029E-05   # C10' e+e-
 03051313 4133   00   2     3.87326889E-07   # C9 mu+mu-
 03051313 4233   00   2     1.07473174E-05   # C9' mu+mu-
 03051313 4137   00   2     1.79412759E-06   # C10 mu+mu-
 03051313 4237   00   2    -8.06737110E-05   # C10' mu+mu-
 03051212 4137   00   2    -3.53333454E-07   # C11 nu_1 nu_1
 03051212 4237   00   2     1.74826755E-05   # C11' nu_1 nu_1
 03051414 4137   00   2    -3.53333219E-07   # C11 nu_2 nu_2
 03051414 4237   00   2     1.74826755E-05   # C11' nu_2 nu_2
 03051616 4137   00   2    -3.53267813E-07   # C11 nu_3 nu_3
 03051616 4237   00   2     1.74826754E-05   # C11' nu_3 nu_3
